   2.00000000	   0.09013878	   0.09013878	   0.09013878	   0.09013878
   3.00000000	   0.08986100	   0.08986100	   0.08986100	   0.08986100
   4.00000000	   0.09151503	   0.09151503	   0.09151503	   0.09151503
   5.00000000	   0.08440972	   0.08440972	   0.08440972	   0.08440972
   6.00000000	   0.08817596	   0.08817596	   0.08817596	   0.08817596
   7.00000000	   0.08760708	   0.08760708	   0.08760708	   0.08760708
   8.00000000	   0.08874120	   0.08874120	   0.08874120	   0.08874120
   9.00000000	   0.08916277	   0.08916277	   0.08916277	   0.08916277
  10.00000000	   0.08774964	   0.08774964	   0.08774964	   0.08774964
  11.00000000	   0.08986100	   0.08986100	   0.08986100	   0.08986100
  12.00000000	   0.09473648	   0.09473648	   0.09473648	   0.09473648
  13.00000000	   0.08602325	   0.08602325	   0.08602325	   0.08602325
  14.00000000	   0.08587782	   0.08587782	   0.08587782	   0.08587782
  15.00000000	   0.08616844	   0.08616844	   0.08616844	   0.08616844
  16.00000000	   0.09192388	   0.09192388	   0.09192388	   0.09192388
  17.00000000	   0.08616844	   0.08616844	   0.08616844	   0.08616844
  18.00000000	   0.08874120	   0.08874120	   0.08874120	   0.08874120
  19.00000000	   0.08689074	   0.08689074	   0.08689074	   0.08689074
  20.00000000	   0.08732125	   0.08732125	   0.08732125	   0.08732125
  21.00000000	   0.08544004	   0.08544004	   0.08544004	   0.08544004
  22.00000000	   0.09433981	   0.09433981	   0.09433981	   0.09433981
  23.00000000	   0.08717798	   0.08717798	   0.08717798	   0.08717798
  24.00000000	   0.09000000	   0.09000000	   0.09000000	   0.09000000
  25.00000000	   0.08986100	   0.08986100	   0.08986100	   0.08986100
  26.00000000	   0.09000000	   0.09000000	   0.09000000	   0.09000000
  27.00000000	   0.09721111	   0.09721111	   0.09721111	   0.09721111
  28.00000000	   0.09260130	   0.09260130	   0.09260130	   0.09260130
  29.00000000	   0.09273618	   0.09273618	   0.09273618	   0.09273618
  30.00000000	   0.09096703	   0.09096703	   0.09096703	   0.09096703
  31.00000000	   0.09151503	   0.09151503	   0.09151503	   0.09151503
  32.00000000	   0.10136567	   0.10136567	   0.10136567	   0.10136567
  33.00000000	   0.09708244	   0.09708244	   0.09708244	   0.09708244
  34.00000000	   0.09899495	   0.09899495	   0.09899495	   0.09899495
  35.00000000	   0.09912114	   0.09912114	   0.09912114	   0.09912114
  36.00000000	   0.09759611	   0.09759611	   0.09759611	   0.09759611
  37.00000000	   0.09721111	   0.09721111	   0.09721111	   0.09721111
  38.00000000	   0.08930286	   0.08930286	   0.08930286	   0.08930286
  39.00000000	   0.09669540	   0.09669540	   0.09669540	   0.09669540
  40.00000000	   0.10136567	   0.10136567	   0.10136567	   0.10136567
  41.00000000	   0.10271319	   0.10271319	   0.10271319	   0.10271319
  42.00000000	   0.09886860	   0.09886860	   0.09886860	   0.09886860
  43.00000000	   0.09617692	   0.09617692	   0.09617692	   0.09617692
  44.00000000	   0.09924717	   0.09924717	   0.09924717	   0.09924717
  45.00000000	   0.09733961	   0.09733961	   0.09733961	   0.09733961
  46.00000000	   0.10874282	   0.10874282	   0.10874282	   0.10874282
  47.00000000	   0.10862780	   0.10862780	   0.10862780	   0.10862780
  48.00000000	   0.09069179	   0.09069179	   0.09069179	   0.09069179
  49.00000000	   0.08860023	   0.08860023	   0.08860023	   0.08860023
  50.00000000	   0.05852350	   0.05852350	   0.05852350	   0.05852350
  51.00000000	   0.06284903	   0.06284903	   0.06284903	   0.06284903
  52.00000000	   0.07262920	   0.07262920	   0.07262920	   0.07262920
  53.00000000	   0.05744563	   0.05744563	   0.05744563	   0.05744563
  54.00000000	   0.05634714	   0.05634714	   0.05634714	   0.05634714
  55.00000000	   0.07053368	   0.07053368	   0.07053368	   0.07053368
  56.00000000	   0.08000000	   0.08000000	   0.08000000	   0.08000000
  57.00000000	   0.07449832	   0.07449832	   0.07449832	   0.07449832
  58.00000000	   0.09949874	   0.09949874	   0.09949874	   0.09949874
  59.00000000	   0.07952987	   0.07952987	   0.07952987	   0.07952987
  60.00000000	   0.07664855	   0.07664855	   0.07664855	   0.07664855
  61.00000000	   0.05809475	   0.05809475	   0.05809475	   0.05809475
  62.00000000	   0.07297260	   0.07297260	   0.07297260	   0.07297260
  63.00000000	   0.05894913	   0.05894913	   0.05894913	   0.05894913
  64.00000000	   0.06041523	   0.06041523	   0.06041523	   0.06041523
  65.00000000	   0.07000000	   0.07000000	   0.07000000	   0.07000000
  66.00000000	   0.08660254	   0.08660254	   0.08660254	   0.08660254
  67.00000000	   0.08746428	   0.08746428	   0.08746428	   0.08746428
  68.00000000	   0.09500000	   0.09500000	   0.09500000	   0.09500000
  69.00000000	   0.09354143	   0.09354143	   0.09354143	   0.09354143
  70.00000000	   0.08231039	   0.08231039	   0.08231039	   0.08231039
  71.00000000	   0.10161201	   0.10161201	   0.10161201	   0.10161201
  72.00000000	   0.09407444	   0.09407444	   0.09407444	   0.09407444
  73.00000000	   0.07794229	   0.07794229	   0.07794229	   0.07794229
  74.00000000	   0.07713624	   0.07713624	   0.07713624	   0.07713624
  75.00000000	   0.07533260	   0.07533260	   0.07533260	   0.07533260
  76.00000000	   0.08396428	   0.08396428	   0.08396428	   0.08396428
  77.00000000	   0.10641898	   0.10641898	   0.10641898	   0.10641898
  78.00000000	   0.08077747	   0.08077747	   0.08077747	   0.08077747
  79.00000000	   0.09500000	   0.09500000	   0.09500000	   0.09500000
  80.00000000	   0.11390786	   0.11390786	   0.11390786	   0.11390786
  81.00000000	   0.12678722	   0.12678722	   0.12678722	   0.12678722
  82.00000000	   0.11357817	   0.11357817	   0.11357817	   0.11357817
  83.00000000	   0.11968709	   0.11968709	   0.11968709	   0.11968709
  84.00000000	   0.10977249	   0.10977249	   0.10977249	   0.10977249
  85.00000000	   0.12539936	   0.12539936	   0.12539936	   0.12539936
  86.00000000	   0.13601471	   0.13601471	   0.13601471	   0.13601471
  87.00000000	   0.14282857	   0.14282857	   0.14282857	   0.14282857
  88.00000000	   0.12816006	   0.12816006	   0.12816006	   0.12816006
  89.00000000	   0.13555442	   0.13555442	   0.13555442	   0.13555442
  90.00000000	   0.12649111	   0.12649111	   0.12649111	   0.12649111
  91.00000000	   0.15141004	   0.15141004	   0.15141004	   0.15141004
  92.00000000	   0.22135944	   0.22135944	   0.22135944	   0.22135944
  93.00000000	   0.29571946	   0.29571946	   0.29571946	   0.29571946
  94.00000000	   0.40973261	   0.40973261	   0.40973261	   0.40973261
  95.00000000	   0.52877853	   0.52877853	   0.52877853	   0.52877853
  96.00000000	   0.65990542	   0.65990542	   0.65990542	   0.65990542
  97.00000000	   0.80561915	   0.80561915	   0.80561915	   0.80561915
  98.00000000	   0.96450851	   0.96450851	   0.96450851	   0.96450851
  99.00000000	   1.26636867	   1.26636867	   1.26636867	   1.26636867
 100.00000000	   1.58157244	   1.58157244	   1.58157244	   1.58157244
 101.00000000	   1.90933324	   1.90933324	   1.90933324	   1.90933324
 102.00000000	   2.20434728	   2.20434728	   2.20434728	   2.20434728
 103.00000000	   2.40955629	   2.40955629	   2.40955629	   2.40955629
 104.00000000	   2.59290523	   2.59290523	   2.59290523	   2.59290523
 105.00000000	   2.79171805	   2.79171805	   2.79171805	   2.79171805
 106.00000000	   3.06752301	   3.06752301	   3.06752301	   3.06752301
 107.00000000	   3.35449326	   3.35449326	   3.35449326	   3.35449326
 108.00000000	   3.36034968	   3.36034968	   3.36034968	   3.36034968
 109.00000000	   3.29822301	   3.29822301	   3.29822301	   3.29822301
 110.00000000	   3.56215174	   3.56215174	   3.56215174	   3.56215174
 111.00000000	   3.87550964	   3.87550964	   3.87550964	   3.87550964
 112.00000000	   3.95843403	   3.95843403	   3.95843403	   3.95843403
 113.00000000	   4.36538085	   4.36538085	   4.36538085	   4.36538085
 114.00000000	   4.54943403	   4.65297644	   4.59958417	   4.59958417
 115.00000000	   4.96451659	   5.05714842	   5.05714842	   6.04280874
 116.00000000	   6.69120374	   6.69120374	   6.69120374	   6.69120374
 117.00000000	   6.99122933	   6.99122933	   6.99122933	   6.99122933
 118.00000000	   7.46444315	   7.46444315	   7.46444315	   7.46444315
 119.00000000	   7.57771537	   7.57771537	   7.57771537	   7.99928753
 120.00000000	   8.08903455	   8.08903455	   8.08903455	   8.08903455
 121.00000000	   7.87370998	   7.87370998	   7.87370998	   7.87370998
 122.00000000	   8.02757407	   8.02842200	   8.01152401	   8.01152401
 123.00000000	   7.97626967	   7.96970534	   7.96970534	   7.14536047
 124.00000000	   6.91058392	   6.87528003	   6.85217777	   6.85217777
 125.00000000	   6.88684083	   6.88684083	   6.88684083	   6.88684083
 126.00000000	   7.08105633	   7.08105633	   7.08105633	   7.08105633
 127.00000000	   7.06622332	   7.06622332	   7.06622332	   7.06622332
 128.00000000	   6.96659796	   6.96659796	   6.96659796	   6.96659796
 129.00000000	   6.94929180	   6.94929180	   6.94929180	   6.94929180
 130.00000000	   7.08369285	   7.08369285	   7.08369285	   7.08369285
 131.00000000	   7.12922755	   7.12922755	   7.12922755	   7.12922755
 132.00000000	   7.51047429	   7.51047429	   7.51047429	   7.51047429
 133.00000000	   7.61377591	   7.61377591	   7.61377591	   7.61377591
 134.00000000	   7.81122368	   7.81122368	   7.81122368	   7.81122368
 135.00000000	   8.43275455	   8.43275455	   8.43275455	   8.43275455
 136.00000000	   8.50876767	   8.50876767	   8.50876767	   8.50876767
 137.00000000	   8.08974514	   8.08974514	   8.08974514	   8.08974514
 138.00000000	   8.20882272	   8.20882272	   8.20882272	   8.20882272
 139.00000000	   8.34738334	   8.20084378	   8.25081891	   8.88253820
 140.00000000	   9.29968423	   9.29968423	   9.29968423	  14.38167156
 141.00000000	  14.49275341	  14.66110416	  14.66110416	  20.17543785
 142.00000000	  20.14183885	  19.96686380	  19.96686380	  20.75462573
 143.00000000	  19.71805788	  19.49050024	  19.49050024	  21.23906730
 144.00000000	  22.72279851	  22.92912316	  22.92912316	  26.57246001
 145.00000000	  27.44718441	  27.44718441	  27.24219085	  27.57563173
 146.00000000	  26.51007520	  28.04712760	  27.31037672	  28.46736642
 147.00000000	  28.25365582	  30.69134544	  28.83948097	  29.33750879
 148.00000000	  29.46211079	  29.46211079	  28.13921054	  28.13921054
 149.00000000	  29.81276958	  29.65227268	  29.64835816	  32.24276170
 150.00000000	  33.18064718	  33.18064718	  33.11021131	  32.56114059
 151.00000000	  31.94366523	  32.36120860	  32.22582140	  32.88189902
 152.00000000	  33.45424948	  35.76815148	  32.53242865	  33.47431539
 153.00000000	  36.10072196	  36.10072196	  36.10072196	  36.10072196
 154.00000000	  36.81940104	  38.62879836	  37.25554946	  37.25554946
 155.00000000	  37.46424878	  39.00897419	  37.81206669	  37.72394427
 156.00000000	  38.00434934	  39.70903882	  38.44383440	  38.85806848
 157.00000000	  38.90713030	  39.09910200	  38.98753960	  36.12162059
 158.00000000	  36.74956998	  36.66682645	  36.74674235	  37.05519622
 159.00000000	  37.95583110	  37.86827047	  38.28948058	  38.17405278
 160.00000000	  39.46659208	  39.14009957	  39.65765154	  39.23763509
 161.00000000	  40.00410091	  38.96034035	  40.86641010	  40.74334532
 162.00000000	  43.64498149	  43.68292521	  45.92233654	  45.77093858
 163.00000000	  43.34156378	  44.01025132	  46.44719936	  46.36234076
 164.00000000	  43.98801039	  45.56287211	  48.25565920	  48.24362450
 165.00000000	  45.77765281	  48.68090471	  51.76756366	  64.06450763
 166.00000000	  73.77669764	  84.76568387	  93.35159585	  60.17638082
 167.00000000	  69.59900846	  74.16995769	  75.82888314	  76.36873716
 168.00000000	  75.98343927	  86.34249651	  86.34249651	  86.17399080
 169.00000000	  85.24542486	  86.61892071	  86.61892071	  86.70360665
 170.00000000	  85.75670194	  92.07726790	  93.00582585	  93.09218053
 171.00000000	  91.82439704	 112.06911951	 111.91604384	 111.91604384
 172.00000000	 108.06205686	 125.29429361	 124.09283677	 124.09283677
 173.00000000	 128.92548252	 150.15180606	 148.65960537	 148.65960537
 174.00000000	 153.59456956	 151.91484464	 147.91457666	 147.91457666
 175.00000000	 150.72811380	 170.75584025	 167.59962644	 167.59962644
 176.00000000	 168.60781117	 185.01727205	 183.29000411	 183.29000411
 177.00000000	 179.63989364	 192.33182818	 189.54591234	 189.54591234
 178.00000000	 196.85547419	 208.24562554	 204.70107849	 196.81490315
 179.00000000	 196.89116112	 196.89116112	 196.89116112	 196.89116112
 180.00000000	 196.90424656	 196.90424656	 205.76010370	 205.76010370
 181.00000000	 205.80184105	 205.80184105	 204.22301150	 204.22301150
 182.00000000	 207.51879636	 207.51879636	 206.40962624	 201.64173320
 183.00000000	 206.83907194	 206.83907194	 207.93138115	 207.93138115
 184.00000000	 207.94050300	 207.94050300	 207.94050300	 207.94050300
 185.00000000	 203.93703606	 203.93703606	 203.93703606	 203.93703606
 186.00000000	 203.89069484	 203.89069484	 204.80991605	 166.52707550
 187.00000000	 166.51308741	 170.23563570	 163.96687983	 163.96687983
 188.00000000	 163.75264041	 163.75264041	 163.75264041	 163.75264041
 189.00000000	 163.81244938	 163.81244938	 172.16580445	 136.95831396
 190.00000000	 137.02295910	 148.73255009	 149.49630455	 133.23708041
 191.00000000	 138.79300992	 138.79300992	 145.07379136	 143.89394435
 192.00000000	 144.01728331	 144.01728331	 144.75470140	 130.16483474
 193.00000000	 130.09966961	 130.09966961	 130.09966961	 130.09966961
 194.00000000	 130.08385965	 130.08385965	 130.08385965	 144.65534535
 195.00000000	 144.86339594	 144.86339594	 144.86339594	 144.86339594
 196.00000000	 144.93450867	 144.93450867	 144.93450867	 144.93450867
 197.00000000	 145.03547647	 145.03547647	 145.03547647	 145.03547647
 198.00000000	 148.29580457	 156.86623419	 156.86623419	 156.86623419
 199.00000000	 156.79559554	 156.79559554	 155.14887266	 155.14887266
 200.00000000	 155.38384566	 155.38384566	 155.38384566	 155.38384566
 201.00000000	 155.30640541	 155.30640541	 155.30640541	 155.30640541
 202.00000000	 155.32148763	 155.32148763	 154.54921839	 158.66217016
 203.00000000	 158.82413800	 158.82413800	 158.82413800	 158.82413800
 204.00000000	 158.89844838	 158.89844838	 158.89844838	 158.89844838
 205.00000000	 158.84501431	 158.84501431	 158.84501431	 158.84501431
 206.00000000	 158.99198833	 158.99198833	 159.81010784	 159.81010784
 207.00000000	 159.84338254	 159.84338254	 159.84338254	 159.84338254
 208.00000000	 159.80910098	 159.80910098	 159.80910098	 159.80910098
 209.00000000	 159.37567500	 159.37567500	 159.37567500	 159.37567500
 210.00000000	 159.30779861	 159.30779861	 159.30779861	 155.17488172
 211.00000000	 154.98647604	 147.65696451	 148.21509679	 148.21509679
 212.00000000	 148.20495885	 148.20495885	 148.20495885	 148.20495885
 213.00000000	 130.83177076	 131.18485200	 130.98526441	 130.98526441
 214.00000000	 130.76225737	 130.76225737	 130.03794048	 125.03414997
 215.00000000	 124.74181820	 124.74181820	 124.03739140	 128.04278622
 216.00000000	 128.02068883	 128.02068883	 127.59981639	 127.59981639
 217.00000000	 127.63958802	 127.63958802	 127.36203806	 127.36203806
 218.00000000	 127.32902383	 127.32902383	 126.87078363	 126.87078363
 219.00000000	 126.87139769	 126.87139769	 126.87139769	 126.87139769
 220.00000000	 126.60483787	 126.60483787	 126.60483787	 126.60483787
 221.00000000	 126.81121237	 126.81121237	 130.49394308	 115.97331529
 222.00000000	 115.89073880	 115.89073880	 119.46549615	 109.78555747
 223.00000000	 109.61503509	 124.78244205	 129.06791079	 124.15595770
 224.00000000	 124.08551458	 133.06268489	 140.20080213	 142.74571449
 225.00000000	 142.65031761	 137.15351081	 148.88942942	 159.99556861
 226.00000000	 159.98006658	 152.01625620	 171.17166514	 193.55092252
 227.00000000	 193.56009703	 180.44458850	 213.35796727	 256.77128222
 228.00000000	 256.65240278	 232.66387103	 293.97106325	 386.01396945
 229.00000000	 385.81647871	 334.68554955	 470.14729516	 731.02745077
 230.00000000	 731.04464567	 577.14982801	1044.64574513	3504.92666397
 231.00000000	3504.92691460	1648.67714953	15493.44484620	1558.50469076
 232.00000000	1558.71738316	2731.46242113	1070.81005279	 703.22203084
 233.00000000	 703.33489494	 841.23636740	 600.99572309	 482.01364800
 234.00000000	 482.18198383	 532.62214914	 439.77224992	 381.75181100
 235.00000000	 381.73268767	 407.55597669	 359.04341359	 324.96195926
 236.00000000	 324.99833226	 340.61311288	 311.10942404	 288.81731365
 237.00000000	 288.77921790	 299.22385686	 279.53857581	 263.88719718
 238.00000000	 263.81165582	 271.29704072	 257.31591290	 245.77210345
 239.00000000	 245.80120843	 251.44366263	 241.05141120	 232.21117391
 240.00000000	 232.22444676	 236.64779950	 228.65172555	 221.68443029
 241.00000000	 221.87775287	 225.45548290	 219.13481897	 213.51436277
 242.00000000	 213.59209656	 216.56380261	 211.45670313	 206.83969064
 243.00000000	 206.78701311	 209.31159591	 205.10852999	 201.25456391
 244.00000000	 201.37299811	 203.56121709	 200.04957646	 196.79122971
 245.00000000	 196.71979849	 198.65030812	 195.67837882	 192.89310071
 246.00000000	 193.01407981	 194.74493867	 192.19961651	 189.79115220
 247.00000000	 189.78501512	 191.35900690	 189.15771094	 187.05851201
 248.00000000	 187.29839385	 188.74856010	 186.83031040	 184.98922233
 249.00000000	 185.28235242	 186.63394008	 184.94718156	 183.31964536
 250.00000000	 183.33503783	 184.61256035	 183.12120538	 181.67714223
 251.00000000	 181.77247193	 182.99512064	 181.66790936	 180.37869437
 252.00000000	 180.52229102	 181.70714173	 180.52092673	 179.36717429
 253.00000000	 179.62820730	 180.79064291	 179.72389393	 178.68662443
 254.00000000	 178.82116063	 179.97955098	 179.01632514	 178.08201858
 255.00000000	 178.35047242	 179.51659573	 178.64260751	 177.79834942
 256.00000000	 178.25964880	 179.44723929	 178.65229786	 177.88663620
 257.00000000	 178.33195717	 179.55574789	 178.83030680	 178.13585442
 258.00000000	 178.81635710	 180.09345177	 179.43125177	 178.80088879
 259.00000000	 179.41685431	 180.76370712	 180.15700952	 179.58337667
 260.00000000	 180.53387654	 181.96659255	 181.41058080	 180.88738806
 261.00000000	 181.83209981	 183.37680046	 182.86662377	 182.39036854
 262.00000000	 183.70570173	 185.39202157	 184.92436951	 184.49079176
 263.00000000	 185.73342944	 187.58645897	 187.15795488	 186.76603301
 264.00000000	 188.51186852	 190.57544919	 190.18277549	 189.82728852
 265.00000000	 191.51259640	 193.83316847	 193.47325123	 193.15133209
 266.00000000	 195.05278903	 197.69713215	 197.36689174	 197.07292011
 267.00000000	 199.12294913	 202.18040966	 201.87850973	 201.61303867
 268.00000000	 203.50574461	 207.09434782	 206.81873328	 206.58002454
 269.00000000	 208.83980544	 213.13100899	 212.87944589	 212.66408197
 270.00000000	 214.31146058	 219.51562383	 219.28624802	 219.09393968
 271.00000000	 221.08818301	 227.55220731	 227.34417439	 227.17223753
 272.00000000	 229.03895571	 237.23155696	 237.04319942	 236.89047807
 273.00000000	 238.84349442	 249.51982018	 249.35067652	 249.21522938
 274.00000000	 250.81709274	 265.17947806	 265.02911147	 264.91121166
 275.00000000	 266.68865731	 286.84544123	 286.71400647	 286.61247769
 276.00000000	 288.24508976	 318.03638645	 317.92416194	 317.83886378
 277.00000000	 319.18230130	 366.46891848	 366.37652917	 366.30778921
 278.00000000	 367.39250926	 450.93733128	 450.86618308	 450.81376740
 279.00000000	 451.70065915	 628.64825312	 628.59974714	 628.56445075
 280.00000000	 629.25663702	1190.69473849	1190.67038488	1190.65284782
 281.00000000	1190.67967532	60453.14232871	60453.14187187	60453.14154639
 282.00000000	60453.04479189	1085.04885388	1085.02466223	1085.00753066
 283.00000000	1085.71588265	 559.05622524	 559.01159231	 558.98045835
 284.00000000	 559.41114011	 393.33887710	 393.27871660	 393.23748384
 285.00000000	 393.53562013	 317.83637236	 317.76550568	 317.71788832
 286.00000000	 318.66811378	 278.20200209	 278.12472958	 278.07393373
 287.00000000	 278.89038881	 255.17527377	 255.09479877	 255.04282765
 288.00000000	 255.88227371	 241.06590948	 240.98453235	 240.93322013
 289.00000000	 241.74496035	 232.07302653	 231.99205080	 231.94127344
 290.00000000	 232.61239064	 226.04495331	 225.96535334	 225.91592774
 291.00000000	 226.28675587	 221.71316467	 221.63529439	 221.58781261
 292.00000000	 222.17087142	 218.89416652	 218.81839300	 218.77279358
 293.00000000	 219.16363867	 216.77484875	 216.70136637	 216.65766751
 294.00000000	 216.67426402	 214.90848130	 214.83749128	 214.79588348
 295.00000000	 215.17972798	 213.86169483	 213.79299731	 213.75296293
 296.00000000	 213.82958985	 212.82672447	 212.76051413	 212.72269094
 297.00000000	 213.03222485	 212.27701878	 212.21301727	 212.17682478
 298.00000000	 212.20499451	 211.61903112	 211.55697195	 211.52267298
 299.00000000	 211.93472819	 211.48812595	 211.42821905	 211.39502263
 300.00000000	 211.39383102	 211.05144374	 210.99348450	 210.96183756
 301.00000000	 210.74256585	 210.47923484	 210.42325183	 210.39295291
 302.00000000	 210.54620076	 210.34372895	 210.28946691	 210.26042300
 303.00000000	 210.41487082	 210.26292984	 210.21033928	 210.18224950
 304.00000000	 210.15046367	 210.04021419	 209.98935121	 209.96202062
 305.00000000	 209.65545277	 209.57573772	 209.52636724	 209.50035155
 306.00000000	 209.20198349	 209.14993411	 209.10201407	 209.07692480
 307.00000000	 209.01250386	 208.97912392	 208.93270028	 208.90848751
 308.00000000	 208.67521790	 208.65897337	 208.61387520	 208.59024721
 309.00000000	 208.34365308	 208.34073210	 208.29692407	 208.27405665
 310.00000000	 207.98971935	 207.99821859	 207.95577138	 207.93345225
 311.00000000	 207.83396624	 207.85273202	 207.81153919	 207.79003558
 312.00000000	 207.77544779	 207.80031810	 207.76027329	 207.73929580
 313.00000000	 207.69616460	 207.72532853	 207.68635717	 207.66631459
 314.00000000	 207.80937959	 207.84466504	 207.80684554	 207.78738569
 315.00000000	 207.78481799	 207.82332696	 207.78646587	 207.76781937
 316.00000000	 207.93164303	 207.97309668	 207.93731406	 207.91915965
 317.00000000	 208.01325647	 208.05709118	 208.02220379	 208.00434787
 318.00000000	 208.01485275	 208.05978591	 208.02583523	 208.00864451
 319.00000000	 207.94817272	 207.99393214	 207.96085393	 207.94422527
 320.00000000	 207.85190365	 207.89905173	 207.86679771	 207.85058121
 321.00000000	 207.69097251	 207.73774274	 207.70619217	 207.69040938
 322.00000000	 207.67391696	 207.72028461	 207.68945563	 207.67389696
 323.00000000	 207.64431663	 207.68963476	 207.65950700	 207.64435331
 324.00000000	 207.70845611	 207.75282734	 207.72335176	 207.70842086
 325.00000000	 207.59697762	 207.64075220	 207.61193989	 207.59726419
 326.00000000	 207.60611525	 207.64887153	 207.62074745	 207.60613469
 327.00000000	 207.80476934	 207.84720631	 207.81971077	 207.80543522
 328.00000000	 207.89136447	 207.93316903	 207.90633679	 207.89245644
 329.00000000	 208.18188479	 208.22257661	 208.19643251	 208.18284134
 330.00000000	 208.48007016	 208.52098021	 208.49547688	 208.48225392
 331.00000000	 208.46021131	 208.50074351	 208.47591383	 208.46318004
 332.00000000	 208.70748553	 208.74860632	 208.72438061	 208.71200363
 333.00000000	 208.80750769	 208.84833820	 208.82469897	 208.81273762
 334.00000000	 209.14487836	 209.18564404	 209.16259471	 209.15113790
 335.00000000	 209.44497244	 209.48514884	 209.46265427	 209.45154724
 336.00000000	 209.78701464	 209.82685079	 209.80486784	 209.79401747
 337.00000000	 210.00550692	 210.04472797	 210.02323861	 210.01265539
 338.00000000	 210.30783362	 210.34627432	 210.32525701	 210.31472942
 339.00000000	 210.37860058	 210.41549705	 210.39484774	 210.38460220
 340.00000000	 210.88140585	 210.91727073	 210.89704051	 210.88694866
 341.00000000	 210.72464583	 210.75966056	 210.73984345	 210.72992786
 342.00000000	 210.91051062	 210.94450805	 210.92509119	 210.91527490
 343.00000000	 210.73951464	 210.77331162	 210.75432151	 210.74467573
 344.00000000	 210.92605426	 210.95920584	 210.94066679	 210.93118183
 345.00000000	 210.84626521	 210.87900768	 210.86083564	 210.85151995
 346.00000000	 210.80210222	 210.83453747	 210.81674631	 210.80769363
 347.00000000	 210.88682538	 210.91884514	 210.90146792	 210.89250098
 348.00000000	 210.83648930	 210.86791197	 210.85088671	 210.84221960
 349.00000000	 210.64679983	 210.67765685	 210.66101079	 210.65252777
 350.00000000	 210.61719865	 210.64783278	 210.63152488	 210.62333509
 351.00000000	 210.75925009	 210.78951596	 211.26746045	 211.28166228
 352.00000000	 211.38768875	 211.38768875	 211.38768875	 211.39391747
 353.00000000	 211.51539173	 211.51539173	 211.51539173	 211.51539173
 354.00000000	 211.60048468	 211.60048468	 211.60048468	 211.60048468
 355.00000000	 211.99354916	 211.99354916	 211.99354916	 211.99354916
 356.00000000	 212.48952207	 212.48952207	 212.48952207	 212.47975883
 357.00000000	 212.80402071	 212.80402071	 212.80402071	 212.80402071
 358.00000000	 213.25700971	 213.25700971	 213.25700971	 213.25700971
 359.00000000	 213.22333455	 213.22333455	 213.22333455	 213.22333455
 360.00000000	 213.40191875	 213.40191875	 213.40191875	 213.40191875
 361.00000000	 212.84324141	 212.84324141	 212.84324141	 212.84324141
 362.00000000	 212.89434628	 212.89434628	 212.89434628	 212.89434628
 363.00000000	 212.93216607	 212.93216607	 212.93216607	 212.92350567
 364.00000000	 212.74334345	 212.74334345	 212.72790466	 212.71947972
 365.00000000	 212.76474981	 212.75529567	 212.75529567	 212.75416337
 366.00000000	 212.64809217	 212.64809217	 212.64809217	 212.64518778
 367.00000000	 212.43606011	 212.43606011	 212.43411807	 212.42949122
 368.00000000	 212.21089988	 212.15187761	 212.15187761	 212.14530052
 369.00000000	 212.17601139	 212.13470489	 212.13470489	 212.12586440
 370.00000000	 212.21133155	 212.23235671	 212.23235671	 212.22177698
 371.00000000	 212.38798309	 212.39889085	 212.39889085	 212.38634603
 372.00000000	 212.23631623	 212.23631623	 212.23631623	 212.22146066
 373.00000000	 212.11213033	 212.11213033	 212.11213033	 212.09457283
 374.00000000	 212.35173243	 212.35173243	 212.35173243	 212.33142278
 375.00000000	 212.80526520	 212.80526520	 212.83218687	 212.80911964
 376.00000000	 213.19259178	 213.19259178	 213.19259178	 213.18663125
 377.00000000	 213.98012549	 213.96601074	 213.96601074	 213.96714225
 378.00000000	 213.71485297	 213.98137924	 213.98137924	 213.98137924
 379.00000000	 329.33103952	 234.32552112	 234.32552112	 234.32552112
 380.00000000	 217.74484430	 217.74484430	 217.74484430	 217.74484430
 381.00000000	 224.65106727	 224.65106727	 224.65106727	 224.65106727
 382.00000000	 213.51114360	 213.87785304	 213.55389251	 213.55389251
 383.00000000	 214.95752357	 215.07344688	 214.97340103	 214.97090332
 384.00000000	 215.50109756	 215.51148631	 215.51148631	 215.52090693
 385.00000000	 215.37559468	 215.38621078	 215.38621078	 215.40023309
 386.00000000	 215.04847832	 215.04847832	 215.04847832	 215.06727955
 387.00000000	 215.39309694	 215.41814437	 215.41814437	 215.36631009
 388.00000000	 215.05691951	 215.11606294	 215.11606294	 215.05649922
 389.00000000	 212.49727123	 214.02269356	 212.72179639	 212.72179639
 390.00000000	 235.86173965	 374.98863576	 237.24767678	 237.24767678
 391.00000000	 229.55944500	 229.55944500	 229.55944500	 229.55944500
 392.00000000	 226.93593026	 226.93593026	 226.93593026	 226.93593026
 393.00000000	 224.91767146	 228.68228551	 228.68228551	 228.68228551
 394.00000000	 225.44434469	 232.86314529	 289.91988870	 262.33364635
 395.00000000	 231.44219986	 388.15361218	 209.73755925	 209.05878649
 396.00000000	 524.48607430	 211.26675198	 213.45290420	 212.51815113
 397.00000000	 209.65626648	 272.67569881	 272.67569881	 272.67569881
 398.00000000	 230.85364332	 222.90867111	 221.80544589	 221.27876085
 399.00000000	 220.41518909	 219.83122883	 219.58640579	 219.58640579
 400.00000000	 219.00858796	 218.89717915	 218.89717915	 218.89717915
 401.00000000	 218.90162108	 218.68829389	 218.68829389	 218.68829389
 402.00000000	 218.97989898	 219.02965551	 219.02965551	 219.02965551
 403.00000000	 219.49562689	 219.54354801	 219.54354801	 219.57605913
 404.00000000	 220.13737173	 220.09083193	 220.09083193	 220.09083193
 405.00000000	 220.81425724	 220.81425724	 220.81425724	 220.81425724
 406.00000000	 222.05559389	 222.16577745	 222.16577745	 222.16577745
 407.00000000	 223.42505066	 223.57593935	 223.72164070	 223.80349448
 408.00000000	 226.88308763	 226.07625156	 226.61958094	 226.41774415
 409.00000000	 241.58340312	 241.58340312	 241.58340312	 241.58333907
 410.00000000	 222.55453869	 220.80128809	 217.76057333	 217.76057333
 411.00000000	 225.78556534	 225.04856620	 224.15833982	 224.15833982
 412.00000000	 228.29660076	 228.24853948	 228.24853948	 228.24853948
 413.00000000	 230.85941859	 230.83689260	 230.83689260	 230.83561603
 414.00000000	 233.07056892	 233.05672248	 233.05672248	 233.03748309
 415.00000000	 235.67022608	 235.65950826	 235.65950826	 235.64382038
 416.00000000	 237.70669341	 237.75745016	 237.75745016	 237.76998823
 417.00000000	 240.02953290	 240.09259115	 240.09259115	 240.10155625
 418.00000000	 241.97220891	 242.07530818	 242.11001932	 242.10573085
 419.00000000	 243.25844744	 243.57823920	 243.76513225	 243.78108182
 420.00000000	 244.90980224	 245.31532104	 245.54152184	 245.54152184
 421.00000000	 285.02194738	 250.92408127	 246.75827122	 246.75827122
 422.00000000	 253.73571437	 257.83653605	 293.16380268	 293.16380268
 423.00000000	 252.75266688	 252.75266688	 252.75266688	 252.75266688
 424.00000000	 253.35486154	 253.41579548	 253.41579548	 253.41579548
 425.00000000	 254.57448887	 254.60788630	 254.60788630	 254.60788630
 426.00000000	 255.81087376	 255.82576021	 255.82576021	 255.82576021
 427.00000000	 257.51337991	 257.51337991	 257.51337991	 257.51337991
 428.00000000	 258.78242814	 258.78242814	 258.78242814	 258.78242814
 429.00000000	 259.60546833	 259.60546833	 259.60546833	 259.60546833
 430.00000000	 260.19226926	 260.19226926	 260.19226926	 260.19226926
 431.00000000	 260.67398452	 260.67398452	 260.67398452	 260.67398452
 432.00000000	 260.54699688	 260.61956152	 260.61956152	 260.61956152
 433.00000000	 260.31170777	 260.43214664	 260.42948370	 260.42948370
 434.00000000	 259.92879137	 259.92879137	 259.92616516	 259.99157752
 435.00000000	 259.47680220	 259.57791626	 259.57791626	 259.57791626
 436.00000000	 256.61827059	 256.61827059	 256.61827059	 256.61827059
 437.00000000	 256.89718568	 257.08089579	 257.08089579	 257.07922467
 438.00000000	 255.73184967	 255.73433098	 255.73433098	 255.73433098
 439.00000000	 253.60486836	 253.59891028	 253.59891028	 253.60373309
 440.00000000	 250.79088793	 250.89320656	 250.89616001	 250.90003195
 441.00000000	 247.90666386	 247.90666386	 247.90666386	 247.90666386
 442.00000000	 244.99758171	 244.99758171	 245.00361192	 244.98060850
 443.00000000	 242.73521384	 242.73521384	 242.73521384	 242.73521384
 444.00000000	 241.30126780	 241.30126780	 241.30126780	 241.30126780
 445.00000000	 240.68713674	 240.68713674	 240.68713674	 240.68713674
 446.00000000	 240.13737913	 240.13737913	 240.13737913	 240.13737913
 447.00000000	 239.47773624	 239.47773624	 239.47773624	 239.46920344
 448.00000000	 239.70101990	 239.70101990	 239.70101990	 239.70101990
 449.00000000	 239.94437683	 239.94437683	 239.94437683	 239.94437683
 450.00000000	 240.59416438	 240.59416438	 240.59416438	 240.59416438
 451.00000000	 241.06457151	 241.06457151	 241.06457151	 241.06457151
 452.00000000	 241.50612715	 241.50612715	 241.50612715	 241.50612715
 453.00000000	 241.97302654	 241.97302654	 241.97302654	 241.97302654
 454.00000000	 241.98879051	 241.98879051	 241.98879051	 241.98879051
 455.00000000	 242.00501836	 242.00501836	 242.00501836	 242.00501836
 456.00000000	 241.63893466	 241.71933735	 241.74843892	 241.74843892
 457.00000000	 241.54651198	 241.50878108	 241.50878108	 241.50878108
 458.00000000	 241.05759932	 241.05759932	 241.05686646	 241.05686646
 459.00000000	 240.85262892	 240.92763691	 240.92763691	 240.92717471
 460.00000000	 240.74124669	 240.74124669	 240.74124669	 240.74124669
 461.00000000	 240.53650573	 240.53650573	 240.53650573	 240.52948753
 462.00000000	 240.37716457	 240.37716457	 240.37716457	 240.37716457
 463.00000000	 240.29231711	 240.29231711	 240.29231711	 240.28534426
 464.00000000	 239.91550780	 239.91550780	 239.91550780	 239.91550780
 465.00000000	 239.86007015	 239.86007015	 239.86007015	 239.86007015
 466.00000000	 239.72384284	 239.72384284	 239.72384284	 239.72384284
 467.00000000	 239.56280908	 239.56280908	 239.56280908	 239.56280908
 468.00000000	 239.37958729	 239.35447244	 239.35447244	 239.35447244
 469.00000000	 239.31323655	 239.31323655	 239.31323655	 239.31323655
 470.00000000	 238.83912071	 238.83912071	 238.83912071	 238.83912071
 471.00000000	 238.24533555	 238.24533555	 238.24533555	 238.24533555
 472.00000000	 237.92886992	 237.92886992	 237.92886992	 237.91426449
 473.00000000	 237.43966827	 237.43966827	 237.43966827	 237.42703016
 474.00000000	 237.10560142	 237.10826185	 237.10826185	 237.09720349
 475.00000000	 236.86744250	 236.86744250	 236.86744250	 236.85934025
 476.00000000	 236.47744340	 236.47744340	 236.47744340	 236.48778055
 477.00000000	 236.15135144	 236.15135144	 236.15135144	 236.15135144
 478.00000000	 235.93847312	 235.93847312	 235.93847312	 235.93847312
 479.00000000	 235.59328994	 235.59328994	 235.59328994	 235.59328994
 480.00000000	 235.36742825	 235.36742825	 235.36742825	 235.36742825
 481.00000000	 235.15937118	 235.15937118	 235.15937118	 235.15998744
 482.00000000	 235.04634347	 235.06323086	 235.06323086	 235.07237876
 483.00000000	 234.82664593	 234.69209864	 234.72867742	 234.72867742
 484.00000000	 234.55904895	 234.05040823	 234.24083736	 234.14508232
 485.00000000	 266.31334259	 241.63337040	 241.63424272	 241.63424272
 486.00000000	 237.32558827	 237.39482011	 237.39482011	 237.39482011
 487.00000000	 236.89681106	 237.15788934	 237.37371219	 237.37371219
 488.00000000	 236.92186347	 236.85598547	 236.85598547	 236.85598547
 489.00000000	 236.61872941	 236.68222636	 236.68222636	 236.68222636
 490.00000000	 236.50352150	 236.49434901	 236.49434901	 236.49434901
 491.00000000	 236.67295095	 236.66931036	 236.66225230	 236.66225230
 492.00000000	 236.50950812	 236.51013786	 236.51013786	 236.51013786
 493.00000000	 236.44234717	 236.44604019	 236.44920050	 236.44920050
 494.00000000	 236.58879450	 236.57773864	 236.57773864	 236.55272643
 495.00000000	 236.70685075	 236.68808956	 236.68808956	 236.68808956
 496.00000000	 236.97441946	 236.97757018	 236.97757018	 236.96828391
 497.00000000	 237.21911779	 237.22372570	 237.20980599	 237.20980599
 498.00000000	 237.46825120	 237.43724897	 237.43985381	 237.43985381
 499.00000000	 237.30393510	 237.27453891	 237.26352382	 237.24631106
 500.00000000	 237.23847573	 237.23847573	 237.23847573	 237.23847573
 501.00000000	 237.37668590	 237.38257062	 237.38257062	 237.38257062
 502.00000000	 237.54928500	 237.52792207	 237.52792207	 237.52792207
 503.00000000	 237.53936747	 237.50311401	 237.50311401	 237.52533726
 504.00000000	 237.49111650	 237.47049764	 237.48439489	 237.48439489
 505.00000000	 237.40972894	 237.43351899	 237.43351899	 237.43351899
 506.00000000	 237.66565948	 237.66565948	 237.66565948	 237.66565948
 507.00000000	 237.69536221	 237.69536221	 237.69536221	 237.69536221
 508.00000000	 237.72402530	 237.72402530	 237.72402530	 237.72402530
 509.00000000	 237.75145086	 237.75145086	 237.75145086	 237.75145086
 510.00000000	 237.68473700	 237.67668198	 237.67668198	 237.67668198
 511.00000000	 237.92085405	 237.91553468	 237.90910203	 237.90910203
 512.00000000	 237.99693971	 237.99693971	 237.99693971	 237.99693971
 513.00000000	 237.98843187	 237.98302761	 237.99071405	 237.99071405
 514.00000000	 238.04378016	 238.04378016	 238.04378016	 238.04378016
 515.00000000	 238.20250446	 238.20250446	 238.20250446	 238.20250446
 516.00000000	 238.31620288	 238.31620288	 238.31620288	 238.31620288
 517.00000000	 238.46248223	 238.46248223	 238.46248223	 238.46248223
 518.00000000	 238.72680357	 238.72680357	 238.72680357	 238.72680357
 519.00000000	 238.66975490	 238.66975490	 238.66975490	 238.66975490
 520.00000000	 238.93455405	 238.93455405	 238.93455405	 238.93455405
 521.00000000	 239.14471722	 239.14471722	 239.14471722	 239.14471722
 522.00000000	 239.09698521	 239.09698521	 239.09698521	 239.09698521
 523.00000000	 239.09994622	 239.09994622	 239.09994622	 239.09994622
 524.00000000	 239.37275691	 239.37275691	 239.37275691	 239.37275691
 525.00000000	 239.27759518	 239.27759518	 239.27759518	 239.27759518
 526.00000000	 239.31533346	 239.31533346	 239.31533346	 239.31533346
 527.00000000	 239.13445055	 239.13445055	 239.13445055	 239.13445055
 528.00000000	 239.06054327	 239.06054327	 239.06054327	 239.06054327
 529.00000000	 239.04123285	 239.04796805	 239.05871306	 239.05871306
 530.00000000	 239.18436054	 239.18436054	 239.18436054	 239.18436054
 531.00000000	 239.30899520	 239.30899520	 239.30899520	 239.30899520
 532.00000000	 239.23764182	 239.22945752	 239.22945752	 239.22945752
 533.00000000	 239.13024677	 239.12346713	 239.12346713	 239.12346713
 534.00000000	 238.98302078	 238.98302078	 238.98302078	 238.98302078
 535.00000000	 238.75651159	 238.75651159	 238.75651159	 238.75651159
 536.00000000	 238.61261963	 238.61261963	 238.61261963	 238.61261963
 537.00000000	 238.65613766	 238.65613766	 238.67548937	 238.67548937
 538.00000000	 238.63279437	 238.63279437	 238.63279437	 238.60911727
 539.00000000	 238.61708429	 238.61708429	 238.61708429	 238.61708429
 540.00000000	 238.55622970	 238.55622970	 238.55622970	 238.55622970
 541.00000000	 238.55732645	 238.55732645	 238.55732645	 238.55732645
 542.00000000	 238.67489613	 238.67489613	 238.67489613	 238.67489613
 543.00000000	 238.61159290	 238.61159290	 238.58432864	 238.58432864
 544.00000000	 238.75222088	 238.75222088	 238.75222088	 238.75222088
 545.00000000	 239.01272053	 238.94296889	 238.94296889	 238.94296889
 546.00000000	 238.98376804	 238.98376804	 238.98376804	 238.98376804
 547.00000000	 239.08529072	 239.08529072	 239.08529072	 239.08529072
 548.00000000	 239.10518801	 239.10518801	 239.10518801	 239.10518801
 549.00000000	 239.05443534	 239.05443534	 239.05443534	 239.05443534
 550.00000000	 239.01813263	 239.01813263	 239.01813263	 239.01813263
 551.00000000	 238.81744265	 238.81744265	 238.81744265	 238.81744265
 552.00000000	 238.64559255	 238.64559255	 238.61557157	 238.61557157
 553.00000000	 238.42533622	 238.42533622	 238.40118177	 238.42009396
 554.00000000	 238.23420072	 238.23420072	 238.25388354	 238.25388354
 555.00000000	 238.30049001	 238.30049001	 238.30049001	 238.30049001
 556.00000000	 238.17202635	 238.17202635	 238.17202635	 238.17202635
 557.00000000	 238.19638877	 238.19638877	 238.17730042	 238.17730042
 558.00000000	 238.16014702	 238.16014702	 238.17885942	 238.17885942
 559.00000000	 238.29591369	 238.29591369	 238.29591369	 238.29591369
 560.00000000	 238.47387360	 238.47387360	 238.47387360	 238.47387360
 561.00000000	 238.43379448	 238.43379448	 238.43379448	 238.43379448
 562.00000000	 238.63839449	 238.63839449	 238.63839449	 238.63839449
 563.00000000	 238.72324553	 238.72324553	 238.72324553	 238.72324553
 564.00000000	 238.75994397	 238.75994397	 238.75994397	 238.75994397
 565.00000000	 238.79911391	 238.79911391	 238.77556930	 238.77556930
 566.00000000	 238.74785053	 238.74785053	 238.77072589	 238.77072589
 567.00000000	 238.83495762	 238.83495762	 238.83495762	 238.83495762
 568.00000000	 238.84002048	 238.87331922	 238.92337852	 238.92337852
 569.00000000	 238.95575321	 238.95575321	 238.95575321	 238.95575321
 570.00000000	 238.86467117	 238.86467117	 238.86467117	 238.86467117
 571.00000000	 238.96246413	 238.96246413	 238.96246413	 238.96246413
 572.00000000	 239.02509970	 239.02509970	 239.02509970	 239.00413906
 573.00000000	 238.94231230	 238.92613611	 238.92613611	 238.91208794
 574.00000000	 238.88537829	 238.87423743	 238.89596768	 238.89596768
 575.00000000	 238.51819481	 238.50752951	 238.48506295	 238.48506295
 576.00000000	 238.24038980	 238.22501982	 238.22501982	 238.22501982
 577.00000000	 238.06066982	 238.05082791	 238.05410835	 238.05410835
 578.00000000	 237.91173677	 237.90560153	 237.90453312	 237.90453312
 579.00000000	 237.67979733	 237.68367140	 237.68367140	 237.68367140
 580.00000000	 237.68640377	 237.68640377	 237.68640377	 237.68640377
 581.00000000	 237.54675313	 237.54675313	 237.54675313	 237.54675313
 582.00000000	 237.36798100	 237.36798100	 237.36798100	 237.36798100
 583.00000000	 237.51186945	 237.51186945	 237.51186945	 237.51186945
 584.00000000	 237.56837623	 237.56180299	 237.56196512	 237.56495347
 585.00000000	 237.46218316	 237.46218316	 237.46218316	 237.46218316
 586.00000000	 238.13163787	 238.13163787	 238.13163787	 238.13163787
 587.00000000	 238.73130930	 238.72495954	 238.72495954	 238.71914736
 588.00000000	 238.97714475	 238.98429627	 238.99067394	 238.99186894
 589.00000000	 239.36590525	 239.36950678	 239.36950678	 239.36956410
 590.00000000	 239.98588953	 239.98588953	 239.98588953	 239.98588953
 591.00000000	 240.27795230	 240.27795230	 240.27795230	 240.27795230
 592.00000000	 240.61863966	 240.61863966	 240.61863966	 240.61863966
 593.00000000	 241.05413890	 241.05413890	 241.05413890	 241.05413890
 594.00000000	 241.96019207	 241.96019207	 241.96019207	 241.96019207
 595.00000000	 242.52993458	 242.52993458	 242.52993458	 242.52993458
 596.00000000	 243.28664096	 243.28664096	 243.28664096	 243.28664096
 597.00000000	 244.12960363	 244.12960363	 244.13940691	 244.13940691
 598.00000000	 245.43217392	 245.43217392	 245.43217392	 245.43217392
 599.00000000	 246.67072573	 246.67072573	 246.65375789	 246.65375789
 600.00000000	 247.39945877	 247.14263579	 247.13316130	 247.13316130
 601.00000000	 247.93454752	 247.82480854	 247.86233326	 247.86233326
 602.00000000	 248.29459953	 248.21994660	 248.21994660	 248.21994660
 603.00000000	 248.29426880	 248.23767337	 248.23767337	 248.23767337
 604.00000000	 247.82003714	 247.73555786	 247.73555786	 247.73389592
 605.00000000	 247.24635348	 247.24667997	 247.25384448	 247.25384448
 606.00000000	 246.91263709	 246.93023507	 246.93824427	 246.93824427
 607.00000000	 246.07180012	 246.07922808	 246.07047928	 246.07047928
 608.00000000	 245.99781915	 245.99781915	 245.99781915	 245.99572154
 609.00000000	 245.48818584	 245.48818584	 245.48818584	 245.48818584
 610.00000000	 245.64247128	 245.65034067	 245.65034067	 245.65034067
 611.00000000	 245.14043884	 245.13683711	 245.13683711	 245.13683711
 612.00000000	 245.13383833	 245.12874648	 245.12874648	 245.12874648
 613.00000000	 255.48453907	 255.47200293	 255.47200293	 255.47200293
 614.00000000	 243.61638348	 243.60860548	 243.60860548	 243.60860548
 615.00000000	 241.89680975	 241.87548306	 241.87548306	 241.87954027
 616.00000000	 241.00413625	 240.98802977	 240.98802977	 240.99053565
 617.00000000	 240.23948187	 240.25504479	 240.30162415	 240.30039475
 618.00000000	 239.91508386	 239.91508386	 239.91508386	 239.91293934
 619.00000000	 239.54953310	 239.54677365	 239.54677365	 239.54518329
 620.00000000	 239.32983533	 239.32301736	 239.32592701	 239.32395568
 621.00000000	 238.80586315	 238.80163541	 238.80458863	 238.80458863
 622.00000000	 238.21262518	 238.21262518	 238.21262518	 238.21262518
 623.00000000	 238.37164101	 238.37164101	 238.37164101	 238.37077328
 624.00000000	 240.25616543	 240.23647383	 240.23647383	 240.23851115
 625.00000000	 235.95986094	 235.95560304	 235.95560304	 235.96014001
 626.00000000	 235.94945239	 235.95316614	 235.95316614	 235.95942138
 627.00000000	 235.74738251	 235.75526883	 235.76102175	 235.76921754
 628.00000000	 235.31908914	 235.32437395	 235.33131841	 235.33906263
 629.00000000	 234.50656461	 234.51360564	 234.53161660	 234.54317510
 630.00000000	 233.89689071	 233.90708808	 233.87724070	 233.89062721
 631.00000000	 233.00520921	 233.01703416	 232.98638573	 232.97979815
 632.00000000	 232.44822657	 232.43696853	 232.43696853	 232.47750193
 633.00000000	 231.99692009	 231.98263613	 231.98263613	 231.94902945
 634.00000000	 231.30867198	 231.29542487	 231.26902356	 231.26000494
 635.00000000	 230.34015037	 230.32354389	 230.32354389	 230.31461854
 636.00000000	 228.87519633	 228.85884545	 228.83528005	 228.82819490
 637.00000000	 227.90800299	 227.89476763	 227.87721897	 227.90733546
 638.00000000	 226.82732257	 226.80887049	 226.79638207	 226.79638207
 639.00000000	 226.57805812	 226.56003581	 226.54919675	 226.53846397
 640.00000000	 226.73266839	 226.74227110	 226.75336131	 226.75336131
 641.00000000	 226.90524827	 226.91981861	 226.93713023	 226.93713023
 642.00000000	 227.38214776	 227.40734351	 227.43887107	 227.43887107
 643.00000000	 227.80346884	 227.73298310	 227.69355280	 227.69355280
 644.00000000	 227.72738983	 227.69060337	 227.66242231	 227.64617052
 645.00000000	 227.77609353	 227.75312525	 227.74552472	 227.74552472
 646.00000000	 227.64901755	 227.63561821	 227.61581463	 227.63154318
 647.00000000	 227.38244202	 227.36947054	 227.35030833	 227.36555396
 648.00000000	 226.97270155	 226.96016945	 226.94166299	 226.95639070
 649.00000000	 226.71855911	 226.71855911	 226.71855911	 226.73532381
 650.00000000	 226.38007993	 226.34975676	 226.32727354	 226.34289283
 651.00000000	 226.20215555	 226.17625409	 226.15591750	 226.13369702
 652.00000000	 225.92432751	 225.92432751	 225.92432751	 225.91450637
 653.00000000	 225.70859196	 225.70642998	 225.71083463	 225.70187042
 654.00000000	 225.25266716	 225.25426643	 225.25680484	 225.25680484
 655.00000000	 224.84670163	 224.84824547	 224.85151032	 224.85151032
 656.00000000	 224.19914293	 224.20334630	 224.20334630	 224.20334630
 657.00000000	 223.91989594	 223.92421175	 223.91241783	 223.91241783
 658.00000000	 224.42616949	 224.43016592	 224.41968240	 224.41968240
 659.00000000	 225.11885642	 225.12259139	 225.12706766	 225.14210023
 660.00000000	 226.13989183	 226.14453539	 226.14294020	 226.16340460
 661.00000000	 227.01575151	 227.03028192	 227.03028192	 227.03028192
 662.00000000	 227.36191885	 227.35230938	 227.34323711	 227.33692582
 663.00000000	 227.51639350	 227.51330644	 227.51330644	 227.51330644
 664.00000000	 227.46844633	 227.47117628	 227.47117628	 227.47117628
 665.00000000	 227.05018002	 227.05475948	 227.06119404	 227.06119404
 666.00000000	 226.99944052	 227.00444386	 227.00847539	 227.00735098
 667.00000000	 226.39197050	 226.37845848	 226.37845848	 226.37845848
 668.00000000	 224.64760073	 224.62962981	 224.65479509	 224.65415529
 669.00000000	 223.34688353	 223.34984588	 223.38151267	 223.38078268
 670.00000000	 222.42070757	 222.36486730	 222.41221901	 222.42067078
 671.00000000	 221.81243024	 221.70934089	 221.76252743	 221.77034649
 672.00000000	 221.33561693	 221.46764821	 221.46764821	 221.47719571
 673.00000000	 220.90245754	 220.89160060	 220.89160060	 220.90672106
 674.00000000	 223.41334596	 223.50251737	 223.50251737	 223.44850458
 675.00000000	 222.29121683	 222.29121683	 222.40242836	 222.39623469
 676.00000000	 222.20859598	 222.21702332	 222.24990673	 222.24727738
 677.00000000	 222.63219707	 222.60817824	 222.59650284	 222.59584746
 678.00000000	 223.03178494	 223.03374205	 223.03374205	 223.03215485
 679.00000000	 223.19636644	 223.19244122	 223.19244122	 223.19244122
 680.00000000	 223.26230496	 223.28065465	 223.28065465	 223.28007625
 681.00000000	 222.87158646	 222.88963726	 222.91263022	 222.91200860
 682.00000000	 222.50375466	 222.52116256	 222.52948089	 222.52948089
 683.00000000	 221.96129146	 221.97939702	 221.98908103	 221.98908103
 684.00000000	 221.10542751	 221.12471120	 221.13618099	 221.13618099
 685.00000000	 220.14999337	 220.15452198	 220.15452198	 220.15452198
 686.00000000	 219.28683488	 219.26507042	 219.25315516	 219.25315516
 687.00000000	 218.61446961	 218.59361937	 218.58299715	 218.58299715
 688.00000000	 217.82125036	 217.83870356	 217.85132772	 217.85132772
 689.00000000	 217.45853502	 217.45627919	 217.46858598	 217.46918031
 690.00000000	 216.84051306	 216.85810743	 216.87009373	 216.87009373
 691.00000000	 216.38425402	 216.40224378	 216.38662673	 216.38662673
 692.00000000	 216.30617393	 216.30617393	 216.30617393	 216.30928283
 693.00000000	 216.29421150	 216.31560733	 216.31560733	 216.32122035
 694.00000000	 216.54080766	 216.54946434	 216.57617232	 216.57749662
 695.00000000	 217.09941237	 217.09941237	 217.09941237	 217.09941237
 696.00000000	 217.68672206	 217.68672206	 217.68672206	 217.68495163
 697.00000000	 218.36699720	 218.36403460	 218.37178554	 218.36979871
 698.00000000	 218.86647794	 218.86934457	 218.84625701	 218.84568492
 699.00000000	 218.61072177	 218.62811310	 218.62811310	 218.64439882
 700.00000000	 218.33712580	 218.31236007	 218.32918631	 218.32918631
 701.00000000	 218.67749559	 218.67426312	 218.67426312	 218.67426312
 702.00000000	 219.12006753	 219.12658539	 219.10113021	 219.10223964
 703.00000000	 219.49160965	 219.47020487	 219.47020487	 219.47020487
 704.00000000	 219.62080641	 219.63183253	 219.61651971	 219.61651971
 705.00000000	 220.04856658	 220.06171458	 220.06171458	 220.06171458
 706.00000000	 220.35235478	 220.35235478	 220.35235478	 220.35235478
 707.00000000	 220.60396132	 220.60396132	 220.60396132	 220.60396132
 708.00000000	 220.80164885	 220.78653915	 220.78653915	 220.78653915
 709.00000000	 220.83650493	 220.81984335	 220.81460590	 220.81519048
 710.00000000	 220.96854161	 220.96854161	 220.96854161	 220.96866511
 711.00000000	 221.31411510	 221.31411510	 221.31411510	 221.31442230
 712.00000000	 221.83459723	 221.83719895	 221.88899184	 221.89209362
 713.00000000	 222.85502503	 222.84962460	 222.84962460	 222.84594632
 714.00000000	 226.31697607	 226.33562235	 226.33562235	 226.32853735
 715.00000000	 221.23287193	 221.21053129	 221.21053129	 221.20641128
 716.00000000	 221.87426143	 221.87151927	 221.87151927	 221.87411178
 717.00000000	 222.18460913	 222.18324916	 222.18324916	 222.19391599
 718.00000000	 221.86409318	 221.86448874	 221.86448874	 221.86713504
 719.00000000	 221.68276767	 221.67664991	 221.67664991	 221.68298150
 720.00000000	 226.72380980	 226.70273310	 227.92051057	 227.93658197
 721.00000000	 223.67528015	 223.41201020	 223.53547549	 223.53325311
 722.00000000	 222.97888892	 222.97553146	 222.97553146	 222.97616505
 723.00000000	 223.03635296	 223.03346806	 223.03346806	 223.03399799
 724.00000000	 223.29963908	 223.29695971	 223.29469852	 223.29520103
 725.00000000	 223.74143744	 223.71949225	 223.71599305	 223.71621415
 726.00000000	 224.18326667	 224.16625581	 224.16625581	 224.16625581
 727.00000000	 224.61403170	 224.59763855	 224.59763855	 224.59437475
 728.00000000	 224.98339885	 224.96976834	 224.95579063	 224.95526918
 729.00000000	 225.37631717	 225.38720241	 225.38720241	 225.39727126
 730.00000000	 226.01296001	 226.03697099	 226.02538217	 226.04798899
 731.00000000	 226.39922888	 226.37638411	 226.38077895	 226.40312692
 732.00000000	 226.87418298	 226.86025181	 226.84916668	 226.86401083
 733.00000000	 227.56592339	 227.55790432	 227.56172636	 227.57893406
 734.00000000	 228.11280855	 228.13778875	 228.13055421	 228.15270696
 735.00000000	 229.08072843	 229.08072843	 229.10351201	 229.13556588
 736.00000000	 229.89881270	 229.93633411	 229.96728939	 229.99590354
 737.00000000	 230.81112450	 230.75585963	 230.74885862	 230.76748980
 738.00000000	 231.69794231	 231.67179094	 231.66108925	 231.64214001
 739.00000000	 232.23184529	 232.21368785	 232.21209999	 232.21511540
 740.00000000	 232.79912698	 232.78394650	 232.78890267	 232.79046899
 741.00000000	 233.28522901	 233.30367184	 233.31276416	 233.31218304
 742.00000000	 233.45374010	 233.46243822	 233.46243822	 233.46264743
 743.00000000	 233.17455020	 233.18349200	 233.18349200	 233.18350797
 744.00000000	 232.16555931	 232.17489242	 232.17489242	 232.17384274
 745.00000000	 230.61955308	 230.63377589	 230.63377589	 230.63333693
 746.00000000	 228.90409037	 228.90609806	 228.90609806	 228.90530961
 747.00000000	 226.71773808	 226.70719885	 226.70719885	 226.70235479
 748.00000000	 225.57082812	 225.56244022	 225.57970300	 225.57328207
 749.00000000	 231.46772833	 231.45411065	 231.47159276	 231.46563576
 750.00000000	 234.78387445	 234.63460972	 234.65249632	 234.58266573
 751.00000000	 214.18155985	 214.13251577	 214.15282635	 214.13915207
 752.00000000	 230.58746676	 230.61525544	 230.63478926	 230.57516810
 753.00000000	 229.29888466	 229.29439033	 229.31488515	 229.29954407
 754.00000000	 216.91992915	 216.91356970	 217.67036010	 217.65407989
 755.00000000	 304.35311395	 309.29301958	 252.27814353	 252.03558407
 756.00000000	 253.01857364	 253.20532526	 783.89396740	 752.32092271
 757.00000000	1172.99409315	1853.92419253	 355.93466703	 359.33642565
 758.00000000	 333.63489752	 320.23232572	 259.33053121	 259.89256070
 759.00000000	 255.08421286	 251.79893090	 236.49228653	 236.68330523
 760.00000000	 234.53782358	 232.90764749	 226.19260475	 226.27316019
 761.00000000	 224.75881745	 223.71559147	 219.97846924	 220.01390367
 762.00000000	 219.04529235	 218.28997539	 215.91735874	 215.93102930
 763.00000000	 215.13153711	 214.54498270	 212.90853188	 212.91071557
 764.00000000	 212.18394607	 211.70776011	 270.67277210	 270.41505696
 765.00000000	 272.21183864	 273.56990636	 193.59193170	 193.54697612
 766.00000000	 193.04359350	 193.36058076	 196.96201967	 196.94080778
 767.00000000	 196.07516557	 196.23366992	 197.41132642	 197.39690361
 768.00000000	 196.78359353	 196.88611293	 197.45349530	 197.44210909
 769.00000000	 196.60562768	 196.68042386	 197.00989786	 197.00025615
 770.00000000	 196.09031572	 196.14867764	 196.36149509	 196.35286707
 771.00000000	 195.44537433	 195.60021933	 195.60021933	 195.60021933
 772.00000000	 194.76069754	 194.74536039	 194.74536039	 194.74422741
 773.00000000	 193.38333798	 193.38333798	 193.38333798	 193.38662164
 774.00000000	 191.98839649	 191.98839649	 191.98839649	 191.99188655
 775.00000000	 190.35817776	 190.36612436	 190.40257623	 190.40257623
 776.00000000	 188.78449862	 188.23729656	 188.23729656	 188.23031004
 777.00000000	 185.54682297	 185.54682297	 185.54682297	 185.54682297
 778.00000000	 188.43859171	 188.43859171	 188.43859171	 188.43859171
 779.00000000	 188.33002306	 182.83230998	 182.83230998	 182.75687827
 780.00000000	 181.67682430	 181.95982261	 181.75347755	 181.68408339
 781.00000000	 180.67986719	 180.87964059	 180.74952686	 180.74227833
 782.00000000	 179.75266842	 179.88678918	 179.91270784	 179.91270784
 783.00000000	 178.59783073	 178.50530481	 178.50530481	 178.50583382
 784.00000000	 177.40141294	 177.31496881	 177.29356036	 177.29213555
 785.00000000	 175.92239722	 218.42396349	 218.42396349	 218.42396349
 786.00000000	 174.36534658	 174.36534658	 174.36534658	 174.38152695
 787.00000000	 173.41728007	 173.40454459	 173.40454459	 173.39727247
 788.00000000	 171.54223893	 172.52383184	 172.51965448	 172.59864558
 789.00000000	 170.48948025	 171.51800278	 171.51433451	 171.62487699
 790.00000000	 169.31933912	 170.65430066	 170.53165937	 170.53165937
 791.00000000	 169.33361742	 169.33361742	 169.33361742	 169.33361742
 792.00000000	 168.33994322	 168.08719163	 168.08719163	 168.11824368
 793.00000000	 167.10889777	 166.82303475	 166.82303475	 166.78127700
 794.00000000	 165.90188445	 165.51758070	 165.51758070	 165.57264077
 795.00000000	 164.61061121	 164.10362844	 164.24395207	 164.17421296
 796.00000000	 163.27841901	 163.27841901	 163.27841901	 163.20688556
 797.00000000	 161.73915645	 161.73915645	 161.73915645	 161.73915645
 798.00000000	 160.10260652	 160.22848724	 160.22848724	 160.57810747
 799.00000000	 159.04826295	 159.19378918	 158.70118907	 158.70118907
 800.00000000	 156.53153394	 156.78330849	 155.90480667	 155.90480667
 801.00000000	 152.51375359	 153.04743438	 151.08319155	 151.07674164
 802.00000000	 144.13681043	 294.77847460	 201.06718599	 184.12240364
 803.00000000	 173.45695526	 167.42351830	 166.49029785	 165.78053117
 804.00000000	 164.10732439	 163.00635084	 162.68780566	 162.68780566
 805.00000000	 161.62440726	 161.81695462	 161.81695462	 161.81695462
 806.00000000	 160.82210054	 161.00833504	 161.29324954	 161.77644354
 807.00000000	 160.64106393	 160.38788975	 160.71812126	 160.45807695
 808.00000000	 159.45465576	 159.45465576	 159.73074330	 159.73074330
 809.00000000	 158.59321832	 158.59321832	 158.78954508	 158.78954508
 810.00000000	 157.72594337	 157.92385072	 158.23274010	 158.42070893
 811.00000000	 157.13224824	 157.39226196	 157.21738704	 157.21738704
 812.00000000	 155.72869337	 156.39453285	 156.72856725	 156.72856725
 813.00000000	 155.30332062	 155.74503700	 155.74503700	 155.40018435
 814.00000000	 153.87594275	 153.64727950	 153.46016121	 153.46016121
 815.00000000	 152.43357064	 153.04875132	 153.39179108	 153.73385244
 816.00000000	 152.67316514	 153.97438407	 154.84010360	 155.78877750
 817.00000000	 153.43359329	 152.31086494	 152.45739584	 152.98549388
 818.00000000	 151.57000081	 153.37308926	 154.04041210	 156.09214096
 819.00000000	 152.77037340	 159.26052925	 159.26052925	 159.26052925
 820.00000000	 153.66214521	 153.66214521	 153.66214521	 153.66214521
 821.00000000	 150.97396288	 150.97396288	 149.91019847	 149.34891341
 822.00000000	 148.23798267	 149.09226430	 149.09226430	 149.09206057
 823.00000000	 148.04446712	 149.01566268	 149.01566268	 149.01540052
 824.00000000	 147.31429324	 148.42949657	 149.61284451	 149.61242111
 825.00000000	 147.52191248	 149.47178586	 147.49897194	 146.73766704
 826.00000000	 145.64941774	 145.34578591	 145.03032458	 145.03032458
 827.00000000	 144.30530977	 144.93762063	 145.35125610	 145.01676295
 828.00000000	 143.94168870	 144.47292497	 144.47292497	 144.17459403
 829.00000000	 143.51746183	 143.99659299	 143.99659299	 144.46568544
 830.00000000	 143.47799611	 143.92785076	 144.53429883	 145.78894891
 831.00000000	 144.20280437	 147.29112919	 145.43113990	 145.43113990
 832.00000000	 143.59545568	 144.59405614	 144.59405614	 144.59405614
 833.00000000	 143.19975581	 143.19975581	 142.56976473	 142.21746527
 834.00000000	 141.60154305	 141.60154305	 141.60154305	 141.60154305
 835.00000000	 140.78650247	 140.78650247	 140.78650247	 140.62067848
 836.00000000	 139.90363522	 140.23112239	 140.23112239	 140.06983754
 837.00000000	 139.33686683	 139.37686558	 139.37686558	 139.26000358
 838.00000000	 138.48316337	 138.60936492	 138.71367447	 138.71367447
 839.00000000	 138.11477024	 138.25972571	 138.15152391	 138.15152391
 840.00000000	 137.80732713	 137.90127613	 137.90014278	 137.90014278
 841.00000000	 137.07849524	 137.16915045	 137.30354758	 137.30354758
 842.00000000	 136.55447628	 136.65834158	 136.85790273	 136.85790273
 843.00000000	 136.37516287	 136.50030489	 136.50030489	 136.33321425
 844.00000000	 136.24408917	 136.33992057	 136.33992057	 136.50122693
 845.00000000	 136.38634428	 136.50153010	 136.50153010	 136.69800186
 846.00000000	 135.99875854	 136.29954194	 136.29954194	 136.29954194
 847.00000000	 135.41241461	 135.74734487	 135.74734487	 135.50356824
 848.00000000	 134.43781197	 134.43781197	 134.43781197	 134.43781197
 849.00000000	 133.98101012	 133.98101012	 133.98101012	 133.98101012
 850.00000000	 133.55633151	 133.67690970	 133.55919183	 133.68975262
 851.00000000	 133.53271898	 133.53271898	 133.43845780	 133.43845780
 852.00000000	 133.01154503	 133.01154503	 133.01154503	 133.01154503
 853.00000000	 132.68239728	 132.58381910	 132.58381910	 132.58381910
 854.00000000	 132.42921490	 132.42921490	 132.44742237	 132.44742237
 855.00000000	 132.12126184	 132.10752924	 132.09652528	 132.09652528
 856.00000000	 131.90574319	 131.90574319	 131.90574319	 131.90574319
 857.00000000	 131.67679713	 131.67679713	 131.67965366	 131.68931367
 858.00000000	 131.41355568	 131.44452776	 131.45653990	 131.48169096
 859.00000000	 131.28898759	 131.33869511	 131.35808735	 131.32596633
 860.00000000	 131.07163207	 131.12185154	 131.11807652	 131.09044192
 861.00000000	 130.83501565	 130.87883501	 130.87209304	 130.87209304
 862.00000000	 130.74205758	 130.78933326	 130.78223035	 130.84303543
 863.00000000	 130.63229344	 130.70109415	 130.69146177	 130.77952037
 864.00000000	 130.49579023	 130.59727649	 130.58329550	 130.71762743
 865.00000000	 130.41510592	 132.66464865	 140.95577035	 199.11331181
 866.00000000	 136.25473624	 128.27726386	 128.45751287	 128.06583806
 867.00000000	 124.03274601	 128.40228514	 128.47412828	 128.22697435
 868.00000000	 127.26518167	 123.30958063	 122.96066991	 136.08569820
 869.00000000	 132.04191995	 132.04191995	 131.98124444	 130.91687614
 870.00000000	 130.47416103	 132.12003505	 132.31274422	 130.97656997
 871.00000000	 130.63199686	 132.70228660	 132.93836723	  87.69401496
 872.00000000	 135.47494660	 126.98248843	 127.02970034	 128.23626249
 873.00000000	 131.71116188	 126.89590094	 126.89506029	 126.89506029
 874.00000000	 134.15375242	 118.47883105	 118.49009796	 118.49009796
 875.00000000	 131.29476141	 133.85464545	 133.86327495	 124.22490100
 876.00000000	 131.35018199	 124.27462078	 124.27576871	 124.27576871
 877.00000000	 131.12365649	 124.25988475	 124.26113430	 124.26113430
 878.00000000	 131.00283392	 124.33207595	 124.33342952	 124.33342952
 879.00000000	 124.26036605	 124.26036605	 124.26173680	 124.26173680
 880.00000000	 124.27954407	 124.27954407	 124.28092691	 124.28092691
 881.00000000	 124.31126638	 124.31126638	 124.31266231	 124.31266231
 882.00000000	 124.31472469	 124.31472469	 124.31613841	 127.85385760
 883.00000000	 127.88238413	 127.88238413	 127.88079977	 124.34322308
 884.00000000	 124.33719187	 124.33719187	 124.33864484	 124.33864484
 885.00000000	 124.40125490	 124.40125490	 124.40273120	 124.40273120
 886.00000000	 124.33847947	 124.33847947	 124.33996407	 124.33996407
 887.00000000	 124.39148152	 124.39148152	 124.39298159	 124.39298159
 888.00000000	 124.41813142	 124.41813142	 124.41963676	 124.41963676
 889.00000000	 124.38181593	 124.38181593	 124.38334097	 124.38334097
 890.00000000	 124.39841608	 124.39841608	 124.39995420	 124.39995420
 891.00000000	 124.45289387	 124.45289387	 124.45444462	 124.45444462
 892.00000000	 124.43735537	 124.43735537	 124.43892352	 124.43892352
 893.00000000	 124.41529851	 124.41529851	 124.41687145	 124.41687145
 894.00000000	 124.39683356	 124.39683356	 124.39841209	 124.39841209
 895.00000000	 124.45430460	 124.45430460	 124.45588756	 124.45588756
 896.00000000	 124.46414243	 124.46414243	 124.46572964	 124.46572964
 897.00000000	 124.46536600	 124.46536600	 124.46695422	 124.46695422
 898.00000000	 124.43892450	 124.43892450	 124.44051232	 124.44051232
 899.00000000	 124.40611748	 124.40611748	 124.40770911	 124.40770911
 900.00000000	 124.45188831	 124.45188831	 124.45347761	 124.45347761
 901.00000000	 124.39936278	 124.39936278	 124.40095673	 124.40095673
