   -0.061145	   -0.055228	   -0.049208	   -0.043081	   -0.036844	  521.952671	  473.430546	  424.055786	  373.805717	  322.656856
   -0.061064	   -0.055148	   -0.049128	   -0.043001	   -0.036765	  521.925656	  473.404000	  424.028026	  373.774969	  322.621250
   -0.061150	   -0.055213	   -0.049171	   -0.043021	   -0.036759	  521.954804	  473.433547	  424.051026	  373.784105	  322.608812
   -0.061231	   -0.055293	   -0.049250	   -0.043098	   -0.036836	  521.980603	  473.459276	  424.076503	  373.809135	  322.633191
   -0.061154	   -0.055235	   -0.049210	   -0.043077	   -0.036833	  521.956326	  473.438736	  424.057847	  373.790411	  322.612338
   -0.061145	   -0.055228	   -0.049208	   -0.043081	   -0.036844	  521.952671	  473.432793	  424.060384	  373.812776	  322.666488
   -0.061298	   -0.055326	   -0.049249	   -0.043065	   -0.036770	  522.012440	  473.471446	  424.078101	  373.809756	  322.642953
   -0.061145	   -0.055229	   -0.049209	   -0.043082	   -0.036846	  521.952671	  473.430263	  424.057089	  373.810574	  322.667341
   -0.061145	   -0.055175	   -0.049099	   -0.042916	   -0.036623	  521.952671	  473.412531	  424.020044	  373.752560	  322.586622
   -0.061217	   -0.055176	   -0.049029	   -0.042775	   -0.036410	  521.986032	  473.409241	  423.987479	  373.698504	  322.519290
   -0.061450	   -0.055280	   -0.049002	   -0.042613	   -0.036111	  522.072210	  473.452638	  423.983175	  373.641340	  322.403852
   -0.061284	   -0.055209	   -0.049030	   -0.042743	   -0.036348	  522.017253	  473.418281	  423.985228	  373.696436	  322.529489
   -0.061503	   -0.055285	   -0.048962	   -0.042530	   -0.035988	  522.108212	  473.445895	  423.958927	  373.626168	  322.425746
   -0.061656	   -0.055383	   -0.049005	   -0.042518	   -0.035919	  522.177960	  473.489211	  423.979629	  373.628280	  322.413511
   -0.061565	   -0.055332	   -0.048995	   -0.042551	   -0.035998	  522.158492	  473.476753	  423.983251	  373.657511	  322.478364
   -0.061642	   -0.055407	   -0.049067	   -0.042621	   -0.036064	  522.203360	  473.528657	  424.036924	  373.707417	  322.518681
   -0.061785	   -0.055478	   -0.049066	   -0.042545	   -0.035914	  522.268787	  473.570010	  424.056342	  373.707157	  322.501127
   -0.061475	   -0.055279	   -0.048979	   -0.042572	   -0.036056	  522.158423	  473.501513	  424.027723	  373.716308	  322.545813
   -0.061098	   -0.055104	   -0.049011	   -0.042815	   -0.036514	  521.996245	  473.401689	  423.998179	  373.765347	  322.682132
   -0.061346	   -0.055308	   -0.049166	   -0.042918	   -0.036560	  522.067552	  473.482030	  424.062720	  373.787972	  322.635381
   -0.061274	   -0.055254	   -0.049130	   -0.042900	   -0.036560	  522.044204	  473.467645	  424.055346	  373.785552	  322.635747
   -0.061274	   -0.055217	   -0.049054	   -0.042784	   -0.036402	  522.033591	  473.448169	  424.019920	  373.726721	  322.545668
   -0.061136	   -0.055203	   -0.049166	   -0.043023	   -0.036770	  521.969628	  473.440636	  424.063110	  373.814598	  322.671850
   -0.061302	   -0.055347	   -0.049287	   -0.043119	   -0.036841	  522.014579	  473.483666	  424.096986	  373.831703	  322.664161
   -0.061450	   -0.055479	   -0.049403	   -0.043220	   -0.036928	  522.062210	  473.507802	  424.108061	  373.840715	  322.682707
   -0.061536	   -0.055598	   -0.049556	   -0.043407	   -0.037149	  522.081388	  473.540334	  424.150237	  373.888625	  322.732225
   -0.061617	   -0.055642	   -0.049562	   -0.043375	   -0.037078	  522.127812	  473.569629	  424.162362	  373.883545	  322.709912
   -0.061464	   -0.055508	   -0.049447	   -0.043280	   -0.037002	  522.058028	  473.514163	  424.119425	  373.851245	  322.686250
   -0.061531	   -0.055504	   -0.049370	   -0.043129	   -0.036776	  522.088626	  473.516189	  424.093149	  373.796964	  322.604289
   -0.061374	   -0.055422	   -0.049367	   -0.043206	   -0.036936	  522.037325	  473.484617	  424.091688	  373.836535	  322.696383
   -0.061374	   -0.055404	   -0.049330	   -0.043151	   -0.036863	  522.037325	  473.471619	  424.065555	  373.797131	  322.643571
   -0.061307	   -0.055337	   -0.049264	   -0.043085	   -0.036797	  521.986105	  473.411164	  423.997253	  373.722448	  322.564054
   -0.061221	   -0.055238	   -0.049154	   -0.042966	   -0.036672	  521.937556	  473.328581	  423.897965	  373.624698	  322.487047
   -0.061083	   -0.055081	   -0.048976	   -0.042767	   -0.036451	  521.863568	  473.251585	  423.812548	  373.525170	  322.367426
   -0.061150	   -0.055202	   -0.049152	   -0.042999	   -0.036740	  521.894804	  473.309837	  423.897999	  373.638001	  322.507814
   -0.061145	   -0.055215	   -0.049183	   -0.043048	   -0.036805	  521.913282	  473.341232	  423.938996	  373.685107	  322.557350
   -0.061388	   -0.055470	   -0.049450	   -0.043325	   -0.037092	  522.013136	  473.464774	  424.075685	  373.823841	  322.686435
   -0.061464	   -0.055474	   -0.049380	   -0.043180	   -0.036871	  522.047413	  473.463153	  424.038116	  373.750287	  322.576873
   -0.061388	   -0.055472	   -0.049456	   -0.043335	   -0.037108	  522.013136	  473.438339	  424.032911	  373.775361	  322.643453
   -0.061775	   -0.055801	   -0.049725	   -0.043544	   -0.037255	  522.129133	  473.526914	  424.092340	  373.803845	  322.639111
   -0.062166	   -0.056191	   -0.050115	   -0.043936	   -0.037651	  522.276698	  473.653449	  424.211417	  373.929743	  322.786857
   -0.062548	   -0.056552	   -0.050456	   -0.044256	   -0.037951	  522.431812	  473.785340	  424.323632	  374.026019	  322.871131
   -0.062863	   -0.056828	   -0.050693	   -0.044454	   -0.038110	  522.544536	  473.870202	  424.383824	  374.064908	  322.892266
   -0.063240	   -0.057097	   -0.050852	   -0.044504	   -0.038050	  522.706840	  473.972962	  424.437893	  374.081712	  322.883832
   -0.063316	   -0.057226	   -0.051036	   -0.044743	   -0.038345	  522.742372	  474.030055	  424.516623	  374.182149	  323.006041
   -0.063397	   -0.057288	   -0.051078	   -0.044764	   -0.038345	  522.778851	  474.065296	  424.548828	  374.209433	  323.026424
   -0.063450	   -0.057306	   -0.051062	   -0.044714	   -0.038260	  522.803950	  474.078627	  424.552649	  374.206120	  323.018476
   -0.063235	   -0.057163	   -0.050992	   -0.044717	   -0.038337	  522.725897	  474.034603	  424.538867	  374.218586	  323.052984
   -0.063159	   -0.057033	   -0.050806	   -0.044474	   -0.038036	  522.690999	  473.982219	  424.465666	  374.121078	  322.927510
   -0.063092	   -0.057020	   -0.050846	   -0.044570	   -0.038187	  522.659242	  473.971936	  424.474465	  374.146437	  322.966770
   -0.063011	   -0.056941	   -0.050772	   -0.044501	   -0.038124	  522.612771	  473.913643	  424.413185	  374.091453	  322.927839
   -0.063082	   -0.056942	   -0.050701	   -0.044357	   -0.037908	  522.635470	  473.893191	  424.354841	  374.000757	  322.810623
   -0.062848	   -0.056748	   -0.050549	   -0.044249	   -0.037846	  522.539212	  473.797921	  424.269222	  373.933881	  322.772028
   -0.062848	   -0.056657	   -0.050365	   -0.043970	   -0.037469	  522.538583	  473.772785	  424.214571	  373.844471	  322.642368
   -0.062853	   -0.056695	   -0.050435	   -0.044071	   -0.037600	  522.560148	  473.832705	  424.300665	  373.943936	  322.741747
   -0.062853	   -0.056730	   -0.050504	   -0.044173	   -0.037736	  522.590777	  473.889366	  424.376449	  374.031571	  322.833585
   -0.062925	   -0.056782	   -0.050535	   -0.044183	   -0.037722	  522.634737	  473.931179	  424.409404	  374.048618	  322.827317
   -0.063082	   -0.056956	   -0.050726	   -0.044391	   -0.037949	  522.676101	  473.972752	  424.452732	  374.095326	  322.879111
   -0.063235	   -0.057036	   -0.050734	   -0.044326	   -0.037810	  522.715265	  473.968303	  424.409852	  374.019479	  322.776058
   -0.063316	   -0.057154	   -0.050890	   -0.044522	   -0.038047	  522.742372	  473.994341	  424.443412	  374.069584	  322.852187
   -0.063173	   -0.057085	   -0.050897	   -0.044608	   -0.038215	  522.676349	  473.938388	  424.405713	  374.058725	  322.877178
   -0.063321	   -0.057160	   -0.050899	   -0.044536	   -0.038067	  522.733949	  473.959357	  424.391981	  374.012334	  322.800283
   -0.063331	   -0.057223	   -0.051017	   -0.044709	   -0.038297	  522.728370	  473.966654	  424.413455	  374.049346	  322.854256
   -0.063331	   -0.057205	   -0.050979	   -0.044651	   -0.038218	  522.728370	  473.960571	  424.397824	  374.020532	  322.808449
   -0.063570	   -0.057423	   -0.051177	   -0.044828	   -0.038374	  522.826895	  474.044697	  424.469067	  374.080487	  322.858797
   -0.063713	   -0.057603	   -0.051394	   -0.045083	   -0.038669	  522.882908	  474.114361	  424.556007	  374.188501	  322.991865
   -0.063937	   -0.057738	   -0.051440	   -0.045041	   -0.038538	  522.975398	  474.151625	  424.550621	  374.153678	  322.941482
   -0.064095	   -0.057840	   -0.051486	   -0.045030	   -0.038470	  523.037445	  474.173093	  424.533041	  374.098671	  322.850763
   -0.064191	   -0.057843	   -0.051396	   -0.044845	   -0.038189	  523.048748	  474.140441	  424.457734	  373.982088	  322.694366
   -0.063947	   -0.057660	   -0.051276	   -0.044792	   -0.038206	  522.949223	  474.031213	  424.354360	  373.900868	  322.652381
   -0.063722	   -0.057437	   -0.051054	   -0.044572	   -0.037987	  522.837356	  473.912823	  424.229330	  373.769079	  322.513710
   -0.063575	   -0.057329	   -0.050988	   -0.044550	   -0.038012	  522.759114	  473.824128	  424.143524	  373.700132	  322.476248
   -0.063503	   -0.057187	   -0.050775	   -0.044267	   -0.037659	  522.716417	  473.736288	  424.019278	  373.548633	  322.307086
   -0.063264	   -0.056861	   -0.050363	   -0.043768	   -0.037073	  522.607879	  473.575466	  423.813285	  373.304923	  322.033470
   -0.063111	   -0.056764	   -0.050323	   -0.043786	   -0.037149	  522.518053	  473.502265	  423.758116	  373.269248	  322.018812
   -0.062806	   -0.056536	   -0.050175	   -0.043721	   -0.037171	  522.389658	  473.377232	  423.650176	  373.192747	  321.988734
   -0.062280	   -0.056106	   -0.049843	   -0.043489	   -0.037043	  522.159606	  473.158224	  423.450127	  373.019913	  321.851734
   -0.062137	   -0.055856	   -0.049486	   -0.043025	   -0.036471	  522.073484	  473.008423	  423.247010	  372.774316	  321.574981
   -0.061440	   -0.055316	   -0.049110	   -0.042818	   -0.036441	  521.775488	  472.719265	  422.997513	  372.596596	  321.502503
   -0.060685	   -0.054604	   -0.048441	   -0.042196	   -0.035865	  521.411743	  472.344190	  422.619347	  372.223917	  321.144241
   -0.060312	   -0.054091	   -0.047791	   -0.041409	   -0.034944	  521.220116	  472.049367	  422.247398	  371.801977	  320.700550
   -0.059471	   -0.053425	   -0.047305	   -0.041110	   -0.034837	  520.847665	  471.685711	  421.920042	  371.539469	  320.532523
   -0.059242	   -0.053055	   -0.046796	   -0.040462	   -0.034054	  520.721682	  471.450984	  421.600963	  371.161344	  320.121602
   -0.058563	   -0.052346	   -0.046058	   -0.039699	   -0.033266	  520.391393	  471.068338	  421.184923	  370.731546	  319.698381
   -0.057803	   -0.051630	   -0.045390	   -0.039081	   -0.032704	  520.044625	  470.695301	  420.808272	  370.374702	  319.385560
   -0.057029	   -0.050792	   -0.044491	   -0.038124	   -0.031691	  519.687818	  470.264887	  420.332668	  369.883249	  318.908551
   -0.056575	   -0.050177	   -0.043717	   -0.037193	   -0.030605	  519.466254	  469.926890	  419.903560	  369.389136	  318.376351
   -0.055500	   -0.049223	   -0.042887	   -0.036493	   -0.030040	  518.998672	  469.449282	  419.443795	  368.975885	  318.039108
   -0.054562	   -0.048240	   -0.041864	   -0.035435	   -0.028951	  518.583613	  468.951220	  418.900782	  368.426993	  317.524460
   -0.053492	   -0.047290	   -0.041040	   -0.034742	   -0.028395	  518.106552	  468.457708	  418.428197	  368.013624	  317.209525
   -0.052728	   -0.046551	   -0.040332	   -0.034069	   -0.027763	  517.757726	  468.054507	  418.008064	  367.614829	  316.871185
   -0.051674	   -0.045594	   -0.039473	   -0.033310	   -0.027106	  517.247503	  467.556458	  417.532300	  367.171669	  316.471159
   -0.050615	   -0.044652	   -0.038650	   -0.032610	   -0.026532	  516.772059	  467.073200	  417.059932	  366.729260	  316.078154
   -0.049755	   -0.043913	   -0.038038	   -0.032132	   -0.026193	  516.369070	  466.642850	  416.645635	  366.375201	  315.829304
   -0.048922	   -0.043103	   -0.037256	   -0.031381	   -0.025478	  515.963781	  466.190204	  416.179783	  365.930825	  315.441618
   -0.048165	   -0.042180	   -0.036169	   -0.030134	   -0.024073	  515.606101	  465.716328	  415.618239	  365.310526	  314.791870
   -0.047776	   -0.041793	   -0.035789	   -0.029762	   -0.023712	  515.380240	  465.452032	  415.337578	  365.035836	  314.545753
   -0.047175	   -0.041496	   -0.035797	   -0.030079	   -0.024342	  515.041353	  465.191643	  415.172879	  364.984200	  314.624740
   -0.047473	   -0.041646	   -0.035803	   -0.029945	   -0.024072	  515.013797	  465.035855	  414.927574	  364.688441	  314.317945
   -0.047411	   -0.041507	   -0.035589	   -0.029657	   -0.023712	  514.822313	  464.784326	  414.630152	  364.359387	  313.971623
   -0.047484	   -0.041563	   -0.035633	   -0.029692	   -0.023742	  514.724000	  464.607507	  414.409756	  364.130551	  313.769692
   -0.047714	   -0.041814	   -0.035909	   -0.029999	   -0.024084	  514.654930	  464.513462	  414.328657	  364.100460	  313.828814
   -0.047451	   -0.041910	   -0.036365	   -0.030816	   -0.025263	  514.380018	  464.351942	  414.291564	  364.198853	  314.073777
   -0.048125	   -0.042339	   -0.036553	   -0.030766	   -0.024979	  514.464367	  464.306071	  414.146176	  363.984682	  313.821588
   -0.047797	   -0.042094	   -0.036394	   -0.030700	   -0.025010	  514.164400	  463.960125	  413.796338	  363.672990	  313.590031
   -0.047878	   -0.042291	   -0.036713	   -0.031142	   -0.025580	  513.990328	  463.770036	  413.623099	  363.549358	  313.548651
   -0.047572	   -0.042047	   -0.036535	   -0.031036	   -0.025551	  513.658970	  463.383015	  413.226489	  363.188968	  313.270028
   -0.047889	   -0.042135	   -0.036400	   -0.030684	   -0.024987	  513.530052	  463.101993	  412.840175	  362.743778	  312.811984
   -0.047437	   -0.041861	   -0.036310	   -0.030784	   -0.025283	  513.082510	  462.667560	  412.479693	  362.517378	  312.779098
   -0.047397	   -0.041743	   -0.036119	   -0.030527	   -0.024965	  512.819966	  462.304204	  412.065586	  362.101840	  312.410715
   -0.047787	   -0.042175	   -0.036600	   -0.031059	   -0.025554	  512.694250	  462.152600	  411.931304	  362.027325	  312.437666
   -0.047473	   -0.041864	   -0.036294	   -0.030763	   -0.025269	  512.339510	  461.740753	  411.492735	  361.591822	  312.034430
   -0.047586	   -0.041916	   -0.036287	   -0.030700	   -0.025153	  512.137000	  461.491021	  411.216843	  361.310385	  311.767629
   -0.047962	   -0.042339	   -0.036763	   -0.031235	   -0.025753	  512.097073	  461.394209	  411.122385	  361.276128	  311.850058
   -0.048250	   -0.042618	   -0.037042	   -0.031522	   -0.026057	  511.997771	  461.222357	  410.957677	  361.196065	  311.930005
   -0.047604	   -0.042122	   -0.036696	   -0.031324	   -0.026005	  511.492898	  460.764447	  410.548322	  360.836800	  311.622315
   -0.047137	   -0.042018	   -0.036957	   -0.031953	   -0.027004	  511.071366	  460.433105	  410.365062	  360.857659	  311.901533
   -0.047907	   -0.042480	   -0.037120	   -0.031827	   -0.026599	  511.129422	  460.313355	  410.131812	  360.572981	  311.625342
   -0.047780	   -0.042254	   -0.036803	   -0.031426	   -0.026121	  510.809100	  459.907918	  409.699705	  360.170406	  311.306343
   -0.047641	   -0.042482	   -0.037399	   -0.032391	   -0.027456	  510.473754	  459.670879	  409.619151	  360.302035	  311.703475
   -0.047436	   -0.042277	   -0.037197	   -0.032196	   -0.027271	  510.128050	  459.283272	  409.224992	  359.935101	  311.396042
   -0.047692	   -0.042355	   -0.037104	   -0.031940	   -0.026858	  509.931746	  458.991530	  408.885744	  359.594052	  311.096773
   -0.048142	   -0.042430	   -0.036821	   -0.031311	   -0.025898	  509.836681	  458.700417	  408.480403	  359.152231	  310.692355
   -0.048256	   -0.042810	   -0.037465	   -0.032219	   -0.027068	  509.585419	  458.532480	  408.427430	  359.244112	  310.957324
   -0.047824	   -0.042581	   -0.037439	   -0.032397	   -0.027450	  509.086308	  458.106558	  408.114803	  359.082600	  310.982582
   -0.047905	   -0.042466	   -0.037142	   -0.031929	   -0.026824	  508.821406	  457.728778	  407.714247	  358.744047	  310.785808
   -0.048135	   -0.042499	   -0.036989	   -0.031602	   -0.026333	  508.615041	  457.409689	  407.354362	  358.410750	  310.542222
   -0.048330	   -0.042614	   -0.037033	   -0.031583	   -0.026259	  508.330888	  457.096669	  407.076954	  358.229066	  310.512300
   -0.047802	   -0.042337	   -0.037009	   -0.031812	   -0.026743	  507.789750	  456.637521	  406.768320	  358.134472	  310.690636
   -0.048829	   -0.042918	   -0.037162	   -0.031556	   -0.026094	  507.880917	  456.535401	  406.544426	  357.855088	  310.417203
   -0.048771	   -0.043076	   -0.037541	   -0.032158	   -0.026922	  507.522083	  456.254965	  406.422301	  357.964720	  310.826078
   -0.048386	   -0.042862	   -0.037500	   -0.032292	   -0.027232	  507.088953	  455.892488	  406.190502	  357.918496	  311.015634
   -0.048203	   -0.042955	   -0.037866	   -0.032929	   -0.028137	  506.702222	  455.638164	  406.118216	  358.073383	  311.438721
   -0.048052	   -0.042551	   -0.037221	   -0.032054	   -0.027045	  506.402565	  455.246047	  405.687093	  357.652019	  311.071601
   -0.048660	   -0.042924	   -0.037368	   -0.031985	   -0.026765	  506.369538	  455.171232	  405.583740	  357.532219	  310.946392
   -0.048321	   -0.042851	   -0.037560	   -0.032440	   -0.027483	  506.007531	  454.903441	  405.477360	  357.647975	  311.339146
   -0.048622	   -0.042757	   -0.037095	   -0.031627	   -0.026342	  505.994473	  454.681802	  405.152883	  357.316293	  311.086753
   -0.047979	   -0.042461	   -0.037141	   -0.032008	   -0.027054	  505.503056	  454.349938	  405.034686	  357.460001	  311.535331
   -0.048009	   -0.042839	   -0.037857	   -0.033052	   -0.028415	  505.255996	  454.295504	  405.182003	  357.816869	  312.108375
   -0.048160	   -0.043008	   -0.038044	   -0.033258	   -0.028640	  505.088371	  454.187901	  405.145601	  357.861543	  312.242839
   -0.048337	   -0.043020	   -0.037905	   -0.032980	   -0.028236	  504.957084	  453.990148	  404.957646	  357.751498	  312.271529
   -0.048499	   -0.043234	   -0.038172	   -0.033301	   -0.028612	  504.848580	  453.948716	  405.014431	  357.934025	  312.604106
   -0.048430	   -0.043077	   -0.037935	   -0.032990	   -0.028233	  504.658403	  453.743384	  404.826095	  357.791220	  312.532155
   -0.047984	   -0.042625	   -0.037481	   -0.032539	   -0.027787	  504.284232	  453.381166	  404.516623	  357.570551	  312.432143
   -0.048238	   -0.042890	   -0.037762	   -0.032840	   -0.028113	  504.186596	  453.305834	  404.518951	  357.699299	  312.730243
   -0.047505	   -0.042471	   -0.037652	   -0.033035	   -0.028607	  503.686864	  452.937739	  404.359846	  357.816763	  313.183265
   -0.047560	   -0.042390	   -0.037445	   -0.032711	   -0.028174	  503.427097	  452.693668	  404.167369	  357.707235	  313.184057
   -0.047372	   -0.042509	   -0.037866	   -0.033427	   -0.029180	  503.060133	  452.491210	  404.205150	  358.050780	  313.889987
   -0.046937	   -0.042321	   -0.037920	   -0.033718	   -0.029704	  502.567927	  452.190444	  404.154467	  358.300455	  314.483042
   -0.046852	   -0.042019	   -0.037419	   -0.033033	   -0.028849	  502.208192	  451.832977	  403.873780	  358.160861	  314.540018
   -0.046801	   -0.041788	   -0.037027	   -0.032501	   -0.028193	  502.027574	  451.541736	  403.605116	  358.029391	  314.644340
   -0.046057	   -0.041317	   -0.036820	   -0.032548	   -0.028486	  501.340761	  451.126936	  403.494648	  358.249807	  315.217305
   -0.045976	   -0.041266	   -0.036804	   -0.032570	   -0.028547	  501.005459	  450.899564	  403.425843	  358.382192	  315.586683
   -0.045507	   -0.040799	   -0.036346	   -0.032128	   -0.028128	  500.471178	  450.494682	  403.231421	  358.466281	  316.006304
   -0.046030	   -0.041335	   -0.036899	   -0.032700	   -0.028720	  500.292767	  450.479341	  403.403799	  358.846457	  316.610519
   -0.046990	   -0.041887	   -0.037073	   -0.032523	   -0.028217	  500.373371	  450.515670	  403.477227	  359.025490	  316.952799
   -0.046716	   -0.041299	   -0.036195	   -0.031377	   -0.026822	  499.946052	  450.089150	  403.110920	  358.769041	  316.847648
   -0.046508	   -0.041327	   -0.036450	   -0.031853	   -0.027511	  499.560226	  449.935493	  403.231809	  359.198634	  317.613288
   -0.046059	   -0.040849	   -0.035954	   -0.031347	   -0.027003	  499.114652	  449.587578	  403.061669	  359.272159	  317.984533
   -0.046289	   -0.041439	   -0.036892	   -0.032620	   -0.028599	  498.947578	  449.680510	  403.488134	  360.091329	  319.243767
   -0.046389	   -0.041260	   -0.036460	   -0.031957	   -0.027724	  498.720199	  449.460952	  403.349468	  360.093365	  319.435388
   -0.046251	   -0.041388	   -0.036839	   -0.032575	   -0.028569	  498.396146	  449.408337	  403.582750	  360.622771	  320.267757
   -0.047077	   -0.042080	   -0.037412	   -0.033042	   -0.028942	  498.463342	  449.545454	  403.852322	  361.075248	  320.943718
   -0.047237	   -0.042453	   -0.037991	   -0.033819	   -0.029909	  498.232579	  449.572813	  404.181500	  361.740032	  321.969906
   -0.046976	   -0.042630	   -0.038580	   -0.034797	   -0.031256	  497.843043	  449.543901	  404.536628	  362.495776	  323.137426
   -0.046920	   -0.041842	   -0.037120	   -0.032718	   -0.028605	  497.584910	  449.122687	  404.058307	  362.046523	  322.787327
   -0.047734	   -0.042964	   -0.038529	   -0.034397	   -0.030537	  497.629684	  449.497046	  404.758558	  363.067432	  324.122565
   -0.046804	   -0.042611	   -0.038719	   -0.035098	   -0.031720	  497.061155	  449.310851	  404.998149	  363.764733	  325.300410
   -0.046697	   -0.041927	   -0.037514	   -0.033419	   -0.029609	  496.842699	  448.959515	  404.657928	  363.550577	  325.304018
   -0.046264	   -0.041686	   -0.037455	   -0.033534	   -0.029890	  496.382388	  448.790883	  404.817831	  364.065671	  326.193024
   -0.047034	   -0.042455	   -0.038224	   -0.034303	   -0.030659	  496.353606	  449.052949	  405.348075	  364.843975	  327.201449
   -0.046572	   -0.042557	   -0.038856	   -0.035433	   -0.032258	  495.977341	  449.057472	  405.800580	  365.793834	  328.684194
   -0.046459	   -0.042866	   -0.039552	   -0.036486	   -0.033641	  495.641277	  449.173009	  406.315549	  366.663771	  329.870970
   -0.047119	   -0.042880	   -0.038978	   -0.035374	   -0.032036	  495.675751	  449.115065	  406.257760	  366.678891	  330.016135
   -0.046947	   -0.043201	   -0.039762	   -0.036594	   -0.033665	  495.386497	  449.188314	  406.776938	  367.705102	  331.593305
   -0.046570	   -0.043115	   -0.039950	   -0.037038	   -0.034352	  495.106783	  449.159246	  407.056700	  368.335892	  332.605115
   -0.046630	   -0.042994	   -0.039669	   -0.036616	   -0.033804	  494.968566	  449.121932	  407.190961	  368.694553	  333.227325
   -0.047018	   -0.042893	   -0.039125	   -0.035671	   -0.032492	  494.910877	  449.082934	  407.232315	  368.862776	  333.557332
   -0.047111	   -0.043848	   -0.040868	   -0.038134	   -0.035618	  494.668744	  449.511391	  408.255080	  370.415239	  335.584360
   -0.046579	   -0.043208	   -0.040134	   -0.037320	   -0.034735	  494.293500	  449.302148	  408.281069	  370.726933	  336.218042
   -0.046916	   -0.043163	   -0.039742	   -0.036612	   -0.033736	  494.189048	  449.302960	  408.391713	  370.949712	  336.553621
   -0.046885	   -0.043147	   -0.039740	   -0.036621	   -0.033755	  493.933339	  449.359464	  408.723314	  371.525162	  337.346414
   -0.046349	   -0.042498	   -0.038995	   -0.035795	   -0.032859	  493.510312	  449.158081	  408.809212	  371.945079	  338.132929
   -0.045719	   -0.041832	   -0.038303	   -0.035085	   -0.032139	  493.063829	  448.963930	  408.931349	  372.428199	  339.007435
   -0.046866	   -0.041980	   -0.037552	   -0.033521	   -0.029835	  493.315029	  449.120963	  409.073134	  372.614194	  339.282406
   -0.045329	   -0.041953	   -0.038898	   -0.036122	   -0.033587	  492.454922	  449.211287	  410.091885	  374.533566	  342.071245
   -0.046895	   -0.042536	   -0.038595	   -0.035015	   -0.031748	  492.808409	  449.558430	  410.453463	  374.924879	  342.503508
   -0.046501	   -0.042229	   -0.038377	   -0.034885	   -0.031705	  492.441324	  449.567322	  410.901359	  375.852894	  343.936946
   -0.045774	   -0.041636	   -0.037912	   -0.034542	   -0.031479	  491.938357	  449.459789	  411.226304	  376.631840	  345.180459
   -0.045785	   -0.042225	   -0.039026	   -0.036135	   -0.033510	  491.704613	  449.853261	  412.240850	  378.254409	  347.393714
   -0.047191	   -0.042824	   -0.038910	   -0.035381	   -0.032183	  492.062312	  450.241273	  412.748801	  378.945941	  348.313594
   -0.047063	   -0.043265	   -0.039865	   -0.036803	   -0.034030	  491.793203	  450.587152	  413.689349	  380.457696	  350.371653
   -0.047615	   -0.043224	   -0.039294	   -0.035757	   -0.032557	  491.823067	  450.802185	  414.093908	  381.052111	  351.153603
   -0.046098	   -0.042744	   -0.039747	   -0.037054	   -0.034621	  491.136496	  450.861893	  414.884418	  382.551172	  353.335150
   -0.047834	   -0.043760	   -0.040121	   -0.036852	   -0.033898	  491.607695	  451.488400	  415.660366	  383.470040	  354.390169
   -0.046861	   -0.043500	   -0.040504	   -0.037818	   -0.035395	  491.121377	  451.626304	  416.427162	  384.859193	  356.388066
   -0.049576	   -0.044343	   -0.039677	   -0.035491	   -0.031713	  491.972892	  452.224359	  416.781498	  384.980650	  356.287882
   -0.049972	   -0.045577	   -0.041666	   -0.038164	   -0.035010	  491.997532	  452.934560	  418.179864	  387.057949	  359.027525
   -0.050610	   -0.046174	   -0.042237	   -0.038718	   -0.035555	  492.061275	  453.367022	  419.021198	  388.329790	  360.739012
   -0.051337	   -0.046529	   -0.042261	   -0.038448	   -0.035020	  492.134188	  453.786232	  419.750446	  389.338202	  362.000087
   -0.051347	   -0.047238	   -0.043592	   -0.040335	   -0.037409	  491.993679	  454.312011	  420.883466	  391.026436	  364.197575
   -0.053087	   -0.048898	   -0.045188	   -0.041880	   -0.038911	  492.542831	  455.222990	  422.171593	  392.695951	  366.245564
   -0.053297	   -0.049427	   -0.046001	   -0.042949	   -0.040212	  492.501794	  455.682483	  423.101808	  394.067679	  368.030900
   -0.053667	   -0.050184	   -0.047103	   -0.044360	   -0.041901	  492.485665	  456.245067	  424.194417	  395.646795	  370.057656
   -0.054577	   -0.050977	   -0.047798	   -0.044970	   -0.042438	  492.772138	  456.818145	  425.068802	  396.827285	  371.542683
   -0.055892	   -0.052086	   -0.048725	   -0.045735	   -0.043058	  493.135100	  457.530911	  426.087649	  398.116173	  373.071565
   -0.055542	   -0.052065	   -0.048995	   -0.046265	   -0.043820	  492.895693	  457.847408	  426.899877	  399.373176	  374.729822
   -0.056357	   -0.052393	   -0.048900	   -0.045800	   -0.043030	  493.149980	  458.291352	  427.582691	  400.324543	  375.966279
   -0.056739	   -0.052941	   -0.049598	   -0.046635	   -0.043989	  493.205940	  458.844018	  428.610515	  401.803578	  377.871914
   -0.056519	   -0.053360	   -0.050576	   -0.048105	   -0.045897	  492.986038	  459.409603	  429.825938	  403.562807	  380.090863
   -0.057234	   -0.053647	   -0.050496	   -0.047706	   -0.045218	  493.253583	  459.874055	  430.554777	  404.597395	  381.455026
   -0.057029	   -0.054401	   -0.052094	   -0.050054	   -0.048236	  493.077051	  460.551931	  432.007763	  406.755816	  384.257569
   -0.058207	   -0.055016	   -0.052217	   -0.049742	   -0.047536	  493.466599	  461.164846	  432.824085	  407.757834	  385.429579
   -0.058037	   -0.055594	   -0.053455	   -0.051566	   -0.049887	  493.348678	  461.739041	  434.065179	  409.635096	  387.910039
   -0.060024	   -0.056927	   -0.054218	   -0.051827	   -0.049702	  494.025978	  462.571205	  435.050882	  410.770264	  389.189080
   -0.060191	   -0.057846	   -0.055797	   -0.053991	   -0.052387	  493.963609	  463.221322	  436.358766	  412.685091	  391.664280
   -0.061148	   -0.059359	   -0.057798	   -0.056424	   -0.055205	  494.234058	  464.110749	  437.822294	  414.680220	  394.151552
   -0.063944	   -0.061688	   -0.059720	   -0.057988	   -0.056453	  495.211336	  465.294424	  439.204892	  416.252420	  395.903288
   -0.065511	   -0.063053	   -0.060913	   -0.059033	   -0.057369	  495.683776	  466.083857	  440.313169	  417.673796	  397.627709
   -0.066329	   -0.064018	   -0.062005	   -0.060237	   -0.058671	  495.936462	  466.779024	  441.385265	  419.070636	  399.307108
   -0.067743	   -0.065765	   -0.064044	   -0.062533	   -0.061197	  496.383279	  467.836403	  443.008324	  421.216808	  401.936885
   -0.069157	   -0.066547	   -0.064282	   -0.062298	   -0.060546	  496.939887	  468.582045	  443.975039	  422.420858	  403.384569
   -0.069179	   -0.066955	   -0.065025	   -0.063333	   -0.061838	  496.909014	  469.222412	  445.188608	  424.129448	  405.524861
   -0.069745	   -0.067136	   -0.064877	   -0.062902	   -0.061160	  497.119696	  469.737662	  446.024210	  425.288365	  407.002427
   -0.069876	   -0.067983	   -0.066345	   -0.064914	   -0.063653	  497.118482	  470.470907	  447.413092	  427.265433	  409.509693
   -0.070791	   -0.069051	   -0.067547	   -0.066234	   -0.065078	  497.468861	  471.324420	  448.720493	  428.983496	  411.600524
   -0.071285	   -0.069693	   -0.068318	   -0.067118	   -0.066061	  497.611204	  471.951963	  449.776212	  430.419668	  413.376851
   -0.072305	   -0.070263	   -0.068499	   -0.066958	   -0.065602	  498.021433	  472.564589	  450.559678	  431.349162	  414.432531
   -0.073297	   -0.071330	   -0.069630	   -0.068144	   -0.066836	  498.318195	  473.367308	  451.788600	  432.941707	  416.338748
   -0.073787	   -0.071705	   -0.069907	   -0.068338	   -0.066956	  498.575776	  473.902221	  452.585856	  433.985135	  417.612188
   -0.074385	   -0.072200	   -0.070315	   -0.068671	   -0.067225	  498.771514	  474.456148	  453.468536	  435.169284	  419.072946
   -0.074527	   -0.072702	   -0.071124	   -0.069747	   -0.068534	  498.796870	  475.036147	  454.495133	  436.560922	  420.766889
   -0.076047	   -0.073896	   -0.072041	   -0.070426	   -0.069006	  499.417631	  475.864447	  455.559778	  437.874915	  422.333556
   -0.076388	   -0.074529	   -0.072923	   -0.071523	   -0.070291	  499.536554	  476.530422	  456.664502	  439.336939	  424.090440
   -0.077209	   -0.075827	   -0.074635	   -0.073598	   -0.072687	  499.861379	  477.405847	  458.054404	  441.205030	  426.401928
   -0.077763	   -0.076201	   -0.074858	   -0.073692	   -0.072669	  500.021001	  477.884360	  458.857196	  442.327333	  427.833395
   -0.079348	   -0.077811	   -0.076488	   -0.075338	   -0.074328	  500.578226	  478.858817	  460.165571	  443.907225	  429.637130
   -0.080809	   -0.079150	   -0.077721	   -0.076476	   -0.075383	  501.126024	  479.754289	  461.339161	  445.306799	  431.222839
   -0.082636	   -0.081081	   -0.079741	   -0.078574	   -0.077549	  501.806259	  480.867791	  462.823900	  447.113163	  433.310531
   -0.084301	   -0.083000	   -0.081884	   -0.080914	   -0.080065	  502.401390	  481.954872	  464.397480	  449.157266	  435.803904
   -0.084696	   -0.083544	   -0.082551	   -0.081687	   -0.080927	  502.507278	  482.502386	  465.266819	  450.262758	  437.083178
   -0.086088	   -0.085035	   -0.084132	   -0.083350	   -0.082666	  503.003993	  483.335946	  466.484016	  451.883782	  439.112212
   -0.087169	   -0.086037	   -0.085067	   -0.084224	   -0.083486	  503.454893	  483.916216	  467.147187	  452.597879	  439.854913
   -0.087275	   -0.086434	   -0.085713	   -0.085088	   -0.084542	  503.467484	  484.207063	  467.700534	  453.396669	  440.882153
   -0.086575	   -0.085941	   -0.085398	   -0.084927	   -0.084516	  503.174983	  484.142239	  467.842523	  453.726591	  441.383133
   -0.087679	   -0.085906	   -0.084390	   -0.083078	   -0.081933	  503.681295	  484.324492	  467.776586	  453.467530	  440.971757
   -0.087672	   -0.086813	   -0.086079	   -0.085445	   -0.084891	  503.674771	  484.925075	  468.912363	  455.078105	  443.006061
   -0.087317	   -0.087562	   -0.087771	   -0.087952	   -0.088111	  503.534868	  485.538575	  470.140727	  456.816442	  445.173286
   -0.088391	   -0.088434	   -0.088471	   -0.088503	   -0.088530	  503.948056	  486.225422	  471.090385	  458.014797	  446.605085
   -0.087038	   -0.087357	   -0.087629	   -0.087864	   -0.088068	  503.428936	  486.140271	  471.403859	  458.693382	  447.617926
   -0.084185	   -0.084000	   -0.083842	   -0.083706	   -0.083588	  502.429893	  485.115454	  470.353810	  457.619157	  446.520814
   -0.082788	   -0.082997	   -0.083175	   -0.083328	   -0.083461	  501.967827	  484.809792	  470.234058	  457.698466	  446.802697
   -0.084076	   -0.084251	   -0.084401	   -0.084530	   -0.084642	  502.411098	  485.226144	  470.577435	  457.942088	  446.931710
   -0.085386	   -0.085934	   -0.086402	   -0.086805	   -0.087156	  502.857270	  485.784588	  471.236392	  458.691297	  447.762248
   -0.084731	   -0.085206	   -0.085610	   -0.085959	   -0.086263	  502.607129	  485.522508	  470.963929	  458.409728	  447.472629
   -0.082578	   -0.083310	   -0.083934	   -0.084472	   -0.084942	  501.800327	  484.941639	  470.565143	  458.160230	  447.347353
   -0.078834	   -0.079454	   -0.079980	   -0.080433	   -0.080826	  500.421994	  483.689090	  469.481458	  457.267548	  446.655214
   -0.076451	   -0.077160	   -0.077758	   -0.078269	   -0.078711	  499.571200	  482.992206	  469.000290	  457.033726	  446.682434
   -0.073086	   -0.073707	   -0.074232	   -0.074682	   -0.075072	  498.221933	  481.797532	  467.903231	  455.996214	  445.678580
   -0.072106	   -0.072432	   -0.072708	   -0.072946	   -0.073152	  497.826783	  481.388853	  467.453111	  455.488637	  445.104796
   -0.071255	   -0.070785	   -0.070386	   -0.070044	   -0.069747	  497.504259	  480.831026	  466.699118	  454.568658	  444.042579
   -0.067802	   -0.067688	   -0.067591	   -0.067507	   -0.067434	  496.163825	  479.776642	  465.843312	  453.851059	  443.420674
   -0.065290	   -0.065112	   -0.064961	   -0.064831	   -0.064717	  495.112208	  478.858171	  465.038083	  453.143321	  442.797750
   -0.064134	   -0.063347	   -0.062680	   -0.062109	   -0.061614	  494.663560	  478.197062	  464.261395	  452.314730	  441.959605
   -0.060937	   -0.060675	   -0.060453	   -0.060263	   -0.060099	  493.410850	  477.201027	  463.520584	  451.820340	  441.699370
   -0.061664	   -0.061332	   -0.061051	   -0.060811	   -0.060603	  493.627088	  477.461713	  463.792694	  452.083225	  441.940117
   -0.060436	   -0.059627	   -0.058948	   -0.058368	   -0.057869	  493.204734	  476.782903	  462.980831	  451.217937	  441.073393
   -0.060713	   -0.059948	   -0.059301	   -0.058747	   -0.058267	  493.236148	  476.920876	  463.135608	  451.334200	  441.117146
   -0.061072	   -0.060422	   -0.059876	   -0.059409	   -0.059006	  493.296037	  477.070174	  463.404678	  451.737844	  441.661078
   -0.059447	   -0.058881	   -0.058404	   -0.057996	   -0.057644	  492.625235	  476.465736	  462.847800	  451.215537	  441.164154
   -0.058582	   -0.058063	   -0.057624	   -0.057248	   -0.056923	  492.273793	  476.148996	  462.523192	  450.857225	  440.756631
   -0.058762	   -0.058028	   -0.057410	   -0.056882	   -0.056425	  492.274122	  476.120248	  462.503443	  450.869531	  440.814781
   -0.057995	   -0.057795	   -0.057626	   -0.057482	   -0.057358	  491.991014	  476.018608	  462.579834	  451.116142	  441.221926
   -0.059022	   -0.058766	   -0.058551	   -0.058368	   -0.058210	  492.385734	  476.395162	  462.965333	  451.526728	  441.667057
   -0.058601	   -0.058150	   -0.057769	   -0.057445	   -0.057165	  492.139445	  476.130909	  462.658869	  451.164730	  441.242702
   -0.057376	   -0.057921	   -0.058376	   -0.058762	   -0.059093	  491.838918	  476.033240	  462.843065	  451.668790	  442.081078
   -0.058418	   -0.058176	   -0.057972	   -0.057800	   -0.057652	  492.114590	  476.108218	  462.710665	  451.332189	  441.548344
   -0.058182	   -0.057932	   -0.057722	   -0.057544	   -0.057391	  492.016153	  476.002823	  462.593705	  451.201297	  441.402452
   -0.058696	   -0.058400	   -0.058152	   -0.057940	   -0.057759	  492.180266	  476.198182	  462.790507	  451.381574	  441.555443
   -0.058899	   -0.058828	   -0.058768	   -0.058717	   -0.058673	  492.158764	  476.332645	  463.040136	  451.717918	  441.958146
   -0.058095	   -0.057887	   -0.057712	   -0.057563	   -0.057434	  491.836896	  475.950303	  462.591635	  451.201981	  441.375886
   -0.057703	   -0.057813	   -0.057906	   -0.057985	   -0.058053	  491.755830	  475.942662	  462.659367	  451.343800	  441.588876
   -0.057922	   -0.057946	   -0.057967	   -0.057984	   -0.057998	  491.834403	  475.981509	  462.701955	  451.416197	  441.706567
   -0.057232	   -0.057390	   -0.057522	   -0.057634	   -0.057731	  491.562548	  475.774434	  462.537037	  451.278421	  441.585746
   -0.057754	   -0.057833	   -0.057898	   -0.057954	   -0.058002	  491.799084	  475.949891	  462.714567	  451.495747	  441.865209
   -0.056143	   -0.056973	   -0.057666	   -0.058254	   -0.058758	  491.186753	  475.618674	  462.620444	  451.604264	  442.148898
   -0.058219	   -0.058257	   -0.058289	   -0.058316	   -0.058339	  491.924910	  476.121267	  462.876222	  451.614953	  441.922832
   -0.058108	   -0.058300	   -0.058460	   -0.058595	   -0.058712	  491.934240	  476.134137	  462.935015	  451.743464	  442.133832
   -0.057314	   -0.057783	   -0.058175	   -0.058506	   -0.058791	  491.666585	  475.945065	  462.827963	  451.717615	  442.186230
   -0.057232	   -0.058319	   -0.059222	   -0.059985	   -0.060637	  491.655216	  476.141228	  463.249441	  452.366846	  443.057699
   -0.058315	   -0.057910	   -0.057572	   -0.057286	   -0.057041	  492.041814	  475.990414	  462.609396	  451.283550	  441.573166
   -0.057503	   -0.057479	   -0.057460	   -0.057443	   -0.057429	  491.661923	  475.829354	  462.568208	  451.299085	  441.604494
   -0.057692	   -0.057901	   -0.058076	   -0.058224	   -0.058351	  491.754808	  476.003454	  462.832804	  451.656646	  442.053817
   -0.056871	   -0.057618	   -0.058241	   -0.058768	   -0.059219	  491.453516	  475.884962	  462.913360	  451.938948	  442.533445
   -0.056643	   -0.057163	   -0.057596	   -0.057963	   -0.058276	  491.428222	  475.709745	  462.619301	  451.548652	  442.063810
   -0.057070	   -0.057624	   -0.058087	   -0.058480	   -0.058817	  491.547288	  475.897862	  462.822519	  451.734428	  442.212538
   -0.057298	   -0.057890	   -0.058385	   -0.058805	   -0.059165	  491.634878	  476.014793	  462.962867	  451.893850	  442.387765
   -0.057645	   -0.057507	   -0.057392	   -0.057294	   -0.057210	  491.808677	  475.878059	  462.554352	  451.246056	  441.528033
   -0.058036	   -0.058487	   -0.058864	   -0.059185	   -0.059460	  491.886679	  476.259434	  463.185530	  452.086441	  442.546145
   -0.057817	   -0.058312	   -0.058727	   -0.059079	   -0.059382	  491.793031	  476.187139	  463.121387	  452.022269	  442.476840
   -0.057403	   -0.057897	   -0.058308	   -0.058656	   -0.058955	  491.725577	  476.016719	  462.915526	  451.822454	  442.308667
   -0.058201	   -0.058498	   -0.058747	   -0.058957	   -0.059139	  491.936296	  476.250910	  463.131516	  451.996064	  442.426164
   -0.058347	   -0.058944	   -0.059443	   -0.059867	   -0.060230	  492.005064	  476.429848	  463.411586	  452.368388	  442.882474
   -0.058281	   -0.057985	   -0.057737	   -0.057527	   -0.057347	  491.968300	  476.064856	  462.770020	  451.490613	  441.800633
   -0.058658	   -0.059284	   -0.059808	   -0.060252	   -0.060633	  492.166245	  476.593823	  463.577033	  452.534466	  443.048642
   -0.057390	   -0.057699	   -0.057957	   -0.058176	   -0.058364	  491.677063	  475.947628	  462.793284	  451.629518	  442.036276
   -0.058177	   -0.057938	   -0.057739	   -0.057569	   -0.057423	  491.964240	  476.041826	  462.703094	  451.366368	  441.612390
   -0.057278	   -0.057539	   -0.057758	   -0.057944	   -0.058105	  491.588662	  475.930711	  462.785672	  451.593544	  441.949215
   -0.057632	   -0.057810	   -0.057959	   -0.058085	   -0.058194	  491.744118	  476.022053	  462.878296	  451.726675	  442.146187
   -0.056768	   -0.057892	   -0.058827	   -0.059619	   -0.060296	  491.443511	  476.027004	  463.188757	  452.331895	  443.030586
   -0.057161	   -0.057602	   -0.057969	   -0.058280	   -0.058547	  491.640240	  475.960682	  462.879355	  451.799850	  442.295322
   -0.057782	   -0.058023	   -0.058224	   -0.058394	   -0.058541	  491.855631	  476.097379	  462.929583	  451.761999	  442.171046
   -0.058078	   -0.058324	   -0.058531	   -0.058706	   -0.058856	  491.926122	  476.238980	  463.106124	  451.950663	  442.357265
   -0.057986	   -0.058412	   -0.058769	   -0.059072	   -0.059334	  491.873195	  476.248335	  463.135595	  451.974219	  442.358784
   -0.058456	   -0.058314	   -0.058196	   -0.058096	   -0.058010	  492.141458	  476.240760	  462.943451	  451.658541	  441.961334
   -0.058795	   -0.058765	   -0.058739	   -0.058718	   -0.058699	  492.238437	  476.402129	  463.142708	  451.878529	  442.190747
   -0.057150	   -0.057576	   -0.057933	   -0.058235	   -0.058495	  491.651093	  475.958085	  462.835276	  451.699040	  442.130018
   -0.057646	   -0.057932	   -0.058173	   -0.058379	   -0.058556	  491.750089	  476.074796	  462.895232	  451.659313	  441.966610
   -0.057209	   -0.057905	   -0.058489	   -0.058985	   -0.059413	  491.690221	  476.109123	  463.043046	  451.928524	  442.358712
   -0.057971	   -0.057936	   -0.057906	   -0.057881	   -0.057860	  491.973768	  476.098303	  462.826674	  451.566829	  441.893559
   -0.058238	   -0.058400	   -0.058536	   -0.058652	   -0.058752	  492.029154	  476.275535	  463.049507	  451.787937	  442.083411
   -0.057797	   -0.057866	   -0.057923	   -0.057972	   -0.058014	  491.861154	  476.075155	  462.808279	  451.502083	  441.751828
   -0.058668	   -0.058365	   -0.058112	   -0.057897	   -0.057712	  492.243510	  476.284445	  462.919038	  451.562527	  441.793648
   -0.058284	   -0.058436	   -0.058563	   -0.058671	   -0.058765	  492.062073	  476.321759	  463.102627	  451.843850	  442.139459
   -0.059117	   -0.058870	   -0.058663	   -0.058487	   -0.058334	  492.417269	  476.494196	  463.110190	  451.702785	  441.864221
   -0.058440	   -0.059152	   -0.059751	   -0.060262	   -0.060704	  492.182671	  476.595284	  463.479883	  452.291628	  442.634834
   -0.058364	   -0.058494	   -0.058603	   -0.058697	   -0.058778	  492.185432	  476.354433	  463.010926	  451.611335	  441.759709
   -0.059779	   -0.059335	   -0.058960	   -0.058637	   -0.058358	  492.654093	  476.679118	  463.149681	  451.544144	  441.479377
   -0.059703	   -0.060028	   -0.060303	   -0.060539	   -0.060743	  492.643080	  476.976309	  463.720722	  452.359456	  442.513522
   -0.059726	   -0.059238	   -0.058825	   -0.058471	   -0.058164	  492.659790	  476.658375	  463.117617	  451.510450	  441.450307
   -0.059559	   -0.059072	   -0.058660	   -0.058307	   -0.058001	  492.676821	  476.622840	  463.045990	  451.414004	  441.336914
   -0.060226	   -0.060209	   -0.060194	   -0.060181	   -0.060169	  492.972587	  477.075099	  463.606807	  452.050446	  442.025876
   -0.060643	   -0.060631	   -0.060622	   -0.060613	   -0.060606	  493.131999	  477.224546	  463.721267	  452.115422	  442.033333
   -0.061135	   -0.060646	   -0.060231	   -0.059874	   -0.059564	  493.413406	  477.261484	  463.545140	  451.752099	  441.504337
   -0.062500	   -0.062178	   -0.061905	   -0.061670	   -0.061466	  493.890625	  477.815316	  464.158016	  452.411320	  442.200511
   -0.062713	   -0.062736	   -0.062755	   -0.062772	   -0.062787	  494.031415	  478.044121	  464.403830	  452.629059	  442.361596
   -0.062901	   -0.063081	   -0.063235	   -0.063368	   -0.063483	  494.175310	  478.147376	  464.472202	  452.667162	  442.373187
   -0.064286	   -0.064169	   -0.064069	   -0.063984	   -0.063909	  494.779357	  478.562500	  464.752047	  452.849367	  442.484692
   -0.064529	   -0.064731	   -0.064902	   -0.065049	   -0.065177	  494.876515	  478.723777	  465.031114	  453.276288	  443.075110
   -0.066227	   -0.066552	   -0.066830	   -0.067070	   -0.067279	  495.505164	  479.355542	  465.565603	  453.653384	  443.259810
   -0.068435	   -0.068281	   -0.068149	   -0.068035	   -0.067936	  496.361924	  479.948614	  465.948396	  453.865550	  443.331434
   -0.069329	   -0.069164	   -0.069023	   -0.068902	   -0.068796	  496.773476	  480.172891	  466.030449	  453.837800	  443.217725
   -0.070574	   -0.070006	   -0.069519	   -0.069098	   -0.068730	  497.204965	  480.385989	  465.980456	  453.503666	  442.592567
   -0.072432	   -0.071904	   -0.071451	   -0.071059	   -0.070715	  497.850015	  481.022533	  466.586322	  454.065478	  443.102524
   -0.071736	   -0.071408	   -0.071128	   -0.070886	   -0.070674	  497.620239	  480.722414	  466.286479	  453.810948	  442.921875
   -0.072248	   -0.072912	   -0.073481	   -0.073974	   -0.074404	  497.781513	  481.247367	  467.089404	  454.829729	  444.110548
   -0.072559	   -0.072840	   -0.073080	   -0.073288	   -0.073468	  497.982072	  481.155933	  466.789787	  454.380907	  443.554809
   -0.073972	   -0.074295	   -0.074570	   -0.074807	   -0.075014	  498.486714	  481.569976	  467.157588	  454.731764	  443.908250
   -0.076257	   -0.076047	   -0.075868	   -0.075713	   -0.075579	  499.414011	  482.122670	  467.412958	  454.746875	  443.726199
   -0.078302	   -0.077710	   -0.077204	   -0.076767	   -0.076387	  500.169813	  482.548865	  467.514112	  454.535122	  443.217239
   -0.079424	   -0.080165	   -0.080800	   -0.081350	   -0.081830	  500.516013	  483.220187	  468.408115	  455.580622	  444.363899
   -0.081377	   -0.081053	   -0.080776	   -0.080536	   -0.080326	  501.149738	  483.154051	  467.766319	  454.457923	  442.834070
   -0.080367	   -0.079931	   -0.079557	   -0.079233	   -0.078950	  500.678844	  482.247238	  466.462378	  452.792353	  440.838833
   -0.080230	   -0.079975	   -0.079756	   -0.079567	   -0.079401	  500.601468	  481.763408	  465.645941	  451.699396	  439.512834
   -0.082201	   -0.081305	   -0.080535	   -0.079866	   -0.079279	  501.236742	  481.729737	  464.963047	  450.397135	  437.625379
   -0.081412	   -0.080766	   -0.080212	   -0.079732	   -0.079312	  500.923325	  480.961649	  463.857661	  449.038697	  436.075525
   -0.081362	   -0.080215	   -0.079225	   -0.078364	   -0.077607	  500.752946	  480.153240	  462.400240	  446.941997	  433.360591
   -0.081812	   -0.080016	   -0.078469	   -0.077124	   -0.075943	  500.861928	  479.441839	  460.997596	  444.949337	  430.858664
   -0.082717	   -0.080487	   -0.078563	   -0.076886	   -0.075411	  501.109322	  478.942866	  459.818670	  443.150644	  428.494164
   -0.080302	   -0.078363	   -0.076692	   -0.075235	   -0.073955	  500.201604	  477.423524	  457.781261	  440.668965	  425.627412
   -0.079851	   -0.077990	   -0.076384	   -0.074983	   -0.073750	  499.986950	  476.588596	  456.384517	  438.762400	  423.257031
   -0.079248	   -0.077909	   -0.076753	   -0.075743	   -0.074854	  499.697425	  475.861880	  455.262185	  437.281287	  421.449649
   -0.080694	   -0.078374	   -0.076368	   -0.074616	   -0.073072	  500.220262	  475.349024	  453.837991	  435.049286	  418.496879
   -0.080705	   -0.078811	   -0.077175	   -0.075747	   -0.074491	  500.234056	  474.817581	  452.858475	  433.696211	  416.828447
   -0.081136	   -0.079156	   -0.077443	   -0.075946	   -0.074627	  500.312665	  474.240813	  451.680596	  431.967304	  414.594030
   -0.081542	   -0.079948	   -0.078568	   -0.077361	   -0.076297	  500.453318	  473.849864	  450.814503	  430.674513	  412.916281
   -0.083192	   -0.081295	   -0.079652	   -0.078215	   -0.076947	  501.034028	  473.738334	  450.094237	  429.414916	  411.175632
   -0.084349	   -0.082196	   -0.080328	   -0.078692	   -0.077246	  501.453919	  473.438200	  449.128014	  427.833791	  409.027063
   -0.082950	   -0.080787	   -0.078906	   -0.077256	   -0.075796	  500.885265	  472.319391	  447.481185	  425.685684	  406.406055
   -0.082198	   -0.080832	   -0.079644	   -0.078602	   -0.077680	  500.634622	  471.760768	  446.662159	  424.643813	  405.171470
   -0.082066	   -0.079629	   -0.077511	   -0.075652	   -0.074008	  500.704989	  470.754460	  444.715647	  421.869189	  401.661921
   -0.080576	   -0.077990	   -0.075735	   -0.073751	   -0.071993	  500.160825	  469.539154	  442.838428	  419.350875	  398.529404
   -0.078755	   -0.076625	   -0.074764	   -0.073123	   -0.071665	  499.488052	  468.372780	  441.174673	  417.197824	  395.901956
   -0.078888	   -0.076262	   -0.073965	   -0.071939	   -0.070139	  499.633623	  467.615473	  439.615180	  414.921112	  392.980325
   -0.078571	   -0.075811	   -0.073393	   -0.071258	   -0.069359	  499.656786	  466.879760	  438.171650	  412.819066	  390.266181
   -0.078943	   -0.075578	   -0.072621	   -0.070003	   -0.067668	  499.819940	  466.219613	  436.700609	  410.561885	  387.254261
   -0.078241	   -0.075361	   -0.072832	   -0.070594	   -0.068599	  499.701478	  465.572548	  435.606707	  409.086015	  385.448640
   -0.077324	   -0.074433	   -0.071888	   -0.069631	   -0.067616	  499.449696	  464.715243	  434.139657	  407.018195	  382.796833
   -0.076116	   -0.073531	   -0.071252	   -0.069228	   -0.067417	  499.102404	  463.897848	  432.853924	  405.274203	  380.609471
   -0.075525	   -0.072472	   -0.069775	   -0.067375	   -0.065226	  499.039869	  463.087469	  431.325593	  403.061932	  377.748718
   -0.074172	   -0.070484	   -0.067221	   -0.064311	   -0.061702	  498.739261	  461.928125	  429.347775	  400.308469	  374.262665
   -0.071897	   -0.068876	   -0.066200	   -0.063811	   -0.061666	  498.128354	  460.932721	  427.969512	  398.555215	  372.145979
   -0.071685	   -0.067910	   -0.064560	   -0.061567	   -0.058876	  498.267857	  460.169417	  426.360098	  396.154194	  369.004772
   -0.070808	   -0.066888	   -0.063406	   -0.060291	   -0.057490	  498.219960	  459.458259	  425.019858	  394.219662	  366.510066
   -0.070324	   -0.066473	   -0.063045	   -0.059974	   -0.057208	  498.240214	  458.993735	  424.062066	  392.770720	  364.578828
   -0.070435	   -0.066155	   -0.062342	   -0.058923	   -0.055841	  498.555840	  458.582436	  422.970281	  391.042554	  362.255592
   -0.069429	   -0.065683	   -0.062337	   -0.059331	   -0.056615	  498.384687	  458.121224	  422.159646	  389.845473	  360.650582
   -0.068987	   -0.064263	   -0.060038	   -0.056238	   -0.052802	  498.496102	  457.357598	  420.572509	  387.484524	  357.562942
   -0.068379	   -0.063553	   -0.059220	   -0.055309	   -0.051761	  498.424133	  456.903463	  419.629437	  385.982245	  355.457099
   -0.068305	   -0.062848	   -0.057942	   -0.053508	   -0.049481	  498.586597	  456.402259	  418.479221	  384.202838	  353.071249
   -0.066439	   -0.061657	   -0.057351	   -0.053453	   -0.049908	  498.059797	  455.761290	  417.673008	  383.196148	  351.840321
   -0.067521	   -0.061673	   -0.056378	   -0.051560	   -0.047158	  498.637764	  455.626913	  416.678915	  381.244061	  348.867530
   -0.066428	   -0.061267	   -0.056592	   -0.052338	   -0.048449	  498.444901	  455.274544	  416.166697	  380.573681	  348.042028
   -0.066067	   -0.060816	   -0.056042	   -0.051683	   -0.047687	  498.499921	  454.981282	  415.418712	  379.296223	  346.183824
   -0.066460	   -0.060852	   -0.055744	   -0.051071	   -0.046780	  498.927342	  454.929188	  414.849909	  378.188251	  344.524953
   -0.065748	   -0.060084	   -0.054911	   -0.050166	   -0.045798	  498.939092	  454.582002	  414.058234	  376.891460	  342.681128
   -0.065347	   -0.059296	   -0.053774	   -0.048714	   -0.044061	  499.185283	  454.192296	  413.129111	  375.502413	  340.898139
   -0.063211	   -0.058222	   -0.053659	   -0.049469	   -0.045608	  498.724653	  453.831035	  412.763650	  375.053334	  340.304613
   -0.061767	   -0.056763	   -0.052188	   -0.047990	   -0.044123	  498.611813	  453.262734	  411.802249	  373.750761	  338.704427
   -0.061171	   -0.056300	   -0.051833	   -0.047724	   -0.043929	  498.739131	  453.101834	  411.259897	  372.758770	  337.213698
   -0.061443	   -0.056610	   -0.052172	   -0.048082	   -0.044301	  499.125906	  453.224382	  411.075557	  372.237297	  336.334301
   -0.060368	   -0.055042	   -0.050143	   -0.045623	   -0.041438	  499.100413	  452.660012	  409.949065	  370.535667	  334.052127
   -0.059178	   -0.054696	   -0.050573	   -0.046767	   -0.043244	  499.136481	  452.579948	  409.753795	  370.226943	  333.632270
   -0.057996	   -0.052640	   -0.047704	   -0.043140	   -0.038908	  499.100226	  451.861880	  408.327384	  368.077556	  330.754169
   -0.057398	   -0.052725	   -0.048404	   -0.044397	   -0.040671	  499.218378	  452.002840	  408.346058	  367.860298	  330.212174
   -0.058318	   -0.052570	   -0.047249	   -0.042309	   -0.037710	  499.985365	  452.022755	  407.621885	  366.400212	  328.028083
   -0.057794	   -0.051267	   -0.045210	   -0.039574	   -0.034317	  500.213245	  451.701562	  406.683220	  364.793996	  325.718602
   -0.056400	   -0.050160	   -0.044357	   -0.038948	   -0.033894	  500.139791	  451.481703	  406.238081	  364.061706	  324.650892
   -0.055608	   -0.049534	   -0.043877	   -0.038595	   -0.033651	  500.365387	  451.485176	  405.956954	  363.447354	  323.665798
   -0.054424	   -0.047839	   -0.041693	   -0.035944	   -0.030553	  500.401376	  451.044353	  404.974666	  361.874477	  321.465646
   -0.053339	   -0.046288	   -0.039687	   -0.033493	   -0.027672	  500.433570	  450.698702	  404.135760	  360.450678	  319.384651
   -0.051958	   -0.045439	   -0.039322	   -0.033569	   -0.028149	  500.337860	  450.628388	  403.975760	  360.106418	  318.778503
   -0.050149	   -0.043989	   -0.038190	   -0.032722	   -0.027558	  500.128492	  450.397144	  403.584617	  359.441270	  317.745144
   -0.049635	   -0.042212	   -0.035207	   -0.028585	   -0.022318	  500.489936	  450.073430	  402.498566	  357.531683	  314.964053
   -0.047589	   -0.040647	   -0.034079	   -0.027857	   -0.021953	  500.234574	  449.860059	  402.203913	  357.051880	  314.211641
   -0.044971	   -0.038346	   -0.032070	   -0.026116	   -0.020459	  499.877844	  449.390263	  401.559717	  356.181835	  313.072681
   -0.044345	   -0.037212	   -0.030436	   -0.023990	   -0.017851	  500.150474	  449.373322	  401.135618	  355.251505	  311.552833
   -0.041592	   -0.035052	   -0.028830	   -0.022904	   -0.017252	  499.729460	  448.993715	  400.724849	  354.747212	  310.901449
   -0.039897	   -0.033517	   -0.027433	   -0.021622	   -0.016068	  499.610521	  448.868945	  400.470390	  354.256233	  310.081853
   -0.039067	   -0.032678	   -0.026576	   -0.020743	   -0.015162	  499.807911	  448.927539	  400.339906	  353.893455	  309.449700
   -0.038911	   -0.032408	   -0.026184	   -0.020220	   -0.014501	  500.196093	  449.204443	  400.396942	  353.636200	  308.796113
   -0.038603	   -0.032097	   -0.025854	   -0.019860	   -0.014099	  500.523849	  449.483355	  400.510709	  353.482743	  308.285878
   -0.039196	   -0.032089	   -0.025256	   -0.018682	   -0.012352	  501.204924	  449.882948	  400.541860	  353.069145	  307.360653
   -0.038021	   -0.030591	   -0.023433	   -0.016531	   -0.009872	  501.206191	  449.730131	  400.133237	  352.314453	  306.179840
   -0.037230	   -0.029860	   -0.022752	   -0.015891	   -0.009265	  501.440544	  449.896857	  400.182439	  352.201608	  305.865240
   -0.036334	   -0.029421	   -0.022749	   -0.016304	   -0.010076	  501.626900	  450.163743	  400.487952	  352.508000	  306.138506
   -0.034856	   -0.028299	   -0.021955	   -0.015814	   -0.009866	  501.527986	  450.234192	  400.605655	  352.562574	  306.030171
   -0.035145	   -0.027792	   -0.020656	   -0.013730	   -0.007003	  502.146314	  450.560280	  400.505204	  351.913927	  304.723165
   -0.034113	   -0.026405	   -0.018907	   -0.011610	   -0.004506	  502.418640	  450.692298	  400.371953	  351.401047	  303.726018
   -0.029903	   -0.023009	   -0.016289	   -0.009737	   -0.003346	  501.579010	  450.166843	  400.051935	  351.185796	  303.522326
   -0.028716	   -0.021646	   -0.014736	   -0.007983	   -0.001379	  501.840733	  450.421017	  400.171424	  351.052461	  303.026395
   -0.027862	   -0.020311	   -0.012911	   -0.005658	    0.001453	  502.162256	  450.609597	  400.090256	  350.573476	  302.029705
   -0.027989	   -0.020423	   -0.012997	   -0.005708	    0.001447	  502.765660	  451.219699	  400.632886	  350.978697	  302.231577
   -0.030613	   -0.023103	   -0.015712	   -0.008438	   -0.001279	  504.091481	  452.650611	  402.030197	  352.210766	  303.173455
   -0.033313	   -0.025924	   -0.018641	   -0.011460	   -0.004379	  505.402295	  454.089166	  403.503611	  353.630265	  304.454192
   -0.035449	   -0.027915	   -0.020474	   -0.013124	   -0.005864	  506.508491	  455.228885	  404.580500	  354.551752	  305.131339
   -0.037458	   -0.029891	   -0.022403	   -0.014991	   -0.007654	  507.487987	  456.319176	  405.677905	  355.556057	  305.945681
   -0.039586	   -0.032125	   -0.024731	   -0.017404	   -0.010142	  508.610962	  457.547820	  406.943065	  356.790553	  307.084248
   -0.041721	   -0.034303	   -0.026938	   -0.019628	   -0.012372	  509.701122	  458.737924	  408.150595	  357.934992	  308.087032
   -0.043636	   -0.036507	   -0.029422	   -0.022379	   -0.015379	  510.680454	  459.927485	  409.481611	  359.340055	  309.500071
   -0.045763	   -0.038335	   -0.030940	   -0.023578	   -0.016249	  511.755865	  460.961274	  410.393851	  360.052074	  309.934438
   -0.047479	   -0.039957	   -0.032457	   -0.024979	   -0.017522	  512.622629	  461.897101	  411.320026	  360.890753	  310.608635
   -0.049325	   -0.041710	   -0.034108	   -0.026519	   -0.018942	  513.538112	  462.881401	  412.307960	  361.817584	  311.410067
   -0.051157	   -0.043529	   -0.035900	   -0.028270	   -0.020639	  514.450433	  463.920993	  413.387140	  362.848874	  312.306195
   -0.052766	   -0.045234	   -0.037692	   -0.030141	   -0.022579	  515.278910	  464.903759	  414.460997	  363.950486	  313.372090
   -0.054686	   -0.046961	   -0.039213	   -0.031443	   -0.023651	  516.259333	  465.919456	  415.434363	  364.803427	  314.026014
   -0.056511	   -0.048802	   -0.041059	   -0.033280	   -0.025465	  517.146830	  466.941040	  416.506417	  365.841391	  314.944379
   -0.058365	   -0.050894	   -0.043378	   -0.035818	   -0.028213	  518.027723	  468.036290	  417.751361	  367.170343	  316.290614
   -0.060274	   -0.052756	   -0.045184	   -0.037558	   -0.029878	  518.911864	  469.014576	  418.764324	  368.157349	  317.189840
   -0.061874	   -0.054383	   -0.046829	   -0.039212	   -0.031531	  519.655236	  469.876923	  419.684211	  369.071901	  318.034712
   -0.063333	   -0.055792	   -0.048180	   -0.040497	   -0.032740	  520.322916	  470.625167	  420.459575	  369.819504	  318.698189
   -0.064459	   -0.056874	   -0.049211	   -0.041469	   -0.033647	  520.860077	  471.230499	  421.093290	  370.440620	  319.264501
   -0.065388	   -0.057958	   -0.050444	   -0.042846	   -0.035162	  521.303736	  471.831970	  421.806109	  371.216793	  320.054448
   -0.066235	   -0.058942	   -0.051560	   -0.044088	   -0.036526	  521.730678	  472.407494	  422.489686	  371.966436	  320.826661
   -0.067221	   -0.059953	   -0.052593	   -0.045138	   -0.037586	  522.220790	  472.989478	  423.129031	  372.627311	  321.471867
   -0.068063	   -0.060910	   -0.053658	   -0.046305	   -0.038849	  522.645288	  473.561706	  423.800386	  373.347192	  322.187594
   -0.069279	   -0.062054	   -0.054722	   -0.047281	   -0.039729	  523.219023	  474.204046	  424.463512	  373.981188	  322.740359
   -0.069488	   -0.062219	   -0.054834	   -0.047331	   -0.039709	  523.365954	  474.434899	  424.730000	  374.232754	  322.924063
   -0.069241	   -0.061952	   -0.054544	   -0.047012	   -0.039355	  523.304781	  474.433593	  424.760763	  374.266401	  322.929958
   -0.069021	   -0.061655	   -0.054162	   -0.046539	   -0.038784	  523.244374	  474.399550	  424.717900	  374.177734	  322.756604
   -0.069308	   -0.061884	   -0.054332	   -0.046647	   -0.038826	  523.395001	  474.562795	  424.881384	  374.328423	  322.880774
   -0.069088	   -0.061770	   -0.054323	   -0.046742	   -0.039023	  523.325305	  474.576294	  424.958545	  374.448627	  323.022260
   -0.069066	   -0.061843	   -0.054493	   -0.047012	   -0.039396	  523.346994	  474.643348	  425.079995	  374.633967	  323.281475
   -0.069061	   -0.061801	   -0.054411	   -0.046887	   -0.039227	  523.344572	  474.654085	  425.093586	  374.639547	  323.267582
   -0.069061	   -0.061763	   -0.054332	   -0.046765	   -0.039059	  523.354572	  474.669497	  425.102218	  374.628536	  323.223360
   -0.068897	   -0.061637	   -0.054246	   -0.046721	   -0.039056	  523.300973	  474.631301	  425.081273	  374.626783	  323.242840
   -0.068671	   -0.061448	   -0.054093	   -0.046603	   -0.038974	  523.218177	  474.573461	  425.041351	  374.597340	  323.216014
   -0.068666	   -0.061389	   -0.053980	   -0.046435	   -0.038749	  523.215083	  474.550880	  424.999309	  374.535874	  323.135171
   -0.068671	   -0.061394	   -0.053984	   -0.046438	   -0.038752	  523.207491	  474.532987	  424.971001	  374.497036	  323.085687
   -0.068743	   -0.061431	   -0.053987	   -0.046408	   -0.038689	  523.230150	  474.518646	  424.928524	  374.435797	  323.015596
   -0.068814	   -0.061504	   -0.054064	   -0.046491	   -0.038780	  523.243492	  474.508470	  424.907473	  374.417215	  323.013564
   -0.068594	   -0.061303	   -0.053881	   -0.046327	   -0.038635	  523.132421	  474.393910	  424.787513	  374.289840	  322.876652
   -0.068589	   -0.061281	   -0.053845	   -0.046277	   -0.038573	  523.139329	  474.360899	  424.723100	  374.203019	  322.776924
   -0.068523	   -0.061271	   -0.053893	   -0.046386	   -0.038746	  523.088383	  474.310576	  424.685436	  374.190690	  322.803278
   -0.068523	   -0.061236	   -0.053823	   -0.046281	   -0.038607	  523.077698	  474.270898	  424.622012	  374.109057	  322.709278
   -0.068523	   -0.061237	   -0.053827	   -0.046290	   -0.038621	  523.078383	  474.253605	  424.595709	  374.083188	  322.693789
   -0.068374	   -0.061161	   -0.053825	   -0.046362	   -0.038769	  523.020639	  474.219995	  424.584236	  374.091740	  322.720133
   -0.068297	   -0.061141	   -0.053863	   -0.046462	   -0.038932	  522.986248	  474.198668	  424.584766	  374.123371	  322.792581
   -0.068374	   -0.061163	   -0.053830	   -0.046373	   -0.038787	  523.011323	  474.200500	  424.565290	  374.084630	  322.736735
   -0.068385	   -0.061208	   -0.053910	   -0.046486	   -0.038935	  523.005436	  474.208497	  424.583425	  374.108958	  322.763101
   -0.068385	   -0.061154	   -0.053802	   -0.046324	   -0.038718	  522.995436	  474.167823	  424.515869	  374.018522	  322.654005
   -0.068544	   -0.061330	   -0.053995	   -0.046534	   -0.038947	  523.047314	  474.212400	  424.554639	  374.053058	  322.685964
   -0.068302	   -0.061202	   -0.053984	   -0.046644	   -0.039181	  522.938644	  474.135641	  424.520375	  374.072395	  322.770561
   -0.068220	   -0.061124	   -0.053912	   -0.046582	   -0.039130	  522.920491	  474.091459	  424.465918	  374.024217	  322.746057
   -0.068302	   -0.061168	   -0.053918	   -0.046548	   -0.039056	  522.947961	  474.103707	  424.461265	  374.000910	  322.702259
   -0.068077	   -0.060962	   -0.053729	   -0.046377	   -0.038901	  522.855119	  474.020310	  424.381840	  373.919705	  322.613234
   -0.068061	   -0.061003	   -0.053828	   -0.046535	   -0.039121	  522.859318	  474.042693	  424.426017	  373.989459	  322.712528
   -0.068231	   -0.061114	   -0.053881	   -0.046528	   -0.039053	  522.925278	  474.091935	  424.456818	  374.000015	  322.700954
   -0.068379	   -0.061172	   -0.053847	   -0.046402	   -0.038833	  522.982354	  474.112128	  424.443716	  373.957402	  322.632813
   -0.068440	   -0.061145	   -0.053730	   -0.046195	   -0.038536	  523.010912	  474.098581	  424.393833	  373.877255	  322.528793
   -0.068143	   -0.061065	   -0.053871	   -0.046559	   -0.039124	  522.886099	  474.068079	  424.450024	  374.012106	  322.733834
   -0.068215	   -0.061084	   -0.053838	   -0.046473	   -0.038987	  522.919463	  474.070640	  424.430980	  373.981122	  322.701066
   -0.068369	   -0.061218	   -0.053951	   -0.046564	   -0.039056	  522.978925	  474.118576	  424.463749	  373.994907	  322.691868
   -0.068205	   -0.061075	   -0.053830	   -0.046468	   -0.038984	  522.924679	  474.066545	  424.419302	  373.963677	  322.679764
   -0.068143	   -0.061012	   -0.053765	   -0.046400	   -0.038913	  522.896099	  474.037981	  424.386948	  373.923540	  322.627655
   -0.068297	   -0.061128	   -0.053841	   -0.046434	   -0.038904	  522.945565	  474.082274	  424.420859	  373.941606	  322.624144
   -0.068302	   -0.061169	   -0.053919	   -0.046550	   -0.039058	  522.947961	  474.098705	  424.453022	  373.991274	  322.693173
   -0.068302	   -0.061187	   -0.053955	   -0.046605	   -0.039133	  522.937961	  474.097305	  424.460128	  374.006783	  322.716973
   -0.068292	   -0.061068	   -0.053727	   -0.046265	   -0.038679	  522.943853	  474.052645	  424.363546	  373.856863	  322.512251
   -0.068072	   -0.060940	   -0.053691	   -0.046323	   -0.038833	  522.853412	  474.000179	  424.348733	  373.879349	  322.571648
   -0.068143	   -0.061048	   -0.053838	   -0.046509	   -0.039058	  522.885418	  474.044705	  424.409043	  373.958865	  322.673954
   -0.068292	   -0.061161	   -0.053915	   -0.046551	   -0.039067	  522.943853	  474.077796	  424.424153	  373.963728	  322.676698
   -0.068056	   -0.061019	   -0.053869	   -0.046603	   -0.039219	  522.846931	  474.019266	  424.407494	  373.992572	  322.754840
   -0.068369	   -0.061183	   -0.053883	   -0.046464	   -0.038924	  522.968241	  474.074370	  424.396496	  373.915608	  322.612078
   -0.068302	   -0.061117	   -0.053816	   -0.046398	   -0.038859	  522.937961	  474.039136	  424.357950	  373.875474	  322.572166
   -0.068215	   -0.061196	   -0.054065	   -0.046821	   -0.039459	  522.908781	  474.069294	  424.454220	  374.044936	  322.822217
   -0.068369	   -0.061220	   -0.053956	   -0.046575	   -0.039073	  522.968925	  474.086486	  424.420053	  373.950611	  322.658528
   -0.068379	   -0.061173	   -0.053850	   -0.046407	   -0.038841	  522.963037	  474.069790	  424.383729	  373.885415	  322.554764
   -0.068292	   -0.061125	   -0.053842	   -0.046441	   -0.038919	  522.943853	  474.055927	  424.380450	  373.898238	  322.589477
   -0.068374	   -0.061132	   -0.053773	   -0.046293	   -0.038690	  522.970639	  474.063429	  424.363486	  373.851378	  322.507033
   -0.068220	   -0.061163	   -0.053993	   -0.046706	   -0.039302	  522.911174	  474.071656	  424.449662	  374.026236	  322.781805
   -0.068379	   -0.061210	   -0.053925	   -0.046521	   -0.038996	  522.973037	  474.094500	  424.426538	  373.949871	  322.644585
   -0.068302	   -0.061153	   -0.053888	   -0.046507	   -0.039004	  522.947961	  474.070940	  424.409744	  373.945347	  322.658105
   -0.068231	   -0.061117	   -0.053888	   -0.046542	   -0.039076	  522.895278	  474.037572	  424.392072	  373.939569	  322.660224
   -0.068297	   -0.061113	   -0.053814	   -0.046398	   -0.038862	  522.924882	  474.014275	  424.324711	  373.837433	  322.533076
   -0.068066	   -0.060995	   -0.053814	   -0.046519	   -0.039108	  522.820344	  473.934262	  424.283116	  373.848803	  322.612647
   -0.067533	   -0.060594	   -0.053547	   -0.046388	   -0.039117	  522.567871	  473.723279	  424.116806	  373.730488	  322.545789
   -0.066769	   -0.060041	   -0.053210	   -0.046276	   -0.039235	  522.239440	  473.442975	  423.908537	  373.619258	  322.557752
   -0.065918	   -0.059307	   -0.052596	   -0.045783	   -0.038865	  521.852566	  473.084763	  423.581846	  373.327069	  322.303172
   -0.065000	   -0.058419	   -0.051741	   -0.044967	   -0.038092	  521.454550	  472.640086	  423.116025	  372.866781	  321.876308
   -0.063928	   -0.057341	   -0.050663	   -0.043891	   -0.037023	  520.935640	  472.054911	  422.493238	  372.236290	  321.269336
   -0.062620	   -0.055997	   -0.049290	   -0.042497	   -0.035615	  520.309822	  471.310415	  421.685365	  371.422613	  320.509785
   -0.060716	   -0.054036	   -0.047275	   -0.040433	   -0.033508	  519.411805	  470.286330	  420.570726	  370.254296	  319.326082
   -0.058792	   -0.052171	   -0.045481	   -0.038721	   -0.031889	  518.530256	  469.282501	  419.521635	  369.239596	  318.428153
   -0.057039	   -0.050601	   -0.044104	   -0.037547	   -0.030929	  517.715444	  468.412798	  418.659594	  368.449627	  317.776577
   -0.055577	   -0.049039	   -0.042450	   -0.035807	   -0.029112	  517.045859	  467.595533	  417.750534	  367.506119	  316.857467
   -0.054820	   -0.048345	   -0.041823	   -0.035256	   -0.028641	  516.687428	  467.182427	  417.324962	  367.111258	  316.537481
   -0.054512	   -0.047890	   -0.041225	   -0.034517	   -0.027765	  516.547050	  466.933193	  416.996665	  366.734306	  316.142918
   -0.054597	   -0.048049	   -0.041458	   -0.034823	   -0.028144	  516.566522	  466.986513	  417.079876	  366.843373	  316.273723
   -0.054589	   -0.048023	   -0.041415	   -0.034764	   -0.028069	  516.602144	  467.016296	  417.107651	  366.873047	  316.309281
