frame	ulx	uly	urx	ury	lrx	lry	llx	lly
frame00001.jpg	28.00	391.00	100.00	387.00	108.00	549.00	43.00	553.00
frame00002.jpg	28.00	390.93	100.02	387.05	107.96	548.90	43.01	552.96
frame00003.jpg	28.00	390.88	100.02	387.06	107.93	548.87	43.00	552.97
frame00004.jpg	28.00	390.95	100.02	387.03	107.96	548.91	43.01	552.96
frame00005.jpg	27.99	390.87	100.03	387.04	107.92	548.85	43.01	552.94
frame00006.jpg	28.02	390.92	100.04	387.03	107.92	548.90	43.00	552.96
frame00007.jpg	28.01	390.93	100.04	387.06	107.95	548.87	43.00	552.92
frame00008.jpg	27.99	390.83	100.05	387.00	107.90	548.87	43.00	552.94
frame00009.jpg	27.99	390.92	100.03	387.01	107.94	548.86	43.01	552.96
frame00010.jpg	27.99	390.84	100.03	387.03	107.92	548.84	43.02	552.99
frame00011.jpg	28.01	390.94	100.03	387.01	107.96	548.92	43.00	552.96
frame00012.jpg	28.02	390.88	100.05	387.03	107.93	548.88	43.00	552.96
frame00013.jpg	28.01	390.93	100.03	387.05	107.93	548.85	43.01	552.95
frame00014.jpg	28.00	390.89	100.03	387.04	107.92	548.83	43.00	552.96
frame00015.jpg	28.00	390.86	100.03	387.03	107.91	548.85	43.00	552.96
frame00016.jpg	28.00	390.91	100.03	387.03	107.93	548.85	43.00	552.93
frame00017.jpg	28.01	390.86	100.04	387.04	107.94	548.90	43.01	552.93
frame00018.jpg	28.01	390.92	100.06	386.99	107.93	548.87	43.00	552.92
frame00019.jpg	28.04	390.92	100.05	387.04	107.92	548.89	42.98	552.97
frame00020.jpg	27.99	390.95	100.02	387.01	107.97	548.91	43.03	552.93
frame00021.jpg	28.01	390.93	100.02	387.04	107.94	548.88	43.00	552.98
frame00022.jpg	28.01	390.88	100.04	387.03	107.92	548.87	43.01	552.93
frame00023.jpg	28.02	390.93	100.02	387.03	107.95	548.91	43.01	552.98
frame00024.jpg	27.99	390.86	100.04	387.03	107.90	548.80	43.02	552.95
frame00025.jpg	27.99	390.93	100.03	387.03	107.94	548.88	43.01	552.98
frame00026.jpg	28.02	390.94	100.04	387.02	107.93	548.87	43.01	552.96
frame00027.jpg	28.00	390.93	100.01	387.07	107.95	548.88	43.01	552.97
frame00028.jpg	27.99	390.88	100.04	387.01	107.92	548.85	43.01	552.96
frame00029.jpg	28.00	390.90	100.04	387.01	107.93	548.85	43.02	552.93
frame00030.jpg	28.01	390.91	100.02	387.03	107.94	548.89	43.01	552.99
frame00031.jpg	27.99	390.89	100.06	387.02	107.92	548.84	43.01	552.90
frame00032.jpg	27.98	390.90	100.03	387.01	107.94	548.87	43.01	552.94
frame00033.jpg	27.99	390.89	100.04	387.03	107.91	548.85	43.00	552.95
frame00034.jpg	28.00	390.91	100.02	387.04	107.94	548.86	43.01	552.95
frame00035.jpg	27.98	390.89	100.02	387.02	107.94	548.88	43.01	552.97
frame00036.jpg	28.01	390.95	100.03	387.06	107.92	548.83	43.00	552.92
frame00037.jpg	27.98	390.87	100.04	387.06	107.92	548.83	43.00	552.96
frame00038.jpg	28.01	390.91	100.05	387.08	107.91	548.84	42.98	552.93
frame00039.jpg	27.98	390.89	100.02	387.03	107.94	548.88	43.00	552.98
frame00040.jpg	28.03	390.94	100.03	387.03	107.94	548.89	43.00	552.94
frame00041.jpg	28.01	390.95	100.03	387.03	107.95	548.92	43.01	552.94
frame00042.jpg	28.00	390.91	100.03	387.05	107.92	548.85	43.00	552.95
frame00043.jpg	28.00	390.89	100.04	387.02	107.93	548.88	43.00	552.94
frame00044.jpg	28.00	390.95	100.04	386.99	107.95	548.88	43.01	552.94
frame00045.jpg	27.99	390.86	100.04	387.02	107.90	548.82	43.01	552.94
frame00046.jpg	27.98	390.89	100.04	387.00	107.91	548.83	43.01	552.93
frame00047.jpg	28.03	390.93	100.05	387.04	107.92	548.87	42.97	552.94
frame00048.jpg	28.03	390.94	100.05	386.99	107.94	548.92	42.99	552.92
frame00049.jpg	27.98	390.88	100.03	386.99	107.90	548.84	43.01	552.92
frame00050.jpg	27.99	390.91	100.01	387.01	107.94	548.87	43.02	552.95
frame00051.jpg	27.99	390.88	100.01	386.98	107.94	548.89	43.03	552.96
frame00052.jpg	27.98	390.88	100.04	387.01	107.92	548.83	42.99	552.91
frame00053.jpg	27.97	390.90	100.02	387.02	107.95	548.88	43.00	552.96
frame00054.jpg	28.00	390.88	100.02	387.01	107.92	548.88	43.00	552.93
frame00055.jpg	28.00	390.94	100.02	387.01	107.95	548.88	43.00	552.93
frame00056.jpg	27.99	390.87	100.03	387.04	107.90	548.82	42.99	552.95
frame00057.jpg	27.98	390.90	100.00	387.03	107.96	548.90	43.01	552.95
frame00058.jpg	27.96	390.88	100.00	387.05	107.95	548.85	43.02	552.96
frame00059.jpg	27.98	390.86	100.01	387.00	107.92	548.85	43.02	552.95
frame00060.jpg	27.97	390.89	100.02	387.02	107.93	548.83	43.00	552.95
frame00061.jpg	28.02	390.91	100.04	387.04	107.92	548.88	42.99	552.92
frame00062.jpg	28.01	390.90	100.03	386.95	107.93	548.89	43.01	552.92
frame00063.jpg	28.00	390.88	100.04	387.00	107.91	548.87	42.99	552.94
frame00064.jpg	27.99	390.89	100.04	386.98	107.93	548.89	43.00	552.94
frame00065.jpg	28.00	390.92	100.04	387.02	107.92	548.86	42.99	552.90
frame00066.jpg	27.98	390.88	100.04	387.03	107.90	548.80	42.99	552.92
frame00067.jpg	27.99	390.90	100.00	387.05	107.95	548.87	43.01	552.93
frame00068.jpg	27.99	390.88	100.01	387.04	107.94	548.88	43.01	552.95
frame00069.jpg	27.99	390.90	100.02	387.01	107.95	548.87	43.00	552.92
frame00070.jpg	28.00	390.90	100.00	387.06	107.94	548.89	42.99	552.96
frame00071.jpg	27.96	390.86	100.04	386.99	107.90	548.83	42.99	552.92
frame00072.jpg	27.98	390.88	100.02	387.01	107.90	548.82	42.99	552.92
frame00073.jpg	27.97	390.83	100.01	387.00	107.90	548.83	43.01	552.96
frame00074.jpg	27.98	390.90	100.02	386.99	107.92	548.88	42.99	552.96
frame00075.jpg	27.97	390.84	100.00	387.07	107.91	548.83	42.99	552.95
frame00076.jpg	27.97	390.86	100.02	387.01	107.91	548.83	43.00	552.94
frame00077.jpg	27.99	390.85	100.03	386.99	107.90	548.86	43.00	552.93
frame00078.jpg	27.98	390.89	100.02	387.02	107.92	548.85	42.99	552.92
frame00079.jpg	27.98	390.91	100.02	387.02	107.93	548.85	43.00	552.91
frame00080.jpg	27.99	390.88	100.01	387.03	107.91	548.85	43.00	552.95
frame00081.jpg	27.98	390.90	100.03	387.01	107.92	548.85	42.99	552.92
frame00082.jpg	28.00	390.91	100.02	387.04	107.91	548.86	42.98	552.93
frame00083.jpg	27.98	390.89	100.00	387.04	107.93	548.86	43.00	552.97
frame00084.jpg	28.00	390.88	100.01	387.02	107.90	548.86	42.99	552.93
frame00085.jpg	27.96	390.89	99.98	387.01	107.92	548.86	43.01	552.96
frame00086.jpg	27.94	390.85	99.99	386.99	107.90	548.88	42.99	552.97
frame00087.jpg	27.95	390.88	100.00	387.04	107.90	548.85	42.98	552.92
frame00088.jpg	27.96	390.95	99.99	387.02	107.94	548.90	42.98	552.96
frame00089.jpg	27.92	390.83	99.98	387.04	107.89	548.80	42.99	552.96
frame00090.jpg	27.92	390.88	99.97	387.05	107.92	548.84	42.99	552.99
frame00091.jpg	28.00	390.90	100.03	386.99	107.89	548.86	42.99	552.92
frame00092.jpg	28.18	390.83	100.17	387.00	108.00	548.92	43.03	552.92
frame00093.jpg	28.31	390.82	100.31	387.00	107.99	548.85	43.03	552.81
frame00094.jpg	28.30	390.82	100.29	387.03	107.98	548.82	43.02	552.81
frame00095.jpg	28.33	390.74	100.33	386.98	108.00	548.79	43.06	552.82
frame00096.jpg	28.51	390.65	100.51	387.03	108.03	548.82	43.03	552.78
frame00097.jpg	28.43	390.74	100.46	386.95	108.02	548.82	43.05	552.75
frame00098.jpg	28.34	390.75	100.32	386.99	107.94	548.82	43.02	552.78
frame00099.jpg	28.44	390.65	100.36	387.03	107.87	548.81	43.00	552.75
frame00100.jpg	28.46	390.49	100.42	387.02	107.73	548.67	42.96	552.68
frame00101.jpg	28.20	390.50	100.15	387.09	107.56	548.61	42.90	552.71
frame00102.jpg	28.29	390.52	100.21	387.08	107.58	548.66	42.89	552.71
frame00103.jpg	28.56	390.39	100.45	387.08	107.64	548.63	42.93	552.61
frame00104.jpg	28.79	390.29	100.64	387.08	107.67	548.61	42.94	552.53
frame00105.jpg	28.99	389.98	100.82	387.04	107.56	548.47	43.00	552.37
frame00106.jpg	29.15	389.82	100.92	387.03	107.44	548.35	42.98	552.28
frame00107.jpg	29.33	389.72	101.02	387.04	107.34	548.26	42.97	552.09
frame00108.jpg	29.43	389.65	101.12	387.00	107.27	548.16	42.97	551.97
frame00109.jpg	29.31	389.62	100.99	387.11	107.17	548.09	42.97	551.90
frame00110.jpg	28.89	389.49	100.46	387.24	106.63	547.87	42.77	551.94
frame00111.jpg	28.74	389.50	100.13	387.37	106.15	547.79	42.50	551.82
frame00112.jpg	29.37	389.31	100.75	387.23	106.16	547.75	42.49	551.43
frame00113.jpg	29.75	389.01	101.03	387.32	106.15	547.70	42.57	551.20
frame00114.jpg	29.87	388.85	100.98	387.45	105.94	547.59	42.57	550.92
frame00115.jpg	29.95	388.71	100.92	387.47	105.72	547.51	42.51	550.77
frame00116.jpg	29.99	388.80	100.64	387.70	105.72	547.59	42.59	550.48
frame00117.jpg	30.03	388.46	100.50	387.51	105.51	547.54	42.70	550.38
frame00118.jpg	30.26	388.46	100.45	387.43	105.57	547.78	42.76	550.13
frame00119.jpg	30.94	388.28	100.97	387.42	105.72	547.95	42.81	549.82
frame00120.jpg	31.88	387.94	102.05	387.24	105.92	547.68	42.89	549.44
frame00121.jpg	32.65	387.41	102.94	387.11	106.00	547.49	42.99	549.17
frame00122.jpg	33.24	387.14	103.60	387.11	105.96	547.12	43.02	548.94
frame00123.jpg	33.57	386.97	103.98	387.05	105.92	546.99	43.03	548.69
frame00124.jpg	33.85	386.84	104.30	386.98	105.92	546.79	43.09	548.43
frame00125.jpg	34.50	386.55	104.81	386.88	106.06	546.85	43.23	548.25
frame00126.jpg	35.18	386.02	105.56	386.80	106.10	546.61	43.34	547.90
frame00127.jpg	36.09	385.69	106.50	386.81	106.23	546.55	43.42	547.40
frame00128.jpg	36.90	385.38	107.30	386.93	106.31	546.36	43.50	546.94
frame00129.jpg	37.69	385.08	108.12	386.89	106.51	546.48	43.66	546.51
frame00130.jpg	38.61	384.86	108.96	387.13	106.81	546.32	43.84	546.13
frame00131.jpg	39.89	384.61	110.14	387.01	107.15	546.34	44.15	545.66
frame00132.jpg	41.02	384.19	111.19	386.89	107.77	546.39	44.64	545.43
frame00133.jpg	42.30	383.80	112.42	386.78	108.45	546.17	45.29	544.87
frame00134.jpg	43.77	383.71	113.82	386.60	109.68	546.38	46.24	544.39
frame00135.jpg	44.97	383.62	115.14	386.63	110.89	546.21	47.27	544.03
frame00136.jpg	45.74	383.84	115.91	386.88	111.69	546.30	47.93	543.81
frame00137.jpg	46.56	383.55	116.77	386.89	111.76	546.41	47.87	543.44
frame00138.jpg	47.90	383.07	118.09	386.77	111.63	546.33	47.54	542.80
frame00139.jpg	49.10	382.47	119.37	386.49	111.72	545.93	47.44	541.81
frame00140.jpg	50.01	381.15	120.41	385.36	112.09	544.87	47.88	540.69
frame00141.jpg	51.16	379.84	121.53	383.99	112.51	543.71	48.13	539.18
frame00142.jpg	52.29	377.71	122.62	382.24	112.68	541.85	48.39	537.36
frame00143.jpg	53.23	375.92	123.46	380.66	112.65	540.15	48.41	535.41
frame00144.jpg	53.93	373.92	124.11	379.03	112.12	538.58	48.03	533.49
frame00145.jpg	54.88	372.11	124.81	377.43	111.63	537.03	47.63	531.33
frame00146.jpg	56.07	370.23	125.96	375.46	111.41	535.04	47.58	528.90
frame00147.jpg	58.16	367.38	127.81	373.51	111.57	532.58	48.00	526.15
frame00148.jpg	60.76	364.37	130.50	371.07	112.63	529.85	49.10	523.30
frame00149.jpg	62.97	361.80	132.62	369.46	113.73	526.75	50.65	520.33
frame00150.jpg	63.66	359.44	133.47	367.87	114.43	524.73	51.66	517.78
frame00151.jpg	64.62	357.94	133.83	366.88	114.19	523.70	51.81	515.52
frame00152.jpg	65.75	356.51	134.91	365.74	114.07	522.83	52.00	513.33
frame00153.jpg	68.21	355.40	137.13	365.43	114.39	521.53	52.71	510.82
frame00154.jpg	71.82	353.97	140.49	365.26	115.83	520.24	54.20	508.87
frame00155.jpg	75.78	352.45	144.37	365.11	117.29	518.60	55.91	506.31
frame00156.jpg	78.75	351.03	147.22	364.94	118.34	516.88	57.35	504.05
frame00157.jpg	82.48	349.28	150.53	364.43	119.46	515.40	58.72	501.64
frame00158.jpg	86.15	346.97	154.41	363.42	121.18	513.39	60.94	499.00
frame00159.jpg	88.71	345.42	157.05	362.70	122.99	511.33	63.33	496.81
frame00160.jpg	91.85	343.96	159.71	361.59	124.95	509.97	65.49	494.50
frame00161.jpg	95.96	341.68	163.82	360.23	127.17	507.90	68.10	491.76
frame00162.jpg	99.01	340.32	166.94	359.63	129.88	505.87	71.07	489.88
frame00163.jpg	103.16	339.04	170.74	358.98	132.19	504.75	73.57	487.47
frame00164.jpg	108.34	336.98	175.88	357.67	134.85	502.47	76.72	484.29
frame00165.jpg	112.55	334.26	180.23	356.24	138.11	500.11	80.44	482.24
frame00166.jpg	116.35	333.40	183.80	355.25	141.81	498.72	83.96	480.25
frame00167.jpg	121.41	330.87	188.53	353.59	144.85	497.09	87.36	477.54
frame00168.jpg	126.54	329.61	193.65	351.97	148.60	495.54	91.14	474.74
frame00169.jpg	131.65	327.84	198.86	350.40	152.98	493.31	95.27	472.12
frame00170.jpg	137.33	325.10	204.77	348.21	156.96	490.99	99.47	469.43
frame00171.jpg	143.16	322.45	210.69	346.39	161.15	488.64	103.71	466.77
frame00172.jpg	149.89	319.64	217.91	344.27	165.68	486.14	108.44	464.60
frame00173.jpg	157.35	317.88	224.50	343.77	170.24	484.41	113.07	462.34
frame00174.jpg	163.86	315.97	230.22	342.28	173.98	483.15	117.17	460.55
frame00175.jpg	170.07	313.89	236.28	340.86	178.12	480.95	121.23	458.24
frame00176.jpg	175.36	311.99	241.63	339.65	182.43	479.00	125.50	456.26
frame00177.jpg	180.16	310.18	246.30	338.51	185.76	477.20	129.28	454.33
frame00178.jpg	185.56	308.77	251.06	337.53	189.00	476.45	132.42	452.31
frame00179.jpg	191.30	306.84	256.54	337.16	191.81	473.95	135.46	449.61
frame00180.jpg	196.20	306.37	260.89	337.20	194.09	472.99	138.14	447.61
frame00181.jpg	201.01	305.06	265.17	337.16	196.11	471.90	140.47	445.57
frame00182.jpg	206.27	303.95	269.86	337.48	197.99	470.44	143.05	442.98
frame00183.jpg	210.86	303.66	274.01	338.34	199.67	469.39	145.38	440.71
frame00184.jpg	215.96	303.02	278.31	339.66	201.12	468.23	147.30	438.91
frame00185.jpg	220.99	303.19	282.74	340.80	202.44	467.45	149.48	436.66
frame00186.jpg	225.09	303.42	286.47	341.94	203.57	467.19	151.41	434.66
frame00187.jpg	228.83	303.85	289.51	343.64	204.87	466.49	153.24	433.14
frame00188.jpg	232.83	304.07	293.07	344.88	206.22	465.77	155.18	431.81
frame00189.jpg	236.90	303.64	296.19	345.98	207.80	465.19	157.20	430.75
frame00190.jpg	240.44	304.16	299.39	347.02	209.68	464.99	159.43	429.66
frame00191.jpg	244.94	304.22	303.30	347.86	212.17	464.66	162.13	428.72
frame00192.jpg	250.19	303.99	307.92	348.39	214.80	464.13	165.01	427.60
frame00193.jpg	255.37	304.18	313.04	348.87	217.85	462.77	168.53	425.55
frame00194.jpg	261.28	302.42	318.07	348.42	220.88	461.98	171.73	424.37
frame00195.jpg	266.70	301.31	323.11	347.58	224.29	460.85	175.11	422.92
frame00196.jpg	272.52	299.91	328.34	346.85	227.73	459.18	179.05	420.59
frame00197.jpg	279.13	298.41	334.13	346.80	231.41	457.26	182.56	418.28
frame00198.jpg	285.99	297.90	340.21	346.73	234.70	455.84	186.68	415.92
frame00199.jpg	292.82	297.39	346.65	346.75	238.70	454.10	190.98	413.82
frame00200.jpg	299.93	297.18	352.68	347.38	242.64	452.73	195.25	411.82
frame00201.jpg	306.83	296.65	358.83	348.08	246.05	451.36	199.46	409.83
frame00202.jpg	313.07	296.96	364.71	349.08	249.34	450.13	203.40	407.48
frame00203.jpg	320.56	296.58	370.05	350.10	253.03	448.78	207.34	406.12
frame00204.jpg	327.20	296.78	376.23	350.99	256.87	447.60	211.97	404.17
frame00205.jpg	333.24	297.02	381.64	351.79	260.79	446.39	216.21	402.63
frame00206.jpg	339.51	297.55	387.40	352.65	264.49	445.73	220.26	401.48
frame00207.jpg	345.88	298.42	392.30	354.20	267.13	445.03	223.64	400.05
frame00208.jpg	351.29	299.02	396.96	355.68	269.31	444.37	226.85	398.37
frame00209.jpg	357.09	300.13	401.33	358.07	271.22	443.75	229.45	396.77
frame00210.jpg	362.63	302.28	405.89	361.01	273.37	442.94	232.55	395.12
frame00211.jpg	368.31	303.19	409.91	363.34	275.40	442.83	235.57	394.22
frame00212.jpg	373.54	305.07	413.88	365.65	277.37	443.16	238.59	393.86
frame00213.jpg	378.15	307.95	417.69	369.07	279.49	443.26	241.33	393.07
frame00214.jpg	383.34	310.63	421.11	372.42	280.75	443.24	243.81	392.34
frame00215.jpg	388.04	312.57	424.28	375.36	281.80	443.32	245.95	391.60
frame00216.jpg	392.10	315.56	427.43	378.58	283.08	443.43	248.58	390.72
frame00217.jpg	396.69	317.31	430.17	381.59	284.89	442.87	250.98	389.89
frame00218.jpg	400.39	318.73	432.44	383.97	286.44	442.69	252.92	389.48
frame00219.jpg	403.65	320.91	435.25	385.93	287.18	443.16	255.10	388.97
frame00220.jpg	408.38	322.59	437.89	388.53	289.07	442.44	257.44	388.02
frame00221.jpg	411.26	325.29	440.39	390.71	290.92	442.32	260.04	387.45
frame00222.jpg	416.43	326.09	443.41	392.75	293.62	441.66	262.71	387.43
frame00223.jpg	419.25	328.42	445.88	394.42	294.81	441.79	264.98	386.90
frame00224.jpg	422.66	330.47	447.96	397.06	295.50	441.54	267.12	385.81
frame00225.jpg	425.78	332.39	449.40	399.73	295.85	440.96	268.42	384.72
frame00226.jpg	428.72	334.28	451.03	402.38	296.04	440.38	270.01	383.45
frame00227.jpg	431.59	336.50	452.52	404.65	296.32	440.08	271.89	382.19
frame00228.jpg	435.04	337.83	454.81	406.50	298.00	439.60	273.55	381.89
frame00229.jpg	437.96	339.28	456.28	408.26	299.31	439.42	275.67	381.48
frame00230.jpg	439.13	342.00	457.11	410.50	299.43	439.66	277.00	380.69
frame00231.jpg	441.78	343.89	458.04	413.19	299.58	439.05	277.83	379.90
frame00232.jpg	443.60	345.51	458.85	414.95	299.74	438.89	279.06	379.68
frame00233.jpg	444.94	346.78	459.45	416.47	300.17	439.16	279.77	379.60
frame00234.jpg	446.81	348.17	460.59	418.08	300.92	439.08	280.77	379.72
frame00235.jpg	448.05	349.37	461.47	419.31	301.29	438.90	281.66	379.07
frame00236.jpg	450.03	350.18	462.44	420.50	302.35	438.16	282.96	378.30
frame00237.jpg	452.11	350.93	463.81	421.39	302.58	437.51	284.29	377.52
frame00238.jpg	454.02	351.56	464.60	422.40	303.26	436.22	285.35	375.90
frame00239.jpg	455.18	352.80	464.82	423.46	302.88	435.00	286.21	374.19
frame00240.jpg	456.70	354.05	464.53	424.94	301.80	433.48	286.52	372.04
frame00241.jpg	458.13	354.84	464.21	426.48	301.34	431.79	287.26	370.04
frame00242.jpg	458.14	356.40	463.59	427.78	300.32	430.69	287.46	368.26
frame00243.jpg	458.61	357.59	463.43	429.08	299.86	429.52	288.24	366.96
frame00244.jpg	459.81	358.12	463.29	429.98	299.93	428.62	288.97	365.93
frame00245.jpg	460.31	359.06	462.94	430.69	299.25	427.46	288.99	364.13
frame00246.jpg	462.10	359.05	463.57	431.24	299.45	425.88	289.78	362.58
frame00247.jpg	462.28	359.49	463.39	431.38	298.86	424.71	290.30	361.02
frame00248.jpg	463.42	359.42	463.53	431.50	298.79	423.27	290.82	359.44
frame00249.jpg	463.64	359.67	462.90	431.52	298.59	421.92	291.00	357.88
frame00250.jpg	464.36	359.86	462.86	431.89	298.36	420.36	291.71	356.39
frame00251.jpg	465.50	359.44	462.74	431.76	298.13	419.07	291.77	354.70
frame00252.jpg	464.90	359.98	461.94	431.89	297.66	417.41	292.18	352.80
frame00253.jpg	464.97	360.03	461.57	432.02	297.61	415.50	292.42	350.78
frame00254.jpg	465.74	359.73	461.29	431.54	297.13	413.35	292.49	349.02
frame00255.jpg	465.65	359.42	460.25	431.31	296.90	411.48	293.15	347.00
frame00256.jpg	465.46	359.08	459.79	430.56	295.93	409.69	292.46	345.14
frame00257.jpg	465.65	358.23	459.28	429.91	295.79	407.55	293.19	343.12
frame00258.jpg	465.62	357.59	458.87	429.04	294.72	405.58	292.95	341.07
frame00259.jpg	466.39	356.86	457.79	428.29	294.81	403.27	293.24	338.86
frame00260.jpg	466.04	356.21	457.20	427.64	293.94	401.10	292.61	336.30
frame00261.jpg	465.99	355.62	456.39	426.83	293.07	398.82	293.03	334.14
frame00262.jpg	466.12	355.04	455.50	426.04	292.61	396.48	292.72	331.72
frame00263.jpg	465.52	354.34	454.90	425.44	292.11	394.15	293.23	329.38
frame00264.jpg	466.28	353.05	454.58	424.17	292.28	392.19	293.06	327.32
frame00265.jpg	465.98	351.93	454.64	423.06	291.70	390.51	293.55	325.52
frame00266.jpg	466.85	350.84	454.31	421.92	291.55	389.08	293.30	324.08
frame00267.jpg	466.71	350.53	454.04	421.61	291.73	387.49	293.80	322.41
frame00268.jpg	466.38	350.08	453.41	420.92	291.27	386.58	293.65	321.33
frame00269.jpg	465.65	350.00	452.96	420.78	290.60	385.23	294.10	320.01
frame00270.jpg	465.75	349.78	452.46	420.36	290.50	383.76	294.26	318.74
frame00271.jpg	466.38	349.08	451.94	419.71	289.96	382.35	293.98	317.14
frame00272.jpg	465.92	348.38	451.55	419.00	289.92	380.71	294.50	315.65
frame00273.jpg	465.61	347.62	451.28	418.12	289.48	379.13	294.58	313.73
frame00274.jpg	465.73	346.66	450.96	416.99	289.35	378.12	295.03	312.70
frame00275.jpg	466.18	345.91	451.45	416.17	289.80	377.02	294.97	311.76
frame00276.jpg	467.15	344.70	451.56	415.06	289.99	376.49	294.81	310.98
frame00277.jpg	467.12	343.93	451.87	414.56	290.35	375.64	295.00	310.10
frame00278.jpg	466.63	343.34	452.18	413.84	290.15	374.63	295.59	309.29
frame00279.jpg	467.46	342.22	452.90	413.37	290.41	374.22	296.00	308.74
frame00280.jpg	467.79	341.37	453.51	412.38	290.65	373.65	295.88	308.01
frame00281.jpg	469.29	340.24	453.77	411.06	292.05	373.57	296.67	308.24
frame00282.jpg	469.34	339.64	454.56	410.47	292.59	373.82	296.69	308.31
frame00283.jpg	469.46	339.50	455.27	410.55	293.05	373.83	297.76	308.45
frame00284.jpg	469.31	339.65	455.84	410.63	293.27	373.96	297.72	308.54
frame00285.jpg	470.13	339.85	456.14	410.83	293.37	373.93	297.80	308.70
frame00286.jpg	470.30	339.82	456.08	410.80	293.58	374.03	297.81	308.64
frame00287.jpg	469.52	339.85	456.27	410.75	293.63	374.04	298.23	308.57
frame00288.jpg	470.03	339.47	456.66	410.59	293.85	374.48	297.84	308.79
frame00289.jpg	470.15	339.33	456.80	410.05	293.92	374.78	298.13	309.49
frame00290.jpg	470.15	339.32	456.97	410.25	294.10	375.06	297.94	309.69
frame00291.jpg	470.72	339.29	457.00	410.41	294.49	375.17	297.98	309.90
frame00292.jpg	469.89	339.47	457.18	410.71	294.53	375.75	298.25	310.66
frame00293.jpg	469.42	339.97	456.99	411.10	293.92	376.38	297.74	311.01
frame00294.jpg	469.81	340.06	456.87	411.11	294.37	377.13	297.58	311.71
frame00295.jpg	470.02	340.34	457.54	411.58	295.15	377.97	297.16	312.59
frame00296.jpg	470.02	340.53	458.18	411.89	294.81	379.44	297.26	314.15
frame00297.jpg	470.42	340.63	458.19	412.07	295.35	380.90	297.10	315.63
frame00298.jpg	468.90	341.46	458.74	412.77	295.23	382.36	297.17	316.95
frame00299.jpg	468.67	341.89	459.21	413.24	295.19	383.69	296.93	318.13
frame00300.jpg	469.56	342.15	459.27	413.44	296.09	384.99	296.12	319.47
frame00301.jpg	469.63	342.41	459.73	413.71	296.40	386.03	296.15	320.73
frame00302.jpg	469.00	342.57	460.56	414.06	296.44	387.42	296.75	322.16
frame00303.jpg	469.37	342.49	461.68	413.89	296.91	388.49	296.41	323.50
frame00304.jpg	469.64	342.02	461.90	413.60	297.31	389.71	296.01	324.47
frame00305.jpg	469.60	341.92	462.24	413.51	297.67	390.58	296.10	325.49
frame00306.jpg	469.99	341.70	462.65	413.63	298.37	391.96	295.73	327.09
frame00307.jpg	469.27	342.05	462.89	413.99	298.53	393.38	295.38	328.47
frame00308.jpg	468.31	341.89	463.01	413.85	298.69	395.02	294.76	330.11
frame00309.jpg	468.26	341.79	463.16	413.52	299.10	396.77	294.31	332.24
frame00310.jpg	467.93	341.57	463.92	413.69	299.81	398.42	294.16	333.94
frame00311.jpg	466.97	341.07	464.87	413.29	300.07	400.21	293.61	335.96
frame00312.jpg	466.56	341.08	464.58	413.27	299.57	401.86	292.69	337.50
frame00313.jpg	465.41	341.21	463.91	413.36	299.37	403.08	291.51	338.75
frame00314.jpg	464.22	341.35	463.87	413.78	298.95	404.25	291.24	340.03
frame00315.jpg	463.62	341.13	464.16	413.44	299.21	405.94	290.20	341.90
frame00316.jpg	463.25	341.03	464.56	413.27	299.67	407.73	290.21	344.01
frame00317.jpg	462.46	340.77	465.50	412.86	300.23	410.04	289.46	346.21
frame00318.jpg	462.53	339.79	465.80	411.91	301.49	412.12	289.28	349.14
frame00319.jpg	460.53	339.59	466.15	411.61	302.07	414.17	289.14	351.40
frame00320.jpg	459.67	338.96	466.37	410.86	302.22	416.15	287.93	353.37
frame00321.jpg	458.06	338.69	466.54	410.56	302.35	417.87	287.46	355.55
frame00322.jpg	457.39	337.79	466.22	409.70	302.29	419.69	286.00	357.85
frame00323.jpg	454.97	337.45	465.80	408.87	302.11	421.21	285.32	359.57
frame00324.jpg	453.94	336.49	465.66	408.05	302.52	422.56	284.10	361.40
frame00325.jpg	452.08	335.24	465.41	406.69	303.04	424.13	283.89	363.38
frame00326.jpg	450.76	333.50	465.78	404.98	303.87	426.08	282.89	365.85
frame00327.jpg	448.52	332.34	465.76	402.77	304.67	428.09	282.47	368.35
frame00328.jpg	447.21	329.75	466.50	400.22	305.95	430.04	281.89	370.62
frame00329.jpg	445.75	327.10	467.03	397.24	307.36	431.45	281.94	372.71
frame00330.jpg	443.33	325.19	466.81	394.44	308.24	432.71	281.64	374.53
frame00331.jpg	441.21	322.57	466.75	391.28	309.04	433.99	281.30	376.21
frame00332.jpg	439.18	319.58	466.89	387.85	309.77	435.05	281.16	377.46
frame00333.jpg	437.29	316.71	466.69	384.45	311.05	435.93	280.68	378.91
frame00334.jpg	435.04	313.89	466.22	380.80	311.86	436.77	280.15	380.19
frame00335.jpg	432.93	310.63	465.87	377.17	312.79	437.23	279.90	381.20
frame00336.jpg	430.77	307.19	465.53	373.31	313.80	437.63	279.02	382.49
frame00337.jpg	428.02	304.27	465.10	368.90	314.77	438.67	279.09	384.03
frame00338.jpg	425.94	301.07	464.18	365.19	316.51	439.44	278.85	385.80
frame00339.jpg	423.04	299.15	463.62	361.48	317.85	440.64	278.88	387.94
frame00340.jpg	419.83	296.78	462.46	358.10	319.46	441.77	279.09	389.83
frame00341.jpg	416.53	294.75	461.23	354.81	320.68	442.74	278.83	391.94
frame00342.jpg	412.99	293.29	459.52	352.16	321.53	443.69	278.23	394.09
frame00343.jpg	408.98	291.62	457.18	349.17	322.10	444.86	277.23	396.34
frame00344.jpg	405.10	289.49	455.02	346.35	322.71	445.73	276.50	398.84
frame00345.jpg	400.83	288.89	452.05	344.31	322.90	446.73	275.42	401.61
frame00346.jpg	396.08	288.24	449.36	342.21	323.00	448.41	274.16	404.36
frame00347.jpg	391.30	287.30	445.94	339.54	323.20	449.77	273.13	407.13
frame00348.jpg	385.91	286.49	442.77	336.68	323.91	450.97	272.01	410.21
frame00349.jpg	380.78	285.02	438.67	333.44	324.90	452.02	271.54	414.10
frame00350.jpg	374.74	284.08	434.51	330.31	325.55	452.80	270.98	416.86
frame00351.jpg	368.16	283.87	429.71	327.64	326.03	453.94	269.63	420.36
frame00352.jpg	362.00	283.67	425.32	325.27	325.66	454.84	268.30	423.69
frame00353.jpg	355.46	284.37	419.76	324.04	324.57	456.09	266.41	426.44
frame00354.jpg	348.39	284.94	414.21	322.54	322.83	457.52	264.06	428.91
frame00355.jpg	341.61	285.52	408.44	321.15	320.87	458.34	261.34	431.11
frame00356.jpg	334.50	285.04	402.22	319.85	318.79	459.36	258.37	433.96
frame00357.jpg	327.02	286.37	395.35	319.01	315.94	459.97	254.99	436.32
frame00358.jpg	319.48	286.71	389.20	318.17	312.51	460.92	251.12	437.85
frame00359.jpg	312.44	287.26	382.61	317.45	308.80	462.17	247.26	439.81
frame00360.jpg	305.15	288.65	375.73	317.86	304.58	462.95	242.73	441.39
frame00361.jpg	296.84	290.08	367.74	317.89	299.52	464.17	237.72	443.34
frame00362.jpg	288.75	291.42	360.09	317.89	294.43	464.90	232.60	445.05
frame00363.jpg	280.17	293.10	352.12	318.42	289.34	466.19	227.38	446.82
frame00364.jpg	271.93	294.36	344.17	318.83	284.65	466.89	222.62	449.12
frame00365.jpg	264.22	296.43	336.49	319.08	279.75	468.44	217.93	451.05
frame00366.jpg	255.30	298.26	328.50	319.14	275.46	469.56	213.10	453.18
frame00367.jpg	246.34	300.01	319.50	319.43	270.46	470.83	207.94	455.69
frame00368.jpg	236.81	301.42	310.29	319.34	265.40	472.53	202.82	457.85
frame00369.jpg	227.40	303.18	301.27	318.88	260.50	473.40	197.48	459.98
frame00370.jpg	218.20	304.69	292.18	318.30	254.78	474.19	192.11	461.25
frame00371.jpg	208.97	305.38	282.93	317.69	249.61	475.20	186.61	462.74
frame00372.jpg	200.38	305.70	274.34	317.33	244.06	474.69	180.92	464.24
frame00373.jpg	191.11	307.16	264.95	316.47	238.37	475.44	175.15	465.03
frame00374.jpg	182.58	308.15	255.89	316.97	231.97	475.62	168.96	466.10
frame00375.jpg	173.76	309.53	246.99	317.28	226.10	476.09	163.01	467.94
frame00376.jpg	164.75	312.14	238.02	317.61	219.68	477.44	156.78	469.22
frame00377.jpg	156.40	314.05	229.39	318.97	212.48	478.66	149.95	470.61
frame00378.jpg	147.97	315.67	220.74	320.52	205.72	480.13	143.31	472.64
frame00379.jpg	140.24	316.99	212.86	322.12	199.36	481.23	137.36	474.91
frame00380.jpg	133.64	318.85	205.94	323.58	193.94	483.08	131.97	477.05
frame00381.jpg	127.75	320.72	199.54	325.31	188.44	484.60	126.38	478.89
frame00382.jpg	122.09	323.43	193.83	326.95	183.50	486.12	121.33	480.56
frame00383.jpg	116.65	325.33	188.48	328.78	178.65	487.64	116.34	482.50
frame00384.jpg	110.93	327.71	182.68	330.65	174.12	489.00	111.98	484.60
frame00385.jpg	105.07	330.97	176.84	332.78	170.47	490.79	108.04	486.85
frame00386.jpg	98.08	334.30	170.56	334.62	166.42	492.00	104.08	489.14
frame00387.jpg	91.64	336.39	163.85	337.44	161.30	493.92	99.83	492.04
frame00388.jpg	85.86	338.46	157.84	340.17	155.96	496.30	95.11	494.91
frame00389.jpg	80.26	341.52	151.85	342.67	151.33	499.34	90.48	498.08
frame00390.jpg	74.77	344.39	145.82	345.32	146.63	502.56	85.69	501.27
frame00391.jpg	69.42	347.49	140.00	347.98	141.77	505.59	80.70	504.69
frame00392.jpg	64.25	350.74	134.78	350.36	137.37	508.58	76.40	507.88
frame00393.jpg	59.51	354.23	129.55	353.73	134.28	512.63	72.88	511.80
frame00394.jpg	54.26	358.72	123.88	357.92	130.76	516.76	69.25	515.79
frame00395.jpg	49.64	362.45	119.28	362.33	125.46	520.72	64.15	519.83
frame00396.jpg	44.77	365.23	114.81	367.38	119.08	524.44	58.48	524.41
frame00397.jpg	39.90	368.89	110.46	371.68	114.06	528.07	54.17	528.42
frame00398.jpg	36.09	373.12	106.58	375.35	111.68	531.99	51.82	532.42
frame00399.jpg	32.94	376.86	103.52	378.75	109.81	535.44	49.62	536.14
frame00400.jpg	29.39	380.11	99.90	381.91	107.31	538.68	46.89	539.47
frame00401.jpg	25.29	382.99	95.29	384.75	104.52	541.91	44.04	542.65
frame00402.jpg	21.69	385.41	91.60	386.50	102.78	544.38	42.04	545.25
frame00403.jpg	19.08	388.10	88.84	387.80	102.61	546.08	41.28	547.33
frame00404.jpg	17.07	389.99	87.14	388.44	102.25	547.19	40.66	548.99
frame00405.jpg	16.19	391.57	86.15	389.84	101.80	548.51	39.95	550.32
frame00406.jpg	16.09	393.32	86.19	391.28	101.75	549.88	39.66	551.55
frame00407.jpg	16.44	395.13	86.65	392.99	101.37	551.04	39.15	552.69
frame00408.jpg	16.76	395.15	86.84	392.67	101.86	551.61	39.28	553.16
frame00409.jpg	16.51	394.98	86.85	392.62	101.59	551.19	39.03	553.07
frame00410.jpg	16.50	394.58	86.84	392.33	101.22	551.41	38.60	553.25
frame00411.jpg	17.43	394.03	87.92	391.82	101.11	551.33	38.23	553.49
frame00412.jpg	18.74	393.30	89.40	391.14	101.30	551.48	38.04	553.39
frame00413.jpg	19.49	392.93	90.11	390.66	101.23	551.22	37.87	553.46
frame00414.jpg	20.20	392.26	90.90	390.00	101.30	551.07	37.86	553.57
frame00415.jpg	21.11	391.85	91.68	389.74	101.22	550.96	37.83	553.41
frame00416.jpg	21.66	391.48	92.20	389.41	101.05	550.56	37.76	553.29
frame00417.jpg	21.34	391.36	91.62	389.21	100.47	550.77	37.43	553.23
frame00418.jpg	21.72	391.04	91.65	389.13	100.11	551.06	37.20	553.49
frame00419.jpg	22.71	390.89	92.33	388.86	100.62	551.53	37.36	553.44
frame00420.jpg	23.13	390.74	92.65	388.49	100.57	551.41	37.34	553.26
frame00421.jpg	22.03	390.85	91.74	388.66	100.26	551.07	37.23	553.36
frame00422.jpg	21.50	391.15	91.01	388.54	100.38	551.28	37.23	553.53
frame00423.jpg	21.72	391.17	91.26	388.64	100.39	551.41	37.24	553.48
frame00424.jpg	22.72	391.23	92.24	388.76	100.61	551.65	37.32	553.40
frame00425.jpg	22.84	390.84	92.34	388.91	100.48	551.27	37.43	553.40
frame00426.jpg	22.59	391.02	92.07	388.75	100.31	551.37	37.33	553.32
frame00427.jpg	22.30	391.02	91.76	388.84	100.30	551.28	37.32	553.46
frame00428.jpg	22.19	391.12	91.60	388.75	100.33	551.40	37.34	553.42
frame00429.jpg	22.28	391.11	91.72	388.79	100.47	551.48	37.33	553.43
frame00430.jpg	22.76	390.94	92.21	388.85	100.57	551.49	37.46	553.38
frame00431.jpg	22.98	391.05	92.47	388.74	100.68	551.58	37.50	553.31
frame00432.jpg	22.91	390.90	92.40	388.85	100.63	551.53	37.48	553.34
frame00433.jpg	22.95	390.89	92.45	388.79	100.59	551.35	37.48	553.38
frame00434.jpg	22.98	390.86	92.60	388.67	100.54	551.27	37.43	553.20
frame00435.jpg	23.10	390.90	92.54	388.79	100.72	551.52	37.51	553.43
frame00436.jpg	23.09	390.94	92.64	388.74	100.57	551.35	37.47	553.19
frame00437.jpg	23.03	390.62	92.67	388.69	100.50	551.18	37.53	553.25
frame00438.jpg	23.15	390.91	92.61	388.61	100.64	551.46	37.54	553.39
frame00439.jpg	23.10	390.86	92.65	388.69	100.57	551.27	37.49	553.23
frame00440.jpg	23.04	390.94	92.57	388.83	100.58	551.18	37.50	553.34
frame00441.jpg	23.14	391.02	92.60	388.69	100.57	551.42	37.48	553.16
frame00442.jpg	23.11	391.02	92.64	388.69	100.59	551.38	37.45	553.18
frame00443.jpg	23.08	390.97	92.61	388.74	100.57	551.37	37.50	553.25
frame00444.jpg	23.12	391.01	92.65	388.69	100.48	551.17	37.46	553.24
frame00445.jpg	23.09	391.03	92.61	388.72	100.64	551.39	37.54	553.26
frame00446.jpg	23.06	390.99	92.65	388.62	100.57	551.29	37.51	553.21
frame00447.jpg	23.09	391.00	92.63	388.77	100.58	551.23	37.52	553.20
frame00448.jpg	23.11	390.91	92.67	388.68	100.49	551.19	37.50	553.16
frame00449.jpg	23.08	390.78	92.71	388.61	100.48	551.06	37.53	553.26
frame00450.jpg	23.21	391.07	92.68	388.72	100.61	551.42	37.45	553.18
frame00451.jpg	23.14	391.00	92.66	388.65	100.60	551.46	37.51	553.14
frame00452.jpg	23.16	391.00	92.68	388.62	100.66	551.55	37.51	553.23
frame00453.jpg	23.13	390.91	92.68	388.71	100.53	551.28	37.50	553.23
frame00454.jpg	23.16	391.02	92.59	388.86	100.66	551.43	37.47	553.39
frame00455.jpg	23.13	390.94	92.63	388.70	100.59	551.45	37.49	553.23
frame00456.jpg	23.08	391.03	92.60	388.73	100.70	551.41	37.51	553.33
frame00457.jpg	23.11	391.09	92.61	388.68	100.61	551.39	37.47	553.16
frame00458.jpg	23.18	390.94	92.68	388.68	100.55	551.35	37.46	553.23
frame00459.jpg	23.12	391.01	92.56	388.81	100.59	551.25	37.51	553.35
frame00460.jpg	23.11	390.87	92.62	388.75	100.60	551.28	37.50	553.31
frame00461.jpg	23.11	391.05	92.58	388.72	100.59	551.30	37.52	553.16
frame00462.jpg	23.14	390.97	92.70	388.71	100.53	551.21	37.43	553.19
frame00463.jpg	23.11	391.09	92.61	388.68	100.70	551.49	37.51	553.19
frame00464.jpg	23.11	390.94	92.64	388.62	100.59	551.50	37.49	553.20
frame00465.jpg	23.13	390.92	92.60	388.76	100.59	551.46	37.51	553.16
frame00466.jpg	23.18	390.99	92.68	388.68	100.57	551.39	37.49	553.18
frame00467.jpg	23.12	390.94	92.65	388.76	100.56	551.22	37.47	553.30
frame00468.jpg	23.14	391.01	92.64	388.75	100.62	551.32	37.50	553.30
frame00469.jpg	23.09	390.95	92.66	388.75	100.56	551.19	37.51	553.22
frame00470.jpg	23.13	391.04	92.57	388.67	100.70	551.50	37.59	553.34
frame00471.jpg	23.19	391.07	92.72	388.69	100.57	551.39	37.47	553.12
frame00472.jpg	23.14	391.03	92.69	388.58	100.57	551.24	37.50	553.20
frame00473.jpg	23.15	391.03	92.63	388.70	100.63	551.37	37.50	553.28
frame00474.jpg	23.11	390.90	92.67	388.51	100.53	551.24	37.53	553.26
frame00475.jpg	23.11	390.96	92.59	388.76	100.60	551.44	37.55	553.23
frame00476.jpg	23.13	390.93	92.62	388.76	100.59	551.31	37.52	553.30
frame00477.jpg	23.16	391.14	92.72	388.59	100.59	551.43	37.50	553.10
frame00478.jpg	23.17	390.92	92.66	388.69	100.57	551.38	37.49	553.35
frame00479.jpg	23.14	390.92	92.68	388.63	100.57	551.26	37.52	553.30
frame00480.jpg	23.15	391.02	92.65	388.77	100.60	551.40	37.48	553.15
frame00481.jpg	23.13	390.87	92.64	388.72	100.59	551.29	37.55	553.31
frame00482.jpg	23.18	391.05	92.72	388.62	100.59	551.49	37.48	553.17
frame00483.jpg	23.14	390.88	92.69	388.74	100.52	551.28	37.49	553.19
frame00484.jpg	23.09	390.97	92.68	388.79	100.64	551.35	37.49	553.26
frame00485.jpg	23.16	391.01	92.62	388.78	100.67	551.47	37.55	553.30
frame00486.jpg	23.13	391.04	92.63	388.76	100.64	551.39	37.50	553.35
frame00487.jpg	23.12	391.01	92.64	388.77	100.58	551.26	37.49	553.23
frame00488.jpg	23.11	390.91	92.70	388.70	100.52	551.13	37.48	553.27
frame00489.jpg	23.21	391.07	92.60	388.85	100.67	551.55	37.47	553.35
frame00490.jpg	23.08	391.00	92.60	388.74	100.64	551.32	37.52	553.31
frame00491.jpg	23.14	390.96	92.69	388.62	100.55	551.23	37.51	553.21
frame00492.jpg	23.14	391.01	92.64	388.65	100.57	551.32	37.53	553.25
frame00493.jpg	23.16	390.94	92.74	388.65	100.46	551.18	37.47	553.12
frame00494.jpg	23.18	390.96	92.72	388.67	100.49	551.18	37.48	553.17
frame00495.jpg	23.20	391.05	92.65	388.73	100.57	551.39	37.50	553.20
frame00496.jpg	23.16	391.01	92.67	388.76	100.59	551.31	37.51	553.22
frame00497.jpg	23.22	391.05	92.71	388.63	100.64	551.62	37.48	553.17
frame00498.jpg	23.14	391.02	92.67	388.65	100.61	551.40	37.51	553.23
frame00499.jpg	23.14	390.98	92.68	388.76	100.59	551.27	37.50	553.24
frame00500.jpg	23.18	391.12	92.68	388.64	100.63	551.45	37.50	553.21
frame00501.jpg	23.17	391.03	92.71	388.64	100.51	551.27	37.48	553.21
frame00502.jpg	23.13	390.92	92.72	388.71	100.49	551.14	37.48	553.17
frame00503.jpg	23.14	391.02	92.65	388.83	100.56	551.20	37.49	553.25
frame00504.jpg	23.13	390.94	92.62	388.79	100.57	551.24	37.52	553.31
frame00505.jpg	23.17	391.12	92.71	388.70	100.62	551.38	37.46	553.17
frame00506.jpg	23.16	390.96	92.69	388.78	100.56	551.24	37.45	553.29
frame00507.jpg	23.17	390.99	92.73	388.64	100.59	551.44	37.49	553.19
frame00508.jpg	23.13	390.95	92.67	388.71	100.55	551.29	37.52	553.26
frame00509.jpg	23.17	390.98	92.71	388.65	100.49	551.22	37.48	553.20
frame00510.jpg	23.18	390.99	92.62	388.74	100.64	551.47	37.51	553.32
frame00511.jpg	23.17	390.95	92.66	388.80	100.56	551.32	37.50	553.26
