  2.00000000	 -0.00000385	 -0.00008274	  0.00008077	 -0.00002035	  0.00007370	 -0.00023503	 -0.00000322	 -0.00006190
  3.00000000	  0.00000166	  0.00004057	  0.00007650	 -0.00002284	  0.00006336	  0.00009764	  0.00000125	  0.00003036
  4.00000000	  0.00003343	  0.00016803	  0.00004034	  0.00000592	 -0.00002581	  0.00006340	  0.00004508	  0.00012492
  5.00000000	  0.00000099	  0.00000295	  0.00007483	  0.00003024	 -0.00008326	 -0.00017684	  0.00000140	  0.00000218
  6.00000000	 -0.00001974	  0.00004511	  0.00004361	  0.00002946	 -0.00009220	  0.00006876	 -0.00003112	  0.00003443
  7.00000000	 -0.00001602	 -0.00025745	  0.00000750	 -0.00006195	  0.00019324	 -0.00000287	 -0.00001612	 -0.00019247
  8.00000000	  0.00006459	 -0.00000972	  0.00004060	 -0.00000989	  0.00002764	  0.00001004	  0.00009752	 -0.00000929
  9.00000000	 -0.00006755	 -0.00003300	  0.00004150	  0.00002158	 -0.00006297	  0.00001909	 -0.00010065	 -0.00002264
 10.00000000	  0.00006601	  0.00003322	  0.00010805	 -0.00002600	  0.00006967	  0.00013051	  0.00009832	  0.00002285
 11.00000000	  0.00007298	 -0.00018502	  0.00007333	 -0.00000020	 -0.00000738	  0.00023296	  0.00011567	 -0.00014098
 12.00000000	  0.00015817	  0.00010671	  0.00002885	 -0.00002655	  0.00006793	  0.00010082	  0.00023469	  0.00007501
 13.00000000	 -0.00013236	 -0.00037157	  0.00003228	 -0.00000427	  0.00002536	  0.00000445	 -0.00018743	 -0.00027437
 14.00000000	  0.00015616	 -0.00024068	  0.00006681	 -0.00004765	  0.00013543	  0.00019617	  0.00024268	 -0.00018539
 15.00000000	  0.00005856	 -0.00009612	  0.00003861	  0.00001181	 -0.00004047	  0.00012136	  0.00009122	 -0.00007394
 16.00000000	 -0.00005726	 -0.00021249	  0.00000092	 -0.00005056	  0.00015269	  0.00013342	 -0.00007929	 -0.00015748
 17.00000000	  0.00000967	  0.00012743	  0.00007759	 -0.00003448	  0.00010527	 -0.00010977	  0.00001044	  0.00009524
 18.00000000	  0.00008350	 -0.00005711	  0.00000918	 -0.00008972	  0.00027036	 -0.00004299	  0.00012743	 -0.00004552
 19.00000000	 -0.00012692	  0.00005864	  0.00008271	 -0.00000405	  0.00000978	  0.00010764	 -0.00019275	  0.00004807
 20.00000000	 -0.00025017	 -0.00017554	  0.00001975	  0.00013865	 -0.00039938	 -0.00013140	 -0.00037068	 -0.00012357
 21.00000000	  0.00008468	  0.00059474	  0.00015332	  0.00000109	 -0.00000838	 -0.00027335	  0.00010845	  0.00044323
 22.00000000	 -0.00001878	  0.00004807	  0.00003834	  0.00002259	 -0.00006680	 -0.00003855	 -0.00002979	  0.00003664
 23.00000000	  0.00005312	  0.00016516	  0.00007497	 -0.00001447	  0.00003962	 -0.00003931	  0.00007472	  0.00012215
 24.00000000	 -0.00013934	  0.00015275	  0.00010917	  0.00005119	 -0.00014806	 -0.00012652	 -0.00021450	  0.00011891
 25.00000000	  0.00003413	  0.00017175	  0.00011262	  0.00005529	 -0.00016431	 -0.00016354	  0.00004598	  0.00012768
 26.00000000	  0.00000458	 -0.00025806	  0.00010613	  0.00006367	 -0.00017869	 -0.00015143	  0.00001495	 -0.00019357
 27.00000000	 -0.00003582	  0.00009294	  0.00014495	  0.00006271	 -0.00018600	 -0.00008808	 -0.00005684	  0.00007077
 28.00000000	  0.00004243	 -0.00000435	  0.00000128	  0.00004184	 -0.00012718	  0.00000331	  0.00006403	 -0.00000458
 29.00000000	 -0.00001892	  0.00004654	  0.00010801	 -0.00003936	  0.00011663	  0.00002780	 -0.00002994	  0.00003547
 30.00000000	  0.00008441	 -0.00001490	  0.00007227	 -0.00005264	  0.00015348	  0.00006292	  0.00012756	 -0.00001380
 31.00000000	 -0.00010239	 -0.00024321	  0.00000278	  0.00001772	 -0.00004276	 -0.00003920	 -0.00014661	 -0.00017909
 32.00000000	  0.00002010	 -0.00000205	  0.00004321	  0.00004399	 -0.00013244	 -0.00001007	  0.00003033	 -0.00000216
 33.00000000	 -0.00000451	 -0.00003793	  0.00008337	  0.00011471	 -0.00034469	  0.00001302	 -0.00000562	 -0.00002828
 34.00000000	 -0.00000971	 -0.00042762	  0.00012447	  0.00010282	 -0.00029838	 -0.00002181	 -0.00000148	 -0.00032004
 35.00000000	  0.00002799	  0.00012882	  0.00018753	  0.00005650	 -0.00018366	  0.00021757	  0.00003821	  0.00009562
 36.00000000	 -0.00006147	  0.00000471	  0.00019151	 -0.00008869	  0.00027518	 -0.00014364	 -0.00009281	  0.00000543
 37.00000000	 -0.00001511	  0.00008470	  0.00003978	 -0.00006045	  0.00017783	  0.00005905	 -0.00002541	  0.00006392
 38.00000000	 -0.00000022	  0.00026074	  0.00027048	 -0.00002062	  0.00006527	 -0.00021862	 -0.00000845	  0.00019536
 39.00000000	  0.00008354	 -0.00001087	  0.00008002	  0.00005095	 -0.00015666	  0.00002479	  0.00012621	 -0.00001074
 40.00000000	 -0.00010288	 -0.00024182	  0.00006178	  0.00011449	 -0.00033159	 -0.00010045	 -0.00014760	 -0.00017796
 41.00000000	  0.00006867	  0.00003367	  0.00025821	  0.00006047	 -0.00017709	 -0.00017982	  0.00010249	  0.00002311
 42.00000000	 -0.00001941	 -0.00033401	  0.00036725	  0.00016677	 -0.00046985	 -0.00055606	 -0.00001911	 -0.00024950
 43.00000000	  0.00001727	 -0.00009042	  0.00032646	  0.00009064	 -0.00026444	 -0.00016550	  0.00002882	 -0.00006820
 44.00000000	  0.00003809	 -0.00008660	  0.00021622	  0.00013609	 -0.00039588	 -0.00031230	  0.00006011	 -0.00006596
 45.00000000	  0.00011126	 -0.00027533	  0.00014787	  0.00005148	 -0.00014845	 -0.00009103	  0.00017629	 -0.00020933
 46.00000000	 -0.00006205	  0.00000645	  0.00018669	 -0.00000751	  0.00002554	 -0.00002701	 -0.00009391	  0.00000667
 47.00000000	  0.00002538	  0.00004196	  0.00004303	 -0.00001048	  0.00003521	 -0.00012118	  0.00003708	  0.00003064
 48.00000000	  0.00003984	 -0.00005633	  0.00000547	 -0.00014740	  0.00044467	  0.00000477	  0.00006183	 -0.00004334
 49.00000000	 -0.00007972	  0.00010073	  0.00007539	  0.00004635	 -0.00014575	  0.00013677	 -0.00012336	  0.00007777
 50.00000000	  0.00006781	  0.00007547	  0.00018486	 -0.00002406	  0.00005860	  0.00023184	  0.00010010	  0.00005444
 51.00000000	 -0.00006063	  0.00005864	  0.00003268	  0.00007391	 -0.00020872	 -0.00031541	 -0.00009329	  0.00004571
 52.00000000	 -0.00001570	 -0.00021419	  0.00007949	  0.00003461	 -0.00010395	  0.00011196	 -0.00001733	 -0.00015981
 53.00000000	  0.00007442	 -0.00013952	  0.00008322	  0.00006427	 -0.00019317	  0.00000422	  0.00011656	 -0.00010662
 54.00000000	 -0.00005926	 -0.00020742	  0.00015826	  0.00005187	 -0.00015625	  0.00013939	 -0.00008336	 -0.00015340
 55.00000000	  0.00011414	  0.00011320	  0.00017749	 -0.00006927	  0.00019685	  0.00014244	  0.00016907	  0.00008126
 56.00000000	 -0.00002002	  0.00030347	  0.00008808	 -0.00011469	  0.00034039	 -0.00001789	 -0.00003936	  0.00022767
 57.00000000	 -0.00002976	  0.00017419	  0.00007994	 -0.00006801	  0.00020112	  0.00001897	 -0.00005018	  0.00013125
 58.00000000	  0.00003268	  0.00016232	  0.00003766	 -0.00005427	  0.00015175	  0.00016127	  0.00004439	  0.00012052
 59.00000000	 -0.00002286	 -0.00003776	  0.00018168	  0.00006987	 -0.00020025	 -0.00020213	 -0.00003336	 -0.00002757
 60.00000000	  0.00007522	 -0.00013808	  0.00000827	  0.00009123	 -0.00027128	 -0.00006743	  0.00011772	 -0.00010561
 61.00000000	 -0.00005630	 -0.00020548	  0.00014128	  0.00010849	 -0.00031655	 -0.00010089	 -0.00007883	 -0.00015206
 62.00000000	 -0.00010076	 -0.00019557	  0.00001489	  0.00016896	 -0.00049831	 -0.00009788	 -0.00014644	 -0.00014326
 63.00000000	  0.00008125	 -0.00005624	  0.00000390	  0.00002078	 -0.00006510	  0.00002630	  0.00012453	 -0.00004449
 64.00000000	 -0.00006636	 -0.00002951	  0.00010309	  0.00011175	 -0.00032741	 -0.00017155	 -0.00009947	 -0.00002008
 65.00000000	  0.00002624	  0.00008144	  0.00003904	 -0.00000184	 -0.00000092	  0.00008724	  0.00003726	  0.00006011
 66.00000000	  0.00001980	 -0.00004165	  0.00018308	  0.00009563	 -0.00027757	 -0.00025405	  0.00003120	 -0.00003173
 67.00000000	 -0.00004579	 -0.00008239	  0.00022703	 -0.00005232	  0.00017134	 -0.00022874	 -0.00006684	 -0.00006024
 68.00000000	  0.00008548	 -0.00031473	  0.00003254	  0.00007027	 -0.00020811	  0.00000065	  0.00013860	 -0.00023780
 69.00000000	  0.00005878	 -0.00004948	  0.00002082	  0.00015119	 -0.00045587	 -0.00004363	  0.00009043	 -0.00003871
 70.00000000	  0.00010192	 -0.00004730	  0.00011700	  0.00015929	 -0.00047700	 -0.00015982	  0.00015574	 -0.00003835
 71.00000000	 -0.00009326	 -0.00037645	  0.00013488	  0.00011726	 -0.00034468	  0.00001248	 -0.00013045	 -0.00027846
 72.00000000	 -0.00000315	  0.00000106	  0.00023299	  0.00006850	 -0.00021994	  0.00028891	 -0.00000481	  0.00000088
 73.00000000	 -0.00006723	 -0.00032744	  0.00009152	  0.00018734	 -0.00054528	 -0.00030912	 -0.00009260	 -0.00024250
 74.00000000	  0.00006765	 -0.00022154	  0.00023287	  0.00011810	 -0.00036035	  0.00011196	  0.00010899	 -0.00016730
 75.00000000	  0.00008935	 -0.00018513	  0.00042308	  0.00005270	 -0.00017021	  0.00026378	  0.00014094	 -0.00014074
 76.00000000	 -0.00006728	 -0.00003182	  0.00004403	  0.00004198	 -0.00012106	 -0.00008367	 -0.00010127	 -0.00002180
 77.00000000	 -0.00011031	 -0.00032826	  0.00016773	  0.00015097	 -0.00045166	  0.00007985	 -0.00015825	 -0.00024171
 78.00000000	 -0.00012516	 -0.00019171	  0.00036215	  0.00022389	 -0.00067621	  0.00009204	 -0.00018490	 -0.00013935
 79.00000000	  0.00010603	 -0.00026632	  0.00038574	  0.00017301	 -0.00052754	  0.00008515	  0.00016880	 -0.00020156
 80.00000000	 -0.00022430	 -0.00074112	  0.00040681	  0.00025269	 -0.00074054	 -0.00019212	 -0.00032136	 -0.00054576
 81.00000000	 -0.00006391	 -0.00020271	  0.00070014	  0.00021877	 -0.00068290	  0.00053301	 -0.00009188	 -0.00014915
 82.00000000	  0.00012131	 -0.00065238	  0.00069969	  0.00032261	 -0.00097450	 -0.00003141	  0.00020264	 -0.00048898
 83.00000000	 -0.00024024	 -0.00065818	  0.00052941	  0.00034135	 -0.00103433	  0.00024745	 -0.00034953	 -0.00048284
 84.00000000	  0.00012504	 -0.00061218	  0.00055631	  0.00031788	 -0.00095517	 -0.00026113	  0.00020730	 -0.00045844
 85.00000000	  0.00000625	 -0.00046823	  0.00077771	  0.00028422	 -0.00087097	  0.00019939	  0.00002152	 -0.00034793
 86.00000000	 -0.00008205	 -0.00054820	  0.00070367	  0.00026545	 -0.00081439	  0.00028442	 -0.00011195	 -0.00040473
 87.00000000	  0.00003624	 -0.00069390	  0.00092835	  0.00021069	 -0.00064874	  0.00026716	  0.00007296	 -0.00051577
 88.00000000	  0.00014649	 -0.00062175	  0.00082028	  0.00031348	 -0.00097589	  0.00042429	  0.00024082	 -0.00046486
 89.00000000	 -0.00017324	 -0.00066998	  0.00086656	  0.00030560	 -0.00093682	  0.00026429	 -0.00025022	 -0.00049190
 90.00000000	  0.00000414	 -0.00091541	  0.00105177	  0.00021697	 -0.00067874	  0.00052161	  0.00002879	 -0.00067804
 91.00000000	 -0.00018204	 -0.00089124	  0.00086454	  0.00033760	 -0.00104014	  0.00035068	 -0.00025920	 -0.00065492
 92.00000000	 -0.00007507	 -0.00090019	  0.00075076	  0.00035651	 -0.00108595	 -0.00013110	 -0.00009472	 -0.00066384
 93.00000000	 -0.00012382	 -0.00024285	  0.00088950	  0.00025295	 -0.00079822	  0.00059688	 -0.00018587	 -0.00017640
 94.00000000	 -0.00015743	 -0.00045427	  0.00086986	  0.00041106	 -0.00126918	  0.00013825	 -0.00023344	 -0.00033156
 95.00000000	 -0.00018332	 -0.00103289	  0.00064152	  0.00027325	 -0.00083914	  0.00009116	 -0.00026074	 -0.00075786
 96.00000000	 -0.00006592	 -0.00081846	  0.00082289	  0.00036035	 -0.00111043	 -0.00005814	 -0.00008434	 -0.00060207
 97.00000000	  0.00015050	 -0.00067573	  0.00112448	  0.00030170	 -0.00097304	  0.00096660	  0.00024950	 -0.00050159
 98.00000000	 -0.00002780	 -0.00052414	  0.00039842	  0.00016456	 -0.00051092	  0.00004524	 -0.00003138	 -0.00038547
 99.00000000	 -0.00035667	 -0.00040557	  0.00002199	  0.00029907	 -0.00092215	  0.00004551	 -0.00054701	 -0.00029040
100.00000000	  0.00012124	 -0.00090463	  0.00002801	  0.00028660	 -0.00090635	  0.00031134	  0.00021065	 -0.00066853
101.00000000	  0.00006597	 -0.00032392	  0.00024194	  0.00023190	 -0.00075211	  0.00075680	  0.00011104	 -0.00023982
102.00000000	 -0.00002211	 -0.00080810	  0.00000602	  0.00032173	 -0.00102786	  0.00064312	 -0.00001398	 -0.00059354
103.00000000	 -0.00006174	 -0.00088467	  0.00026468	  0.00010814	 -0.00032675	 -0.00028750	 -0.00007420	 -0.00064854
104.00000000	 -0.00041052	 -0.00026796	  0.00040689	  0.00044794	 -0.00138008	 -0.00033976	 -0.00063724	 -0.00018654
105.00000000	  0.00023695	 -0.00070206	  0.00018442	  0.00001817	 -0.00007263	  0.00021836	  0.00039015	 -0.00052132
106.00000000	 -0.00013525	 -0.00097649	  0.00018530	  0.00022395	 -0.00072525	  0.00061961	 -0.00018689	 -0.00071323
107.00000000	 -0.00016578	 -0.00075670	  0.00028180	  0.00029931	 -0.00096380	  0.00065815	 -0.00023972	 -0.00055079
108.00000000	 -0.00011941	 -0.00106861	  0.00022185	  0.00037141	 -0.00118927	  0.00046657	 -0.00015820	 -0.00078015
109.00000000	  0.00019458	 -0.00106298	  0.00017272	  0.00031944	 -0.00103910	  0.00050371	  0.00033748	 -0.00078432
110.00000000	 -0.00025665	 -0.00141838	  0.00011731	  0.00022514	 -0.00072510	  0.00022309	 -0.00036440	 -0.00103124
111.00000000	  0.00002408	 -0.00114264	  0.00025291	  0.00053183	 -0.00171225	  0.00050183	  0.00007168	 -0.00083681
112.00000000	 -0.00009255	 -0.00099440	  0.00045804	  0.00018512	 -0.00059007	 -0.00010570	 -0.00011674	 -0.00072442
113.00000000	 -0.00003728	 -0.00068602	  0.00033223	  0.00020638	 -0.00070295	  0.00100220	 -0.00003799	 -0.00050034
114.00000000	  0.00003796	 -0.00047138	  0.00004347	  0.00031036	 -0.00101027	  0.00045330	  0.00007523	 -0.00034558
115.00000000	 -0.00011492	 -0.00135831	  0.00044500	  0.00025333	 -0.00081046	 -0.00024636	 -0.00013920	 -0.00098825
116.00000000	 -0.00007333	 -0.00182154	  0.00026912	  0.00007384	 -0.00025939	 -0.00011376	 -0.00005851	 -0.00132739
117.00000000	 -0.00016723	 -0.00004559	  0.00039019	  0.00032576	 -0.00108266	  0.00112827	 -0.00026485	 -0.00002791
118.00000000	 -0.00044572	 -0.00137411	  0.00024178	  0.00009605	 -0.00032448	  0.00008403	 -0.00066424	 -0.00098763
119.00000000	  0.00025606	 -0.00141872	  0.00014601	  0.00018056	 -0.00061613	  0.00012244	  0.00045660	 -0.00104319
120.00000000	  0.00003737	 -0.00131211	  0.00034918	  0.00026418	 -0.00090588	  0.00073318	  0.00010480	 -0.00095775
121.00000000	 -0.00044981	 -0.00138960	  0.00056172	  0.00020469	 -0.00065823	 -0.00037544	 -0.00067047	 -0.00099711
122.00000000	 -0.00004196	 -0.00079806	  0.00024115	  0.00031136	 -0.00103766	  0.00052671	 -0.00003924	 -0.00057976
123.00000000	  0.00013277	 -0.00105643	  0.00011031	  0.00016514	 -0.00058178	  0.00048868	  0.00025045	 -0.00077371
124.00000000	  0.00030322	 -0.00177349	  0.00027199	 -0.00005010	  0.00004826	  0.00109933	  0.00055173	 -0.00130182
125.00000000	 -0.00031637	 -0.00077414	  0.00060281	  0.00027584	 -0.00087424	 -0.00047091	 -0.00047829	 -0.00055173
126.00000000	 -0.00025625	 -0.00096632	  0.00004651	  0.00010596	 -0.00036069	 -0.00002898	 -0.00037553	 -0.00069349
127.00000000	  0.00010608	 -0.00200168	  0.00028917	 -0.00005857	  0.00007351	  0.00090055	  0.00024610	 -0.00146010
128.00000000	  0.00012628	 -0.00157977	  0.00014683	 -0.00001419	 -0.00003539	  0.00045139	  0.00026350	 -0.00115417
129.00000000	  0.00001012	 -0.00145220	  0.00004018	  0.00002386	 -0.00015113	  0.00042340	  0.00007331	 -0.00105694
130.00000000	 -0.00033532	 -0.00162925	  0.00003212	 -0.00005253	  0.00010460	  0.00017571	 -0.00047381	 -0.00117227
131.00000000	  0.00038025	 -0.00149846	  0.00016328	  0.00006588	 -0.00027832	 -0.00006444	  0.00066958	 -0.00110521
132.00000000	 -0.00031196	 -0.00188755	  0.00037670	 -0.00009842	  0.00025449	 -0.00024190	 -0.00042579	 -0.00136119
133.00000000	 -0.00024127	 -0.00141958	  0.00002374	 -0.00026055	  0.00073004	  0.00092345	 -0.00032897	 -0.00102384
134.00000000	 -0.00034197	 -0.00124321	  0.00035057	 -0.00001381	  0.00000400	 -0.00016373	 -0.00049694	 -0.00089140
135.00000000	  0.00020382	 -0.00114375	  0.00061056	 -0.00021185	  0.00057120	  0.00091228	  0.00037366	 -0.00084144
136.00000000	  0.00022276	 -0.00026756	  0.00015033	  0.00010318	 -0.00031026	 -0.00070956	  0.00036762	 -0.00020414
137.00000000	 -0.00034410	 -0.00162574	  0.00021553	 -0.00035214	  0.00106566	 -0.00021626	 -0.00048465	 -0.00117052
138.00000000	  0.00028732	 -0.00222867	  0.00044084	 -0.00007770	  0.00005476	  0.00126885	  0.00055231	 -0.00163613
139.00000000	 -0.00041286	 -0.00138513	  0.00008135	 -0.00051837	  0.00158322	  0.00014834	 -0.00060069	 -0.00099298
140.00000000	 -0.00036901	 -0.00037793	  0.00071964	 -0.00024575	  0.00075640	  0.00027302	 -0.00057173	 -0.00026048
141.00000000	 -0.00003516	 -0.00030763	  0.00017304	  0.00009907	 -0.00032753	 -0.00006492	 -0.00004265	 -0.00022309
142.00000000	  0.00008111	 -0.00169321	  0.00012184	 -0.00007656	  0.00015720	 -0.00020907	  0.00020176	 -0.00123974
143.00000000	 -0.00008588	 -0.00077966	  0.00030506	 -0.00035488	  0.00110840	 -0.00037667	 -0.00010341	 -0.00056580
144.00000000	  0.00005367	 -0.00071209	  0.00020904	 -0.00021948	  0.00060013	  0.00101005	  0.00011649	 -0.00052271
145.00000000	 -0.00004143	 -0.00094886	  0.00044254	 -0.00011975	  0.00029585	  0.00052795	 -0.00002411	 -0.00069190
146.00000000	 -0.00007572	 -0.00129558	  0.00029563	 -0.00015681	  0.00043280	 -0.00022000	 -0.00006275	 -0.00094416
147.00000000	 -0.00040892	 -0.00193036	  0.00006986	 -0.00057455	  0.00170634	  0.00001441	 -0.00056330	 -0.00139471
148.00000000	  0.00009663	 -0.00082651	  0.00017245	 -0.00024389	  0.00066091	  0.00100820	  0.00019046	 -0.00060968
149.00000000	 -0.00040053	 -0.00193977	  0.00048353	 -0.00076799	  0.00234413	 -0.00069993	 -0.00054497	 -0.00140432
150.00000000	 -0.00032364	 -0.00157952	  0.00010645	 -0.00063775	  0.00192344	 -0.00030257	 -0.00043931	 -0.00114537
151.00000000	  0.00014279	 -0.00171227	  0.00038142	 -0.00091177	  0.00269087	  0.00090738	  0.00030136	 -0.00126560
152.00000000	  0.00003401	 -0.00294527	  0.00032165	 -0.00055584	  0.00147590	  0.00069094	  0.00018815	 -0.00217082
153.00000000	 -0.00032777	 -0.00109520	  0.00017862	 -0.00047864	  0.00144443	 -0.00046476	 -0.00046239	 -0.00079237
154.00000000	 -0.00008857	 -0.00130077	  0.00007806	 -0.00090198	  0.00266556	  0.00086797	 -0.00007726	 -0.00095639
155.00000000	 -0.00009446	 -0.00204891	  0.00032682	 -0.00120862	  0.00356937	  0.00038719	 -0.00005103	 -0.00151160
156.00000000	 -0.00004566	 -0.00078374	  0.00063752	 -0.00076903	  0.00234902	 -0.00059947	 -0.00003385	 -0.00057894
157.00000000	  0.00033419	 -0.00181383	  0.00030842	 -0.00088062	  0.00255576	  0.00001170	  0.00059836	 -0.00136222
158.00000000	  0.00026086	 -0.00136326	  0.00075732	 -0.00083813	  0.00239252	  0.00108721	  0.00046330	 -0.00102625
159.00000000	 -0.00030149	 -0.00132030	  0.00033657	 -0.00098414	  0.00291483	 -0.00021319	 -0.00039778	 -0.00096985
160.00000000	 -0.00006772	 -0.00200973	  0.00039482	 -0.00096044	  0.00271526	  0.00059724	 -0.00000793	 -0.00149748
161.00000000	 -0.00047666	 -0.00212590	  0.00102100	 -0.00116700	  0.00340807	 -0.00099069	 -0.00062038	 -0.00156861
162.00000000	  0.00020793	 -0.00170932	  0.00030116	 -0.00096553	  0.00271748	  0.00066731	  0.00039409	 -0.00129157
163.00000000	 -0.00030371	 -0.00076328	  0.00047667	 -0.00118562	  0.00349988	  0.00004788	 -0.00041896	 -0.00055943
164.00000000	  0.00006287	 -0.00157951	  0.00066929	 -0.00076957	  0.00219876	 -0.00084840	  0.00016889	 -0.00119242
165.00000000	 -0.00028733	 -0.00145772	  0.00071160	 -0.00143190	  0.00418733	 -0.00092529	 -0.00035958	 -0.00108686
166.00000000	 -0.00051430	 -0.00115989	  0.00066785	 -0.00120659	  0.00347147	  0.00004602	 -0.00070642	 -0.00085438
167.00000000	  0.00066590	 -0.00220674	  0.00125147	 -0.00115847	  0.00310352	  0.00153172	  0.00108415	 -0.00170532
168.00000000	 -0.00033593	 -0.00048147	  0.00152066	 -0.00135605	  0.00401526	 -0.00128558	 -0.00046931	 -0.00035060
169.00000000	 -0.00070414	 -0.00173196	  0.00026800	 -0.00139842	  0.00391600	  0.00002660	 -0.00094458	 -0.00128808
170.00000000	  0.00045176	 -0.00318511	  0.00098037	 -0.00150151	  0.00394107	  0.00133400	  0.00080595	 -0.00245749
171.00000000	 -0.00026928	 -0.00143492	  0.00008365	 -0.00156586	  0.00442549	 -0.00087597	 -0.00032092	 -0.00108793
172.00000000	  0.00002607	  0.00001826	  0.00095796	 -0.00172390	  0.00499824	 -0.00060420	  0.00003647	  0.00001286
173.00000000	 -0.00074439	 -0.00237379	  0.00072134	 -0.00162091	  0.00435711	  0.00022636	 -0.00094584	 -0.00179923
174.00000000	 -0.00042121	  0.00038905	  0.00084320	 -0.00181085	  0.00524100	 -0.00086779	 -0.00061395	  0.00032109
175.00000000	  0.00061064	 -0.00204429	  0.00033862	 -0.00142562	  0.00373821	  0.00089188	  0.00095487	 -0.00161795
176.00000000	 -0.00070061	 -0.00280395	  0.00091576	 -0.00192121	  0.00513143	 -0.00136089	 -0.00084751	 -0.00215492
177.00000000	 -0.00043347	 -0.00196959	  0.00028466	 -0.00132979	  0.00349133	 -0.00039738	 -0.00051144	 -0.00152173
178.00000000	  0.00010337	 -0.00193634	  0.00004974	 -0.00197724	  0.00516892	  0.00165874	  0.00023523	 -0.00152532
179.00000000	  0.00048533	 -0.00153471	  0.00025506	 -0.00202632	  0.00540723	 -0.00022425	  0.00073710	 -0.00123314
180.00000000	 -0.00094307	  0.00039962	  0.00182663	 -0.00194280	  0.00544923	 -0.00151794	 -0.00130229	  0.00035915
181.00000000	  0.00001521	 -0.00209718	  0.00050667	 -0.00196686	  0.00510452	 -0.00047333	  0.00011449	 -0.00166737
182.00000000	  0.00044736	 -0.00032349	  0.00011043	 -0.00204867	  0.00550273	 -0.00010295	  0.00061484	 -0.00027814
183.00000000	  0.00002422	  0.00024743	  0.00023740	 -0.00226459	  0.00607686	  0.00083210	  0.00002088	  0.00019720
184.00000000	  0.00002513	 -0.00214772	  0.00045948	 -0.00264118	  0.00673383	  0.00049090	  0.00013152	 -0.00173070
185.00000000	 -0.00006561	 -0.00220360	  0.00040968	 -0.00277973	  0.00706142	 -0.00025879	  0.00001338	 -0.00178108
186.00000000	  0.00114040	 -0.00168194	  0.00026226	 -0.00344193	  0.00865948	  0.00275053	  0.00155989	 -0.00142141
187.00000000	 -0.00193599	 -0.00182947	  0.00142117	 -0.00335410	  0.00847731	 -0.00093597	 -0.00239352	 -0.00141030
188.00000000	  0.00122497	 -0.00044796	  0.00016333	 -0.00304541	  0.00776869	 -0.00045883	  0.00157646	 -0.00042784
189.00000000	 -0.00023980	 -0.00255635	  0.00012736	 -0.00381804	  0.00932730	  0.00019568	 -0.00018020	 -0.00211413
190.00000000	 -0.00026930	 -0.00197565	  0.00018619	 -0.00323308	  0.00782039	  0.00033999	 -0.00024129	 -0.00164153
191.00000000	 -0.00080407	 -0.00151331	  0.00140733	 -0.00424807	  0.01035631	 -0.00012710	 -0.00091368	 -0.00123987
192.00000000	  0.00092946	 -0.00236340	  0.00041071	 -0.00417172	  0.00990932	 -0.00026216	  0.00124071	 -0.00205435
193.00000000	 -0.00078951	 -0.00118420	  0.00123345	 -0.00403695	  0.00967799	 -0.00127407	 -0.00089078	 -0.00097981
194.00000000	  0.00080352	 -0.00058276	  0.00009557	 -0.00386826	  0.00920179	  0.00014482	  0.00097938	 -0.00054049
195.00000000	 -0.00149445	 -0.00176036	  0.00065156	 -0.00421207	  0.00974333	 -0.00035561	 -0.00167023	 -0.00146722
196.00000000	  0.00102672	 -0.00023529	  0.00089819	 -0.00418804	  0.00985120	 -0.00102890	  0.00120052	 -0.00025257
197.00000000	 -0.00109907	 -0.00199123	  0.00066638	 -0.00451410	  0.01021628	 -0.00135347	 -0.00117129	 -0.00171771
198.00000000	  0.00278926	  0.00061154	  0.00000915	 -0.00520901	  0.01206161	  0.00027289	  0.00312783	  0.00042940
199.00000000	 -0.00131024	 -0.00215541	  0.00224714	 -0.00462171	  0.01024730	 -0.00399986	 -0.00137522	 -0.00189587
200.00000000	 -0.00004369	 -0.00219715	  0.00104765	 -0.00518524	  0.01127133	 -0.00029925	  0.00003881	 -0.00200424
201.00000000	  0.00063458	 -0.00002904	  0.00059706	 -0.00538336	  0.01188341	  0.00152184	  0.00069187	 -0.00005051
202.00000000	 -0.00103809	 -0.00046754	  0.00159957	 -0.00438330	  0.00948964	  0.00044824	 -0.00109700	 -0.00039605
203.00000000	  0.00006158	 -0.00154941	  0.00213034	 -0.00561979	  0.01193054	 -0.00081955	  0.00013107	 -0.00146122
204.00000000	 -0.00050621	 -0.00078486	  0.00120772	 -0.00476892	  0.01006720	 -0.00040274	 -0.00049943	 -0.00072721
205.00000000	 -0.00059822	 -0.00051953	  0.00156198	 -0.00557498	  0.01168950	  0.00052263	 -0.00059904	 -0.00047674
206.00000000	  0.00011700	 -0.00134533	  0.00117118	 -0.00476033	  0.00970474	  0.00042588	  0.00017707	 -0.00131191
207.00000000	  0.00041832	  0.00009879	  0.00153665	 -0.00571224	  0.01187589	 -0.00126519	  0.00042039	  0.00008066
208.00000000	 -0.00049298	 -0.00015277	  0.00078653	 -0.00584612	  0.01192786	 -0.00000484	 -0.00048797	 -0.00013276
209.00000000	  0.00071239	 -0.00203035	  0.00065488	 -0.00678216	  0.01337839	 -0.00094119	  0.00078487	 -0.00207034
210.00000000	 -0.00031421	 -0.00110961	  0.00127203	 -0.00626497	  0.01234007	 -0.00237179	 -0.00026532	 -0.00111954
211.00000000	 -0.00092136	  0.00119429	  0.00156239	 -0.00719861	  0.01440294	 -0.00018892	 -0.00093292	  0.00126560
212.00000000	  0.00057530	 -0.00266657	  0.00063641	 -0.00666664	  0.01250442	 -0.00167037	  0.00064065	 -0.00281402
213.00000000	 -0.00175226	 -0.00079283	  0.00222523	 -0.00854267	  0.01629249	 -0.00255969	 -0.00161546	 -0.00078796
214.00000000	  0.00109868	 -0.00018345	  0.00086304	 -0.00640775	  0.01210110	  0.00051547	  0.00102218	 -0.00023176
215.00000000	 -0.00155319	 -0.00184746	  0.00182116	 -0.00784441	  0.01430561	  0.00106997	 -0.00135391	 -0.00197783
216.00000000	  0.00129047	 -0.00050158	  0.00165122	 -0.00775245	  0.01425925	  0.00004277	  0.00118011	 -0.00059782
217.00000000	 -0.00154675	 -0.00110022	  0.00212752	 -0.00727413	  0.01305029	 -0.00173724	 -0.00134010	 -0.00119734
218.00000000	 -0.00119252	 -0.00105057	  0.00268909	 -0.00834898	  0.01482731	  0.00294060	 -0.00100973	 -0.00117351
219.00000000	  0.00094607	 -0.00054948	  0.00275427	 -0.00735876	  0.01301935	  0.00106932	  0.00084060	 -0.00066880
220.00000000	  0.00031706	 -0.00130569	  0.00206441	 -0.00818261	  0.01417317	  0.00115837	  0.00031794	 -0.00155705
221.00000000	 -0.00021700	  0.00026272	  0.00179956	 -0.00702023	  0.01227661	  0.00004134	 -0.00019292	  0.00032280
222.00000000	 -0.00079110	 -0.00109762	  0.00308871	 -0.01072630	  0.01830376	 -0.00288021	 -0.00062581	 -0.00132277
223.00000000	  0.00124981	 -0.00177636	  0.00146206	 -0.01026087	  0.01712422	 -0.00268623	  0.00107901	 -0.00225593
224.00000000	 -0.00075185	  0.00027835	  0.00170642	 -0.00969026	  0.01629465	 -0.00357962	 -0.00061792	  0.00037268
225.00000000	  0.00074900	 -0.00178083	  0.00118298	 -0.01200309	  0.01958187	  0.00112290	  0.00064258	 -0.00233850
226.00000000	 -0.00172092	 -0.00066571	  0.00240698	 -0.01054316	  0.01702695	 -0.00276128	 -0.00134474	 -0.00085636
227.00000000	 -0.00038646	 -0.00061791	  0.00237081	 -0.01143374	  0.01828962	 -0.00334638	 -0.00028975	 -0.00083720
228.00000000	 -0.00034982	 -0.00029630	  0.00179087	 -0.00988726	  0.01561931	 -0.00370850	 -0.00026510	 -0.00040871
229.00000000	  0.00123671	  0.00014970	  0.00120086	 -0.00867592	  0.01372920	  0.00092821	  0.00093986	  0.00020115
230.00000000	 -0.00004000	  0.00036837	  0.00240392	 -0.01211002	  0.01893049	 -0.00427453	 -0.00003361	  0.00053454
231.00000000	  0.00026439	 -0.00075401	  0.00125754	 -0.00911131	  0.01384559	 -0.00099312	  0.00020139	 -0.00111812
232.00000000	  0.00028046	 -0.00065214	  0.00166804	 -0.01180594	  0.01785209	 -0.00243403	  0.00020875	 -0.00098703
233.00000000	 -0.00074335	  0.00110331	  0.00174373	 -0.00958247	  0.01468905	  0.00046114	 -0.00054448	  0.00170426
234.00000000	  0.00071192	 -0.00194028	  0.00225782	 -0.01237652	  0.01803357	 -0.00298737	  0.00051177	 -0.00306361
235.00000000	 -0.00055692	  0.00113813	  0.00207683	 -0.01187254	  0.01781744	 -0.00008614	 -0.00039343	  0.00183865
236.00000000	 -0.00158115	 -0.00134568	  0.00277796	 -0.01148732	  0.01645487	 -0.00019601	 -0.00112083	 -0.00224787
237.00000000	  0.00032450	 -0.00172776	  0.00167178	 -0.01351784	  0.01918712	 -0.00145718	  0.00021096	 -0.00293377
238.00000000	  0.00016687	  0.00087478	  0.00292060	 -0.01226969	  0.01787412	  0.00157074	  0.00012293	  0.00152913
239.00000000	  0.00061920	  0.00074759	  0.00254487	 -0.01203473	  0.01737911	  0.00227999	  0.00043115	  0.00134804
240.00000000	 -0.00022495	  0.00008640	  0.00346677	 -0.01384016	  0.01959679	  0.00170656	 -0.00015104	  0.00015363
241.00000000	 -0.00122096	 -0.00221363	  0.00378542	 -0.01616198	  0.02201410	 -0.00012028	 -0.00085225	 -0.00421729
242.00000000	  0.00002972	  0.00208297	  0.00204863	 -0.01269665	  0.01836118	  0.00826513	  0.00005456	  0.00405551
243.00000000	 -0.00101938	 -0.00337274	  0.00306031	 -0.01401541	  0.01780094	 -0.01148224	 -0.00075680	 -0.00677146
244.00000000	  0.00052916	  0.00100636	  0.00152168	 -0.00495837	  0.00697989	  0.00077580	  0.00037600	  0.00207009
245.00000000	 -0.00119946	 -0.00084509	  0.00139049	 -0.00730603	  0.00938081	 -0.00396174	 -0.00080831	 -0.00178830
246.00000000	 -0.00082102	 -0.00041492	  0.00035720	 -0.00638463	  0.00829475	 -0.00223933	 -0.00054665	 -0.00090045
247.00000000	  0.00396390	 -0.00113323	  0.00003450	 -0.00635863	  0.00823103	 -0.00152165	  0.00250016	 -0.00223654
248.00000000	 -0.00345224	 -0.00051452	  0.00264449	 -0.01082752	  0.01405727	 -0.00184798	 -0.00223029	 -0.00127746
249.00000000	 -0.00390416	  0.00117234	  0.00264838	 -0.01071852	  0.01403618	 -0.00580066	 -0.00242346	  0.00237864
250.00000000	  0.00051859	 -0.00109467	  0.00258308	 -0.01653454	  0.02149420	 -0.00138765	  0.00026750	 -0.00244924
251.00000000	 -0.00135332	 -0.00103006	  0.00090702	 -0.01629804	  0.02095212	 -0.00069339	 -0.00090836	 -0.00249634
252.00000000	  0.00205345	  0.00007609	  0.00273471	 -0.00835860	  0.01143896	  0.01046103	  0.00127745	  0.00029862
253.00000000	 -0.00207781	 -0.00194690	  0.00041165	 -0.00367565	  0.00392316	 -0.00267149	 -0.00138869	 -0.00483569
254.00000000	  0.00060008	  0.00188794	  0.00092882	  0.00323677	 -0.00354544	  0.00038793	  0.00046880	  0.00462143
255.00000000	 -0.00154694	 -0.00014616	  0.00173211	  0.00154443	 -0.00221102	 -0.00275651	 -0.00096453	 -0.00044351
256.00000000	  0.00029686	  0.00000097	  0.00068239	 -0.00079371	  0.00106103	  0.00068709	  0.00018368	  0.00001918
257.00000000	 -0.00096512	  0.00042160	  0.00107840	 -0.00601988	  0.00794907	  0.00308143	 -0.00057220	  0.00097415
258.00000000	 -0.00014752	 -0.00236174	  0.00296523	 -0.00945335	  0.01151111	  0.00179367	 -0.00021832	 -0.00584458
259.00000000	 -0.00119365	 -0.00324546	  0.00134212	 -0.00963522	  0.01116356	 -0.00181444	 -0.00088840	 -0.00822961
260.00000000	  0.00065507	  0.00125586	  0.00279529	 -0.00691349	  0.00935657	  0.00439642	  0.00045456	  0.00324275
261.00000000	  0.00152546	  0.00113127	  0.00119900	 -0.00238243	  0.00346435	  0.00188007	  0.00096676	  0.00297857
262.00000000	  0.00335651	 -0.00016565	  0.00173695	 -0.00419383	  0.00542824	  0.00194779	  0.00202370	 -0.00032558
263.00000000	 -0.00108173	  0.00168551	  0.00242333	 -0.00488179	  0.00685487	  0.00663554	 -0.00060291	  0.00439761
264.00000000	  0.00028183	 -0.00000376	  0.00189477	 -0.00843364	  0.01052386	 -0.00165756	  0.00016933	 -0.00000509
265.00000000	  0.00203700	 -0.00244645	  0.00165090	 -0.00651607	  0.00760002	  0.00318292	  0.00117080	 -0.00657370
266.00000000	 -0.00267652	 -0.00142589	  0.00188286	 -0.00650579	  0.00769144	  0.00341958	 -0.00161728	 -0.00392950
267.00000000	  0.00057280	  0.00098627	  0.00069196	 -0.00080822	  0.00133049	  0.00048289	  0.00034932	  0.00272474
268.00000000	  0.00129301	 -0.00312582	  0.00180986	 -0.00293206	  0.00251450	 -0.00484499	  0.00072049	 -0.00863789
269.00000000	  0.00054005	  0.00272892	  0.00031364	  0.00102439	 -0.00032918	  0.00270762	  0.00034585	  0.00756806
270.00000000	 -0.00094501	 -0.00165888	  0.00079933	 -0.00387038	  0.00407796	 -0.00431301	 -0.00058093	 -0.00462121
271.00000000	 -0.00027633	  0.00031508	  0.00127719	 -0.00283584	  0.00367362	  0.00243309	 -0.00015965	  0.00087866
272.00000000	  0.00016710	  0.00140236	  0.00086289	  0.00127548	 -0.00091064	  0.00628572	  0.00010767	  0.00393086
273.00000000	  0.00063414	 -0.00126074	  0.00013751	 -0.00447925	  0.00507264	 -0.00246742	  0.00036879	 -0.00354124
274.00000000	 -0.00265597	 -0.00094535	  0.00000710	  0.00086452	 -0.00127704	  0.00495049	 -0.00157303	 -0.00268178
275.00000000	 -0.00000026	 -0.00091719	  0.00107773	 -0.00220419	  0.00233452	 -0.00248424	 -0.00000284	 -0.00259148
276.00000000	  0.00116535	  0.00102209	  0.00061095	 -0.00137760	  0.00207975	  0.00082767	  0.00069440	  0.00290338
277.00000000	 -0.00564776	 -0.00425203	  0.00018265	  0.00102789	 -0.00267041	  0.00577620	 -0.00333147	 -0.01208535
278.00000000	  0.00393856	  0.00150528	  0.00002510	 -0.00185201	  0.00278051	 -0.00341554	  0.00232479	  0.00427542
279.00000000	  0.00009423	  0.00021638	  0.00027940	  0.00053073	 -0.00061612	 -0.00107414	  0.00005646	  0.00061523
280.00000000	  0.00046431	  0.00093468	  0.00048131	 -0.00035581	  0.00079328	  0.00129390	  0.00027600	  0.00265824
281.00000000	 -0.00084738	  0.00059895	  0.00064422	 -0.00098685	  0.00114009	 -0.00620714	 -0.00049576	  0.00169996
282.00000000	  0.00077533	  0.00058326	  0.00105714	  0.00064362	 -0.00042902	  0.00406415	  0.00046113	  0.00166443
283.00000000	 -0.00157681	 -0.00051956	  0.00002605	  0.00098126	 -0.00127904	  0.00409838	 -0.00093057	 -0.00148190
284.00000000	  0.00000164	 -0.00141215	  0.00019955	 -0.00194183	  0.00176168	 -0.00482897	 -0.00000392	 -0.00401757
285.00000000	 -0.00047083	  0.00046214	  0.00046034	 -0.00027346	  0.00072927	  0.00749760	 -0.00027740	  0.00131643
286.00000000	 -0.00020485	 -0.00202548	  0.00046710	 -0.00147829	  0.00098135	 -0.00472011	 -0.00012291	 -0.00578534
287.00000000	 -0.00340000	 -0.00009210	  0.00046340	  0.00033323	 -0.00047772	  0.00294267	 -0.00199964	 -0.00026486
288.00000000	  0.00409481	  0.00190972	  0.00088960	 -0.00027959	  0.00108856	 -0.00037505	  0.00240625	  0.00546713
289.00000000	 -0.00114640	 -0.00163563	  0.00016690	 -0.00093226	  0.00049328	 -0.00203378	 -0.00067942	 -0.00468510
290.00000000	 -0.00142104	 -0.00062653	  0.00037248	  0.00001413	 -0.00026103	  0.00051316	 -0.00083733	 -0.00179828
291.00000000	 -0.00331556	 -0.00201559	  0.00089276	 -0.00066008	 -0.00024817	 -0.00672531	 -0.00195674	 -0.00579241
292.00000000	  0.00713795	  0.00159222	  0.00123915	  0.00041472	  0.00042238	  0.00425204	  0.00420443	  0.00459935
293.00000000	 -0.00105800	  0.00238232	  0.00019079	  0.00025290	  0.00047967	  0.00216279	 -0.00061549	  0.00682200
294.00000000	 -0.00128594	 -0.00085717	  0.00060480	 -0.00099998	  0.00092327	  0.00075839	 -0.00075676	 -0.00246208
295.00000000	 -0.00291626	 -0.00178006	  0.00007386	 -0.00118116	  0.00061463	 -0.00341305	 -0.00171931	 -0.00512161
296.00000000	  0.00096441	 -0.00023502	  0.00071513	  0.00175373	 -0.00202176	  0.00440046	  0.00056606	 -0.00067395
297.00000000	  0.00029472	  0.00163549	  0.00042689	  0.00124819	 -0.00109446	 -0.00305866	  0.00017461	  0.00468459
298.00000000	 -0.00016510	  0.00004207	  0.00043467	 -0.00208649	  0.00257637	  0.00032478	 -0.00009701	  0.00012011
299.00000000	  0.00341720	  0.00046542	  0.00100784	  0.00309628	 -0.00342527	  0.00205809	  0.00201129	  0.00133485
300.00000000	 -0.00261524	  0.00015663	  0.00157147	 -0.00360958	  0.00420965	 -0.00465327	 -0.00153815	  0.00043650
301.00000000	 -0.00009308	  0.00037533	  0.00025547	  0.00160381	 -0.00187167	 -0.00083213	 -0.00005241	  0.00107712
302.00000000	 -0.00052224	 -0.00194687	  0.00045959	  0.00002330	 -0.00059632	  0.00246255	 -0.00031565	 -0.00558246
303.00000000	  0.00127192	  0.00144731	  0.00063635	 -0.00159453	  0.00230831	 -0.00445602	  0.00075589	  0.00416120
304.00000000	 -0.00144761	 -0.00034195	  0.00061349	 -0.00006047	 -0.00014573	 -0.00137098	 -0.00085371	 -0.00099626
305.00000000	  0.00405818	  0.00007622	  0.00139316	 -0.00098273	  0.00151850	  0.00385768	  0.00238599	  0.00024468
306.00000000	 -0.00417011	 -0.00003327	  0.00163436	  0.00271931	 -0.00381552	 -0.00875661	 -0.00245283	 -0.00013502
307.00000000	  0.00149725	  0.00023528	  0.00179954	  0.00042052	  0.00001678	  0.01068846	  0.00088280	  0.00068534
308.00000000	  0.00270668	  0.00086814	  0.00008164	  0.00033776	  0.00005095	  0.00244449	  0.00159467	  0.00249290
309.00000000	 -0.00196079	  0.00107162	  0.00002552	 -0.00164749	  0.00218500	 -0.00257210	 -0.00115057	  0.00306682
310.00000000	 -0.00021144	 -0.00210186	  0.00039784	 -0.00309069	  0.00314789	  0.00137787	 -0.00012808	 -0.00605220
311.00000000	 -0.00478980	 -0.00194095	  0.00049948	  0.00113620	 -0.00239890	 -0.00459152	 -0.00282037	 -0.00561701
312.00000000	  0.00333399	  0.00091698	  0.00075342	  0.00136070	 -0.00110061	  0.00368131	  0.00196128	  0.00265082
313.00000000	  0.00112107	  0.00079387	  0.00022686	  0.00132052	 -0.00122671	  0.00242235	  0.00065991	  0.00228212
314.00000000	  0.00023329	  0.00093721	  0.00047042	 -0.00209739	  0.00288479	  0.00014333	  0.00013872	  0.00269231
315.00000000	 -0.00046504	  0.00123709	  0.00004766	  0.00371783	 -0.00428914	 -0.00359491	 -0.00026773	  0.00354609
316.00000000	  0.00206668	 -0.00178062	  0.00038608	 -0.00095562	  0.00064661	 -0.00079099	  0.00120636	 -0.00508270
317.00000000	 -0.00033475	  0.00060806	  0.00053535	 -0.00008586	  0.00011270	 -0.00476309	 -0.00019221	  0.00173780
318.00000000	 -0.00222880	 -0.00063554	  0.00098603	  0.00060469	 -0.00090149	  0.00360012	 -0.00131668	 -0.00183131
319.00000000	  0.00136762	  0.00275266	  0.00025849	  0.00103585	 -0.00046258	 -0.00289434	  0.00082035	  0.00786843
320.00000000	 -0.00220342	 -0.00132645	  0.00014808	  0.00038515	 -0.00079256	  0.00523304	 -0.00130187	 -0.00379670
321.00000000	  0.00286146	 -0.00156937	  0.00024184	 -0.00245221	  0.00257892	 -0.00083720	  0.00167809	 -0.00447698
322.00000000	 -0.00028605	  0.00215346	  0.00049761	  0.00154616	 -0.00100849	  0.00614472	 -0.00016792	  0.00615730
323.00000000	  0.00056575	  0.00052265	  0.00065778	  0.00126573	 -0.00159968	 -0.00656175	  0.00033629	  0.00149030
324.00000000	  0.00119464	 -0.00177465	  0.00040586	 -0.00209973	  0.00187681	 -0.00489420	  0.00069161	 -0.00505845
325.00000000	 -0.00165736	  0.00141954	  0.00027259	  0.00105462	 -0.00069338	  0.00602537	 -0.00097021	  0.00404104
326.00000000	  0.00190979	  0.00042805	  0.00005437	  0.00225427	 -0.00262896	 -0.00218081	  0.00112890	  0.00122870
327.00000000	 -0.00415846	  0.00053554	  0.00062962	  0.00291992	 -0.00349760	  0.00213813	 -0.00245330	  0.00148702
328.00000000	  0.00285393	  0.00088495	  0.00117263	  0.00268507	 -0.00286557	  0.00125647	  0.00169177	  0.00249867
329.00000000	  0.00324542	  0.00244484	  0.00058581	 -0.00048865	  0.00135835	 -0.00227677	  0.00193114	  0.00688692
330.00000000	 -0.00359533	 -0.00048570	  0.00119624	 -0.00088537	  0.00084955	  0.00138387	 -0.00213067	 -0.00139773
331.00000000	  0.00368226	  0.00007307	  0.00126870	  0.00000338	  0.00025678	  0.00297644	  0.00217990	  0.00021869
332.00000000	 -0.00009906	 -0.00031648	  0.00033996	  0.00232163	 -0.00287461	  0.00183852	 -0.00005949	 -0.00088959
333.00000000	 -0.00185454	  0.00091404	  0.00116712	  0.00364580	 -0.00441079	 -0.00400192	 -0.00109731	  0.00254562
334.00000000	  0.00024890	  0.00101788	  0.00024636	  0.00268209	 -0.00301255	 -0.00069642	  0.00015345	  0.00282764
335.00000000	  0.00218109	  0.00020647	  0.00041484	  0.00196379	 -0.00218702	  0.00246030	  0.00129876	  0.00058252
336.00000000	 -0.00068212	  0.00023088	  0.00159372	  0.00053089	 -0.00069751	 -0.00229379	 -0.00040497	  0.00063023
337.00000000	 -0.00093476	  0.00222725	  0.00026793	  0.00705474	 -0.00820364	 -0.00378539	 -0.00053419	  0.00608476
338.00000000	 -0.00068790	  0.00000928	  0.00004884	  0.00486037	 -0.00567047	  0.00890783	 -0.00041169	  0.00001769
339.00000000	  0.00102870	 -0.00099224	  0.00074231	  0.00183980	 -0.00252859	 -0.00019509	  0.00061122	 -0.00265703
340.00000000	 -0.00203870	 -0.00241477	  0.00074777	 -0.00042471	 -0.00051127	 -0.00650228	 -0.00124798	 -0.00649524
341.00000000	  0.00048463	  0.00386982	  0.00114475	  0.01023962	 -0.01171907	 -0.00512092	  0.00034763	  0.01028571
342.00000000	  0.00192032	 -0.00058439	  0.00120601	  0.00267207	 -0.00360719	 -0.00466067	  0.00114759	 -0.00149202
343.00000000	 -0.00013238	 -0.00066439	  0.00032305	  0.00624341	 -0.00779024	  0.00359164	 -0.00009411	 -0.00172956
344.00000000	  0.00241512	  0.00288632	  0.00001167	  0.00787049	 -0.00932758	 -0.00928894	  0.00154742	  0.00744835
345.00000000	  0.00003159	  0.00088338	  0.00152099	  0.00488756	 -0.00628090	 -0.00938877	  0.00004802	  0.00223582
346.00000000	 -0.00138973	 -0.00227694	  0.00053707	  0.00132215	 -0.00228333	  0.00115607	 -0.00093147	 -0.00577396
347.00000000	 -0.00383286	  0.00133148	  0.00182551	  0.00344838	 -0.00435941	 -0.00542172	 -0.00229948	  0.00318779
348.00000000	  0.00122471	 -0.00162228	  0.00066542	  0.00348515	 -0.00467293	  0.00250819	  0.00068944	 -0.00398723
349.00000000	 -0.00043816	 -0.00118307	  0.00111088	  0.00371310	 -0.00513938	 -0.00262521	 -0.00031387	 -0.00293751
350.00000000	  0.00198277	 -0.00085596	  0.00098488	  0.00441626	 -0.00564804	  0.00203459	  0.00118706	 -0.00200868
351.00000000	  0.00187692	  0.00162909	  0.00023632	  0.01295117	 -0.01627596	 -0.01092106	  0.00124113	  0.00400057
352.00000000	 -0.00480784	  0.00221208	  0.00218310	  0.01111745	 -0.01352515	  0.00356011	 -0.00290139	  0.00494078
353.00000000	  0.00396665	 -0.00096832	  0.00096060	  0.01138625	 -0.01472384	 -0.00204097	  0.00244181	 -0.00203897
354.00000000	  0.00058660	  0.00089636	  0.00304089	  0.01777992	 -0.02218473	  0.00504679	  0.00041376	  0.00202541
355.00000000	 -0.00082050	 -0.00055725	  0.00172154	  0.01764611	 -0.02256267	  0.00762806	 -0.00054490	 -0.00123098
356.00000000	  0.00281926	  0.00276071	  0.00125565	  0.02121244	 -0.02685942	 -0.00133048	  0.00191932	  0.00580823
357.00000000	 -0.00132762	 -0.00192271	  0.00239070	  0.01804986	 -0.02417006	  0.00380215	 -0.00092947	 -0.00386915
358.00000000	  0.00234271	  0.00364304	  0.00293962	  0.01959611	 -0.02512720	  0.00289799	  0.00165020	  0.00704379
359.00000000	  0.00188189	 -0.00056325	  0.00267541	  0.01862341	 -0.02506995	  0.00576562	  0.00125845	 -0.00101097
360.00000000	  0.00143966	  0.00128707	  0.00213261	  0.02113732	 -0.02850304	  0.00381430	  0.00100228	  0.00230213
361.00000000	 -0.00115240	 -0.00032511	  0.00454569	  0.02290341	 -0.03176048	  0.00665690	 -0.00080572	 -0.00055485
362.00000000	 -0.00021457	  0.00092369	  0.00258925	  0.02021229	 -0.02843370	  0.00370664	 -0.00015335	  0.00150658
363.00000000	 -0.00147550	  0.00060787	  0.00184646	  0.01851834	 -0.02674560	 -0.00004081	 -0.00106935	  0.00096647
364.00000000	  0.00261962	  0.00056471	  0.00231114	  0.01848246	 -0.02697924	  0.00363717	  0.00192443	  0.00082633
365.00000000	 -0.00139722	 -0.00078954	  0.00138833	  0.01751880	 -0.02647356	  0.00299032	 -0.00103855	 -0.00113364
366.00000000	  0.00028537	  0.00115082	  0.00173921	  0.01682331	 -0.02549806	  0.00117138	  0.00020224	  0.00161828
367.00000000	 -0.00097056	  0.00048627	  0.00099847	  0.01635550	 -0.02542049	  0.00211263	 -0.00076449	  0.00068130
368.00000000	  0.00068285	  0.00031801	  0.00046206	  0.01252903	 -0.01986549	  0.00256129	  0.00053485	  0.00040841
369.00000000	  0.00069047	  0.00136215	  0.00122349	  0.01502586	 -0.02400216	 -0.00062921	  0.00053110	  0.00174222
370.00000000	  0.00017315	  0.00160657	  0.00308523	  0.01251836	 -0.02032307	  0.00160386	  0.00011119	  0.00201287
371.00000000	 -0.00183987	 -0.00026602	  0.00107869	  0.01188931	 -0.02003894	  0.00443883	 -0.00153081	 -0.00027941
372.00000000	  0.00218688	  0.00020042	  0.00360585	  0.01217839	 -0.02068653	  0.00574181	  0.00185405	  0.00016909
373.00000000	  0.00054795	  0.00241854	  0.00352355	  0.01320929	 -0.02246687	  0.00153006	  0.00039972	  0.00280125
374.00000000	 -0.00071145	  0.00202611	  0.00281755	  0.01283836	 -0.02240534	  0.00318712	 -0.00070260	  0.00233183
375.00000000	  0.00090837	  0.00042200	  0.00236222	  0.01206921	 -0.02174031	  0.00163173	  0.00080511	  0.00042950
376.00000000	  0.00032481	  0.00133529	  0.00219519	  0.01177709	 -0.02154421	  0.00422658	  0.00024302	  0.00143214
377.00000000	  0.00134097	  0.00268051	  0.00215236	  0.01094371	 -0.02012502	  0.00009226	  0.00114910	  0.00277422
378.00000000	 -0.00102573	 -0.00055058	  0.00128701	  0.00959086	 -0.01861863	  0.00288411	 -0.00095997	 -0.00052271
379.00000000	  0.00022139	  0.00226735	  0.00238770	  0.01004295	 -0.01932787	  0.00250312	  0.00010730	  0.00229581
380.00000000	 -0.00038630	  0.00154943	  0.00200755	  0.00895445	 -0.01771107	  0.00281254	 -0.00046623	  0.00156815
381.00000000	  0.00089843	  0.00170954	  0.00258553	  0.00822130	 -0.01650054	  0.00224786	  0.00082259	  0.00162674
382.00000000	  0.00112966	  0.00174182	  0.00363716	  0.00822216	 -0.01685982	  0.00378171	  0.00107331	  0.00161384
383.00000000	 -0.00097864	  0.00111755	  0.00239624	  0.00861346	 -0.01806737	  0.00183373	 -0.00110027	  0.00112289
384.00000000	  0.00121225	  0.00133470	  0.00253192	  0.00725022	 -0.01540475	  0.00096004	  0.00122557	  0.00116876
385.00000000	  0.00025391	  0.00111256	  0.00216304	  0.00721373	 -0.01567784	  0.00166285	  0.00020988	  0.00100817
386.00000000	  0.00001529	  0.00167617	  0.00130040	  0.00657810	 -0.01436992	 -0.00035680	 -0.00008664	  0.00152149
387.00000000	  0.00064155	  0.00094340	  0.00139246	  0.00526539	 -0.01187937	  0.00218540	  0.00066608	  0.00080494
388.00000000	 -0.00054892	  0.00237276	  0.00101561	  0.00638303	 -0.01432184	  0.00048454	 -0.00078544	  0.00214226
389.00000000	  0.00138351	  0.00119817	  0.00290384	  0.00531936	 -0.01233410	  0.00196786	  0.00153942	  0.00095462
390.00000000	  0.00049291	  0.00387074	  0.00143986	  0.00460600	 -0.01045911	  0.00173247	  0.00032189	  0.00332598
391.00000000	  0.00090566	  0.00142752	  0.00183827	  0.00473230	 -0.01116114	  0.00024002	  0.00099261	  0.00116279
392.00000000	 -0.00076717	  0.00155806	  0.00126507	  0.00386382	 -0.00933519	  0.00245054	 -0.00104389	  0.00138271
393.00000000	  0.00188987	  0.00571065	  0.00144075	  0.00480776	 -0.01118093	  0.00135243	  0.00192204	  0.00468752
394.00000000	 -0.00090016	  0.00030102	  0.00046665	  0.00400122	 -0.00990395	 -0.00061858	 -0.00114741	  0.00031914
395.00000000	  0.00041595	  0.00355334	  0.00108225	  0.00393435	 -0.00952299	  0.00051129	  0.00027076	  0.00292230
396.00000000	  0.00059349	  0.00206281	  0.00068314	  0.00319400	 -0.00784007	 -0.00099483	  0.00061348	  0.00165780
397.00000000	  0.00027795	  0.00295227	  0.00148831	  0.00466337	 -0.01171065	  0.00041446	  0.00015303	  0.00239562
398.00000000	  0.00030476	 -0.00099007	  0.00155261	  0.00308374	 -0.00836960	  0.00233503	  0.00047245	 -0.00082642
399.00000000	 -0.00109542	  0.00222670	  0.00075774	  0.00354185	 -0.00894103	 -0.00238598	 -0.00161149	  0.00187884
400.00000000	 -0.00007992	 -0.00059609	  0.00187651	  0.00273106	 -0.00746703	  0.00112830	 -0.00006539	 -0.00047179
401.00000000	  0.00005131	  0.00289033	  0.00088894	  0.00377268	 -0.00977943	 -0.00121312	 -0.00013010	  0.00229674
402.00000000	  0.00004903	  0.00156611	  0.00007291	  0.00299695	 -0.00783588	 -0.00269696	 -0.00003664	  0.00123414
403.00000000	  0.00064771	  0.00167600	  0.00237207	  0.00291418	 -0.00790733	  0.00042232	  0.00079204	  0.00127142
404.00000000	 -0.00097253	  0.00011459	  0.00014232	  0.00319012	 -0.00885563	 -0.00065388	 -0.00137251	  0.00015428
405.00000000	  0.00108863	  0.00203623	  0.00303657	  0.00206648	 -0.00575572	  0.00173093	  0.00141400	  0.00150629
406.00000000	 -0.00050690	  0.00341388	  0.00031576	  0.00225154	 -0.00601710	 -0.00066211	 -0.00094812	  0.00267130
407.00000000	  0.00122399	  0.00136335	  0.00136305	  0.00254672	 -0.00720526	  0.00018002	  0.00167885	  0.00096634
408.00000000	  0.00100133	  0.00265209	  0.00219539	  0.00194115	 -0.00547821	  0.00126628	  0.00128959	  0.00196263
409.00000000	 -0.00018446	  0.00207824	  0.00114425	  0.00198348	 -0.00559971	  0.00004122	 -0.00040255	  0.00159600
410.00000000	 -0.00008034	  0.00179917	  0.00075165	  0.00201976	 -0.00566341	 -0.00165049	 -0.00022871	  0.00137052
411.00000000	  0.00065423	  0.00231475	  0.00242123	  0.00231795	 -0.00678366	  0.00138641	  0.00083638	  0.00170648
412.00000000	  0.00068301	  0.00329087	  0.00213258	  0.00156220	 -0.00441925	  0.00007114	  0.00083256	  0.00243152
413.00000000	 -0.00040410	  0.00258830	  0.00059153	  0.00147699	 -0.00418631	 -0.00067747	 -0.00076443	  0.00196538
414.00000000	 -0.00019799	  0.00318350	  0.00136238	  0.00176937	 -0.00496940	 -0.00219079	 -0.00047490	  0.00239025
415.00000000	  0.00144173	  0.00279055	  0.00301074	  0.00141711	 -0.00425820	  0.00153031	  0.00206272	  0.00199345
416.00000000	 -0.00036003	  0.00271801	  0.00132497	  0.00149414	 -0.00428910	 -0.00161643	 -0.00069451	  0.00203696
417.00000000	 -0.00026034	  0.00150127	  0.00215331	  0.00112481	 -0.00335320	 -0.00023887	 -0.00047708	  0.00112460
418.00000000	  0.00065825	  0.00304945	  0.00168834	  0.00114555	 -0.00330533	 -0.00124067	  0.00088713	  0.00221572
419.00000000	 -0.00053882	  0.00155081	  0.00173595	  0.00086511	 -0.00254939	 -0.00070802	 -0.00091135	  0.00116764
420.00000000	 -0.00004678	  0.00282252	  0.00150429	  0.00111086	 -0.00326778	 -0.00081731	 -0.00018988	  0.00207500
421.00000000	  0.00005668	  0.00128526	  0.00091410	  0.00071829	 -0.00215839	 -0.00056521	  0.00003797	  0.00093951
422.00000000	  0.00021498	  0.00259585	  0.00044854	  0.00086165	 -0.00252566	 -0.00117904	  0.00024133	  0.00189028
423.00000000	  0.00010464	  0.00269633	  0.00038682	  0.00078088	 -0.00227213	 -0.00140265	  0.00006965	  0.00196497
424.00000000	  0.00069368	  0.00226139	  0.00058063	  0.00039548	 -0.00113527	 -0.00063141	  0.00102868	  0.00162375
425.00000000	  0.00041644	  0.00245159	  0.00183513	  0.00048370	 -0.00146172	  0.00057184	  0.00058529	  0.00177105
426.00000000	 -0.00002818	  0.00116868	  0.00073433	  0.00068641	 -0.00211365	 -0.00058934	 -0.00008255	  0.00085131
427.00000000	 -0.00043672	  0.00084663	  0.00006430	  0.00046986	 -0.00139536	 -0.00150528	 -0.00072707	  0.00062953
428.00000000	 -0.00026446	  0.00263196	  0.00082718	  0.00020499	 -0.00052595	 -0.00031891	 -0.00050044	  0.00191931
429.00000000	  0.00091701	  0.00328117	  0.00125639	  0.00016273	 -0.00041004	 -0.00053198	  0.00139033	  0.00235373
430.00000000	  0.00045314	  0.00291759	  0.00174190	  0.00024800	 -0.00070884	 -0.00010167	  0.00065967	  0.00210329
431.00000000	 -0.00076275	  0.00219983	  0.00267239	  0.00028169	 -0.00077326	 -0.00123676	 -0.00127358	  0.00161549
432.00000000	  0.00026255	  0.00287312	  0.00153047	 -0.00018719	  0.00071085	 -0.00122580	  0.00037506	  0.00207596
433.00000000	  0.00056794	  0.00315612	  0.00180739	  0.00011714	 -0.00030092	 -0.00088885	  0.00087324	  0.00227567
434.00000000	  0.00006176	  0.00168304	  0.00009514	 -0.00016494	  0.00058020	 -0.00043211	  0.00007509	  0.00121845
435.00000000	  0.00003063	  0.00314287	  0.00272574	 -0.00025070	  0.00089496	 -0.00155111	 -0.00000255	  0.00227762
436.00000000	 -0.00005974	  0.00209839	  0.00294522	 -0.00037135	  0.00126824	 -0.00170397	 -0.00013114	  0.00152271
437.00000000	  0.00022939	  0.00221843	  0.00187469	 -0.00060156	  0.00197391	 -0.00066997	  0.00033191	  0.00160763
438.00000000	  0.00012080	  0.00237677	  0.00196586	 -0.00055024	  0.00179438	 -0.00022916	  0.00015079	  0.00172603
439.00000000	 -0.00004897	  0.00157315	  0.00236581	 -0.00052797	  0.00174646	 -0.00163593	 -0.00010630	  0.00114556
440.00000000	  0.00003240	  0.00190626	  0.00224987	 -0.00055393	  0.00179468	 -0.00047163	  0.00001550	  0.00138836
441.00000000	 -0.00024120	  0.00156272	  0.00252856	 -0.00056302	  0.00184805	 -0.00142371	 -0.00041359	  0.00114363
442.00000000	  0.00039837	  0.00187143	  0.00157040	 -0.00052373	  0.00167274	 -0.00058705	  0.00059676	  0.00136018
443.00000000	  0.00017720	  0.00182952	  0.00155275	 -0.00036769	  0.00117556	 -0.00046443	  0.00024489	  0.00133430
444.00000000	  0.00017068	  0.00151441	  0.00170951	 -0.00055965	  0.00179419	 -0.00102201	  0.00024016	  0.00110507
445.00000000	  0.00011514	  0.00204491	  0.00187294	 -0.00077227	  0.00244589	 -0.00063096	  0.00013991	  0.00149624
446.00000000	 -0.00002961	  0.00147501	  0.00186829	 -0.00066857	  0.00213275	 -0.00115778	 -0.00007614	  0.00108279
447.00000000	  0.00030326	  0.00182825	  0.00158845	 -0.00060293	  0.00187652	 -0.00028613	  0.00043700	  0.00133790
448.00000000	  0.00008693	  0.00197392	  0.00193965	 -0.00078843	  0.00246475	 -0.00062598	  0.00009281	  0.00145077
449.00000000	 -0.00017747	  0.00155031	  0.00240055	 -0.00063802	  0.00200655	 -0.00084324	 -0.00031162	  0.00114569
450.00000000	  0.00013554	  0.00142344	  0.00189935	 -0.00071959	  0.00223725	 -0.00067222	  0.00017770	  0.00104777
451.00000000	  0.00005587	  0.00147386	  0.00173801	 -0.00068136	  0.00211116	 -0.00064454	  0.00005214	  0.00108810
452.00000000	  0.00013249	  0.00128619	  0.00143152	 -0.00058271	  0.00178931	 -0.00037842	  0.00017404	  0.00094902
453.00000000	  0.00011526	  0.00096929	  0.00112337	 -0.00066510	  0.00202711	  0.00005845	  0.00015371	  0.00071573
454.00000000	 -0.00010543	  0.00113908	  0.00131320	 -0.00052360	  0.00160796	 -0.00040256	 -0.00019038	  0.00084749
455.00000000	 -0.00009056	  0.00100328	  0.00120195	 -0.00055753	  0.00170580	 -0.00031560	 -0.00016424	  0.00074731
456.00000000	  0.00002829	  0.00085209	  0.00111947	 -0.00056246	  0.00171491	 -0.00031901	  0.00002127	  0.00063299
457.00000000	 -0.00005233	  0.00120695	  0.00116400	 -0.00063023	  0.00190076	 -0.00005239	 -0.00011194	  0.00089994
458.00000000	  0.00016241	  0.00117234	  0.00116278	 -0.00064618	  0.00194059	 -0.00016946	  0.00021488	  0.00087005
459.00000000	  0.00013496	  0.00118077	  0.00021993	 -0.00068910	  0.00204957	  0.00018766	  0.00017261	  0.00087806
460.00000000	  0.00007245	  0.00067911	  0.00021546	 -0.00046376	  0.00138115	  0.00006753	  0.00009143	  0.00050567
461.00000000	  0.00014424	  0.00084615	  0.00034629	 -0.00024879	  0.00071163	  0.00031141	  0.00019515	  0.00062903
462.00000000	  0.00009068	  0.00029152	  0.00021669	 -0.00028142	  0.00086963	 -0.00074929	  0.00012914	  0.00021573
463.00000000	 -0.00009298	  0.00049172	  0.00002274	 -0.00017233	  0.00051459	 -0.00011290	 -0.00015295	  0.00037059
464.00000000	 -0.00011701	 -0.00020194	  0.00020375	 -0.00017400	  0.00054875	 -0.00038965	 -0.00017105	 -0.00014823
465.00000000	  0.00006261	  0.00024962	  0.00005302	 -0.00018790	  0.00055957	 -0.00006930	  0.00008790	  0.00018542
466.00000000	  0.00006383	  0.00029255	  0.00006334	 -0.00010769	  0.00031305	  0.00002200	  0.00008860	  0.00021764
467.00000000	 -0.00004662	 -0.00003926	  0.00007490	 -0.00005574	  0.00016826	  0.00004517	 -0.00006910	 -0.00002824
468.00000000	 -0.00003258	  0.00017728	  0.00014745	 -0.00003079	  0.00008105	  0.00019757	 -0.00005351	  0.00013373
469.00000000	  0.00006361	 -0.00000876	  0.00010941	 -0.00003443	  0.00010150	 -0.00000205	  0.00009585	 -0.00000820
470.00000000	 -0.00000182	  0.00000007	  0.00001140	  0.00009218	 -0.00028170	  0.00012080	 -0.00000275	  0.00000010
471.00000000	  0.00002588	 -0.00022261	  0.00001567	  0.00010375	 -0.00031336	  0.00015323	  0.00004469	 -0.00016751
472.00000000	 -0.00002176	 -0.00030481	  0.00006167	  0.00009128	 -0.00027606	  0.00024016	 -0.00002471	 -0.00022785
473.00000000	 -0.00002294	  0.00004629	  0.00020343	  0.00012316	 -0.00038710	  0.00039446	 -0.00003576	  0.00003529
474.00000000	  0.00000194	 -0.00021764	  0.00006670	  0.00018514	 -0.00055592	  0.00009903	  0.00000876	 -0.00016307
475.00000000	 -0.00008571	 -0.00028669	  0.00002384	  0.00016523	 -0.00048868	  0.00002486	 -0.00012148	 -0.00021236
476.00000000	  0.00003166	 -0.00013429	  0.00008587	  0.00008682	 -0.00026438	  0.00011691	  0.00005138	 -0.00010138
477.00000000	 -0.00001633	 -0.00021654	  0.00001126	  0.00009200	 -0.00028033	  0.00020637	 -0.00001873	 -0.00016162
478.00000000	 -0.00008405	  0.00005533	  0.00000994	  0.00006349	 -0.00019379	  0.00009344	 -0.00012838	  0.00004370
479.00000000	 -0.00007854	 -0.00020497	  0.00003461	  0.00003752	 -0.00010580	  0.00000353	 -0.00011292	 -0.00015122
480.00000000	  0.00006109	 -0.00005235	  0.00003548	  0.00000108	 -0.00000679	  0.00006196	  0.00009366	 -0.00004085
481.00000000	 -0.00003675	  0.00009378	  0.00007066	  0.00006078	 -0.00018368	 -0.00001361	 -0.00005808	  0.00007117
482.00000000	  0.00005619	 -0.00009713	  0.00011768	  0.00004225	 -0.00013911	  0.00027854	  0.00008757	 -0.00007422
483.00000000	 -0.00002453	 -0.00003857	  0.00017399	  0.00012110	 -0.00035761	 -0.00014155	 -0.00003598	 -0.00002817
484.00000000	 -0.00014674	 -0.00024201	  0.00000744	  0.00000782	 -0.00001602	  0.00006924	 -0.00021499	 -0.00017692
485.00000000	 -0.00002915	 -0.00038492	  0.00009074	  0.00012326	 -0.00036368	  0.00002561	 -0.00003337	 -0.00028703
486.00000000	  0.00004546	  0.00003683	  0.00000055	  0.00002679	 -0.00008677	  0.00008011	  0.00006770	  0.00002627
487.00000000	 -0.00001507	  0.00013291	  0.00019294	  0.00002490	 -0.00008719	  0.00021762	 -0.00002651	  0.00009979
488.00000000	 -0.00006935	 -0.00008097	  0.00011042	 -0.00005430	  0.00017322	 -0.00011475	 -0.00010258	 -0.00005859
489.00000000	  0.00006859	  0.00003740	  0.00004495	  0.00003539	 -0.00010959	 -0.00001227	  0.00010266	  0.00002604
490.00000000	  0.00010139	 -0.00009892	  0.00003254	 -0.00002172	  0.00007213	 -0.00018183	  0.00015606	 -0.00007681
491.00000000	  0.00009670	 -0.00014848	  0.00011209	 -0.00005131	  0.00014924	  0.00013126	  0.00015033	 -0.00011372
492.00000000	 -0.00024363	  0.00020910	  0.00014506	  0.00002122	 -0.00005921	 -0.00003276	 -0.00037418	  0.00016313
493.00000000	  0.00004901	 -0.00022604	  0.00003709	  0.00000713	 -0.00002342	  0.00012102	  0.00008045	 -0.00017039
494.00000000	  0.00002709	  0.00008257	  0.00010593	  0.00003912	 -0.00011623	 -0.00011046	  0.00003863	  0.00006098
495.00000000	 -0.00003164	 -0.00012766	  0.00011556	 -0.00002310	  0.00006989	  0.00008889	 -0.00004427	 -0.00009456
496.00000000	  0.00000484	  0.00009023	  0.00007881	  0.00008239	 -0.00025475	  0.00008504	  0.00000478	  0.00006732
497.00000000	  0.00005319	  0.00012250	  0.00008269	 -0.00005262	  0.00015937	 -0.00011632	  0.00007700	  0.00009009
498.00000000	 -0.00004464	 -0.00003576	  0.00007598	  0.00002182	 -0.00006172	 -0.00004297	 -0.00006650	 -0.00002549
499.00000000	 -0.00002076	  0.00000389	  0.00003854	 -0.00000570	  0.00002176	 -0.00009086	 -0.00003151	  0.00000349
500.00000000	  0.00012718	  0.00001968	  0.00023296	 -0.00000483	 -0.00000560	  0.00035292	  0.00019178	  0.00001114
501.00000000	 -0.00010694	  0.00001839	  0.00003923	  0.00004127	 -0.00012356	  0.00004913	 -0.00016226	  0.00001677
502.00000000	 -0.00004688	 -0.00007762	  0.00015033	 -0.00000569	  0.00003606	 -0.00036029	 -0.00006873	 -0.00005671
503.00000000	  0.00003105	 -0.00018072	  0.00007222	  0.00002352	 -0.00006972	  0.00003682	  0.00005203	 -0.00013597
504.00000000	 -0.00011253	 -0.00007176	  0.00003575	 -0.00004331	  0.00013461	  0.00003938	 -0.00016819	 -0.00005050
505.00000000	  0.00017008	 -0.00002212	  0.00000371	  0.00007690	 -0.00023559	 -0.00005076	  0.00025787	 -0.00002130
506.00000000	 -0.00000404	 -0.00004020	  0.00007929	  0.00007677	 -0.00023591	  0.00011446	 -0.00000499	 -0.00002994
507.00000000	 -0.00020183	 -0.00014601	  0.00025861	 -0.00001424	  0.00006617	 -0.00030501	 -0.00030133	 -0.00010351
508.00000000	  0.00016325	  0.00019056	  0.00010793	 -0.00004586	  0.00011891	  0.00022621	  0.00024167	  0.00013789
509.00000000	  0.00007840	  0.00020747	  0.00010724	 -0.00000913	  0.00001455	  0.00012881	  0.00011278	  0.00015287
510.00000000	 -0.00005260	 -0.00012467	  0.00000735	  0.00000666	 -0.00001474	 -0.00001871	 -0.00007607	 -0.00009171
511.00000000	  0.00009464	  0.00011805	  0.00006685	 -0.00003262	  0.00009106	  0.00003539	  0.00013985	  0.00008557
512.00000000	 -0.00022841	 -0.00022569	  0.00022520	  0.00001611	 -0.00002477	 -0.00026030	 -0.00033919	 -0.00016232
513.00000000	  0.00013918	  0.00015446	  0.00007318	  0.00000590	 -0.00002898	  0.00006504	  0.00020624	  0.00011157
514.00000000	 -0.00003069	 -0.00012491	  0.00004012	  0.00002888	 -0.00008434	  0.00002015	 -0.00004294	 -0.00009251
515.00000000	 -0.00003663	  0.00009237	  0.00000098	 -0.00000135	  0.00000099	  0.00005264	 -0.00005802	  0.00007007
516.00000000	  0.00006727	 -0.00022761	  0.00009270	  0.00009949	 -0.00029869	  0.00001400	  0.00010815	 -0.00017201
517.00000000	 -0.00015278	 -0.00032434	  0.00001209	  0.00010175	 -0.00029691	  0.00003135	 -0.00022222	 -0.00023808
518.00000000	 -0.00015931	 -0.00006404	  0.00027736	  0.00008429	 -0.00026541	  0.00039474	 -0.00023947	 -0.00004335
519.00000000	 -0.00028065	 -0.00056174	  0.00036169	  0.00020830	 -0.00061806	  0.00018720	 -0.00040954	 -0.00041152
520.00000000	 -0.00014197	 -0.00006536	  0.00062621	  0.00009361	 -0.00029824	  0.00047174	 -0.00021345	 -0.00004471
521.00000000	 -0.00007696	 -0.00063109	  0.00091054	  0.00036841	 -0.00112100	  0.00044131	 -0.00009926	 -0.00046873
522.00000000	 -0.00004075	 -0.00071684	  0.00114112	  0.00041805	 -0.00126296	  0.00019895	 -0.00004256	 -0.00053333
523.00000000	 -0.00004144	 -0.00136716	  0.00146152	  0.00059909	 -0.00180475	  0.00014678	 -0.00002775	 -0.00101711
524.00000000	  0.00000447	 -0.00089381	  0.00212533	  0.00073667	 -0.00227128	  0.00093470	  0.00002929	 -0.00066492
525.00000000	 -0.00017569	 -0.00187924	  0.00190699	  0.00081985	 -0.00249166	  0.00029867	 -0.00022387	 -0.00139045
526.00000000	 -0.00029497	 -0.00151916	  0.00148509	  0.00083612	 -0.00254042	 -0.00001918	 -0.00041851	 -0.00111815
527.00000000	  0.00003721	 -0.00135698	  0.00173448	  0.00058701	 -0.00182790	  0.00080937	  0.00008854	 -0.00100526
528.00000000	 -0.00012578	 -0.00102449	  0.00069134	  0.00053335	 -0.00161356	 -0.00057700	 -0.00017183	 -0.00075421
529.00000000	  0.00012682	 -0.00071749	  0.00063326	  0.00025796	 -0.00080719	  0.00028770	  0.00021245	 -0.00053288
530.00000000	 -0.00007862	  0.00009717	  0.00023000	  0.00002814	 -0.00008131	 -0.00012163	 -0.00012413	  0.00007352
531.00000000	  0.00001710	 -0.00009103	  0.00003449	 -0.00006679	  0.00020795	 -0.00002053	  0.00002857	 -0.00006760
