  2.00000000	  0.00225588	  0.00140785	  0.00006475	  0.00073842	 -0.00143198	  0.00013990	  0.00238201	  0.00135914
  3.00000000	 -0.00007443	  0.00020474	  0.00010721	  0.00004619	 -0.00009158	 -0.00008191	 -0.00007670	  0.00019442
  4.00000000	  0.00031884	  0.00049233	  0.00014413	  0.00009101	 -0.00016300	  0.00006596	  0.00033941	  0.00047126
  5.00000000	  0.00026598	 -0.00011891	  0.00009184	 -0.00017580	  0.00037322	  0.00000778	  0.00027893	 -0.00011119
  6.00000000	 -0.00001798	 -0.00019832	  0.00020464	 -0.00000217	 -0.00000383	 -0.00002041	 -0.00002043	 -0.00018905
  7.00000000	 -0.00015349	  0.00031422	  0.00040074	  0.00003858	 -0.00007260	  0.00049354	 -0.00015906	  0.00029815
  8.00000000	 -0.00012698	 -0.00039382	  0.00031721	 -0.00004866	  0.00008263	 -0.00014163	 -0.00013639	 -0.00037606
  9.00000000	 -0.00025467	  0.00041495	  0.00028628	  0.00014208	 -0.00029180	 -0.00047645	 -0.00026480	  0.00039323
 10.00000000	  0.00039946	 -0.00104681	  0.00045979	 -0.00013470	  0.00025278	  0.00027924	  0.00041186	 -0.00099397
 11.00000000	 -0.00043569	  0.00044187	  0.00010120	 -0.00014416	  0.00030704	 -0.00012452	 -0.00045490	  0.00041759
 12.00000000	  0.00013969	  0.00071288	  0.00024881	  0.00017708	 -0.00034061	  0.00023570	  0.00015208	  0.00068019
 13.00000000	  0.00014246	 -0.00074154	  0.00036681	  0.00005741	 -0.00014704	 -0.00028509	  0.00014384	 -0.00070520
 14.00000000	  0.00021214	  0.00050476	  0.00017391	 -0.00004675	  0.00012481	  0.00031158	  0.00022690	  0.00048241
 15.00000000	 -0.00043383	  0.00053891	  0.00029490	 -0.00009287	  0.00020158	 -0.00040715	 -0.00045229	  0.00050993
 16.00000000	 -0.00021369	 -0.00040040	  0.00002802	  0.00000176	 -0.00002650	 -0.00022755	 -0.00022803	 -0.00038309
 17.00000000	  0.00038284	 -0.00002644	  0.00042104	  0.00018115	 -0.00036970	  0.00044119	  0.00040259	 -0.00002223
 18.00000000	  0.00007111	 -0.00020805	  0.00011476	 -0.00013230	  0.00027218	 -0.00011383	  0.00007322	 -0.00019758
 19.00000000	 -0.00009906	 -0.00009372	  0.00010132	 -0.00000177	 -0.00000343	 -0.00020473	 -0.00010496	 -0.00009005
 20.00000000	 -0.00016862	  0.00000602	  0.00058756	  0.00008314	 -0.00017858	  0.00058403	 -0.00017735	  0.00000448
 21.00000000	  0.00027461	  0.00029565	  0.00086640	 -0.00008070	  0.00018769	 -0.00076180	  0.00029109	  0.00028385
 22.00000000	 -0.00019327	 -0.00029225	  0.00037900	  0.00003517	 -0.00009038	  0.00046119	 -0.00020569	 -0.00027986
 23.00000000	 -0.00017519	  0.00000847	  0.00019976	  0.00008675	 -0.00018758	  0.00000250	 -0.00018427	  0.00000675
 24.00000000	  0.00045742	  0.00017495	  0.00047725	 -0.00003238	  0.00008783	 -0.00026223	  0.00048264	  0.00017034
 25.00000000	 -0.00030018	 -0.00037821	  0.00007269	 -0.00006032	  0.00010364	  0.00042694	 -0.00031871	 -0.00036256
 26.00000000	  0.00019729	  0.00007617	  0.00021381	  0.00014637	 -0.00029961	 -0.00024127	  0.00020821	  0.00007397
 27.00000000	 -0.00025873	  0.00032719	  0.00009935	 -0.00009583	  0.00020641	 -0.00001753	 -0.00026975	  0.00030952
 28.00000000	  0.00052984	 -0.00034039	  0.00000513	 -0.00003666	  0.00007892	 -0.00006760	  0.00055480	 -0.00032004
 29.00000000	 -0.00052679	  0.00033476	  0.00000242	  0.00021933	 -0.00046461	  0.00008091	 -0.00055177	  0.00031461
 30.00000000	  0.00046032	 -0.00013240	  0.00030991	  0.00000399	  0.00000039	  0.00023620	  0.00048351	 -0.00012259
 31.00000000	 -0.00036122	  0.00023001	  0.00020830	 -0.00018355	  0.00038338	 -0.00041791	 -0.00037836	  0.00021620
 32.00000000	  0.00009431	  0.00009767	  0.00009622	  0.00000075	  0.00000547	  0.00019479	  0.00009999	  0.00009377
 33.00000000	 -0.00030112	 -0.00039821	  0.00007191	  0.00004682	 -0.00012432	 -0.00032027	 -0.00032012	 -0.00038151
 34.00000000	  0.00016371	 -0.00030987	  0.00000549	  0.00004037	 -0.00009135	  0.00047161	  0.00016994	 -0.00029373
 35.00000000	  0.00023992	  0.00080713	  0.00033027	  0.00018167	 -0.00034537	 -0.00031728	  0.00025868	  0.00077026
 36.00000000	 -0.00000150	  0.00000010	  0.00018241	 -0.00018090	  0.00038132	  0.00018233	 -0.00000157	  0.00000009
 37.00000000	  0.00001771	  0.00019468	  0.00020470	  0.00018294	 -0.00037625	  0.00040733	  0.00002012	  0.00018546
 38.00000000	  0.00071398	 -0.00024331	  0.00000099	 -0.00044106	  0.00093884	 -0.00035902	  0.00074944	 -0.00022640
 39.00000000	 -0.00060993	 -0.00088388	  0.00004844	  0.00021662	 -0.00050992	  0.00001421	 -0.00064849	 -0.00084663
 40.00000000	 -0.00004688	  0.00082486	  0.00027372	 -0.00013616	  0.00031638	 -0.00008250	 -0.00004313	  0.00078519
 41.00000000	 -0.00016840	  0.00011421	  0.00020368	  0.00003878	 -0.00008208	  0.00009955	 -0.00017626	  0.00010750
 42.00000000	  0.00023209	 -0.00084807	  0.00046877	  0.00005666	 -0.00014730	 -0.00027650	  0.00023702	 -0.00080599
 43.00000000	 -0.00023100	  0.00073312	  0.00026762	  0.00017436	 -0.00034552	  0.00020253	 -0.00023760	  0.00069613
 44.00000000	  0.00016067	 -0.00030930	  0.00001289	 -0.00022666	  0.00046958	 -0.00011078	  0.00016665	 -0.00029325
 45.00000000	 -0.00000477	 -0.00019925	  0.00019806	  0.00008250	 -0.00018080	  0.00038291	 -0.00000655	 -0.00018979
 46.00000000	 -0.00019305	 -0.00008927	  0.00001650	 -0.00004821	  0.00009221	  0.00006846	 -0.00020380	 -0.00008646
 47.00000000	  0.00031829	  0.00068806	  0.00025215	  0.00019150	 -0.00036773	 -0.00012888	  0.00034001	  0.00065759
 48.00000000	  0.00016194	 -0.00031977	  0.00017696	 -0.00030840	  0.00064043	 -0.00048481	  0.00016776	 -0.00030331
 49.00000000	 -0.00048535	 -0.00037336	  0.00012290	  0.00021237	 -0.00047549	  0.00042017	 -0.00051347	 -0.00035956
 50.00000000	 -0.00008186	  0.00021796	  0.00009759	 -0.00014132	  0.00030370	  0.00008339	 -0.00008453	  0.00020693
 51.00000000	  0.00025541	 -0.00033050	  0.00009189	  0.00000948	 -0.00002597	 -0.00017787	  0.00026614	 -0.00031288
 52.00000000	 -0.00010387	 -0.00008830	  0.00029888	  0.00008448	 -0.00018407	  0.00016677	 -0.00010992	 -0.00008491
 53.00000000	 -0.00011670	  0.00092529	  0.00004290	  0.00004373	 -0.00006115	 -0.00024064	 -0.00011560	  0.00088017
 54.00000000	  0.00034755	 -0.00024321	  0.00017761	 -0.00016074	  0.00033823	 -0.00036546	  0.00036367	 -0.00022896
 55.00000000	 -0.00027376	 -0.00007660	  0.00009885	  0.00016565	 -0.00035853	  0.00055557	 -0.00028865	 -0.00007517
 56.00000000	 -0.00010225	 -0.00009354	  0.00010887	 -0.00009113	  0.00018459	 -0.00021244	 -0.00010832	 -0.00008985
 57.00000000	 -0.00001286	 -0.00019668	  0.00000714	 -0.00009501	  0.00019174	 -0.00001615	 -0.00001507	 -0.00018742
 58.00000000	 -0.00007168	  0.00042207	  0.00047026	  0.00013022	 -0.00025974	  0.00009544	 -0.00007238	  0.00040137
 59.00000000	  0.00018958	 -0.00001681	  0.00039273	 -0.00008725	  0.00018911	  0.00021476	  0.00019935	 -0.00001463
 60.00000000	 -0.00028748	 -0.00018672	  0.00007962	 -0.00004909	  0.00008685	 -0.00012642	 -0.00030388	 -0.00017997
 61.00000000	  0.00040313	  0.00056528	  0.00015835	  0.00020553	 -0.00040071	 -0.00068702	  0.00042882	  0.00054146
 62.00000000	  0.00007683	 -0.00039545	  0.00047900	 -0.00015510	  0.00031561	  0.00103586	  0.00007776	 -0.00037597
 63.00000000	 -0.00022637	 -0.00049305	  0.00041885	  0.00004328	 -0.00011836	 -0.00034126	 -0.00024174	 -0.00047131
 64.00000000	 -0.00004879	  0.00072058	  0.00007934	 -0.00018089	  0.00040619	 -0.00017418	 -0.00004578	  0.00068597
 65.00000000	 -0.00029953	 -0.00049705	  0.00027344	  0.00017508	 -0.00039690	  0.00016462	 -0.00031903	 -0.00047568
 66.00000000	  0.00046678	  0.00016532	  0.00008227	  0.00006025	 -0.00010665	 -0.00004921	  0.00049243	  0.00016102
 67.00000000	 -0.00027584	 -0.00018778	  0.00029244	  0.00012727	 -0.00028352	  0.00008701	 -0.00029180	 -0.00018083
 68.00000000	  0.00009272	  0.00020037	  0.00029764	 -0.00013094	  0.00028605	 -0.00010189	  0.00009906	  0.00019150
 69.00000000	 -0.00016797	  0.00031918	  0.00019174	  0.00004226	 -0.00008171	  0.00008847	 -0.00017441	  0.00030259
 70.00000000	  0.00005315	 -0.00040260	  0.00031971	 -0.00031554	  0.00064884	 -0.00052177	  0.00005279	 -0.00038303
 71.00000000	  0.00038741	  0.00016711	  0.00022279	  0.00019240	 -0.00038663	  0.00006358	  0.00040891	  0.00016224
 72.00000000	 -0.00030416	 -0.00039072	  0.00006468	 -0.00004917	  0.00007876	  0.00004827	 -0.00032315	 -0.00037456
 73.00000000	 -0.00008518	  0.00001505	  0.00029038	 -0.00014728	  0.00030892	  0.00046843	 -0.00008947	  0.00001368
 74.00000000	 -0.00043929	  0.00033425	  0.00009705	  0.00008356	 -0.00017676	 -0.00001915	 -0.00045957	  0.00031509
 75.00000000	 -0.00011607	 -0.00030131	  0.00011687	  0.00000141	 -0.00001902	 -0.00021878	 -0.00012438	 -0.00028789
 76.00000000	  0.00007248	 -0.00031074	  0.00008632	 -0.00000059	 -0.00000854	  0.00018255	  0.00007389	 -0.00029545
 77.00000000	  0.00028810	  0.00008825	  0.00030478	 -0.00018145	  0.00039454	  0.00021944	  0.00030366	  0.00008615
 78.00000000	  0.00009260	  0.00009780	  0.00028630	  0.00009263	 -0.00018809	  0.00000499	  0.00009806	  0.00009389
 79.00000000	 -0.00056071	 -0.00007095	  0.00002771	 -0.00004928	  0.00008219	 -0.00033869	 -0.00059021	 -0.00007169
 80.00000000	  0.00033944	 -0.00044127	  0.00000473	  0.00019265	 -0.00041260	  0.00001880	  0.00035368	 -0.00041778
 81.00000000	  0.00029992	  0.00029436	  0.00012228	 -0.00009194	  0.00021468	  0.00022867	  0.00031769	  0.00028264
 82.00000000	 -0.00015184	  0.00051947	  0.00017686	  0.00004550	 -0.00008089	 -0.00027450	 -0.00015581	  0.00049370
 83.00000000	 -0.00007058	  0.00021355	  0.00011524	  0.00003834	 -0.00007437	  0.00010895	 -0.00007260	  0.00020287
 84.00000000	  0.00021847	  0.00049891	  0.00015852	  0.00004815	 -0.00007642	 -0.00024210	  0.00023369	  0.00047688
 85.00000000	 -0.00006856	 -0.00081492	  0.00025040	 -0.00008661	  0.00014749	 -0.00006662	 -0.00007838	 -0.00077674
 86.00000000	 -0.00006781	  0.00030492	  0.00011104	  0.00009194	 -0.00018372	  0.00002057	 -0.00006891	  0.00028990
 87.00000000	  0.00015487	 -0.00051974	  0.00018446	  0.00004338	 -0.00010673	  0.00028224	  0.00015891	 -0.00049377
 88.00000000	  0.00000697	  0.00010571	  0.00000386	 -0.00004804	  0.00010567	  0.00009692	  0.00000812	  0.00010072
 89.00000000	  0.00002335	  0.00030597	  0.00001874	 -0.00004475	  0.00010617	 -0.00026598	  0.00002695	  0.00029159
 90.00000000	 -0.00001959	 -0.00019811	  0.00002238	 -0.00018334	  0.00037774	  0.00016176	 -0.00002211	 -0.00018888
 91.00000000	  0.00009796	 -0.00002312	  0.00011226	  0.00023865	 -0.00050083	 -0.00044102	  0.00010285	 -0.00002129
 92.00000000	 -0.00038556	 -0.00005926	  0.00041667	 -0.00015118	  0.00030426	  0.00021676	 -0.00040603	 -0.00005971
 93.00000000	  0.00045540	 -0.00013795	  0.00011215	  0.00010043	 -0.00020304	  0.00004385	  0.00047796	 -0.00012790
 94.00000000	 -0.00016855	 -0.00009455	  0.00059913	  0.00021596	 -0.00046225	  0.00049743	 -0.00017810	 -0.00009125
 95.00000000	 -0.00005929	  0.00071625	  0.00047464	 -0.00008249	  0.00019792	 -0.00056441	 -0.00005710	  0.00068151
 96.00000000	  0.00032515	 -0.00052953	  0.00021293	 -0.00012836	  0.00025806	 -0.00029955	  0.00033790	 -0.00050166
 97.00000000	 -0.00025557	  0.00022255	  0.00029220	  0.00003459	 -0.00007048	  0.00066299	 -0.00026714	  0.00020995
 98.00000000	  0.00005870	 -0.00052385	  0.00007891	  0.00000806	 -0.00003714	 -0.00039244	  0.00005758	 -0.00049847
 99.00000000	 -0.00011030	 -0.00029253	  0.00008146	 -0.00009809	  0.00019156	  0.00016246	 -0.00011831	 -0.00027949
100.00000000	 -0.00000614	  0.00122334	  0.00003810	  0.00022499	 -0.00042726	  0.00016686	  0.00000273	  0.00116499
101.00000000	  0.00000883	  0.00020972	  0.00018995	 -0.00018096	  0.00038832	 -0.00038555	  0.00001092	  0.00019979
102.00000000	 -0.00013409	 -0.00060183	  0.00006243	 -0.00005028	  0.00007839	  0.00024012	 -0.00014573	 -0.00057431
103.00000000	  0.00028739	 -0.00001794	  0.00031579	  0.00004540	 -0.00008728	  0.00013756	  0.00030218	 -0.00001496
104.00000000	  0.00000229	 -0.00001479	  0.00000698	  0.00028035	 -0.00059067	 -0.00016992	  0.00000229	 -0.00001406
105.00000000	 -0.00028827	 -0.00017615	  0.00026267	 -0.00024018	  0.00049108	  0.00062047	 -0.00030466	 -0.00016990
106.00000000	  0.00008656	  0.00008375	  0.00048466	  0.00010787	 -0.00022308	 -0.00094587	  0.00009172	  0.00008041
107.00000000	 -0.00027291	  0.00003720	  0.00008778	 -0.00024570	  0.00051109	  0.00043851	 -0.00028684	  0.00003325
108.00000000	  0.00035822	 -0.00022977	  0.00020085	  0.00009414	 -0.00019551	  0.00041060	  0.00037511	 -0.00021622
109.00000000	 -0.00027574	  0.00001898	  0.00026980	 -0.00023269	  0.00048227	  0.00025502	 -0.00028986	  0.00001617
110.00000000	 -0.00020674	 -0.00029140	  0.00039730	  0.00022343	 -0.00048865	 -0.00031610	 -0.00021942	 -0.00027913
111.00000000	  0.00012470	  0.00048734	  0.00011622	  0.00001384	 -0.00000701	 -0.00033711	  0.00013493	  0.00046506
112.00000000	  0.00035853	 -0.00032841	  0.00021228	  0.00013656	 -0.00028934	  0.00013043	  0.00037470	 -0.00031010
113.00000000	 -0.00030878	  0.00094181	  0.00016681	 -0.00005052	  0.00013150	 -0.00027200	 -0.00031774	  0.00089448
114.00000000	 -0.00004957	 -0.00060773	  0.00004515	 -0.00018136	  0.00035632	  0.00013683	 -0.00005676	 -0.00057923
115.00000000	 -0.00018473	 -0.00019052	  0.00019976	  0.00017160	 -0.00037396	  0.00018692	 -0.00019579	 -0.00018283
116.00000000	  0.00028079	 -0.00001915	  0.00030083	 -0.00004276	  0.00009847	  0.00031588	  0.00029529	 -0.00001623
117.00000000	 -0.00046688	 -0.00006134	  0.00007087	 -0.00019715	  0.00039805	  0.00032369	 -0.00049152	 -0.00006171
118.00000000	 -0.00059135	  0.00066323	  0.00006730	  0.00020304	 -0.00042097	  0.00028109	 -0.00061783	  0.00062773
119.00000000	  0.00045151	 -0.00024330	  0.00048804	 -0.00003471	  0.00007827	  0.00032638	  0.00047343	 -0.00022902
120.00000000	 -0.00057418	 -0.00026073	  0.00022526	 -0.00005971	  0.00009588	 -0.00016930	 -0.00060561	 -0.00025196
121.00000000	 -0.00065190	 -0.00036454	  0.00065276	 -0.00015725	  0.00029398	  0.00022951	 -0.00068805	 -0.00035088
122.00000000	 -0.00005422	  0.00052019	  0.00012082	 -0.00000780	  0.00003520	  0.00040541	 -0.00005408	  0.00049529
123.00000000	 -0.00029641	 -0.00038464	  0.00007768	 -0.00005576	  0.00009138	 -0.00013842	 -0.00031390	 -0.00036810
124.00000000	  0.00041705	  0.00078403	  0.00014663	  0.00010393	 -0.00017491	 -0.00011135	  0.00044301	  0.00074942
125.00000000	 -0.00012688	 -0.00039744	  0.00031915	 -0.00004557	  0.00007538	 -0.00033245	 -0.00013576	 -0.00037942
126.00000000	  0.00009850	  0.00009008	  0.00010174	  0.00000523	 -0.00000413	  0.00001735	  0.00010415	  0.00008641
127.00000000	  0.00008735	 -0.00000590	  0.00009978	 -0.00004148	  0.00008984	 -0.00009514	  0.00009181	 -0.00000508
128.00000000	 -0.00007344	  0.00031694	  0.00027543	  0.00017604	 -0.00036031	  0.00019822	 -0.00007542	  0.00030146
129.00000000	  0.00054405	 -0.00004672	  0.00018234	  0.00011147	 -0.00021902	 -0.00033615	  0.00057208	 -0.00004111
130.00000000	  0.00046792	  0.00015790	  0.00026505	  0.00024865	 -0.00050325	 -0.00060772	  0.00049354	  0.00015347
131.00000000	  0.00014655	 -0.00085106	  0.00075652	  0.00001357	 -0.00005896	 -0.00037012	  0.00014725	 -0.00080916
132.00000000	 -0.00067673	  0.00087647	  0.00001884	 -0.00011677	  0.00025686	  0.00036116	 -0.00070608	  0.00082929
133.00000000	 -0.00067885	  0.00017788	  0.00094904	 -0.00074332	  0.00154849	  0.00004409	 -0.00071286	  0.00016405
134.00000000	 -0.00117130	 -0.00091965	  0.00123383	 -0.00113888	  0.00231627	  0.00133166	 -0.00123551	 -0.00088433
135.00000000	 -0.00108093	 -0.00021614	  0.00191288	 -0.00092292	  0.00188616	  0.00077003	 -0.00113338	 -0.00021051
136.00000000	 -0.00050796	 -0.00102090	  0.00350517	  0.00014024	 -0.00035593	  0.00156734	 -0.00053822	 -0.00097764
137.00000000	 -0.00044345	  0.00049794	  0.00221229	  0.00047662	 -0.00099518	  0.00078254	 -0.00046199	  0.00047577
138.00000000	  0.00008718	 -0.00043139	  0.00086128	 -0.00022256	  0.00045184	 -0.00027680	  0.00008970	 -0.00041232
139.00000000	 -0.00003750	  0.00028214	  0.00130067	  0.00008804	 -0.00017432	  0.00026643	 -0.00003815	  0.00026974
140.00000000	 -0.00016865	 -0.00001542	  0.00077681	 -0.00009042	  0.00018211	 -0.00017456	 -0.00017667	 -0.00001508
141.00000000	 -0.00019014	  0.00080718	  0.00116602	 -0.00016481	  0.00036858	 -0.00134453	 -0.00019649	  0.00077129
142.00000000	 -0.00010667	 -0.00253846	  0.00086799	 -0.00072915	  0.00140719	  0.00305152	 -0.00011185	 -0.00243069
143.00000000	 -0.00091751	 -0.00096870	  0.00250505	 -0.00081726	  0.00162410	  0.00149773	 -0.00095463	 -0.00093163
144.00000000	 -0.00078759	  0.00092704	  0.00353110	 -0.00010015	  0.00021666	 -0.00129667	 -0.00082479	  0.00088781
145.00000000	  0.00003529	  0.00135417	  0.00228344	  0.00005845	 -0.00006439	 -0.00103381	  0.00003499	  0.00129950
146.00000000	 -0.00120047	 -0.00274999	  0.00141462	 -0.00059423	  0.00105041	  0.00215204	 -0.00124329	 -0.00264254
147.00000000	 -0.00097998	  0.00051577	  0.00315272	 -0.00019467	  0.00037941	  0.00084531	 -0.00102401	  0.00049440
148.00000000	 -0.00029063	  0.00294288	  0.00382625	  0.00032815	 -0.00058155	 -0.00173273	 -0.00031796	  0.00282642
149.00000000	  0.00010315	 -0.00203599	  0.00056092	 -0.00036830	  0.00066839	  0.00363462	  0.00011693	 -0.00195580
150.00000000	 -0.00152153	 -0.00116796	  0.00070082	 -0.00119880	  0.00235020	  0.00319045	 -0.00157344	 -0.00111430
151.00000000	 -0.00236213	 -0.00005004	  0.00170252	  0.00000788	 -0.00014524	 -0.00073785	 -0.00245422	 -0.00002301
152.00000000	  0.00001448	  0.00187618	  0.00209757	  0.00109754	 -0.00218956	 -0.00259406	  0.00000890	  0.00180414
153.00000000	 -0.00079565	 -0.00309316	  0.00340334	 -0.00058689	  0.00099913	  0.00455908	 -0.00080788	 -0.00296598
154.00000000	 -0.00113465	  0.00100592	  0.00182920	  0.00005953	 -0.00013325	 -0.00165081	 -0.00118743	  0.00098071
155.00000000	 -0.00014769	 -0.00462860	  0.00461845	  0.00011551	 -0.00053976	  0.00409665	 -0.00011643	 -0.00444714
156.00000000	 -0.00029700	  0.00016481	  0.00231959	  0.00010256	 -0.00020990	 -0.00153882	 -0.00031072	  0.00016283
157.00000000	  0.00081888	 -0.00024119	  0.00085714	  0.00063928	 -0.00130198	  0.00032066	  0.00085591	 -0.00024126
158.00000000	  0.00067912	 -0.00132668	  0.00146166	  0.00042605	 -0.00093243	  0.00078539	  0.00072246	 -0.00128121
159.00000000	 -0.00012396	 -0.00127561	  0.00360084	  0.00124383	 -0.00268732	  0.00112429	 -0.00011754	 -0.00121968
160.00000000	  0.00113665	  0.00165785	  0.00139207	  0.00112972	 -0.00219913	 -0.00241707	  0.00117658	  0.00156780
161.00000000	  0.00048638	  0.00219125	  0.00035707	 -0.00043371	  0.00105121	 -0.00089030	  0.00049155	  0.00208712
162.00000000	  0.00118506	 -0.00471214	  0.00195686	  0.00095321	 -0.00225845	  0.00369675	  0.00129345	 -0.00450948
163.00000000	 -0.00070007	  0.00471060	  0.00560091	 -0.00083970	  0.00196819	 -0.00194878	 -0.00081140	  0.00449996
164.00000000	  0.00075528	 -0.00177186	  0.00386934	 -0.00026117	  0.00045220	  0.00430353	  0.00082587	 -0.00169812
165.00000000	  0.00000842	  0.00243267	  0.01073236	 -0.00234038	  0.00505080	 -0.00208056	 -0.00005109	  0.00233074
166.00000000	  0.00065861	  0.00042714	  0.01019776	  0.00097711	 -0.00198501	  0.00011792	  0.00067637	  0.00040710
167.00000000	 -0.00026469	  0.00132439	  0.00822829	  0.00018983	 -0.00035381	  0.00028182	 -0.00030792	  0.00127178
168.00000000	  0.00056971	 -0.00046309	  0.00621671	 -0.00092671	  0.00195401	 -0.00078844	  0.00060425	 -0.00045011
169.00000000	  0.00269007	 -0.00165891	  0.00533102	  0.00004800	 -0.00004640	 -0.00160670	  0.00283434	 -0.00162179
170.00000000	  0.00168583	  0.00044219	  0.00143935	  0.00066937	 -0.00129861	 -0.00041138	  0.00175050	  0.00040367
171.00000000	  0.00123890	  0.00229259	  0.00235224	  0.00182931	 -0.00363517	 -0.00342140	  0.00126693	  0.00218311
172.00000000	  0.00210121	 -0.00290686	  0.00070013	  0.00077381	 -0.00168966	 -0.00033224	  0.00222666	 -0.00280003
173.00000000	  0.00128620	  0.00069723	  0.00037677	  0.00065555	 -0.00130140	  0.00043165	  0.00134282	  0.00065433
174.00000000	  0.00088059	  0.00030601	  0.00335567	  0.00021143	 -0.00040888	  0.00095218	  0.00092288	  0.00028079
175.00000000	  0.00066073	  0.00210459	  0.00196072	  0.00121263	 -0.00243350	 -0.00042075	  0.00067973	  0.00199655
176.00000000	 -0.00078961	 -0.00177253	  0.00362842	  0.00127691	 -0.00280485	  0.00002972	 -0.00082354	 -0.00167373
177.00000000	 -0.00164244	 -0.00107265	  0.00238345	  0.00036248	 -0.00089221	  0.00096894	 -0.00172807	 -0.00099846
178.00000000	 -0.00168565	  0.00127892	  0.00271538	  0.00113948	 -0.00241549	 -0.00082885	 -0.00179328	  0.00123212
179.00000000	 -0.00025167	 -0.00120487	  0.00485648	  0.00193347	 -0.00416821	 -0.00020798	 -0.00026306	 -0.00113350
180.00000000	 -0.00064502	  0.00400816	  0.01017452	  0.00187011	 -0.00384973	 -0.00016566	 -0.00067719	  0.00377839
181.00000000	  0.00019990	 -0.00163090	  0.00891695	 -0.00092224	  0.00190673	 -0.00006057	  0.00020885	 -0.00153402
182.00000000	 -0.00004356	 -0.00031118	  0.00824832	  0.00016952	 -0.00038159	  0.00050893	 -0.00004740	 -0.00029175
183.00000000	 -0.00169305	  0.00013293	  0.00039704	  0.00130506	 -0.00285306	 -0.00142265	 -0.00181204	  0.00013394
184.00000000	  0.00153264	 -0.00304233	  0.00451876	 -0.00098353	  0.00200817	 -0.00016488	  0.00163638	 -0.00286450
185.00000000	  0.00017122	  0.00279156	  0.00226086	  0.00164736	 -0.00338180	 -0.00535297	  0.00018494	  0.00261558
186.00000000	  0.00274070	 -0.00405077	  0.00076354	  0.00023100	 -0.00063455	 -0.00317823	  0.00291318	 -0.00378307
187.00000000	  0.00028372	  0.00200162	  0.00421343	  0.00316472	 -0.00670602	 -0.00603777	  0.00032262	  0.00186910
188.00000000	  0.00464694	  0.00003920	  0.00027695	  0.00028305	 -0.00048921	  0.00368720	  0.00502752	  0.00009484
189.00000000	  0.00185055	 -0.00088922	  0.00306890	 -0.00076855	  0.00166076	  0.00052479	  0.00199569	 -0.00080424
190.00000000	  0.00348466	 -0.00578756	  0.00445214	  0.00167966	 -0.00394313	  0.00411895	  0.00371880	 -0.00536095
191.00000000	  0.00411901	  0.00273856	  0.00669121	  0.00077955	 -0.00151922	 -0.00097349	  0.00446712	  0.00258560
192.00000000	  0.00353817	  0.00090556	  0.00859137	  0.00197850	 -0.00425344	 -0.00391872	  0.00385309	  0.00088623
193.00000000	  0.00221456	  0.00501912	  0.00904181	  0.00097420	 -0.00191506	  0.00068442	  0.00241332	  0.00466247
194.00000000	  0.00157849	  0.00236578	  0.00343112	  0.00280273	 -0.00603602	  0.00008071	  0.00174112	  0.00218713
195.00000000	 -0.00006964	  0.00177799	  0.00134078	  0.00037107	 -0.00076177	  0.00502837	 -0.00007252	  0.00162586
196.00000000	  0.00570025	  0.00301153	  0.00388281	  0.00123694	 -0.00271766	 -0.00211590	  0.00629604	  0.00277802
197.00000000	  0.00418159	 -0.00015942	  0.00761351	  0.00241845	 -0.00545014	 -0.00161473	  0.00464220	 -0.00010155
198.00000000	  0.00131621	 -0.00246908	  0.01035126	 -0.00151757	  0.00325100	 -0.00571772	  0.00146573	 -0.00222526
199.00000000	  0.00132254	  0.00159101	  0.00467104	  0.00035277	 -0.00075657	 -0.00056972	  0.00147449	  0.00146349
200.00000000	  0.00158855	 -0.00419184	  0.00037766	  0.00204079	 -0.00477579	 -0.00091988	  0.00172788	 -0.00378900
201.00000000	 -0.00291156	 -0.00326483	  0.00064543	 -0.00028428	  0.00051827	  0.00223012	 -0.00327047	 -0.00298570
202.00000000	  0.00332995	  0.00143952	  0.00378832	 -0.00011585	  0.00021010	  0.00098712	  0.00371723	  0.00133890
203.00000000	  0.00144983	  0.00160162	  0.00427489	 -0.00010980	  0.00027826	 -0.00270604	  0.00162317	  0.00146387
204.00000000	  0.00130706	  0.00149035	  0.00308763	  0.00006229	 -0.00011873	 -0.00103929	  0.00146607	  0.00136302
205.00000000	  0.00046867	 -0.00231953	  0.00263992	  0.00268280	 -0.00610871	  0.00118832	  0.00050196	 -0.00209158
206.00000000	 -0.00105648	 -0.00253296	  0.00460036	 -0.00023017	  0.00041969	 -0.00023464	 -0.00121940	 -0.00228516
207.00000000	  0.00123043	  0.00088245	  0.00396282	  0.00070277	 -0.00159692	  0.00331356	  0.00139098	  0.00080119
208.00000000	 -0.00107529	  0.00253295	  0.00239139	  0.00173836	 -0.00377443	  0.00301251	 -0.00119833	  0.00227070
209.00000000	 -0.00294898	 -0.00082919	  0.00175404	 -0.00050227	  0.00119099	 -0.00238400	 -0.00333097	 -0.00075709
210.00000000	  0.00108722	 -0.00310763	  0.00088369	  0.00127672	 -0.00308758	  0.00137704	  0.00121354	 -0.00278124
211.00000000	  0.00107459	 -0.00200869	  0.00193539	 -0.00091892	  0.00194674	 -0.00372708	  0.00119302	 -0.00179727
212.00000000	 -0.00296765	  0.00345428	  0.00308592	  0.00066166	 -0.00127177	  0.00378469	 -0.00332501	  0.00307885
213.00000000	  0.00296635	 -0.00148548	  0.00111143	  0.00068129	 -0.00172593	 -0.00039230	  0.00335040	 -0.00131176
214.00000000	  0.00103619	 -0.00172341	  0.00112135	 -0.00104969	  0.00224082	  0.00023844	  0.00116074	 -0.00153822
215.00000000	 -0.00273901	 -0.00094389	  0.00036690	  0.00078937	 -0.00173918	 -0.00332638	 -0.00310579	 -0.00086181
216.00000000	  0.00043434	 -0.00257372	  0.00663856	 -0.00157883	  0.00337877	  0.00504916	  0.00046192	 -0.00230574
217.00000000	 -0.00253840	  0.00351121	  0.00395671	  0.00066742	 -0.00125660	 -0.00141633	 -0.00285635	  0.00312900
218.00000000	  0.00078548	 -0.00020951	  0.00251683	 -0.00044264	  0.00096695	 -0.00054727	  0.00088451	 -0.00018550
219.00000000	 -0.00155325	 -0.00057365	  0.00009307	 -0.00058182	  0.00132068	 -0.00047159	 -0.00175445	 -0.00052558
220.00000000	 -0.00296626	  0.00343350	  0.00137003	  0.00066629	 -0.00128665	 -0.00030767	 -0.00332391	  0.00306056
221.00000000	  0.00182215	  0.00193471	  0.00079017	  0.00124280	 -0.00277215	  0.00253500	  0.00206370	  0.00174765
222.00000000	 -0.00007746	  0.00055094	  0.00217513	  0.00068837	 -0.00150809	 -0.00438437	 -0.00008445	  0.00049253
223.00000000	  0.00050749	 -0.00555759	  0.00339046	 -0.00071836	  0.00126344	  0.00460323	  0.00053735	 -0.00496986
224.00000000	 -0.00183627	  0.00355393	  0.00222261	  0.00072823	 -0.00143638	 -0.00238764	 -0.00206594	  0.00316925
225.00000000	 -0.00426797	 -0.00106242	  0.00044474	 -0.00013065	  0.00027397	  0.00073916	 -0.00484091	 -0.00097472
226.00000000	  0.00462254	 -0.00251001	  0.00365068	 -0.00168710	  0.00357109	 -0.00120835	  0.00520118	 -0.00224283
227.00000000	 -0.00172202	  0.00459345	  0.00078387	 -0.00041193	  0.00114952	  0.00170224	 -0.00191512	  0.00411292
228.00000000	  0.00122618	 -0.00275837	  0.00512742	  0.00097923	 -0.00238382	  0.00091557	  0.00135676	 -0.00247421
229.00000000	  0.00057424	 -0.00053855	  0.00051824	 -0.00096611	  0.00214507	 -0.00070879	  0.00064443	 -0.00048030
230.00000000	 -0.00018528	  0.00025861	  0.00538159	 -0.00007263	  0.00017997	  0.00027914	 -0.00020569	  0.00023197
231.00000000	 -0.00195982	 -0.00041344	  0.00042848	  0.00071454	 -0.00159535	 -0.00343750	 -0.00221496	 -0.00038598
232.00000000	 -0.00184535	  0.00019206	  0.00431602	 -0.00011303	  0.00028002	  0.00474370	 -0.00208081	  0.00015971
233.00000000	  0.00009760	 -0.00116442	  0.00659855	 -0.00086699	  0.00188820	  0.00159033	  0.00009616	 -0.00104578
234.00000000	  0.00053468	 -0.00127240	  0.00402624	  0.00075444	 -0.00177613	 -0.00157994	  0.00058681	 -0.00114167
235.00000000	  0.00060103	 -0.00391176	  0.00137102	 -0.00039663	  0.00062996	 -0.00344848	  0.00062125	 -0.00350820
236.00000000	 -0.00148013	  0.00020218	  0.00431367	 -0.00026178	  0.00062800	  0.00683780	 -0.00166503	  0.00016793
237.00000000	 -0.00106891	  0.00089742	  0.00001906	 -0.00042985	  0.00102936	 -0.00400986	 -0.00119318	  0.00080043
238.00000000	 -0.00068995	  0.00014277	  0.00483360	  0.00003128	 -0.00005305	  0.00087537	 -0.00077380	  0.00012417
239.00000000	 -0.00277770	  0.00105408	  0.00333774	  0.00079772	 -0.00172258	  0.00216231	 -0.00311454	  0.00092724
240.00000000	  0.00220261	 -0.00142683	  0.00563394	  0.00006498	 -0.00025630	  0.00344182	  0.00246611	 -0.00127387
241.00000000	 -0.00024610	  0.00161444	  0.00411702	 -0.00089230	  0.00209701	 -0.00344868	 -0.00026819	  0.00144906
242.00000000	 -0.00316096	  0.00186589	  0.00123583	  0.00101790	 -0.00219677	 -0.00218009	 -0.00354075	  0.00164580
243.00000000	 -0.00152229	 -0.00367718	  0.00519231	 -0.00048817	  0.00087875	  0.00474901	 -0.00175627	 -0.00331318
244.00000000	 -0.00018084	  0.00120461	  0.00113833	  0.00033633	 -0.00069062	 -0.00006756	 -0.00019437	  0.00108155
245.00000000	 -0.00164998	 -0.00063783	  0.00215645	 -0.00106445	  0.00235134	 -0.00238558	 -0.00186121	 -0.00058763
246.00000000	  0.00191339	 -0.00166108	  0.00067703	 -0.00022320	  0.00038943	 -0.00197689	  0.00213279	 -0.00147778
247.00000000	 -0.00254203	  0.00229746	  0.00463286	  0.00019139	 -0.00031121	  0.00443250	 -0.00283066	  0.00205197
248.00000000	  0.00114697	 -0.00131471	  0.00588599	 -0.00036870	  0.00072910	 -0.00617681	  0.00127915	 -0.00117024
249.00000000	 -0.00030701	 -0.00295850	  0.00042133	 -0.00046027	  0.00085208	  0.00412484	 -0.00036631	 -0.00267042
250.00000000	  0.00179957	  0.00149093	  0.00516670	 -0.00007224	  0.00024896	  0.00266520	  0.00203401	  0.00135020
251.00000000	 -0.00002577	  0.00208425	  0.00557712	  0.00071080	 -0.00148340	 -0.00257356	 -0.00002313	  0.00187790
252.00000000	  0.00125376	 -0.00407814	  0.00820141	  0.00060684	 -0.00165283	  0.00786501	  0.00137582	 -0.00366912
253.00000000	  0.00043784	  0.00104442	  0.00302492	  0.00097280	 -0.00213129	 -0.00626942	  0.00049823	  0.00093998
254.00000000	 -0.00111251	  0.00190335	  0.00162356	 -0.00054773	  0.00134193	 -0.00254129	 -0.00123810	  0.00169944
255.00000000	  0.00078160	 -0.00079449	  0.00134285	  0.00072892	 -0.00169120	  0.00154607	  0.00087612	 -0.00070468
256.00000000	  0.00186453	 -0.00011904	  0.00541985	  0.00169346	 -0.00385730	 -0.00350204	  0.00210840	 -0.00008254
257.00000000	  0.00029163	 -0.00238282	  0.00596161	 -0.00276201	  0.00611290	  0.00046170	  0.00032065	 -0.00213131
258.00000000	 -0.00216620	  0.00181862	  0.00717788	 -0.00012849	  0.00040221	  0.00340390	 -0.00241445	  0.00162968
259.00000000	 -0.00104362	 -0.00135841	  0.00132054	 -0.00177076	  0.00389961	 -0.00283218	 -0.00118693	 -0.00122906
260.00000000	 -0.00214069	  0.00633789	  0.00298070	  0.00091934	 -0.00175856	  0.00634235	 -0.00236484	  0.00569917
261.00000000	  0.00359779	 -0.00976416	  0.00566815	  0.00069544	 -0.00233676	 -0.00229811	  0.00392525	 -0.00879389
262.00000000	 -0.00255769	  0.00343745	  0.00434755	 -0.00157654	  0.00374561	 -0.00313238	 -0.00285187	  0.00306760
263.00000000	 -0.00025536	  0.00399742	  0.00158601	  0.00093778	 -0.00188487	  0.00066565	 -0.00025854	  0.00359982
264.00000000	  0.00111774	 -0.00766461	  0.00434323	 -0.00033839	  0.00018302	  0.00107390	  0.00116177	 -0.00689787
265.00000000	 -0.00295078	  0.00731031	  0.00235811	 -0.00005334	  0.00048201	  0.00482071	 -0.00327346	  0.00656812
266.00000000	 -0.00097658	  0.00088550	  0.00079878	  0.00051254	 -0.00111175	 -0.00326926	 -0.00109059	  0.00079516
267.00000000	 -0.00212555	  0.00229019	  0.00101119	 -0.00150295	  0.00347323	 -0.00117521	 -0.00236996	  0.00204837
268.00000000	  0.00406949	 -0.00533216	  0.00480394	  0.00214503	 -0.00515304	  0.00276465	  0.00451682	 -0.00478859
269.00000000	  0.00098337	 -0.00022544	  0.00353099	 -0.00094644	  0.00210976	 -0.00345615	  0.00110467	 -0.00019358
270.00000000	 -0.00131282	  0.00174005	  0.00057308	 -0.00044952	  0.00110258	 -0.00090537	 -0.00145508	  0.00155612
271.00000000	 -0.00150525	  0.00292567	  0.00123642	  0.00086234	 -0.00179174	  0.00074240	 -0.00166792	  0.00261756
272.00000000	  0.00132877	  0.00331403	  0.00145927	 -0.00076679	  0.00189032	  0.00034546	  0.00151681	  0.00299770
273.00000000	 -0.00053321	 -0.00049558	  0.00312838	  0.00052734	 -0.00121057	  0.00126589	 -0.00060086	 -0.00045230
274.00000000	  0.00059508	 -0.00410918	  0.00345462	 -0.00025195	  0.00031359	 -0.00304321	  0.00064477	 -0.00369364
275.00000000	  0.00080226	 -0.00242045	  0.00109122	  0.00009411	 -0.00035736	  0.00260565	  0.00088960	 -0.00217112
276.00000000	 -0.00114885	 -0.00032374	  0.00543685	 -0.00056575	  0.00124431	 -0.00173303	 -0.00129078	 -0.00030397
277.00000000	  0.00118019	  0.00501260	  0.00236739	 -0.00106724	  0.00264915	  0.00101615	  0.00136374	  0.00452728
278.00000000	  0.00151297	 -0.00822311	  0.00010834	  0.00020180	 -0.00105067	 -0.00065769	  0.00163594	 -0.00741487
279.00000000	 -0.00388754	  0.00348436	  0.00258378	 -0.00260813	  0.00600834	  0.00476392	 -0.00434521	  0.00311754
280.00000000	  0.00090102	  0.00009528	  0.00582453	 -0.00076495	  0.00171404	  0.00042920	  0.00100250	  0.00008238
281.00000000	  0.00077424	  0.00021082	  0.00554624	 -0.00200509	  0.00447902	 -0.00547419	  0.00085833	  0.00019705
282.00000000	 -0.00233417	  0.00028852	  0.00275326	 -0.00009410	  0.00020080	  0.00043683	 -0.00257766	  0.00025417
283.00000000	  0.00305527	  0.00489769	  0.00008631	 -0.00201203	  0.00469418	  0.00437898	  0.00337792	  0.00449736
284.00000000	 -0.00123323	 -0.00643450	  0.00418560	 -0.00275692	  0.00562319	  0.00334912	 -0.00137001	 -0.00590804
285.00000000	 -0.00284805	  0.00768515	  0.00174372	 -0.00102484	  0.00255110	 -0.00984527	 -0.00305231	  0.00708463
286.00000000	  0.00127987	  0.00112704	  0.00851585	  0.00171232	 -0.00366569	  0.00427064	  0.00141400	  0.00103980
287.00000000	  0.00056095	  0.00342021	  0.00079365	 -0.00030212	  0.00080675	 -0.00103195	  0.00064125	  0.00314964
288.00000000	  0.00268784	 -0.00368566	  0.00210237	 -0.00234058	  0.00493540	  0.00143258	  0.00290308	 -0.00338522
289.00000000	 -0.00101195	  0.00025618	  0.00120973	  0.00100257	 -0.00218043	 -0.00216102	 -0.00109997	  0.00023136
290.00000000	 -0.00210193	 -0.00236840	  0.00495292	 -0.00154118	  0.00322552	  0.00846595	 -0.00230000	 -0.00219742
291.00000000	 -0.00330154	  0.00185858	  0.00220772	 -0.00193388	  0.00424455	  0.00159828	 -0.00358807	  0.00171724
292.00000000	 -0.00553902	  0.00338229	  0.00359398	  0.00073214	 -0.00163064	  0.00602410	 -0.00604391	  0.00313664
293.00000000	 -0.00163727	 -0.00793824	  0.01216929	 -0.00160781	  0.00296256	 -0.00360429	 -0.00161491	 -0.00737662
294.00000000	  0.00173999	 -0.00771630	  0.00777846	 -0.00244445	  0.00476332	 -0.00059561	  0.00200018	 -0.00720109
295.00000000	 -0.00016193	  0.00441678	  0.00609469	 -0.00113416	  0.00271101	 -0.00316921	 -0.00022746	  0.00413609
296.00000000	 -0.00301723	  0.00372062	  0.00525671	 -0.00040617	  0.00099055	 -0.00448204	 -0.00325700	  0.00349365
297.00000000	  0.00171785	  0.00205670	  0.00083989	 -0.00280958	  0.00617925	 -0.00125800	  0.00182804	  0.00193169
298.00000000	  0.00034571	  0.00593966	  0.00210516	 -0.00110136	  0.00255812	  0.00562311	  0.00033968	  0.00560770
299.00000000	  0.00000185	 -0.00254738	  0.00539307	 -0.00152307	  0.00308496	  0.00321819	  0.00001271	 -0.00241164
300.00000000	 -0.00411440	 -0.00138277	  0.00324151	 -0.00005411	 -0.00012392	  0.00189623	 -0.00433935	 -0.00125834
301.00000000	 -0.00329757	  0.00379124	  0.00476046	 -0.00099490	  0.00208252	  0.00431753	 -0.00352749	  0.00365076
302.00000000	 -0.00227166	 -0.00431270	  0.00387464	 -0.00192933	  0.00371550	  0.00237210	 -0.00233019	 -0.00405724
303.00000000	 -0.00387830	  0.00359417	  0.00008656	 -0.00146673	  0.00302533	  0.00115469	 -0.00414530	  0.00350215
304.00000000	 -0.00244724	 -0.00166985	  0.00438592	 -0.00025496	  0.00026840	  0.00345000	 -0.00253393	 -0.00153535
305.00000000	 -0.00289261	  0.00148371	  0.00261603	 -0.00236796	  0.00483447	  0.00218178	 -0.00306131	  0.00149737
306.00000000	  0.00058912	 -0.00689768	  0.00875182	 -0.00205031	  0.00380153	  0.00498477	  0.00076995	 -0.00665349
307.00000000	 -0.00601782	  0.00331806	  0.00216078	 -0.00045485	  0.00069852	 -0.00094268	 -0.00635094	  0.00339967
308.00000000	 -0.00397784	 -0.00379144	  0.00329805	 -0.00203288	  0.00363449	  0.00341216	 -0.00400882	 -0.00352164
309.00000000	 -0.00488305	  0.00055538	  0.00007219	 -0.00219624	  0.00412767	  0.00238819	 -0.00507025	  0.00071099
310.00000000	 -0.00346054	 -0.00278539	  0.00189231	 -0.00258294	  0.00471484	  0.00602983	 -0.00344262	 -0.00256836
311.00000000	 -0.00419734	  0.00025633	  0.00102824	  0.00023597	 -0.00086609	 -0.00022974	 -0.00432660	  0.00043845
312.00000000	 -0.00368288	 -0.00103871	  0.00028428	 -0.00056811	  0.00061629	  0.00420363	 -0.00373427	 -0.00084169
313.00000000	 -0.00205303	 -0.00068673	  0.00089445	 -0.00050215	  0.00069064	  0.00290084	 -0.00207369	 -0.00056198
314.00000000	  0.00046668	 -0.00281960	  0.00481729	 -0.00214004	  0.00425516	 -0.00024761	  0.00064704	 -0.00278048
315.00000000	  0.00039144	  0.00332322	  0.01110158	 -0.00156304	  0.00356854	 -0.00457150	  0.00019464	  0.00324648
316.00000000	  0.00138033	  0.00019285	  0.00585481	  0.00009335	  0.00001871	 -0.00238517	  0.00139409	  0.00012872
317.00000000	 -0.00263647	 -0.00368968	  0.00833898	  0.00248662	 -0.00563536	  0.00174257	 -0.00253732	 -0.00347156
318.00000000	 -0.00099554	 -0.00161162	  0.00495298	  0.00147156	 -0.00319345	 -0.00140386	 -0.00094998	 -0.00151847
319.00000000	 -0.00007757	  0.00404850	  0.00053183	  0.00122213	 -0.00220853	 -0.00233621	 -0.00026499	  0.00394411
320.00000000	 -0.00147133	  0.00273688	  0.00227988	  0.00239845	 -0.00491168	 -0.00110377	 -0.00164780	  0.00271709
321.00000000	  0.00281715	 -0.00260981	  0.00273230	  0.00041950	 -0.00073893	 -0.00058911	  0.00303958	 -0.00264151
322.00000000	  0.00008863	  0.00517068	  0.00151778	 -0.00049927	  0.00140333	 -0.00382461	 -0.00012138	  0.00499738
323.00000000	  0.00163199	 -0.00395610	  0.00301778	  0.00074239	 -0.00163096	  0.00000544	  0.00183294	 -0.00389421
324.00000000	  0.00146561	  0.00183528	  0.00132473	 -0.00094300	  0.00216783	  0.00161716	  0.00144413	  0.00171605
325.00000000	  0.00028453	  0.00317678	  0.00119175	 -0.00079862	  0.00195242	 -0.00502355	  0.00017899	  0.00306707
326.00000000	  0.00018678	 -0.00341974	  0.00558231	  0.00093718	 -0.00225389	  0.00584154	  0.00031329	 -0.00332026
327.00000000	 -0.00052971	  0.00343299	  0.00336299	 -0.00206156	  0.00450547	 -0.00505279	 -0.00068058	  0.00334858
328.00000000	  0.00023708	 -0.00120556	  0.00388111	  0.00073626	 -0.00161667	  0.00263219	  0.00028547	 -0.00117959
329.00000000	 -0.00022674	 -0.00256979	  0.00211582	 -0.00081780	  0.00149212	  0.00054447	 -0.00013938	 -0.00248551
330.00000000	  0.00036278	  0.00485214	  0.00255831	 -0.00128573	  0.00304631	 -0.00599607	  0.00020328	  0.00470600
331.00000000	  0.00090978	 -0.00146283	  0.00552358	  0.00009831	 -0.00032861	  0.00655774	  0.00098295	 -0.00145833
332.00000000	 -0.00090522	 -0.00144416	  0.00313660	 -0.00127339	  0.00244015	  0.00024165	 -0.00086793	 -0.00137581
333.00000000	 -0.00083953	  0.00028908	  0.00117729	 -0.00024508	  0.00047272	 -0.00168388	 -0.00087137	  0.00031438
334.00000000	 -0.00027322	 -0.00145088	  0.00034186	  0.00180307	 -0.00381175	  0.00031156	 -0.00022547	 -0.00140383
335.00000000	 -0.00070691	 -0.00249267	  0.00071290	  0.00051333	 -0.00134237	  0.00245218	 -0.00062256	 -0.00239745
336.00000000	 -0.00055031	  0.00112647	  0.00106150	 -0.00027950	  0.00054458	  0.00187200	 -0.00061666	  0.00111783
337.00000000	 -0.00185702	 -0.00194747	  0.00202317	  0.00003521	 -0.00038106	 -0.00062085	 -0.00183115	 -0.00180873
338.00000000	 -0.00065844	 -0.00100940	  0.00201627	  0.00215183	 -0.00457110	  0.00033259	 -0.00063725	 -0.00094893
339.00000000	  0.00057580	  0.00076944	  0.00022495	  0.00067930	 -0.00123146	 -0.00268884	  0.00056457	  0.00071860
340.00000000	  0.00104951	 -0.00028686	  0.00105278	  0.00098558	 -0.00192236	 -0.00133515	  0.00109972	 -0.00031891
341.00000000	  0.00152147	 -0.00070716	  0.00038290	  0.00037595	 -0.00066601	 -0.00047287	  0.00160644	 -0.00074269
342.00000000	 -0.00028126	  0.00296183	  0.00111454	  0.00073802	 -0.00137700	 -0.00032784	 -0.00040904	  0.00286401
343.00000000	  0.00067050	 -0.00102324	  0.00087777	 -0.00052901	  0.00108224	  0.00087538	  0.00073588	 -0.00101175
344.00000000	 -0.00051244	 -0.00012567	  0.00093801	  0.00007827	 -0.00022770	  0.00023408	 -0.00052751	 -0.00010060
345.00000000	 -0.00050021	  0.00065125	  0.00005740	 -0.00004542	  0.00007908	  0.00022022	 -0.00054544	  0.00064716
346.00000000	  0.00082316	  0.00017571	  0.00004093	 -0.00016506	  0.00043547	  0.00002998	  0.00084814	  0.00013694
347.00000000	 -0.00070807	 -0.00014909	  0.00014814	  0.00048325	 -0.00110434	  0.00085478	 -0.00072981	 -0.00011561
348.00000000	 -0.00073911	  0.00008284	  0.00124807	  0.00027632	 -0.00065821	  0.00053713	 -0.00077214	  0.00011053
349.00000000	 -0.00123515	  0.00017117	  0.00025576	 -0.00056046	  0.00103622	  0.00043815	 -0.00129190	  0.00021574
350.00000000	 -0.00127865	  0.00124923	  0.00048911	 -0.00065536	  0.00129391	  0.00025492	 -0.00138042	  0.00125727
351.00000000	 -0.00066070	 -0.00155203	  0.00162549	 -0.00007594	 -0.00006361	  0.00205663	 -0.00062049	 -0.00146732
352.00000000	 -0.00055462	  0.00014862	  0.00077467	 -0.00030030	  0.00054231	  0.00121003	 -0.00058270	  0.00016825
353.00000000	 -0.00009925	  0.00111369	  0.00034765	 -0.00044863	  0.00099866	 -0.00040016	 -0.00015349	  0.00107902
354.00000000	  0.00023314	 -0.00153735	  0.00068867	 -0.00028679	  0.00052077	 -0.00005601	  0.00030981	 -0.00149505
355.00000000	 -0.00034327	 -0.00271367	  0.00036682	  0.00028792	 -0.00082374	 -0.00003318	 -0.00023185	 -0.00260481
356.00000000	 -0.00039671	  0.00118449	  0.00023349	  0.00038772	 -0.00077783	  0.00029592	 -0.00046589	  0.00116110
357.00000000	 -0.00112264	  0.00030253	  0.00049873	 -0.00113841	  0.00226407	 -0.00023569	 -0.00117845	  0.00034301
358.00000000	 -0.00118559	 -0.00048871	  0.00036809	 -0.00008729	 -0.00001233	  0.00097250	 -0.00120572	 -0.00041739
359.00000000	 -0.00040309	  0.00058686	  0.00045220	 -0.00012443	  0.00023221	  0.00068074	 -0.00044543	  0.00058628
360.00000000	  0.00190549	 -0.00082686	  0.00007470	 -0.00002139	  0.00021354	 -0.00065641	  0.00201263	 -0.00089018
361.00000000	  0.00065052	 -0.00192970	  0.00051624	  0.00102890	 -0.00215272	 -0.00167859	  0.00076264	 -0.00189438
362.00000000	 -0.00013001	  0.00277637	  0.00071645	 -0.00015015	  0.00045097	  0.00088534	 -0.00026494	  0.00268553
363.00000000	 -0.00074561	  0.00232937	  0.00105600	  0.00004619	 -0.00005967	  0.00083031	 -0.00087932	  0.00228298
364.00000000	  0.00000987	 -0.00283557	  0.00008232	 -0.00106237	  0.00202599	 -0.00062044	  0.00014067	 -0.00273966
365.00000000	 -0.00061348	 -0.00109923	  0.00070295	  0.00055995	 -0.00132165	  0.00069941	 -0.00058465	 -0.00103345
366.00000000	  0.00054491	  0.00064204	  0.00067019	  0.00021922	 -0.00032895	 -0.00084713	  0.00053490	  0.00059467
367.00000000	 -0.00054231	  0.00017560	  0.00068459	 -0.00039528	  0.00076691	  0.00012964	 -0.00057048	  0.00019431
368.00000000	  0.00097865	 -0.00159193	  0.00012860	 -0.00002158	  0.00006339	 -0.00092949	  0.00108634	 -0.00158401
369.00000000	 -0.00034969	  0.00031501	  0.00007303	  0.00107128	 -0.00224569	  0.00041114	 -0.00037722	  0.00032007
370.00000000	  0.00054573	  0.00198749	  0.00057982	 -0.00028199	  0.00075985	  0.00054368	  0.00047557	  0.00189193
371.00000000	  0.00053654	 -0.00077455	  0.00031393	 -0.00007239	  0.00013382	  0.00087532	  0.00059292	 -0.00077241
372.00000000	 -0.00062588	  0.00080908	  0.00099646	  0.00012145	 -0.00023323	 -0.00139106	 -0.00068717	  0.00080960
373.00000000	 -0.00064059	 -0.00074544	  0.00055515	  0.00011612	 -0.00035338	 -0.00038669	 -0.00063166	 -0.00068944
374.00000000	 -0.00031047	 -0.00075343	  0.00011428	 -0.00039282	  0.00070894	  0.00078079	 -0.00028722	 -0.00071280
375.00000000	 -0.00064992	  0.00118455	  0.00074958	 -0.00024684	  0.00055345	 -0.00150145	 -0.00072816	  0.00117309
376.00000000	 -0.00115772	  0.00112986	  0.00078517	 -0.00051993	  0.00093620	  0.00309588	 -0.00125350	  0.00114390
377.00000000	 -0.00021985	 -0.00035763	  0.00199226	  0.00017216	 -0.00040793	  0.00009124	 -0.00021149	 -0.00033451
378.00000000	  0.00033719	 -0.00111986	  0.00112930	  0.00034643	 -0.00078213	  0.00099482	  0.00040346	 -0.00109772
379.00000000	  0.00018852	  0.00044848	  0.00002219	 -0.00131804	  0.00278754	 -0.00002745	  0.00017335	  0.00042420
380.00000000	 -0.00103727	 -0.00118435	  0.00157823	  0.00035404	 -0.00093210	 -0.00010917	 -0.00101387	 -0.00109622
381.00000000	 -0.00019403	  0.00066724	  0.00057115	  0.00043416	 -0.00088571	  0.00033136	 -0.00023383	  0.00065457
