frame   ulx     uly     urx     ury     lrx     lry     llx     lly     
frame00001.jpg	314.00	309.00	449.00	303.00	457.00	494.00	325.00	500.00	
frame00002.jpg	314.00	309.00	449.00	303.00	457.00	494.00	325.00	500.00	
frame00003.jpg	314.00	309.00	449.00	303.00	457.00	494.00	325.00	500.00	
frame00004.jpg	314.00	309.00	449.00	303.00	457.00	494.00	325.00	500.00	
frame00005.jpg	314.00	309.00	449.00	303.00	457.00	494.00	325.00	500.00	
frame00006.jpg	314.00	309.00	449.00	303.00	457.00	494.00	325.00	500.00	
frame00007.jpg	314.00	309.00	449.00	303.00	457.00	494.00	325.00	500.00	
frame00008.jpg	314.00	309.00	449.00	303.00	457.00	494.00	325.00	500.00	
frame00009.jpg	314.00	309.00	449.00	303.00	457.00	494.00	325.00	500.00	
frame00010.jpg	314.00	309.00	449.00	303.00	457.00	494.00	325.00	500.00	
frame00011.jpg	314.00	309.00	449.00	303.00	457.00	494.00	325.00	500.00	
frame00012.jpg	314.00	309.00	449.00	303.00	457.00	494.00	325.00	500.00	
frame00013.jpg	314.00	309.00	449.00	303.00	457.00	494.00	325.00	500.00	
frame00014.jpg	314.00	309.00	449.00	303.00	457.00	494.00	325.00	500.00	
frame00015.jpg	314.00	309.00	449.00	303.00	457.00	494.00	325.00	500.00	
frame00016.jpg	314.00	309.00	449.00	303.00	457.00	494.00	325.00	500.00	
frame00017.jpg	314.00	309.00	449.00	303.00	457.00	494.00	325.00	500.00	
frame00018.jpg	314.00	309.00	449.00	303.00	457.00	494.00	325.00	500.00	
frame00019.jpg	314.00	309.00	449.00	303.00	457.00	494.00	325.00	500.00	
frame00020.jpg	314.00	309.00	449.00	303.00	457.00	494.00	325.00	500.00	
frame00021.jpg	314.00	309.00	449.00	303.00	457.00	494.00	325.00	500.00	
frame00022.jpg	314.00	309.00	449.00	303.00	457.00	494.00	325.00	500.00	
frame00023.jpg	314.00	309.00	449.00	303.00	457.00	494.00	325.00	500.00	
frame00024.jpg	314.00	309.00	449.00	303.00	457.00	494.00	325.00	500.00	
frame00025.jpg	314.00	309.00	449.00	303.00	457.00	494.00	325.00	500.00	
frame00026.jpg	314.00	309.00	449.00	303.00	457.00	494.00	325.00	500.00	
frame00027.jpg	314.00	309.00	449.00	303.00	457.00	494.00	325.00	500.00	
frame00028.jpg	314.00	309.00	449.00	303.00	457.00	494.00	325.00	500.00	
frame00029.jpg	314.00	309.00	449.00	303.00	457.00	494.00	325.00	500.00	
frame00030.jpg	314.00	309.00	449.00	303.00	457.00	494.00	325.00	500.00	
frame00031.jpg	314.00	309.00	449.00	303.00	457.00	494.00	325.00	500.00	
frame00032.jpg	314.00	309.00	449.00	303.00	457.00	494.00	325.00	500.00	
frame00033.jpg	314.00	309.00	449.00	303.00	457.00	494.00	325.00	500.00	
frame00034.jpg	314.00	309.00	449.00	303.00	457.00	494.00	325.00	500.00	
frame00035.jpg	314.00	309.00	449.00	303.00	457.00	494.00	325.00	500.00	
frame00036.jpg	314.00	309.00	449.00	303.00	457.00	494.00	325.00	500.00	
frame00037.jpg	314.00	309.00	449.00	303.00	457.00	494.00	325.00	500.00	
frame00038.jpg	314.00	309.00	449.00	303.00	457.00	494.00	325.00	500.00	
frame00039.jpg	314.00	309.00	449.00	303.00	457.00	494.00	325.00	500.00	
frame00040.jpg	314.00	309.00	449.00	303.00	457.00	494.00	325.00	500.00	
frame00041.jpg	314.00	309.00	449.00	303.00	457.00	494.00	325.00	500.00	
frame00042.jpg	314.00	309.00	449.00	303.00	457.00	494.00	325.00	500.00	
frame00043.jpg	314.00	309.00	449.00	303.00	457.00	494.00	325.00	500.00	
frame00044.jpg	314.00	309.00	449.00	303.00	457.00	494.00	325.00	500.00	
frame00045.jpg	314.00	309.00	449.00	303.00	457.00	494.00	325.00	500.00	
frame00046.jpg	314.00	309.00	449.00	303.00	457.00	494.00	325.00	500.00	
frame00047.jpg	314.00	309.00	449.00	303.00	457.00	494.00	325.00	500.00	
frame00048.jpg	314.00	309.00	449.00	303.00	457.00	494.00	325.00	500.00	
frame00049.jpg	314.00	309.00	449.00	303.00	457.00	494.00	325.00	500.00	
frame00050.jpg	314.00	309.00	449.00	303.00	457.00	494.00	325.00	500.00	
frame00051.jpg	314.00	309.00	449.00	303.00	457.00	494.00	325.00	500.00	
frame00052.jpg	314.00	309.00	449.00	303.00	457.00	494.00	325.00	500.00	
frame00053.jpg	314.00	309.00	449.00	303.00	457.00	494.00	325.00	500.00	
frame00054.jpg	314.00	309.00	449.00	303.00	457.00	494.00	325.00	500.00	
frame00055.jpg	314.00	309.00	449.00	303.00	457.00	494.00	325.00	500.00	
frame00056.jpg	314.00	309.00	449.00	303.00	457.00	494.00	325.00	500.00	
frame00057.jpg	314.00	309.00	449.00	303.00	457.00	494.00	325.00	500.00	
frame00058.jpg	314.00	309.00	449.00	303.00	457.00	494.00	325.00	500.00	
frame00059.jpg	314.00	309.00	449.00	303.00	457.00	494.00	325.00	500.00	
frame00060.jpg	314.00	309.00	449.00	303.00	457.00	494.00	325.00	500.00	
frame00061.jpg	314.00	309.00	449.00	303.00	457.00	494.00	325.00	500.00	
frame00062.jpg	314.00	309.00	449.00	303.00	457.00	494.00	325.00	500.00	
frame00063.jpg	314.00	309.00	449.00	303.00	457.00	494.00	325.00	500.00	
frame00064.jpg	314.00	309.00	449.00	303.00	457.00	494.00	325.00	500.00	
frame00065.jpg	314.00	309.00	449.00	303.00	457.00	494.00	325.00	500.00	
frame00066.jpg	314.00	309.00	449.00	303.00	457.00	494.00	325.00	500.00	
frame00067.jpg	314.00	309.00	449.00	303.00	457.00	494.00	325.00	500.00	
frame00068.jpg	314.00	309.00	449.00	303.00	457.00	494.00	325.00	500.00	
frame00069.jpg	314.00	309.00	449.00	303.00	457.00	494.00	325.00	500.00	
frame00070.jpg	314.00	309.00	449.00	303.00	457.00	494.00	325.00	500.00	
frame00071.jpg	314.00	309.00	449.00	303.00	457.00	494.00	325.00	500.00	
frame00072.jpg	314.00	309.00	449.00	303.00	457.00	494.00	325.00	500.00	
frame00073.jpg	314.00	309.00	449.00	303.00	457.00	494.00	325.00	500.00	
frame00074.jpg	314.00	309.00	449.00	303.00	457.00	494.00	325.00	500.00	
frame00075.jpg	314.00	309.00	449.00	303.00	457.00	494.00	325.00	500.00	
frame00076.jpg	314.00	309.00	449.00	303.00	457.00	494.00	325.00	500.00	
frame00077.jpg	314.00	309.00	449.00	303.00	457.00	494.00	325.00	500.00	
frame00078.jpg	314.00	309.00	449.00	303.00	457.00	494.00	325.00	500.00	
frame00079.jpg	314.00	309.00	449.00	303.00	457.00	494.00	325.00	500.00	
frame00080.jpg	314.00	309.00	449.00	303.00	457.00	494.00	325.00	500.00	
frame00081.jpg	314.00	309.00	449.00	303.00	457.00	494.00	325.00	500.00	
frame00082.jpg	314.00	309.00	449.00	303.00	457.00	494.00	325.00	500.00	
frame00083.jpg	314.00	309.00	449.00	303.00	457.00	494.00	325.00	500.00	
frame00084.jpg	314.00	309.00	449.00	303.00	457.00	494.00	325.00	500.00	
frame00085.jpg	314.00	309.00	449.00	303.00	457.00	494.00	325.00	500.00	
frame00086.jpg	314.00	309.00	449.00	303.00	457.00	494.00	325.00	500.00	
frame00087.jpg	314.00	309.00	449.00	303.00	457.00	494.00	325.00	500.00	
frame00088.jpg	314.00	309.00	449.00	303.00	457.00	494.00	325.00	500.00	
frame00089.jpg	314.00	309.00	449.00	303.00	457.00	494.00	325.00	500.00	
frame00090.jpg	314.00	309.00	449.00	303.00	457.00	494.00	325.00	500.00	
frame00091.jpg	314.00	309.00	449.00	303.00	457.00	494.00	325.00	500.00	
frame00092.jpg	314.00	309.00	449.00	303.00	457.00	494.00	325.00	500.00	
frame00093.jpg	314.00	309.00	449.00	303.00	457.00	494.00	325.00	500.00	
frame00094.jpg	314.00	309.00	449.00	303.00	457.00	494.00	325.00	500.00	
frame00095.jpg	314.00	309.00	449.00	303.00	457.00	494.00	325.00	500.00	
frame00096.jpg	314.00	309.00	449.00	303.00	457.00	494.00	325.00	500.00	
frame00097.jpg	314.00	309.00	449.00	303.00	457.00	494.00	325.00	500.00	
frame00098.jpg	314.00	309.00	449.00	303.00	457.00	494.00	325.00	500.00	
frame00099.jpg	314.00	309.00	449.00	303.00	457.00	494.00	325.00	500.00	
frame00100.jpg	314.00	309.00	449.00	303.00	457.00	494.00	325.00	500.00	
frame00101.jpg	314.00	309.00	449.00	303.00	457.00	494.00	325.00	500.00	
frame00102.jpg	314.00	309.00	449.00	303.00	457.00	494.00	325.00	500.00	
frame00103.jpg	314.00	309.00	449.00	303.00	457.00	494.00	325.00	500.00	
frame00104.jpg	314.00	309.00	449.00	303.00	457.00	494.00	325.00	500.00	
frame00105.jpg	314.00	309.00	449.00	303.00	457.00	494.00	325.00	500.00	
frame00106.jpg	314.00	309.00	449.00	303.00	457.00	494.00	325.00	500.00	
frame00107.jpg	314.00	309.00	449.00	303.00	457.00	494.00	325.00	500.00	
frame00108.jpg	314.00	309.00	449.00	303.00	457.00	494.00	325.00	500.00	
frame00109.jpg	314.00	309.00	449.00	303.00	457.00	494.00	325.00	500.00	
frame00110.jpg	314.00	309.00	449.00	303.00	457.00	494.00	325.00	500.00	
frame00111.jpg	314.00	309.00	449.00	303.00	457.00	494.00	325.00	500.00	
frame00112.jpg	314.00	309.00	449.00	303.00	457.00	494.00	325.00	500.00	
frame00113.jpg	314.00	309.00	449.00	303.00	457.00	494.00	325.00	500.00	
frame00114.jpg	314.00	309.00	449.00	303.00	457.00	494.00	325.00	500.00	
frame00115.jpg	314.00	309.00	449.00	303.00	457.00	494.00	325.00	500.00	
frame00116.jpg	314.00	309.00	449.00	303.00	457.00	494.00	325.00	500.00	
frame00117.jpg	314.00	309.00	449.00	303.00	457.00	494.00	325.00	500.00	
frame00118.jpg	313.39	308.20	449.53	302.15	456.42	493.25	325.50	499.20	
frame00119.jpg	313.39	308.20	449.53	302.15	456.42	493.25	325.50	499.20	
frame00120.jpg	314.00	309.00	450.07	301.29	457.00	494.00	325.99	498.42	
frame00121.jpg	313.90	307.36	448.94	301.34	457.00	494.00	325.01	500.01	
frame00122.jpg	316.23	308.89	449.00	302.97	457.00	494.00	325.01	500.01	
frame00123.jpg	316.23	308.89	449.00	302.97	457.00	494.00	325.01	500.01	
frame00124.jpg	315.63	308.10	449.53	302.14	456.42	493.24	325.52	499.20	
frame00125.jpg	315.63	308.10	449.53	302.14	456.42	493.24	325.52	499.20	
frame00126.jpg	315.63	308.10	449.53	302.14	456.42	493.24	325.52	499.20	
frame00127.jpg	315.63	308.10	449.53	302.14	456.42	493.24	325.52	499.20	
frame00128.jpg	315.51	305.66	449.49	301.32	456.44	494.02	325.48	498.43	
frame00129.jpg	315.51	305.66	449.49	301.32	456.44	494.02	325.48	498.43	
frame00130.jpg	314.95	305.67	448.93	301.34	455.89	494.04	324.94	498.45	
frame00131.jpg	316.06	305.63	448.93	301.33	455.89	494.05	323.83	498.49	
frame00132.jpg	315.51	305.65	448.38	301.35	455.34	494.07	323.28	498.51	
frame00133.jpg	317.16	305.59	447.83	301.36	454.79	494.09	322.73	498.53	
frame00134.jpg	317.18	306.39	447.86	302.16	454.76	493.28	322.71	497.72	
frame00135.jpg	317.16	305.60	447.77	299.78	454.79	494.10	322.69	496.91	
frame00136.jpg	318.75	305.52	447.22	299.80	454.22	494.12	322.14	496.93	
frame00137.jpg	318.18	303.20	446.71	300.59	453.64	493.30	321.58	496.13	
frame00138.jpg	318.17	302.42	446.68	299.81	453.61	492.48	321.57	495.30	
frame00139.jpg	318.69	301.62	446.12	299.04	453.03	491.66	322.10	494.47	
frame00140.jpg	318.68	300.84	446.09	298.26	453.00	490.84	322.09	493.64	
frame00141.jpg	318.13	300.07	445.53	297.49	452.42	490.02	321.53	492.83	
frame00142.jpg	319.17	299.26	444.45	296.73	452.39	489.21	321.51	492.01	
frame00143.jpg	319.16	298.49	444.42	295.96	452.36	488.37	321.50	491.17	
frame00144.jpg	320.21	299.23	443.41	296.73	452.32	487.53	321.49	490.33	
frame00145.jpg	321.23	299.94	442.43	297.49	452.28	486.69	321.49	489.49	
frame00146.jpg	321.24	299.94	442.43	297.49	452.19	484.99	321.49	487.78	
frame00147.jpg	321.74	299.21	441.88	296.78	451.60	484.16	322.03	486.93	
frame00148.jpg	321.74	298.48	441.85	296.05	451.56	483.32	322.03	486.08	
frame00149.jpg	322.24	299.20	441.38	296.79	450.98	482.49	322.57	485.23	
frame00150.jpg	321.74	297.76	441.81	295.34	450.36	480.84	323.10	483.55	
frame00151.jpg	321.75	298.50	441.84	296.07	450.32	480.02	323.10	482.73	
frame00152.jpg	322.26	299.92	442.34	296.06	450.85	480.01	323.62	481.11	
frame00153.jpg	323.74	302.00	441.92	298.23	450.27	479.19	323.10	480.31	
frame00154.jpg	323.75	304.07	441.01	300.36	450.21	478.38	324.15	479.50	
frame00155.jpg	324.26	306.78	441.60	303.11	449.57	476.79	323.68	477.94	
frame00156.jpg	324.30	310.13	440.78	307.85	448.36	474.51	323.73	477.15	
frame00157.jpg	323.85	313.40	440.42	311.11	448.79	473.76	324.28	476.40	
frame00158.jpg	325.35	317.80	440.10	315.54	448.19	473.03	323.83	475.66	
frame00159.jpg	326.30	322.01	439.32	319.78	448.10	472.30	323.89	474.93	
frame00160.jpg	327.22	326.04	438.57	323.84	448.01	471.58	323.95	474.21	
frame00161.jpg	328.10	329.33	437.84	327.16	447.98	471.57	323.98	474.20	
frame00162.jpg	329.79	334.55	437.11	330.37	448.99	471.53	324.03	474.18	
frame00163.jpg	330.55	338.52	436.50	334.44	448.93	471.51	324.08	474.17	
frame00164.jpg	331.28	342.81	435.93	338.84	448.78	470.82	324.20	473.48	
frame00165.jpg	331.15	346.95	436.24	343.02	448.61	470.16	324.34	472.83	
frame00166.jpg	331.84	351.36	435.72	347.54	448.51	470.14	324.43	472.81	
frame00167.jpg	332.51	355.58	435.22	351.85	448.42	470.13	324.52	472.78	
frame00168.jpg	333.13	360.00	434.77	356.36	449.44	470.67	323.55	473.36	
frame00169.jpg	334.83	365.23	433.89	360.27	449.87	470.61	324.18	473.32	
frame00170.jpg	335.24	370.20	434.31	363.94	449.73	470.60	325.31	473.32	
frame00171.jpg	336.06	374.94	435.10	367.47	450.14	470.55	324.99	473.33	
frame00172.jpg	335.72	378.91	436.29	370.15	448.74	469.53	327.12	472.36	
frame00173.jpg	335.06	383.47	435.27	373.71	450.20	469.45	327.69	472.34	
frame00174.jpg	336.70	387.85	433.67	378.77	450.68	469.88	327.32	472.75	
frame00175.jpg	336.80	391.51	433.80	382.72	449.82	469.41	327.99	472.29	
frame00176.jpg	336.56	395.06	433.54	387.11	449.51	468.96	327.21	472.69	
frame00177.jpg	337.04	398.62	433.25	390.96	450.39	468.90	326.45	472.68	
frame00178.jpg	336.75	401.56	433.02	394.57	448.92	468.12	326.62	472.65	
frame00179.jpg	337.21	404.10	432.68	397.29	448.91	468.51	326.65	473.01	
frame00180.jpg	336.16	406.88	432.26	399.69	448.54	467.75	326.77	473.00	
frame00181.jpg	335.96	408.86	431.93	402.20	448.34	467.40	325.85	473.37	
frame00182.jpg	335.74	410.78	432.33	404.13	448.15	467.05	326.01	473.03	
frame00183.jpg	335.15	412.45	431.46	405.88	448.59	467.02	325.57	473.04	
frame00184.jpg	335.75	413.79	431.81	407.28	448.45	466.70	326.65	472.67	
frame00185.jpg	335.29	414.40	431.55	407.90	448.86	466.36	327.20	472.33	
frame00186.jpg	335.58	415.14	431.35	408.69	449.37	466.33	326.72	472.36	
frame00187.jpg	335.13	415.73	431.11	409.28	449.78	466.00	327.27	472.03	
frame00188.jpg	335.11	415.91	431.29	409.84	449.88	466.30	327.31	471.73	
frame00189.jpg	335.50	415.89	431.12	410.60	449.35	466.33	327.81	471.71	
frame00190.jpg	336.21	416.40	432.21	411.47	449.44	466.62	327.87	471.41	
frame00191.jpg	335.79	416.78	432.02	412.22	449.93	466.61	328.46	470.82	
frame00192.jpg	336.12	417.30	431.89	413.13	450.53	466.88	328.03	470.55	
frame00193.jpg	336.10	417.47	431.95	413.30	450.43	466.59	328.07	470.27	
frame00194.jpg	336.05	417.82	432.06	413.65	450.42	466.59	328.08	470.27	
frame00195.jpg	336.02	417.99	432.12	413.82	450.32	466.31	328.12	469.99	
frame00196.jpg	336.02	417.99	432.12	413.82	450.32	466.31	328.12	469.99	
frame00197.jpg	336.02	417.99	432.12	413.82	450.32	466.31	328.12	469.99	
frame00198.jpg	336.36	418.31	431.83	414.18	450.85	466.29	327.63	470.01	
frame00199.jpg	336.70	418.63	431.54	414.53	451.37	466.28	327.13	470.02	
frame00200.jpg	336.64	418.96	430.86	414.90	451.37	466.28	328.13	469.99	
frame00201.jpg	335.95	418.49	430.92	415.06	450.22	466.04	328.18	469.72	
frame00202.jpg	336.73	418.46	431.72	415.03	450.22	466.04	328.18	469.72	
frame00203.jpg	336.73	418.46	431.72	415.03	450.22	466.04	328.18	469.72	
frame00204.jpg	336.73	418.46	431.72	415.03	450.22	466.04	328.18	469.72	
frame00205.jpg	336.73	418.46	431.72	415.03	450.22	466.04	328.18	469.72	
frame00206.jpg	336.73	418.46	431.72	415.03	450.22	466.04	328.18	469.72	
frame00207.jpg	336.73	418.46	431.72	415.03	450.22	466.04	328.18	469.72	
frame00208.jpg	336.73	418.46	431.72	415.03	450.22	466.04	328.18	469.72	
frame00209.jpg	336.73	418.46	431.72	415.03	450.22	466.04	328.18	469.72	
frame00210.jpg	336.73	418.46	431.72	415.03	450.22	466.04	328.18	469.72	
frame00211.jpg	336.73	418.46	431.72	415.03	450.22	466.04	328.18	469.72	
frame00212.jpg	336.73	418.46	431.72	415.03	450.22	466.04	328.18	469.72	
frame00213.jpg	336.73	418.46	431.72	415.03	450.22	466.04	328.18	469.72	
frame00214.jpg	336.73	418.46	431.72	415.03	450.22	466.04	328.18	469.72	
frame00215.jpg	336.73	418.46	431.72	415.03	450.22	466.04	328.18	469.72	
frame00216.jpg	336.73	418.46	431.72	415.03	450.22	466.04	328.18	469.72	
frame00217.jpg	336.73	418.46	431.72	415.03	450.22	466.04	328.18	469.72	
frame00218.jpg	336.73	418.46	431.72	415.03	450.22	466.04	328.18	469.72	
frame00219.jpg	336.73	418.46	431.72	415.03	450.22	466.04	328.18	469.72	
frame00220.jpg	336.73	418.46	431.72	415.03	450.22	466.04	328.18	469.72	
frame00221.jpg	337.09	418.62	431.39	415.21	450.84	466.30	327.63	470.01	
frame00222.jpg	337.42	418.93	431.11	415.55	451.36	466.28	327.12	470.02	
frame00223.jpg	337.42	418.93	431.11	415.55	451.36	466.28	327.12	470.02	
frame00224.jpg	337.42	418.93	431.11	415.55	451.36	466.28	327.12	470.02	
frame00225.jpg	336.64	418.95	431.23	415.87	450.11	465.77	327.13	470.02	
frame00226.jpg	336.64	418.95	431.23	415.87	450.11	465.77	327.13	470.02	
frame00227.jpg	336.64	418.95	431.23	415.87	450.11	465.77	327.13	470.02	
frame00228.jpg	337.00	419.10	430.90	416.04	450.73	466.02	326.55	470.32	
frame00229.jpg	337.00	419.10	430.90	416.04	450.73	466.02	326.55	470.32	
frame00230.jpg	337.00	419.10	430.90	416.04	450.73	466.02	326.55	470.32	
frame00231.jpg	337.00	419.10	430.90	416.04	450.73	466.02	326.55	470.32	
frame00232.jpg	337.00	419.10	430.90	416.04	450.73	466.02	326.55	470.32	
frame00233.jpg	337.00	419.10	430.90	416.04	450.73	466.02	326.55	470.32	
frame00234.jpg	337.00	419.10	430.90	416.04	450.73	466.02	326.55	470.32	
frame00235.jpg	337.00	419.10	430.90	416.04	450.73	466.02	326.55	470.32	
frame00236.jpg	337.36	419.25	430.58	416.21	451.36	466.28	325.97	470.62	
frame00237.jpg	337.36	419.25	430.58	416.21	451.36	466.28	325.97	470.62	
frame00238.jpg	337.32	419.41	430.51	416.05	451.24	466.00	325.91	470.91	
frame00239.jpg	337.32	419.41	430.51	416.05	451.24	466.00	325.91	470.91	
frame00240.jpg	337.33	419.41	430.25	415.43	451.24	466.01	325.91	470.91	
frame00241.jpg	338.05	419.53	430.06	414.96	452.43	466.26	325.85	471.20	
frame00242.jpg	337.83	418.91	430.31	414.64	450.57	465.74	325.34	471.22	
frame00243.jpg	338.64	418.71	429.99	413.85	451.74	466.00	325.29	471.52	
frame00244.jpg	339.18	418.06	429.33	413.25	452.27	465.98	324.78	471.55	
frame00245.jpg	338.75	417.00	428.84	412.18	453.21	465.63	324.91	471.23	
frame00246.jpg	339.79	415.86	429.09	411.06	454.12	465.27	323.94	470.97	
frame00247.jpg	340.23	414.45	428.42	409.69	455.04	464.91	323.02	470.69	
frame00248.jpg	341.41	413.01	428.47	408.29	455.93	464.53	322.07	470.41	
frame00249.jpg	344.13	412.10	428.32	407.23	457.84	464.91	320.53	470.14	
frame00250.jpg	346.00	411.54	427.99	405.91	459.89	465.33	320.18	469.78	
frame00251.jpg	347.66	411.27	427.65	404.61	461.63	464.91	319.84	469.41	
frame00252.jpg	348.86	410.63	426.66	403.56	463.66	464.91	319.34	469.44	
frame00253.jpg	349.73	410.02	426.01	402.51	466.52	464.88	318.31	469.50	
frame00254.jpg	351.24	409.25	425.92	401.31	470.61	466.53	317.54	469.07	
frame00255.jpg	350.78	408.23	426.52	400.05	473.38	465.89	315.77	468.62	
frame00256.jpg	353.07	407.04	424.59	399.46	474.12	467.23	314.74	468.72	
frame00257.jpg	353.23	406.01	424.26	398.12	479.84	467.94	314.10	468.20	
frame00258.jpg	354.03	404.82	423.97	396.92	479.65	467.94	313.11	468.20	
frame00259.jpg	355.17	403.49	425.43	395.65	480.98	468.70	310.87	467.61	
frame00260.jpg	356.56	402.25	426.51	394.31	480.74	468.70	308.76	467.59	
frame00261.jpg	357.13	400.88	427.79	393.18	480.56	468.66	306.66	467.56	
frame00262.jpg	358.25	399.77	429.53	392.13	480.02	469.47	305.54	466.89	
frame00263.jpg	359.57	398.74	430.38	391.29	481.00	471.23	304.49	466.86	
frame00264.jpg	360.23	398.22	430.40	390.78	485.26	473.22	302.88	468.19	
frame00265.jpg	360.44	397.43	429.16	390.05	485.83	474.23	302.40	468.89	
frame00266.jpg	360.33	397.00	428.99	389.81	489.44	476.46	302.42	468.89	
frame00267.jpg	361.40	396.56	430.37	389.29	489.04	477.53	300.15	469.56	
frame00268.jpg	363.02	396.27	430.62	388.64	489.75	478.77	299.51	470.33	
frame00269.jpg	363.59	395.88	431.35	388.19	491.67	480.05	298.28	471.10	
frame00270.jpg	363.67	395.54	431.43	387.80	491.29	481.25	298.15	471.93	
frame00271.jpg	363.53	395.45	431.35	387.17	493.28	482.60	299.14	472.82	
frame00272.jpg	363.66	395.32	431.42	386.26	494.05	483.95	298.20	475.39	
frame00273.jpg	363.52	395.22	430.86	385.95	496.13	485.38	296.63	478.06	
frame00274.jpg	363.45	395.58	429.18	386.05	500.36	489.89	296.14	480.91	
frame00275.jpg	363.14	395.97	428.02	386.35	501.46	491.49	293.79	483.90	
frame00276.jpg	364.35	395.79	427.09	386.49	499.78	494.67	295.10	486.13	
frame00277.jpg	364.35	395.79	426.49	386.58	502.13	498.17	294.59	488.39	
frame00278.jpg	363.39	395.69	425.61	386.71	503.44	498.26	294.64	490.79	
frame00279.jpg	362.75	395.42	425.68	386.83	502.27	500.04	294.99	492.05	
frame00280.jpg	362.04	394.88	425.88	386.66	502.29	501.81	294.78	493.27	
frame00281.jpg	362.58	395.07	425.76	386.96	503.44	505.35	295.01	495.79	
frame00282.jpg	361.17	394.18	426.69	385.96	497.89	501.88	296.83	495.91	
frame00283.jpg	361.27	394.03	427.02	385.45	500.97	506.95	297.34	497.15	
frame00284.jpg	360.87	393.93	427.11	385.60	497.67	505.16	296.60	498.35	
frame00285.jpg	359.77	393.04	426.76	384.53	491.75	500.37	299.06	499.64	
frame00286.jpg	358.23	392.76	426.98	384.33	489.98	498.95	297.73	500.83	
frame00287.jpg	358.47	393.20	427.96	383.68	498.36	506.53	299.64	499.70	
frame00288.jpg	358.47	393.20	427.96	383.68	496.16	506.47	300.86	499.75	
frame00289.jpg	358.14	392.93	428.69	382.50	496.14	506.47	302.05	499.80	
frame00290.jpg	357.79	393.14	428.92	382.28	494.22	504.91	302.06	500.95	
frame00291.jpg	357.71	392.82	429.07	381.88	493.16	504.89	302.66	500.96	
frame00292.jpg	356.91	392.94	429.04	381.13	494.21	504.89	303.24	500.98	
frame00293.jpg	355.83	393.12	428.66	380.41	496.37	504.90	304.40	501.00	
frame00294.jpg	354.84	393.65	428.31	380.47	493.67	501.95	304.97	501.01	
frame00295.jpg	354.47	393.35	429.01	380.35	488.16	499.24	304.97	501.02	
frame00296.jpg	353.81	393.10	429.17	379.91	489.15	499.23	305.55	501.02	
frame00297.jpg	353.71	392.75	429.33	379.47	488.16	499.24	306.14	501.01	
frame00298.jpg	353.90	392.34	429.84	378.96	486.19	499.26	306.14	501.01	
frame00299.jpg	353.72	392.75	430.37	378.44	488.15	499.24	306.14	501.02	
frame00300.jpg	354.00	392.70	430.01	378.51	487.15	499.25	306.71	501.02	
frame00301.jpg	353.90	392.34	430.18	378.05	486.15	499.26	307.28	501.01	
frame00302.jpg	354.18	392.29	430.35	377.58	488.36	501.87	307.85	501.01	
frame00303.jpg	354.18	392.29	430.35	377.58	488.36	501.87	307.85	501.01	
frame00304.jpg	354.18	392.29	430.35	377.58	488.36	501.87	307.85	501.01	
frame00305.jpg	353.91	392.34	430.52	377.11	486.14	499.25	308.40	501.01	
frame00306.jpg	353.91	392.34	430.52	377.11	486.14	499.25	308.40	501.01	
frame00307.jpg	353.91	392.34	430.52	377.11	486.14	499.25	308.40	501.01	
frame00308.jpg	353.91	392.34	430.52	377.11	486.14	499.25	308.40	501.01	
frame00309.jpg	353.91	392.34	430.52	377.11	486.14	499.25	308.40	501.01	
frame00310.jpg	353.91	392.34	430.52	377.11	486.14	499.25	308.40	501.01	
frame00311.jpg	353.91	392.34	430.52	377.11	486.14	499.25	308.40	501.01	
frame00312.jpg	353.91	392.34	430.52	377.11	486.14	499.25	308.40	501.01	
frame00313.jpg	353.91	392.34	430.52	377.11	486.14	499.25	308.40	501.01	
frame00314.jpg	353.91	392.34	430.52	377.11	486.14	499.25	308.40	501.01	
frame00315.jpg	353.91	392.34	430.52	377.11	486.14	499.25	308.40	501.01	
frame00316.jpg	353.91	392.34	430.52	377.11	486.14	499.25	308.40	501.01	
frame00317.jpg	353.91	392.34	430.52	377.11	486.14	499.25	308.40	501.01	
frame00318.jpg	353.91	392.34	430.52	377.11	486.14	499.25	308.40	501.01	
frame00319.jpg	353.91	392.34	430.52	377.11	486.14	499.25	308.40	501.01	
frame00320.jpg	353.91	392.34	430.52	377.11	486.14	499.25	308.40	501.01	
frame00321.jpg	353.91	392.34	430.52	377.11	486.14	499.25	308.40	501.01	
frame00322.jpg	353.91	392.34	430.52	377.11	486.14	499.25	308.40	501.01	
frame00323.jpg	353.24	392.08	429.97	376.78	487.14	499.24	307.85	501.02	
frame00324.jpg	353.24	392.08	429.97	376.78	487.14	499.24	307.85	501.02	
frame00325.jpg	353.43	392.24	430.24	376.51	488.77	500.55	308.80	500.05	
frame00326.jpg	353.43	392.24	430.24	376.51	488.77	500.55	308.80	500.05	
frame00327.jpg	353.43	392.24	430.24	376.51	488.77	500.55	308.80	500.05	
frame00328.jpg	353.24	392.08	429.97	376.78	487.14	499.24	307.85	501.02	
frame00329.jpg	353.43	392.24	430.24	376.51	488.77	500.55	308.80	500.05	
frame00330.jpg	353.43	392.24	430.24	376.51	488.77	500.55	308.80	500.05	
frame00331.jpg	353.43	392.24	430.24	376.51	488.77	500.55	308.80	500.05	
frame00332.jpg	353.43	392.24	430.24	376.51	488.77	500.55	308.80	500.05	
frame00333.jpg	353.43	392.24	430.24	376.51	488.77	500.55	308.80	500.05	
frame00334.jpg	353.43	392.24	430.24	376.51	488.77	500.55	308.80	500.05	
frame00335.jpg	353.43	392.24	430.24	376.51	488.77	500.55	308.80	500.05	
frame00336.jpg	353.43	392.24	430.24	376.51	488.77	500.55	308.80	500.05	
frame00337.jpg	353.43	392.24	430.24	376.51	488.77	500.55	308.80	500.05	
frame00338.jpg	353.43	392.24	430.24	376.51	488.77	500.55	308.80	500.05	
frame00339.jpg	353.43	392.24	430.24	376.51	488.77	500.55	308.80	500.05	
frame00340.jpg	353.43	392.24	430.24	376.51	488.77	500.55	308.80	500.05	
frame00341.jpg	353.43	392.24	430.24	376.51	488.77	500.55	308.80	500.05	
frame00342.jpg	353.43	392.24	430.24	376.51	488.77	500.55	308.80	500.05	
frame00343.jpg	353.43	392.24	430.24	376.51	488.77	500.55	308.80	500.05	
frame00344.jpg	353.43	392.24	430.24	376.51	488.77	500.55	308.80	500.05	
frame00345.jpg	353.43	392.24	430.24	376.51	488.77	500.55	308.80	500.05	
frame00346.jpg	353.43	392.24	430.24	376.51	488.77	500.55	308.80	500.05	
frame00347.jpg	353.43	392.24	430.24	376.51	488.77	500.55	308.80	500.05	
frame00348.jpg	353.43	392.24	430.24	376.51	488.77	500.55	308.80	500.05	
frame00349.jpg	353.43	392.24	430.24	376.51	488.77	500.55	308.80	500.05	
frame00350.jpg	353.43	392.24	430.24	376.51	488.77	500.55	308.80	500.05	
frame00351.jpg	353.43	392.24	430.24	376.51	488.77	500.55	308.80	500.05	
frame00352.jpg	353.43	392.24	430.24	376.51	488.77	500.55	308.80	500.05	
frame00353.jpg	353.43	392.24	430.24	376.51	488.77	500.55	308.80	500.05	
frame00354.jpg	353.43	392.24	430.24	376.51	488.77	500.55	308.80	500.05	
frame00355.jpg	353.43	392.24	430.24	376.51	488.77	500.55	308.80	500.05	
frame00356.jpg	353.43	392.24	430.24	376.51	488.77	500.55	308.80	500.05	
frame00357.jpg	353.43	392.24	430.24	376.51	488.77	500.55	308.80	500.05	
frame00358.jpg	353.43	392.24	430.24	376.51	488.77	500.55	308.80	500.05	
frame00359.jpg	353.43	392.24	430.24	376.51	488.77	500.55	308.80	500.05	
frame00360.jpg	353.43	392.24	430.24	376.51	488.77	500.55	308.80	500.05	
