1	  0.00052172	  0.00094413	  0.00039598	 -0.00247092	  0.00027376	 -0.00021643	  0.00205777	 -0.00061727
2	 -0.00007397	 -0.00002400	  0.00006798	  0.00034900	  0.00014092	 -0.00041586	 -0.00107354	 -0.00102202
3	  0.00010196	  0.00001798	  0.00021099	  0.00006802	  0.00037601	 -0.00016791	  0.00086364	 -0.00009167
4	 -0.00014074	 -0.00025479	  0.00027682	  0.00066304	 -0.00011520	  0.00101030	  0.00078560	 -0.00011850
5	  0.00001800	  0.00007301	  0.00002200	 -0.00014400	  0.00006701	  0.00005801	 -0.00106710	  0.00090417
6	  0.00019510	  0.00003807	  0.00038797	  0.00007808	 -0.00038956	 -0.00151173	  0.00044731	  0.00045247
7	 -0.00018500	  0.00013401	  0.00023494	  0.00027203	  0.00002685	  0.00062084	 -0.00047307	  0.00091593
8	  0.00005295	  0.00015698	  0.00016098	  0.00015401	 -0.00001998	  0.00012498	  0.00022109	  0.00076282
9	  0.00006802	  0.00004702	  0.00020401	 -0.00004998	  0.00021482	 -0.00091509	 -0.00072674	  0.00066852
10	  0.00006311	 -0.00018608	  0.00020207	 -0.00034998	 -0.00016518	  0.00059618	  0.00120211	 -0.00240732
11	 -0.00001799	 -0.00018695	  0.00019994	  0.00028702	 -0.00010000	 -0.00016593	 -0.00040079	  0.00066482
12	 -0.00018104	 -0.00011595	  0.00012897	  0.00025101	 -0.00058489	  0.00031285	 -0.00008408	  0.00039792
13	  0.00007998	 -0.00003198	  0.00024101	 -0.00004697	  0.00042203	  0.00002890	 -0.00053588	 -0.00031587
14	  0.00002002	 -0.00009898	  0.00047486	  0.00029811	 -0.00062911	  0.00062851	  0.00081047	 -0.00042100
15	 -0.00010692	 -0.00008101	  0.00006800	  0.00001700	  0.00046201	  0.00032696	 -0.00015292	  0.00016306
16	  0.00012816	  0.00006608	  0.00035217	 -0.00048994	 -0.00018560	 -0.00143864	 -0.00010859	 -0.00147584
17	 -0.00001802	  0.00012598	  0.00034893	  0.00021406	 -0.00006117	  0.00053186	  0.00016937	  0.00172160
18	  0.00009995	 -0.00009297	  0.00000900	  0.00033300	 -0.00022493	 -0.00041586	  0.00017799	  0.00092976
19	  0.00004100	 -0.00002601	  0.00009303	 -0.00036700	  0.00043317	  0.00012801	 -0.00017210	 -0.00117039
20	 -0.00005208	 -0.00009500	  0.00000200	 -0.00000900	 -0.00037900	 -0.00061901	  0.00039315	 -0.00114777
21	 -0.00000302	  0.00017705	  0.00005902	 -0.00028800	  0.00020906	  0.00007601	 -0.00080207	 -0.00004991
22	  0.00000897	 -0.00013897	  0.00000400	  0.00022600	  0.00005699	 -0.00018696	  0.00051485	 -0.00001090
23	 -0.00005105	  0.00009200	  0.00040909	 -0.00021092	  0.00034615	  0.00019090	 -0.00140458	  0.00057196
24	 -0.00011709	  0.00003705	  0.00038607	 -0.00018093	 -0.00042638	  0.00077298	  0.00149401	 -0.00027163
25	  0.00016992	  0.00002199	  0.00003799	  0.00032900	  0.00021896	 -0.00077774	 -0.00086157	  0.00106095
26	 -0.00005097	 -0.00002699	  0.00005199	  0.00014100	  0.00014795	  0.00050594	  0.00032294	 -0.00062506
27	 -0.00001500	 -0.00003601	  0.00015401	 -0.00008699	 -0.00042303	  0.00003207	 -0.00009911	 -0.00036001
28	 -0.00002200	  0.00002101	  0.00000000	 -0.00046700	  0.00039018	 -0.00020410	 -0.00026002	 -0.00023916
29	 -0.00013796	  0.00006798	  0.00014692	  0.00055201	 -0.00014998	  0.00039876	 -0.00018805	  0.00088056
30	  0.00006100	 -0.00001000	  0.00004701	 -0.00011400	  0.00007901	 -0.00002900	  0.00014800	  0.00002401
31	  0.00001100	  0.00000400	  0.00016298	  0.00009501	 -0.00009010	  0.00067892	  0.00136297	  0.00014628
32	  0.00000001	  0.00007003	  0.00053120	 -0.00038386	  0.00018871	 -0.00067636	 -0.00207466	 -0.00048349
33	  0.00015206	 -0.00008304	  0.00016302	 -0.00013999	 -0.00029206	  0.00012197	  0.00087960	 -0.00137216
34	  0.00001595	 -0.00019189	  0.00024885	  0.00060803	 -0.00058064	 -0.00003412	 -0.00025723	  0.00093436
35	  0.00001197	 -0.00004699	  0.00021494	  0.00025602	  0.00006682	 -0.00077182	  0.00082889	  0.00072528
36	 -0.00004502	  0.00000700	  0.00024024	 -0.00099597	  0.00056657	  0.00004090	 -0.00097201	 -0.00247119
37	  0.00004198	  0.00004996	  0.00025376	  0.00096103	 -0.00043468	 -0.00039351	  0.00000568	  0.00268942
38	 -0.00003905	 -0.00014298	  0.00046298	  0.00004611	  0.00012996	  0.00007006	  0.00043218	 -0.00054681
39	  0.00007904	  0.00000202	  0.00019005	 -0.00025698	 -0.00030807	  0.00004807	 -0.00062749	 -0.00071103
40	 -0.00014002	  0.00003401	  0.00001000	 -0.00032000	  0.00025208	  0.00042314	 -0.00015201	  0.00013911
41	  0.00011698	  0.00003698	  0.00013900	 -0.00002199	  0.00026600	  0.00003904	  0.00114257	  0.00107114
42	 -0.00000800	  0.00001200	  0.00015493	  0.00045501	 -0.00052373	 -0.00021498	 -0.00000391	 -0.00060373
43	  0.00005901	 -0.00011604	  0.00000400	 -0.00031800	  0.00036211	  0.00011804	  0.00065997	 -0.00055325
44	 -0.00001697	 -0.00011795	  0.00010095	  0.00046601	 -0.00053973	  0.00013899	 -0.00012491	  0.00093859
45	 -0.00010595	 -0.00007801	  0.00004501	 -0.00018600	  0.00041606	  0.00037509	 -0.00119466	 -0.00139987
46	  0.00000400	  0.00000200	  0.00004000	 -0.00002600	 -0.00034402	 -0.00030599	  0.00030014	  0.00068610
47	 -0.00003300	 -0.00001903	  0.00028726	 -0.00090096	  0.00076462	 -0.00024344	 -0.00053078	 -0.00245119
48	 -0.00021195	  0.00003295	  0.00017593	  0.00042602	 -0.00013391	  0.00019094	 -0.00026084	  0.00048489
49	  0.00024309	 -0.00008802	  0.00019894	  0.00030002	 -0.00080872	 -0.00016611	  0.00056809	  0.00099091
50	 -0.00000002	  0.00014603	  0.00006901	 -0.00017200	  0.00010302	  0.00008501	 -0.00026302	 -0.00006997
51	  0.00007293	 -0.00005000	  0.00013896	  0.00029301	  0.00026198	 -0.00037385	  0.00070245	  0.00116202
52	  0.00003301	 -0.00012702	  0.00011602	 -0.00013799	 -0.00014703	  0.00010000	 -0.00032694	 -0.00132619
53	 -0.00003699	  0.00000499	  0.00023705	 -0.00019797	  0.00030289	 -0.00069721	 -0.00048497	 -0.00008624
54	  0.00003594	  0.00009195	  0.00031187	  0.00041205	 -0.00021719	  0.00090456	  0.00026955	  0.00126132
55	  0.00017905	  0.00001701	  0.00003101	 -0.00027700	  0.00005099	 -0.00078922	  0.00006100	 -0.00032904
56	  0.00001100	 -0.00002299	  0.00043577	  0.00053709	 -0.00028017	  0.00073948	  0.00125214	  0.00122596
57	 -0.00002600	 -0.00002203	  0.00053137	 -0.00068786	  0.00051121	 -0.00026545	 -0.00120934	 -0.00211914
58	 -0.00022706	  0.00007800	  0.00012795	  0.00040301	 -0.00061179	  0.00027481	 -0.00013217	  0.00114656
59	  0.00018695	 -0.00004503	  0.00007702	 -0.00031700	  0.00050618	 -0.00019402	  0.00091086	 -0.00039688
60	 -0.00012502	 -0.00009603	  0.00033298	  0.00007506	 -0.00026308	 -0.00028589	 -0.00139850	 -0.00070088
61	  0.00005999	  0.00003197	  0.00035694	  0.00017106	 -0.00023522	  0.00073079	  0.00101096	  0.00030257
62	 -0.00015401	  0.00003196	  0.00030406	 -0.00020395	  0.00013292	 -0.00035911	 -0.00127624	 -0.00047517
63	  0.00006201	  0.00002800	  0.00001500	  0.00004900	 -0.00027598	  0.00030899	  0.00023204	 -0.00056205
64	  0.00003805	  0.00009299	  0.00017699	  0.00004702	  0.00015907	 -0.00044095	  0.00053651	  0.00212123
65	 -0.00008095	 -0.00006496	  0.00024394	  0.00026403	  0.00017684	  0.00048292	  0.00042480	  0.00005788
66	 -0.00001405	  0.00008006	  0.00028722	 -0.00075996	  0.00075866	  0.00030802	 -0.00078559	 -0.00204709
67	  0.00015511	  0.00006489	  0.00038370	  0.00076907	 -0.00118499	 -0.00024926	  0.00162578	  0.00234523
68	 -0.00000601	 -0.00005303	  0.00044320	 -0.00044390	  0.00068900	 -0.00069561	 -0.00058750	 -0.00144279
69	 -0.00014193	 -0.00001801	  0.00003301	 -0.00018300	  0.00061712	  0.00019902	 -0.00012496	 -0.00042605
70	 -0.00005900	 -0.00000899	  0.00002899	  0.00039700	 -0.00034587	  0.00018192	 -0.00086599	  0.00129262
71	  0.00000997	 -0.00009003	  0.00016705	 -0.00029899	 -0.00057713	 -0.00024617	  0.00033248	 -0.00112620
72	 -0.00002701	  0.00001900	  0.00019402	 -0.00011998	  0.00023007	  0.00022598	 -0.00035599	 -0.00014487
73	  0.00007801	  0.00009999	  0.00005100	  0.00008400	  0.00005400	 -0.00013799	  0.00015894	  0.00067097
74	  0.00017399	 -0.00013095	  0.00001599	  0.00038700	 -0.00014095	  0.00023091	  0.00035091	 -0.00001507
75	 -0.00006100	 -0.00006198	  0.00033100	 -0.00000095	  0.00010393	  0.00022403	 -0.00029779	 -0.00054003
76	  0.00009208	  0.00000503	  0.00032092	  0.00024105	 -0.00108798	 -0.00075247	 -0.00052024	  0.00062662
77	  0.00001800	 -0.00000200	  0.00008206	 -0.00070700	  0.00084159	 -0.00003309	  0.00002288	 -0.00143001
78	 -0.00003102	 -0.00006900	  0.00032296	  0.00013005	 -0.00023615	 -0.00056385	 -0.00076529	 -0.00064210
79	  0.00011095	  0.00002890	  0.00075269	  0.00041628	  0.00000039	  0.00081466	  0.00303441	  0.00176408
80	 -0.00028497	 -0.00000917	  0.00057532	 -0.00055183	  0.00065830	 -0.00011044	 -0.00177746	 -0.00113380
81	  0.00024004	 -0.00010208	  0.00036699	  0.00003707	 -0.00038797	 -0.00004314	  0.00027530	 -0.00056487
82	 -0.00005697	  0.00003198	  0.00020694	  0.00027602	  0.00021990	 -0.00021199	 -0.00036348	  0.00165254
83	  0.00017706	 -0.00000810	  0.00056569	  0.00055516	 -0.00087195	  0.00077208	  0.00137268	  0.00133298
84	 -0.00020296	  0.00014003	  0.00041734	 -0.00081291	  0.00093255	 -0.00049579	 -0.00121256	 -0.00168146
85	 -0.00004102	  0.00003301	  0.00011701	 -0.00007599	 -0.00012506	  0.00042102	  0.00063920	 -0.00062824
86	  0.00024587	 -0.00012104	  0.00012301	 -0.00007099	  0.00037006	 -0.00030398	  0.00081284	 -0.00063570
87	  0.00006304	  0.00003800	  0.00001100	 -0.00000100	 -0.00034200	 -0.00040900	 -0.00029310	  0.00021688
88	 -0.00013295	 -0.00011998	  0.00018392	  0.00041002	 -0.00015895	 -0.00005695	 -0.00056283	  0.00017300
89	 -0.00000900	  0.00002400	  0.00015800	 -0.00000499	 -0.00033304	 -0.00024595	 -0.00091324	  0.00042792
90	 -0.00012194	 -0.00002297	  0.00018994	  0.00031802	  0.00006682	  0.00085774	  0.00016680	  0.00071466
91	  0.00004499	 -0.00002601	  0.00002000	 -0.00024900	  0.00027406	 -0.00032709	  0.00043797	 -0.00084708
92	  0.00009602	  0.00011305	  0.00005702	 -0.00035000	 -0.00006701	  0.00016106	 -0.00008004	 -0.00009201
93	 -0.00000400	 -0.00001699	  0.00028687	  0.00043604	 -0.00011294	 -0.00003002	  0.00028895	 -0.00016684
94	 -0.00009698	 -0.00004503	  0.00024402	 -0.00006897	  0.00015899	 -0.00010205	 -0.00037874	  0.00091012
95	 -0.00007203	  0.00012203	  0.00013804	 -0.00030399	  0.00018106	  0.00005299	 -0.00056408	 -0.00009792
96	  0.00006605	  0.00010297	  0.00046402	 -0.00005189	 -0.00021407	  0.00012291	  0.00132037	 -0.00003855
97	 -0.00010599	  0.00001898	  0.00021603	 -0.00014998	  0.00029202	 -0.00012408	 -0.00105579	  0.00026014
98	  0.00013203	 -0.00014000	  0.00001600	 -0.00000500	 -0.00003300	  0.00018400	  0.00071001	 -0.00136115
99	  0.00012599	 -0.00008795	  0.00019184	  0.00080802	 -0.00096918	 -0.00016905	  0.00060982	  0.00144305
100	 -0.00007492	 -0.00009200	  0.00000800	  0.00000100	  0.00063800	  0.00031100	 -0.00067357	  0.00025420
101	  0.00001801	  0.00002301	  0.00013707	 -0.00054299	  0.00012902	 -0.00033220	 -0.00080152	 -0.00140892
102	  0.00005600	  0.00003299	  0.00000700	  0.00027500	 -0.00034391	  0.00001399	  0.00084005	  0.00083376
103	 -0.00013097	 -0.00006197	  0.00000400	  0.00049700	 -0.00036082	  0.00014193	 -0.00090987	  0.00052587
104	  0.00020296	 -0.00006206	  0.00026003	 -0.00010897	  0.00019905	 -0.00009696	  0.00144197	 -0.00037553
105	 -0.00006503	 -0.00000003	  0.00044796	  0.00010010	 -0.00051903	 -0.00017875	 -0.00109637	  0.00020327
106	 -0.00007102	 -0.00000902	  0.00012810	 -0.00080499	  0.00058443	 -0.00030032	 -0.00083933	 -0.00112405
107	 -0.00007497	  0.00010201	  0.00042290	  0.00023009	  0.00048562	  0.00062606	  0.00105084	  0.00096756
108	  0.00003600	  0.00002901	  0.00013203	 -0.00020499	  0.00022703	 -0.00013706	 -0.00008417	 -0.00133227
109	  0.00003505	  0.00009196	  0.00014395	  0.00035801	 -0.00065872	 -0.00030599	  0.00075604	  0.00130287
110	 -0.00009189	 -0.00007799	  0.00018794	  0.00030602	  0.00019007	  0.00068376	 -0.00050567	  0.00041231
111	  0.00006097	 -0.00010204	  0.00021005	 -0.00025398	 -0.00019698	 -0.00031912	 -0.00047008	 -0.00061040
112	  0.00009200	 -0.00012600	  0.00007399	  0.00007500	 -0.00011999	  0.00004699	  0.00143109	 -0.00030094
113	  0.00001904	 -0.00011003	  0.00016905	 -0.00028599	  0.00022797	  0.00055320	 -0.00027075	 -0.00159935
114	  0.00022301	 -0.00019105	  0.00019401	 -0.00002698	 -0.00034297	 -0.00019307	  0.00016120	 -0.00073496
115	  0.00004806	 -0.00019689	  0.00000100	  0.00055500	 -0.00035080	  0.00033481	 -0.00045791	  0.00118350
116	 -0.00009900	 -0.00012401	  0.00020299	  0.00005302	 -0.00011903	 -0.00017197	 -0.00051505	 -0.00006698
117	  0.00022092	 -0.00031287	  0.00007297	  0.00046200	 -0.00053074	 -0.00022394	  0.00040999	  0.00053887
118	  0.00031590	 -0.00040886	  0.00032297	  0.00008605	 -0.00038022	 -0.00078481	 -0.00027753	 -0.00139201
119	  0.00043308	 -0.00064875	  0.00072737	  0.00086626	 -0.00150200	  0.00041754	  0.00148963	 -0.00092973
120	  0.00047978	 -0.00051418	  0.00023703	 -0.00012497	 -0.00035589	 -0.00063116	 -0.00054294	 -0.00136264
121	  0.00062636	 -0.00051594	  0.00033382	  0.00052606	 -0.00082614	 -0.00126361	 -0.00056546	  0.00087264
122	  0.00037105	 -0.00047795	  0.00031289	  0.00033805	 -0.00078576	  0.00007973	 -0.00077879	 -0.00177058
123	  0.00019986	 -0.00021598	  0.00095608	  0.00096046	 -0.00117698	  0.00011776	 -0.00003681	  0.00397615
124	  0.00002291	 -0.00031701	  0.00014101	 -0.00004499	  0.00040596	 -0.00041308	  0.00042962	 -0.00161796
125	 -0.00004326	 -0.00021892	  0.00021093	  0.00032302	 -0.00090753	 -0.00084992	 -0.00050741	  0.00053629
126	 -0.00007526	 -0.00039401	  0.00035603	 -0.00008894	  0.00035416	 -0.00036091	 -0.00036268	 -0.00063732
127	 -0.00012952	 -0.00067696	  0.00015100	  0.00002701	 -0.00093591	 -0.00044413	  0.00007340	 -0.00222190
128	  0.00005668	 -0.00105421	  0.00059154	  0.00077718	 -0.00200601	 -0.00072962	  0.00051656	 -0.00155811
129	 -0.00049109	 -0.00115273	  0.00049599	  0.00002712	 -0.00132058	 -0.00076563	 -0.00133143	 -0.00261361
130	 -0.00108887	 -0.00140046	  0.00123494	  0.00085576	 -0.00197386	 -0.00279505	  0.00122252	 -0.00335420
130	 -0.00048719	 -0.00024813	  0.00006102	 -0.00040600	 -0.00047114	  0.00089339	 -0.00101099	 -0.00176875
131	 -0.00155563	 -0.00148361	  0.00097943	  0.00058348	 -0.00153833	 -0.00180745	 -0.00090173	 -0.00218024
131	 -0.00025394	 -0.00024862	  0.00018075	  0.00135602	 -0.00146911	  0.00054100	  0.00051559	  0.00258930
132	 -0.00182645	 -0.00139411	  0.00163394	  0.00064834	 -0.00062501	 -0.00158300	  0.00051689	 -0.00177319
132	 -0.00006315	 -0.00021309	  0.00010004	 -0.00044599	 -0.00076632	 -0.00022218	  0.00054484	 -0.00179663
133	 -0.00189073	 -0.00175959	  0.00125726	  0.00058779	 -0.00170385	 -0.00250068	 -0.00074097	 -0.00227445
133	 -0.00006516	 -0.00032361	  0.00013484	  0.00116501	 -0.00253204	 -0.00008624	  0.00039247	  0.00053746
134	 -0.00116597	 -0.00214224	  0.00106224	 -0.00022144	 -0.00076541	 -0.00165518	 -0.00115193	 -0.00396001
134	 -0.00013897	 -0.00034964	  0.00026875	  0.00092904	 -0.00116005	  0.00046026	  0.00209465	 -0.00059585
135	 -0.00041472	 -0.00285857	  0.00156112	 -0.00007478	 -0.00212088	 -0.00082337	 -0.00037532	 -0.00416821
135	 -0.00016329	 -0.00037794	  0.00033689	  0.00031706	 -0.00113890	 -0.00076137	 -0.00086497	 -0.00075513
136	 -0.00076521	 -0.00275746	  0.00149133	 -0.00021789	 -0.00184166	  0.00016929	 -0.00205798	 -0.00285834
136	 -0.00005722	 -0.00050452	  0.00001998	  0.00095600	 -0.00117588	 -0.00043856	  0.00115922	 -0.00158600
137	 -0.00114363	 -0.00294093	  0.00214901	 -0.00046869	 -0.00150621	 -0.00069956	 -0.00011636	 -0.00366506
137	 -0.00010512	 -0.00051090	  0.00034291	  0.00026406	 -0.00107086	 -0.00041352	  0.00029165	 -0.00169853
138	 -0.00103591	 -0.00359560	  0.00026566	 -0.00246796	 -0.00073447	 -0.00129539	 -0.00236567	 -0.00717539
138	 -0.00022775	 -0.00066969	  0.00020062	  0.00189302	 -0.00251440	  0.00078102	  0.00053114	  0.00095788
139	 -0.00026950	 -0.00428536	  0.00003905	 -0.00125400	 -0.00169511	 -0.00035952	 -0.00166671	 -0.00518517
139	 -0.00003638	 -0.00066028	  0.00001199	  0.00109100	 -0.00068127	  0.00091999	  0.00372547	  0.00012248
140	 -0.00022294	 -0.00447309	  0.00069158	 -0.00228976	 -0.00180900	 -0.00021274	 -0.00354973	 -0.00551683
140	  0.00005386	 -0.00074078	  0.00013678	  0.00163501	 -0.00156948	 -0.00032326	  0.00193489	  0.00005128
141	 -0.00053097	 -0.00430541	  0.00019985	 -0.00425098	  0.00072413	  0.00024490	 -0.00302814	 -0.00727157
141	  0.00000763	 -0.00068142	  0.00022381	  0.00085103	 -0.00215009	 -0.00034019	  0.00275457	  0.00007949
142	 -0.00048214	 -0.00433716	  0.00029912	 -0.00375996	 -0.00055517	  0.00028491	 -0.00296758	 -0.00746210
142	  0.00007923	 -0.00081747	  0.00013375	  0.00189001	 -0.00065683	  0.00053690	  0.00415576	  0.00092058
143	 -0.00050411	 -0.00399035	  0.00077163	 -0.00600470	  0.00163846	 -0.00049624	 -0.00439152	 -0.00821512
143	  0.00000387	 -0.00060780	  0.00036688	  0.00032307	 -0.00132678	 -0.00058033	  0.00070629	 -0.00115048
144	 -0.00032607	 -0.00383908	  0.00075239	 -0.00451172	  0.00020591	  0.00136230	 -0.00040291	 -0.00644383
144	 -0.00018671	 -0.00074707	  0.00020401	 -0.00003698	 -0.00053595	  0.00032512	  0.00176954	 -0.00231302
145	 -0.00024376	 -0.00336751	  0.00031703	 -0.00641095	  0.00174908	  0.00043232	 -0.00136545	 -0.00611404
145	 -0.00012033	 -0.00052797	  0.00036695	  0.00014807	 -0.00097015	 -0.00080852	  0.00041449	 -0.00232447
146	 -0.00038760	 -0.00299286	  0.00010973	 -0.00665099	  0.00283172	  0.00108050	 -0.00055455	 -0.00527455
146	 -0.00038322	 -0.00050466	  0.00060551	 -0.00084282	 -0.00007027	 -0.00034024	  0.00005091	 -0.00353900
147	 -0.00022044	 -0.00268494	  0.00065264	 -0.00710779	  0.00308640	  0.00082285	 -0.00147861	 -0.00366077
147	 -0.00005413	 -0.00033426	  0.00024017	 -0.00072797	  0.00048721	 -0.00058454	  0.00233878	 -0.00325957
148	 -0.00015445	 -0.00207384	  0.00071923	 -0.00865674	  0.00372291	  0.00184967	 -0.00077753	 -0.00607875
148	  0.00008313	 -0.00015522	  0.00070826	 -0.00178375	  0.00037621	 -0.00065343	  0.00090298	 -0.00465836
149	  0.00006846	 -0.00143583	  0.00060683	 -0.00960282	  0.00607504	  0.00216444	 -0.00012784	 -0.00601456
149	  0.00001379	 -0.00026457	  0.00012327	 -0.00215699	  0.00034462	 -0.00099619	  0.00135469	 -0.00622725
149	  0.00007005	 -0.00001100	  0.00011607	 -0.00059599	 -0.00012413	 -0.00050329	  0.00002472	 -0.00253750
150	  0.00006472	 -0.00098873	  0.00016883	 -0.01086199	  0.00613468	  0.00025373	 -0.00429740	 -0.00475889
150	  0.00019825	 -0.00023333	  0.00056754	 -0.00094384	 -0.00000148	  0.00084480	  0.00479060	 -0.00365478
150	 -0.00010807	  0.00008906	  0.00004403	 -0.00077800	  0.00033327	  0.00022516	  0.00005295	 -0.00169333
151	  0.00046106	 -0.00031814	  0.00059322	 -0.01217683	  0.00781278	  0.00061406	 -0.00128777	 -0.00507882
151	  0.00006008	 -0.00007009	  0.00022125	 -0.00112798	  0.00058247	  0.00083707	  0.00279753	 -0.00454685
152	  0.00015380	  0.00053000	  0.00000304	 -0.01321100	  0.00830674	 -0.00005571	 -0.00230154	 -0.00093245
152	  0.00025540	  0.00014845	  0.00002708	 -0.00304700	  0.00161793	 -0.00017449	  0.00283429	 -0.00846221
152	  0.00000400	  0.00003207	  0.00009921	 -0.00213800	  0.00146010	  0.00021260	  0.00126929	 -0.00434143
153	 -0.00024416	  0.00133460	  0.00118690	 -0.01339931	  0.00931960	 -0.00109762	 -0.00652382	  0.00051758
153	 -0.00004902	  0.00030881	  0.00050135	 -0.00269387	  0.00160703	 -0.00060042	  0.00032272	 -0.00526214
154	  0.00003882	  0.00230092	  0.00027088	 -0.01431296	  0.01087149	  0.00041585	  0.00056940	  0.00243680
154	  0.00007445	  0.00046822	  0.00022707	 -0.00470597	  0.00285323	 -0.00088883	  0.00129077	 -0.00725630
154	  0.00029863	  0.00026762	  0.00036800	 -0.00270993	  0.00152939	 -0.00067527	  0.00090620	 -0.00579777
154	  0.00008507	  0.00001401	  0.00004102	 -0.00056400	 -0.00018913	 -0.00045525	  0.00058738	 -0.00159766
155	 -0.00040915	  0.00343306	  0.00018503	 -0.01635198	  0.01274450	  0.00057813	 -0.00317547	  0.00358501
155	 -0.00000705	  0.00055114	  0.00024495	 -0.00388197	  0.00250970	 -0.00016726	  0.00233481	 -0.00579468
155	  0.00016918	  0.00026464	  0.00030881	 -0.00261095	  0.00144064	  0.00039247	  0.00076225	 -0.00438852
156	 -0.00039650	  0.00410773	  0.00084195	 -0.01656865	  0.01369547	 -0.00053928	 -0.00454879	  0.00399663
156	  0.00008701	  0.00097719	  0.00014592	 -0.00632199	  0.00397514	  0.00005175	  0.00118858	 -0.00857746
156	  0.00017126	  0.00031083	  0.00069612	 -0.00304576	  0.00212622	  0.00036559	  0.00159337	 -0.00560755
156	  0.00004806	  0.00011622	  0.00013126	 -0.00197899	  0.00101200	  0.00004923	  0.00045295	 -0.00388565
157	 -0.00086234	  0.00503554	  0.00148817	 -0.01624391	  0.01361523	 -0.00133055	 -0.00450591	  0.00815019
157	  0.00013068	  0.00138824	  0.00028452	 -0.00883996	  0.00653476	  0.00001699	  0.00159621	 -0.01220244
157	  0.00024947	  0.00037840	  0.00041163	 -0.00395792	  0.00167636	  0.00067034	  0.00090935	 -0.00796275
157	 -0.00015836	  0.00029054	  0.00026553	 -0.00199096	  0.00068443	  0.00026535	 -0.00075374	 -0.00285529
158	 -0.00061012	  0.00554822	  0.00120090	 -0.01657029	  0.01340709	 -0.00175695	 -0.00115353	  0.00878700
158	 -0.00005908	  0.00166849	  0.00007873	 -0.00928100	  0.00699891	  0.00064957	  0.00077369	 -0.01126902
158	  0.00014922	  0.00045792	  0.00055945	 -0.00437284	  0.00274064	  0.00062727	  0.00219983	 -0.00755920
158	 -0.00001409	  0.00010922	  0.00046793	 -0.00198289	  0.00080106	  0.00112661	  0.00133961	 -0.00434149
159	 -0.00068443	  0.00684222	  0.00175991	 -0.01642648	  0.01378094	 -0.00141815	 -0.00275855	  0.01234479
159	  0.00008947	  0.00212228	  0.00030954	 -0.01142695	  0.00844856	  0.00007022	 -0.00041322	 -0.01289419
159	  0.00000740	  0.00059093	  0.00088239	 -0.00497361	  0.00418413	  0.00191821	  0.00353568	 -0.00890593
159	 -0.00016329	  0.00010629	  0.00016040	 -0.00247399	  0.00132910	  0.00114605	  0.00083195	 -0.00619013
160	 -0.00038926	  0.00797798	  0.00031762	 -0.01768595	  0.01397705	 -0.00048494	 -0.00273998	  0.01235507
160	  0.00045123	  0.00227119	  0.00039284	 -0.01233292	  0.00828615	 -0.00011058	 -0.00100823	 -0.01559404
160	  0.00011236	  0.00081227	  0.00006844	 -0.00649900	  0.00464016	 -0.00011141	  0.00123914	 -0.01173605
160	  0.00005203	  0.00032329	  0.00007028	 -0.00401600	  0.00192973	  0.00032243	 -0.00030409	 -0.00786852
160	  0.00000496	  0.00022646	  0.00006113	 -0.00204700	  0.00202315	  0.00011912	  0.00143080	 -0.00401147
161	 -0.00035306	  0.00884486	  0.00091983	 -0.01720458	  0.01509832	 -0.00159814	 -0.00218953	  0.01620742
161	  0.00040300	  0.00252450	  0.00008810	 -0.01249200	  0.00975278	  0.00055073	  0.00080235	 -0.01207217
161	  0.00029301	  0.00079188	  0.00002214	 -0.00614900	  0.00463247	 -0.00073563	  0.00069885	 -0.01031191
161	 -0.00006416	  0.00019459	  0.00036506	 -0.00289693	  0.00218197	  0.00097261	  0.00171834	 -0.00577778
161	 -0.00009309	  0.00012718	  0.00026542	 -0.00159896	  0.00059588	 -0.00029263	 -0.00094482	 -0.00327426
162	 -0.00052283	  0.01000807	  0.00070683	 -0.01672975	  0.01411532	 -0.00119073	 -0.00095845	  0.02055545
162	 -0.00006216	  0.00302693	  0.00085673	 -0.01486064	  0.01308226	 -0.00018580	 -0.00149665	 -0.01148365
162	  0.00019745	  0.00084149	  0.00024156	 -0.00646997	  0.00521966	 -0.00047734	  0.00229038	 -0.01067453
162	  0.00016114	  0.00031495	  0.00002207	 -0.00302000	  0.00174727	  0.00023274	 -0.00049952	 -0.00553561
163	 -0.00043974	  0.01077908	  0.00041967	 -0.01588791	  0.01447757	 -0.00108421	 -0.00022599	  0.02271068
163	  0.00011150	  0.00319092	  0.00112551	 -0.01466538	  0.01306829	 -0.00123460	  0.00036400	 -0.01321477
163	  0.00003471	  0.00117583	  0.00024484	 -0.00751997	  0.00572311	 -0.00030692	  0.00099429	 -0.01010645
163	  0.00020857	  0.00039349	  0.00002911	 -0.00379400	  0.00187814	 -0.00040348	  0.00058535	 -0.00772305
163	  0.00011514	  0.00013121	  0.00012121	 -0.00170199	  0.00071323	 -0.00011210	  0.00030469	 -0.00320538
164	 -0.00051333	  0.01112617	  0.00052678	 -0.01666686	  0.01503616	 -0.00086724	 -0.00352688	  0.02268799
164	  0.00005905	  0.00345862	  0.00110211	 -0.01461640	  0.01295586	 -0.00139344	 -0.00194946	 -0.01367746
164	 -0.00006033	  0.00133644	  0.00006954	 -0.00780800	  0.00672146	  0.00026453	  0.00281287	 -0.00964082
164	  0.00013213	  0.00031620	  0.00057432	 -0.00403484	  0.00267436	  0.00074554	  0.00175882	 -0.00770137
164	  0.00015116	  0.00009513	  0.00041687	 -0.00207691	  0.00124859	  0.00000754	  0.00173115	 -0.00412486
165	 -0.00056558	  0.01144308	  0.00163122	 -0.01668869	  0.01461619	 -0.00172015	 -0.00464711	  0.02222565
165	 -0.00010726	  0.00376546	  0.00152899	 -0.01503685	  0.01279530	 -0.00074040	 -0.00311123	 -0.01504477
165	  0.00014232	  0.00157878	  0.00015627	 -0.00810999	  0.00584044	 -0.00047394	  0.00128741	 -0.00923509
165	  0.00033244	  0.00045260	  0.00036037	 -0.00379094	  0.00298332	 -0.00001800	  0.00174745	 -0.00562165
165	  0.00007619	  0.00039996	  0.00019747	 -0.00236798	  0.00112458	 -0.00043625	 -0.00064136	 -0.00285892
166	 -0.00048050	  0.01157819	  0.00007314	 -0.01556000	  0.01459918	 -0.00028336	 -0.00133928	  0.02343213
166	 -0.00002192	  0.00397170	  0.00184562	 -0.01604632	  0.01446569	 -0.00190179	 -0.00204702	 -0.01614312
166	  0.00007556	  0.00185699	  0.00041133	 -0.00808992	  0.00709814	  0.00069855	  0.00044780	 -0.00816922
166	  0.00026441	  0.00050079	  0.00062946	 -0.00390580	  0.00197419	  0.00082847	  0.00154608	 -0.00650572
166	 -0.00003623	  0.00030685	  0.00037405	 -0.00281793	  0.00178913	  0.00024603	 -0.00072563	 -0.00503674
167	 -0.00034356	  0.01184710	  0.00073334	 -0.01682674	  0.01497710	 -0.00127322	 -0.00320671	  0.01806837
167	  0.00002697	  0.00460011	  0.00159268	 -0.01675275	  0.01478040	 -0.00270242	 -0.00150399	 -0.01319264
167	  0.00060591	  0.00209579	  0.00007063	 -0.00894500	  0.00716099	 -0.00093285	  0.00271234	 -0.00960863
167	 -0.00013769	  0.00078430	  0.00036049	 -0.00414594	  0.00325611	  0.00108567	  0.00085671	 -0.00540704
167	  0.00018512	  0.00038728	  0.00019663	 -0.00321898	  0.00219606	 -0.00002150	  0.00029429	 -0.00518273
168	 -0.00053517	  0.01206133	  0.00059200	 -0.01688383	  0.01441502	 -0.00062392	 -0.00392205	  0.01819308
168	  0.00003400	  0.00493952	  0.00091592	 -0.01629359	  0.01429770	 -0.00029672	 -0.00106375	 -0.01151496
168	  0.00001875	  0.00219717	  0.00058463	 -0.00963183	  0.00831253	 -0.00092371	  0.00026256	 -0.01003053
168	  0.00018933	  0.00103644	  0.00023020	 -0.00520497	  0.00404699	 -0.00033567	  0.00134285	 -0.00757328
168	 -0.00022335	  0.00036828	  0.00048353	 -0.00316988	  0.00267092	  0.00112786	  0.00121024	 -0.00544805
168	  0.00013805	  0.00011917	  0.00002303	 -0.00147500	  0.00088229	  0.00029946	  0.00005710	 -0.00286124
169	 -0.00043031	  0.01238004	  0.00131083	 -0.01741416	  0.01569717	 -0.00170491	 -0.00396768	  0.01957647
169	 -0.00015787	  0.00530521	  0.00215271	 -0.01612172	  0.01335611	 -0.00152996	 -0.00453532	 -0.00840766
169	  0.00072689	  0.00245713	  0.00014846	 -0.00986499	  0.00878880	 -0.00069052	  0.00207996	 -0.01046652
169	  0.00025256	  0.00074475	  0.00006433	 -0.00506100	  0.00408067	 -0.00034649	  0.00227476	 -0.00749902
169	  0.00029166	  0.00068254	  0.00046583	 -0.00391789	  0.00329501	 -0.00022636	  0.00155362	 -0.00567918
169	  0.00004905	  0.00011517	  0.00011417	 -0.00149399	  0.00075614	 -0.00004698	  0.00004843	 -0.00343813
170	 -0.00033781	  0.01264435	  0.00031723	 -0.01648595	  0.01461189	  0.00000757	 -0.00214094	  0.02111378
170	 -0.00024216	  0.00588949	  0.00120962	 -0.01456428	  0.01264448	  0.00026580	 -0.00331276	 -0.00485586
170	  0.00021937	  0.00267659	  0.00056565	 -0.01175584	  0.01121527	 -0.00103342	  0.00081253	 -0.01255118
170	 -0.00013480	  0.00132018	  0.00024734	 -0.00541297	  0.00498780	  0.00081061	  0.00010333	 -0.00522333
170	  0.00019132	  0.00056628	  0.00059752	 -0.00422182	  0.00265789	  0.00056195	  0.00184561	 -0.00790129
170	  0.00038959	  0.00012044	  0.00018656	 -0.00301398	  0.00155762	 -0.00038044	  0.00019082	 -0.00786166
170	  0.00009919	  0.00022831	  0.00059796	 -0.00160282	  0.00063992	  0.00017667	  0.00131941	 -0.00358519
171	 -0.00078468	  0.01339173	  0.00179721	 -0.01680841	  0.01292897	 -0.00246834	 -0.00510007	  0.02196193
171	  0.00024604	  0.00635041	  0.00077028	 -0.01593971	  0.01393178	 -0.00037961	 -0.00141566	 -0.00462618
171	  0.00012634	  0.00305568	  0.00059538	 -0.01071982	  0.01085205	  0.00048863	  0.00277781	 -0.00824103
171	  0.00054207	  0.00115376	  0.00018825	 -0.00663698	  0.00552556	 -0.00058290	  0.00223292	 -0.00879248
171	  0.00013466	  0.00093439	  0.00005727	 -0.00471000	  0.00399278	  0.00053073	  0.00091296	 -0.00506529
171	  0.00012640	  0.00038229	  0.00010135	 -0.00341599	  0.00192562	 -0.00044332	  0.00174014	 -0.00533829
171	 -0.00018243	  0.00034469	  0.00009319	 -0.00206500	  0.00059226	  0.00037873	 -0.00113898	 -0.00326220
172	 -0.00073434	  0.01315434	  0.00124629	 -0.01788224	  0.01421142	 -0.00386043	 -0.00628377	  0.01623022
172	 -0.00003758	  0.00651742	  0.00099331	 -0.01541251	  0.01382010	 -0.00092782	 -0.00013203	 -0.00387776
172	  0.00000807	  0.00305082	  0.00029739	 -0.01141196	  0.01128266	 -0.00032199	 -0.00103905	 -0.00947718
172	  0.00010450	  0.00125513	  0.00030547	 -0.00809495	  0.00768801	  0.00074940	  0.00158608	 -0.01099772
172	  0.00052777	  0.00081583	  0.00027534	 -0.00487096	  0.00298840	  0.00056557	  0.00146564	 -0.00677141
172	  0.00013217	  0.00035774	  0.00061113	 -0.00184181	  0.00066583	 -0.00065060	 -0.00025906	 -0.00124330
173	 -0.00056430	  0.01253816	  0.00045158	 -0.01235490	  0.01050591	 -0.00025547	  0.00207783	  0.02080248
173	 -0.00016195	  0.00634192	  0.00136142	 -0.01500109	  0.01392493	  0.00001861	 -0.00159973	 -0.00348203
173	  0.00012252	  0.00337867	  0.00034414	 -0.01202394	  0.01111459	 -0.00016577	  0.00014239	 -0.01104382
173	  0.00018091	  0.00138591	  0.00085560	 -0.00653964	  0.00650877	  0.00093666	  0.00142612	 -0.00707941
173	  0.00009879	  0.00096815	  0.00016069	 -0.00427099	  0.00241636	  0.00024767	 -0.00028824	 -0.00440269
174	 -0.00065058	  0.01195068	  0.00011701	 -0.01721699	  0.01408945	 -0.00110769	 -0.00452208	  0.01005879
174	  0.00014715	  0.00649861	  0.00009957	 -0.01578700	  0.01395845	  0.00086021	 -0.00053540	 -0.00311162
174	 -0.00001214	  0.00366668	  0.00072241	 -0.01164074	  0.01055316	 -0.00097084	 -0.00092914	 -0.00562166
174	  0.00020529	  0.00152594	  0.00018873	 -0.00916098	  0.00778920	  0.00085731	  0.00377483	 -0.01275535
174	 -0.00005364	  0.00096627	  0.00056912	 -0.00548284	  0.00435992	  0.00002567	 -0.00010397	 -0.00680425
174	  0.00011739	  0.00071333	  0.00040229	 -0.00320592	  0.00136211	 -0.00064261	 -0.00027776	 -0.00311907
175	 -0.00022321	  0.01116129	  0.00057327	 -0.01094484	  0.01062669	 -0.00067840	  0.00248570	  0.01477379
175	  0.00019848	  0.00644377	  0.00190569	 -0.01557921	  0.01337537	 -0.00161628	 -0.00526457	 -0.00473108
175	 -0.00012483	  0.00321233	  0.00032316	 -0.00976395	  0.00836150	 -0.00043694	  0.00109961	 -0.00319306
175	  0.00036341	  0.00154867	  0.00044641	 -0.00763990	  0.00560582	  0.00002266	  0.00157404	 -0.00852144
175	  0.00016925	  0.00085927	  0.00032927	 -0.00386995	  0.00380672	  0.00004944	  0.00213156	 -0.00425186
175	  0.00014358	  0.00045297	  0.00000301	 -0.00434600	  0.00295384	 -0.00082859	  0.00034651	 -0.00801354
175	  0.00002774	  0.00027858	  0.00030364	 -0.00209495	  0.00171821	  0.00129323	  0.00072646	 -0.00390490
176	 -0.00077350	  0.01057981	  0.00105776	 -0.01111645	  0.00922332	 -0.00307888	 -0.00303819	  0.01325633
176	  0.00019383	  0.00558567	  0.00195161	 -0.01312112	  0.01181581	 -0.00116707	 -0.00498726	 -0.00258292
176	  0.00023775	  0.00339329	  0.00117785	 -0.01090631	  0.00936463	 -0.00129503	  0.00044618	 -0.00562632
176	 -0.00001317	  0.00181971	  0.00000705	 -0.00643300	  0.00558392	  0.00008048	  0.00162441	 -0.00428974
176	  0.00035870	  0.00101827	  0.00028522	 -0.00429196	  0.00473420	  0.00043622	  0.00206433	 -0.00422645
176	  0.00028380	  0.00056236	  0.00059768	 -0.00449182	  0.00290204	 -0.00001434	  0.00232057	 -0.00815019
176	  0.00031185	  0.00032987	  0.00012732	 -0.00251199	  0.00109658	 -0.00137058	 -0.00083272	 -0.00420660
177	 -0.00055586	  0.01044052	  0.00034914	 -0.01184894	  0.01080144	 -0.00159260	 -0.00385758	  0.01144387
177	  0.00006219	  0.00580979	  0.00094954	 -0.01320656	  0.01058657	 -0.00026543	 -0.00432291	 -0.00424105
177	 -0.00000997	  0.00376928	  0.00009994	 -0.00935900	  0.00887704	 -0.00037943	  0.00053509	 -0.00212070
177	  0.00022387	  0.00181866	  0.00002116	 -0.00751400	  0.00666712	 -0.00090567	  0.00199795	 -0.00732722
177	  0.00032180	  0.00125000	  0.00009252	 -0.00562500	  0.00415546	 -0.00096706	  0.00209454	 -0.00447798
177	 -0.00002340	  0.00074514	  0.00027315	 -0.00422596	  0.00331005	  0.00024112	 -0.00078532	 -0.00584128
177	  0.00015083	  0.00035882	  0.00069078	 -0.00257276	  0.00163914	  0.00156115	  0.00202679	 -0.00420157
178	 -0.00150055	  0.00967297	  0.00033472	 -0.01110994	  0.00872136	 -0.00161078	 -0.00547427	  0.01309459
178	 -0.00006421	  0.00612404	  0.00141591	 -0.01194101	  0.01090379	  0.00040964	 -0.00161943	  0.00104442
178	  0.00006275	  0.00380873	  0.00011937	 -0.01147899	  0.01058443	 -0.00056878	  0.00022449	 -0.00621525
178	  0.00025601	  0.00200878	  0.00027515	 -0.00781896	  0.00667617	 -0.00012984	  0.00060716	 -0.00574904
178	  0.00002562	  0.00130145	  0.00015489	 -0.00572499	  0.00479236	  0.00046741	  0.00162643	 -0.00566594
178	 -0.00007101	  0.00051569	  0.00036321	 -0.00333393	  0.00304401	 -0.00038137	  0.00026953	 -0.00427625
179	 -0.00111106	  0.00894321	  0.00115106	 -0.01134535	  0.00868444	 -0.00183976	 -0.00177436	  0.00573993
179	 -0.00012180	  0.00567646	  0.00054875	 -0.01048585	  0.01037433	  0.00100693	  0.00212282	  0.00063841
179	  0.00000539	  0.00385500	  0.00111241	 -0.01115339	  0.00940426	 -0.00148592	 -0.00050562	 -0.00425666
179	 -0.00026476	  0.00196132	  0.00066357	 -0.00688078	  0.00671266	  0.00072053	  0.00105565	 -0.00391238
179	  0.00025995	  0.00138712	  0.00015792	 -0.00582699	  0.00425169	 -0.00054685	  0.00069525	 -0.00547765
179	  0.00020969	  0.00095865	  0.00000201	 -0.00484700	  0.00363361	  0.00058885	  0.00199544	 -0.00672678
179	 -0.00012879	  0.00082579	  0.00007726	 -0.00339400	  0.00302022	 -0.00038755	 -0.00148887	 -0.00387160
180	 -0.00123880	  0.00774523	  0.00249678	 -0.01152492	  0.00854102	 -0.00382518	 -0.00480099	  0.00153145
180	 -0.00031991	  0.00480220	  0.00012026	 -0.01046199	  0.00908815	  0.00060222	  0.00230828	 -0.00094251
180	 -0.00029291	  0.00294688	  0.00147668	 -0.00858592	  0.00891739	 -0.00081001	 -0.00123715	 -0.00305339
180	 -0.00059783	  0.00192240	  0.00096098	 -0.00622754	  0.00578739	  0.00036575	 -0.00173448	 -0.00382654
180	 -0.00006882	  0.00133469	  0.00030731	 -0.00427895	  0.00382947	  0.00028103	 -0.00102437	 -0.00291186
181	 -0.00054049	  0.00638361	  0.00167507	 -0.01198361	  0.00785611	 -0.00244733	  0.00068184	 -0.00364518
181	 -0.00021996	  0.00400138	  0.00101201	 -0.00989549	  0.00896741	 -0.00033126	  0.00143233	 -0.00411874
181	 -0.00030048	  0.00272941	  0.00159656	 -0.00911674	  0.00767218	 -0.00048859	 -0.00315740	 -0.00671169
181	 -0.00020617	  0.00204133	  0.00028258	 -0.00557896	  0.00517106	  0.00073967	  0.00164630	 -0.00150206
181	  0.00003448	  0.00144531	  0.00032889	 -0.00574495	  0.00468114	  0.00075279	 -0.00032463	 -0.00391313
181	  0.00020944	  0.00096499	  0.00038061	 -0.00422193	  0.00356865	  0.00110602	  0.00214901	 -0.00416112
181	 -0.00021042	  0.00072819	  0.00055175	 -0.00317285	  0.00265636	 -0.00012185	 -0.00141430	 -0.00282837
182	 -0.00092498	  0.00499410	  0.00095674	 -0.00600255	  0.00477236	 -0.00240799	 -0.00012572	  0.00571513
182	 -0.00022155	  0.00336418	  0.00202260	 -0.00672297	  0.00602386	 -0.00131998	 -0.00104213	  0.00180991
182	 -0.00023688	  0.00197687	  0.00045553	 -0.00555290	  0.00472519	 -0.00011377	 -0.00147461	 -0.00297300
182	 -0.00000386	  0.00147966	  0.00051632	 -0.00450287	  0.00430241	  0.00006307	  0.00072260	 -0.00108932
183	 -0.00058189	  0.00486003	  0.00123135	 -0.01002825	  0.00716286	 -0.00161897	 -0.00298404	 -0.00433156
183	 -0.00018743	  0.00330455	  0.00020855	 -0.00744198	  0.00540311	 -0.00050085	 -0.00273612	 -0.00210344
183	 -0.00005695	  0.00217812	  0.00108607	 -0.00742741	  0.00663304	 -0.00114062	 -0.00051807	 -0.00615676
183	 -0.00008140	  0.00169360	  0.00115995	 -0.00513033	  0.00423360	 -0.00096886	  0.00016318	 -0.00344270
184	  0.00097019	  0.00411710	  0.00196571	 -0.00849808	  0.00592207	  0.00475698	  0.00246436	 -0.00097811
184	 -0.00015997	  0.00326718	  0.00070340	 -0.00767375	  0.00795418	  0.00410203	 -0.00073245	  0.00087216
184	  0.00019109	  0.00196933	  0.00028738	 -0.00826496	  0.00754312	 -0.00076951	  0.00075271	 -0.00658608
184	  0.00019373	  0.00151783	  0.00027843	 -0.00512396	  0.00460458	 -0.00003345	 -0.00155149	 -0.00233157
185	  0.00117155	  0.00321125	  0.00233185	 -0.00808130	  0.00784507	  0.00793227	  0.00206696	  0.00027074
185	  0.00022224	  0.00188018	  0.00145769	 -0.00664594	  0.00594211	  0.00302974	  0.00059434	 -0.00338140
185	  0.00030761	  0.00139379	  0.00013475	 -0.00555699	  0.00508117	 -0.00046024	 -0.00009686	 -0.00604864
185	 -0.00019002	  0.00097575	  0.00023815	 -0.00482397	  0.00365840	  0.00105496	  0.00045182	 -0.00542253
185	 -0.00034134	  0.00102509	  0.00035673	 -0.00484794	  0.00410841	  0.00142034	  0.00076711	 -0.00429262
185	 -0.00025793	  0.00086237	  0.00030517	 -0.00381895	  0.00369972	  0.00134627	 -0.00035179	 -0.00411836
186	  0.00083106	  0.00061058	  0.00042054	 -0.00365791	  0.00287043	  0.00221791	 -0.00126344	 -0.00341417
186	  0.00035148	  0.00070111	  0.00016952	 -0.00309099	  0.00113242	  0.00046764	  0.00124151	 -0.00041264
187	  0.00048392	  0.00067738	  0.00059836	 -0.00393982	  0.00386387	  0.00227226	 -0.00103865	 -0.00242282
188	  0.00010441	  0.00159419	  0.00096943	 -0.00457353	  0.00434456	  0.00136343	 -0.00276744	 -0.00025710
189	  0.00070925	  0.00324541	  0.00313914	 -0.00450310	  0.00394106	  0.00598530	 -0.00129371	  0.00159183
189	  0.00032221	  0.00232621	  0.00177753	 -0.00592343	  0.00493902	  0.00183762	  0.00037826	 -0.00049898
190	  0.00162655	  0.00349491	  0.00554162	 -0.00624174	  0.00445833	  0.00682224	  0.00106209	  0.00105427
190	  0.00062522	  0.00273444	  0.00479627	 -0.00672358	  0.00606927	  0.00600536	  0.00444444	 -0.00092846
190	  0.00041915	  0.00214501	  0.00205733	 -0.00599490	  0.00561241	  0.00207794	  0.00064638	 -0.00201207
190	  0.00015762	  0.00158398	  0.00172919	 -0.00646951	  0.00599751	  0.00075922	  0.00093864	 -0.00532957
190	  0.00055594	  0.00120675	  0.00125768	 -0.00451321	  0.00334389	 -0.00063468	  0.00276859	 -0.00344332
190	  0.00062765	  0.00089062	  0.00117241	 -0.00376232	  0.00239198	 -0.00083736	  0.00283057	 -0.00398733
190	  0.00017202	  0.00084040	  0.00066499	 -0.00299578	  0.00237038	 -0.00042470	  0.00085675	 -0.00182353
191	  0.00108643	  0.00165505	  0.00325080	 -0.00516674	  0.00394922	  0.00563089	  0.00017029	 -0.00033312
191	  0.00037111	  0.00116421	  0.00232110	 -0.00434932	  0.00513373	  0.00199655	  0.00065718	 -0.00245848
191	  0.00046053	  0.00105440	  0.00152693	 -0.00388484	  0.00387447	  0.00104094	 -0.00000202	 -0.00261416
192	  0.00066567	  0.00075823	  0.00192489	 -0.00462016	  0.00456041	  0.00243399	  0.00266576	 -0.00394355
192	  0.00031435	  0.00073066	  0.00124149	 -0.00280923	  0.00292061	  0.00209651	  0.00305079	 -0.00089310
193	  0.00044762	  0.00048447	  0.00109141	 -0.00404341	  0.00299023	  0.00079045	  0.00038445	 -0.00463965
194	  0.00032674	  0.00082447	  0.00229675	 -0.00511438	  0.00501252	  0.00268017	  0.00120055	 -0.00236354
194	  0.00010162	  0.00054707	  0.00149306	 -0.00405989	  0.00350555	  0.00046109	  0.00039508	 -0.00326786
195	  0.00051405	  0.00066988	  0.00099354	 -0.00356151	  0.00313694	  0.00125056	  0.00089117	 -0.00079305
196	 -0.00019509	  0.00097687	  0.00142470	 -0.00470399	  0.00311140	  0.00017122	  0.00150420	 -0.00337500
196	  0.00068971	  0.00067600	  0.00077792	 -0.00374770	  0.00314551	  0.00035878	 -0.00068965	 -0.00357971
197	 -0.00009875	  0.00071721	  0.00009128	 -0.00307400	  0.00293906	 -0.00027859	  0.00076231	 -0.00220650
198	 -0.00031539	  0.00041561	  0.00051880	 -0.00347087	  0.00241304	  0.00065452	 -0.00124233	 -0.00191749
199	 -0.00006712	  0.00036412	  0.00069806	 -0.00294676	  0.00141265	  0.00073816	  0.00026662	 -0.00174315
200	  0.00047404	  0.00054341	  0.00098740	 -0.00344451	  0.00361168	  0.00077522	  0.00013929	 -0.00133557
201	  0.00017309	  0.00034639	  0.00088238	 -0.00156061	  0.00117211	  0.00081130	  0.00386641	  0.00011245
202	  0.00005619	  0.00025155	  0.00001503	 -0.00220000	  0.00172679	 -0.00065747	 -0.00318556	 -0.00260277
203	 -0.00011286	  0.00055569	  0.00047841	 -0.00294589	  0.00231277	  0.00009538	 -0.00108598	 -0.00149983
204	  0.00009917	  0.00033285	  0.00057958	 -0.00273283	  0.00142061	  0.00046910	  0.00060635	 -0.00268728
205	 -0.00005982	  0.00042033	  0.00125977	 -0.00299621	  0.00299091	  0.00083927	  0.00052892	 -0.00311210
206	  0.00005808	  0.00039104	  0.00005314	 -0.00266200	  0.00187299	 -0.00002697	 -0.00082746	 -0.00371897
207	 -0.00017506	  0.00024151	  0.00024556	 -0.00228997	  0.00242558	  0.00008961	 -0.00047567	 -0.00297666
208	  0.00014620	  0.00028849	  0.00057815	 -0.00198283	  0.00160714	  0.00007808	  0.00004755	 -0.00091579
209	 -0.00016788	  0.00055326	  0.00029670	 -0.00236196	  0.00281554	 -0.00038374	 -0.00112332	 -0.00278868
210	  0.00008971	  0.00037983	  0.00008018	 -0.00220200	  0.00103118	  0.00113157	 -0.00087485	 -0.00221496
211	  0.00008197	  0.00040175	  0.00063326	 -0.00199380	  0.00188729	  0.00074267	 -0.00026161	 -0.00066029
212	 -0.00019556	  0.00058244	  0.00024120	 -0.00083997	  0.00076339	 -0.00102404	 -0.00026574	  0.00118379
213	  0.00011643	  0.00035657	  0.00014324	 -0.00164999	  0.00095069	 -0.00082422	 -0.00073727	 -0.00171053
214	  0.00010723	  0.00038159	  0.00000300	 -0.00155500	  0.00098654	 -0.00043668	  0.00010606	 -0.00056683
215	  0.00010796	  0.00018401	  0.00075638	 -0.00050571	  0.00017619	  0.00118974	 -0.00039025	  0.00015725
216	  0.00000110	  0.00028316	  0.00041923	 -0.00055791	  0.00091119	 -0.00077081	  0.00222683	 -0.00090873
217	 -0.00012909	  0.00006600	  0.00040732	 -0.00079392	 -0.00009842	 -0.00082962	 -0.00241787	 -0.00174741
218	  0.00017751	  0.00043120	  0.00053837	 -0.00068986	  0.00137419	  0.00140471	  0.00186134	  0.00071488
219	 -0.00032414	  0.00035902	  0.00128355	 -0.00120918	  0.00066002	 -0.00138452	 -0.00426434	 -0.00234226
220	 -0.00022480	  0.00037295	  0.00119171	 -0.00059629	  0.00042607	 -0.00183360	 -0.00110765	  0.00044856
221	  0.00001809	 -0.00010005	  0.00034513	 -0.00038794	 -0.00004541	  0.00114743	  0.00108374	 -0.00079718
222	  0.00000190	  0.00025743	  0.00034457	 -0.00166594	  0.00172863	  0.00072981	  0.00025195	 -0.00279275
223	  0.00005990	  0.00019928	  0.00033550	 -0.00149394	  0.00183550	  0.00071869	  0.00039475	 -0.00263008
224	  0.00006721	  0.00063858	  0.00084770	 -0.00082364	 -0.00026813	 -0.00106865	 -0.00179360	  0.00041795
225	 -0.00025711	  0.00029929	  0.00008908	 -0.00090500	  0.00148926	  0.00095800	  0.00207895	 -0.00184047
226	 -0.00001896	  0.00024299	  0.00085004	 -0.00004364	 -0.00182907	 -0.00116550	 -0.00017658	 -0.00147312
227	  0.00010926	  0.00042086	  0.00052075	  0.00047514	 -0.00067125	 -0.00109813	  0.00190417	  0.00153837
228	  0.00002007	  0.00005896	  0.00106894	  0.00099457	 -0.00114124	 -0.00222357	 -0.00196494	 -0.00061466
229	  0.00011723	  0.00024884	  0.00042464	  0.00085909	 -0.00070501	 -0.00143946	  0.00012818	  0.00283370
230	 -0.00014798	  0.00023465	  0.00132811	  0.00067388	 -0.00045640	 -0.00128553	 -0.00130611	  0.00120524
231	  0.00007299	  0.00005601	  0.00062257	  0.00068719	 -0.00055896	 -0.00055227	  0.00090461	 -0.00204866
232	  0.00037848	  0.00001929	  0.00074631	 -0.00041472	 -0.00079975	 -0.00189519	 -0.00015908	 -0.00118467
233	  0.00013002	 -0.00001389	  0.00080148	  0.00065032	 -0.00081442	 -0.00118957	  0.00060207	 -0.00252812
234	  0.00027504	  0.00015122	  0.00165239	  0.00157837	 -0.00190420	 -0.00133375	 -0.00092788	  0.00146698
235	 -0.00000491	  0.00016187	  0.00025080	  0.00081403	  0.00037276	 -0.00025070	  0.00147481	 -0.00222645
236	  0.00004303	 -0.00002991	  0.00109540	  0.00145760	 -0.00221015	 -0.00125275	  0.00023952	  0.00031258
237	 -0.00025638	 -0.00030864	  0.00109574	  0.00206660	 -0.00209318	 -0.00228498	 -0.00050371	 -0.00154441
238	  0.00012159	 -0.00051270	  0.00162150	  0.00216032	 -0.00207540	 -0.00238847	  0.00111410	 -0.00357342
239	 -0.00032370	 -0.00117770	  0.00208350	  0.00168217	 -0.00325996	 -0.00308202	 -0.00354744	 -0.00615124
239	 -0.00034472	 -0.00077416	  0.00109727	  0.00157560	 -0.00230823	 -0.00169479	 -0.00305115	 -0.00355523
239	 -0.00026295	 -0.00046543	  0.00055814	  0.00153716	 -0.00138317	 -0.00052742	 -0.00046372	  0.00038143
240	 -0.00017793	 -0.00114670	  0.00270978	  0.00155768	 -0.00090740	 -0.00361492	  0.00049366	 -0.00516453
240	 -0.00022240	 -0.00126167	  0.00178198	  0.00057459	 -0.00143864	 -0.00194032	 -0.00143702	 -0.00492641
240	 -0.00024577	 -0.00074126	  0.00136303	  0.00144893	 -0.00211891	 -0.00218095	 -0.00178303	 -0.00134452
241	 -0.00006423	 -0.00165358	  0.00209423	  0.00275520	 -0.00316194	 -0.00221327	 -0.00051413	 -0.00424538
241	  0.00009888	 -0.00138038	  0.00057709	  0.00330617	 -0.00395376	 -0.00143098	  0.00038038	  0.00021761
242	 -0.00001609	 -0.00240137	  0.00406741	  0.00113028	 -0.00140788	 -0.00576180	 -0.00340912	 -0.00889582
242	  0.00005715	 -0.00195549	  0.00167621	  0.00226041	 -0.00257089	 -0.00160506	 -0.00018893	 -0.00408676
243	 -0.00028469	 -0.00429403	  0.00402580	 -0.00019690	 -0.00027165	 -0.00462085	 -0.00495341	 -0.02140034
243	 -0.00025063	 -0.00297423	  0.00115692	  0.00439067	 -0.00493940	 -0.00265262	 -0.00140904	 -0.00537154
243	 -0.00012362	 -0.00260515	  0.00046551	  0.00533911	 -0.00622145	 -0.00142050	  0.00037636	 -0.00210241
243	 -0.00064565	 -0.00168915	  0.00115083	  0.00449667	 -0.00443747	 -0.00036224	 -0.00455743	  0.00120019
243	 -0.00014014	 -0.00140957	  0.00060321	  0.00462518	 -0.00421353	 -0.00003230	 -0.00061209	  0.00275063
244	  0.00052525	 -0.00451304	  0.00074792	  0.00278428	 -0.00110995	 -0.00005501	  0.00163528	 -0.00798690
244	  0.00038648	 -0.00335854	  0.00036313	  0.00515707	 -0.00449079	  0.00014987	  0.00290542	 -0.00469130
244	 -0.00002406	 -0.00259123	  0.00073850	  0.00609427	 -0.00560811	 -0.00037952	 -0.00047769	  0.00013336
245	  0.00104703	 -0.00572629	  0.00033863	 -0.00185894	  0.00225363	 -0.00166185	 -0.00815304	 -0.02435704
245	  0.00060948	 -0.00503580	  0.00093976	  0.00131644	 -0.00371030	 -0.00232045	 -0.00318808	 -0.01747242
245	  0.00081343	 -0.00372666	  0.00061788	  0.00666819	 -0.00601113	 -0.00127126	  0.00345562	 -0.00603023
245	 -0.00002958	 -0.00310609	  0.00037896	  0.00802207	 -0.00694177	 -0.00120865	 -0.00017691	 -0.00024320
246	  0.00098914	 -0.00697278	  0.00150781	 -0.00849787	  0.00436928	 -0.00324612	 -0.00678826	 -0.03679639
246	  0.00039000	 -0.00516296	  0.00058226	 -0.00216683	  0.00033518	 -0.00266297	 -0.00499326	 -0.02430403
246	  0.00062496	 -0.00479106	  0.00046755	  0.00097111	 -0.00258147	 -0.00422968	  0.00051992	 -0.02118847
246	  0.00068600	 -0.00369577	  0.00039047	  0.00392308	 -0.00479721	 -0.00247318	  0.00075208	 -0.01380668
246	  0.00030151	 -0.00275533	  0.00006766	  0.00497000	 -0.00619602	 -0.00277463	 -0.00096384	 -0.00551236
246	  0.00015960	 -0.00275231	  0.00013712	  0.00641801	 -0.00647861	 -0.00136932	 -0.00270162	 -0.00251322
246	  0.00010037	 -0.00203581	  0.00046943	  0.00547211	 -0.00456835	 -0.00073383	 -0.00226927	  0.00155289
246	 -0.00006810	 -0.00175838	  0.00052581	  0.00606014	 -0.00477668	 -0.00119324	 -0.00128186	  0.00290255
246	  0.00015282	 -0.00156163	  0.00037155	  0.00660407	 -0.00538779	 -0.00100336	 -0.00311929	  0.00541425
246	  0.00006036	 -0.00164842	  0.00004069	  0.00763500	 -0.00652018	 -0.00090734	 -0.00020005	  0.00637414
246	  0.00014203	 -0.00166330	  0.00076854	  0.00710030	 -0.00503552	  0.00035558	  0.00304727	  0.00587057
246	  0.00025220	 -0.00133010	  0.00092922	  0.00836944	 -0.00778028	  0.00042118	  0.00331056	  0.01035699
246	 -0.00004867	 -0.00138362	  0.00130532	  0.00818186	 -0.00593045	  0.00073816	  0.00219048	  0.00964632
246	  0.00029290	 -0.00161032	  0.00108127	  0.00807059	 -0.00644010	  0.00006644	  0.00431039	  0.01083593
246	 -0.00061484	 -0.00103637	  0.00000893	  0.00833100	 -0.00546746	 -0.00055334	 -0.00025017	  0.01392783
246	 -0.00003904	 -0.00103279	  0.00038792	  0.00793008	 -0.00557328	  0.00121816	  0.00033640	  0.01234185
246	 -0.00025784	 -0.00063769	  0.00070434	  0.00804225	 -0.00545420	  0.00149114	  0.00051924	  0.01610805
246	 -0.00026638	 -0.00108021	  0.00027475	  0.00820104	 -0.00573182	  0.00062248	  0.00144126	  0.01353470
246	  0.00001134	 -0.00094270	  0.00000496	  0.00774900	 -0.00547061	  0.00039392	  0.00195656	  0.01253808
246	 -0.00032447	 -0.00107659	  0.00014003	  0.00692201	 -0.00416126	 -0.00047016	  0.00044899	  0.00864332
246	  0.00038635	 -0.00071768	  0.00109576	  0.00660860	 -0.00364685	  0.00176531	  0.00255273	  0.01429084
246	 -0.00040544	 -0.00063908	  0.00086521	  0.00668938	 -0.00417642	 -0.00155397	 -0.00011930	  0.01423470
246	  0.00040831	 -0.00060456	  0.00104333	  0.00639155	 -0.00403377	  0.00147136	  0.00348827	  0.01390064
246	 -0.00040306	 -0.00036467	  0.00031013	  0.00603305	 -0.00198241	  0.00117231	  0.00213048	  0.01253453
246	 -0.00014169	 -0.00054723	  0.00061586	  0.00672919	 -0.00338853	  0.00214646	  0.00323766	  0.01386968
246	 -0.00011697	 -0.00056116	  0.00024875	  0.00501703	 -0.00373671	  0.00180999	  0.00131805	  0.00915699
246	 -0.00013706	 -0.00034709	  0.00014322	  0.00546001	 -0.00455748	  0.00249273	  0.00150525	  0.00990238
246	 -0.00063655	 -0.00061710	  0.00086416	  0.00560338	 -0.00370960	 -0.00044031	 -0.00098845	  0.00885679
246	  0.00004416	 -0.00014630	  0.00043797	  0.00463410	 -0.00339085	  0.00099687	  0.00094013	  0.01200402
246	 -0.00048164	 -0.00051962	  0.00051041	  0.00312313	 -0.00258209	 -0.00030373	 -0.00175289	  0.00620698
247	  0.00130766	 -0.00772670	  0.00033228	 -0.00687595	  0.00652112	  0.00085674	 -0.01002840	 -0.03451244
247	  0.00088160	 -0.00623853	  0.00044052	  0.00109910	 -0.00058242	  0.00012960	 -0.00038319	 -0.02406867
247	  0.00025709	 -0.00505142	  0.00091007	  0.00541342	 -0.00600876	 -0.00249400	  0.00045101	 -0.01122353
247	  0.00008405	 -0.00389986	  0.00083348	  0.00902835	 -0.00956669	  0.00006338	  0.00119585	 -0.00130530
247	 -0.00018329	 -0.00310230	  0.00042508	  0.00922709	 -0.00874742	  0.00030543	  0.00081773	  0.00220772
247	 -0.00031766	 -0.00252471	  0.00109957	  0.00948361	 -0.00760387	  0.00178265	  0.00201124	  0.00641873
247	 -0.00031562	 -0.00226917	  0.00072842	  0.01040127	 -0.00778539	  0.00185003	  0.00134669	  0.00936605
247	 -0.00000709	 -0.00189510	  0.00082237	  0.01049834	 -0.00803867	  0.00127988	  0.00217298	  0.01186641
247	 -0.00032167	 -0.00171615	  0.00006837	  0.00922100	 -0.00577778	  0.00078140	 -0.00015725	  0.01129496
247	  0.00017383	 -0.00099822	  0.00048914	  0.00788412	 -0.00567906	  0.00168392	  0.00243766	  0.01232191
247	 -0.00019396	 -0.00117255	  0.00034821	  0.00800006	 -0.00579623	  0.00171524	  0.00114152	  0.01143792
247	 -0.00036705	 -0.00087901	  0.00020562	  0.00673202	 -0.00421965	  0.00025243	 -0.00003914	  0.01079433
247	  0.00007768	 -0.00072942	  0.00057436	  0.00634317	 -0.00355250	  0.00179456	  0.00436680	  0.01057058
247	 -0.00074625	 -0.00040879	  0.00013424	  0.00566401	 -0.00267470	  0.00114885	 -0.00046603	  0.01171525
247	 -0.00034281	 -0.00048547	  0.00031443	  0.00498105	 -0.00138681	  0.00228418	  0.00119456	  0.00996599
247	 -0.00046052	 -0.00044536	  0.00040179	  0.00550408	 -0.00346956	  0.00163361	  0.00200897	  0.00985725
247	 -0.00041182	 -0.00062049	  0.00013127	  0.00556501	 -0.00373255	  0.00242800	  0.00052275	  0.00988379
247	 -0.00045088	 -0.00042682	  0.00049918	  0.00564813	 -0.00389485	  0.00030225	 -0.00091900	  0.01077588
247	 -0.00016959	 -0.00058150	  0.00042152	  0.00588909	 -0.00323980	  0.00207540	  0.00191592	  0.01188482
247	 -0.00045080	 -0.00055474	  0.00036099	  0.00558107	 -0.00343611	  0.00078537	  0.00011889	  0.01061968
247	 -0.00000536	 -0.00072931	  0.00067559	  0.00504823	 -0.00281781	  0.00152937	  0.00256108	  0.00772281
247	 -0.00040496	 -0.00068850	  0.00035328	  0.00488206	 -0.00239346	  0.00040517	  0.00100086	  0.00749038
247	  0.00025692	 -0.00073088	  0.00042214	  0.00441409	 -0.00394038	  0.00183025	  0.00099094	  0.00614149
247	 -0.00064351	 -0.00060133	  0.00032567	  0.00408605	 -0.00203588	  0.00061582	 -0.00029345	  0.00627046
247	  0.00003264	 -0.00046212	  0.00051289	  0.00410913	 -0.00264217	  0.00200142	  0.00109249	  0.00760711
247	 -0.00036734	 -0.00037460	  0.00007174	  0.00367800	 -0.00192493	  0.00011444	  0.00030100	  0.00663658
248	  0.00095940	 -0.00871363	  0.00295767	 -0.01003067	  0.00894306	 -0.00364779	 -0.01157026	 -0.04498402
248	  0.00055855	 -0.00658748	  0.00085261	  0.00046236	 -0.00360677	 -0.00285361	 -0.00522518	 -0.02667515
248	  0.00036882	 -0.00476771	  0.00017017	  0.00489801	 -0.00773783	 -0.00155172	 -0.00024226	 -0.01427450
248	  0.00019549	 -0.00379889	  0.00065034	  0.00717021	 -0.00891303	 -0.00010409	  0.00196487	 -0.00658927
248	  0.00005926	 -0.00287597	  0.00078597	  0.00767531	 -0.00820895	  0.00120326	  0.00102140	  0.00026354
248	 -0.00010705	 -0.00193576	  0.00072098	  0.00834826	 -0.00644103	  0.00110113	  0.00082763	  0.00664917
248	  0.00009752	 -0.00132604	  0.00065902	  0.00756222	 -0.00597807	  0.00040993	  0.00210945	  0.00949968
248	 -0.00025082	 -0.00105473	  0.00049862	  0.00677413	 -0.00504046	  0.00120530	  0.00097875	  0.00913840
248	 -0.00017885	 -0.00082213	  0.00048261	  0.00703112	 -0.00520652	  0.00026957	  0.00089973	  0.01163935
248	  0.00020787	 -0.00089606	  0.00016788	  0.00667101	 -0.00397937	 -0.00047351	  0.00152890	  0.01201086
248	  0.00017047	 -0.00092692	  0.00097934	  0.00781748	 -0.00466549	  0.00097676	  0.00318341	  0.01283467
248	 -0.00033515	 -0.00099228	  0.00000397	  0.00778500	 -0.00487306	  0.00088711	  0.00104205	  0.01231817
248	 -0.00021463	 -0.00087447	  0.00048091	  0.00849512	 -0.00516076	  0.00123203	  0.00195038	  0.01484144
248	 -0.00046036	 -0.00079538	  0.00001986	  0.00707700	 -0.00460341	  0.00061871	 -0.00099931	  0.01243166
248	 -0.00041828	 -0.00071045	  0.00022751	  0.00654003	 -0.00338975	  0.00035048	 -0.00245582	  0.01089617
248	 -0.00024222	 -0.00085410	  0.00001889	  0.00573700	 -0.00353373	  0.00031711	  0.00219402	  0.00981802
248	 -0.00002660	 -0.00071170	  0.00053478	  0.00601914	 -0.00401935	  0.00101175	  0.00221596	  0.01052458
248	  0.00001206	 -0.00069543	  0.00032632	  0.00513605	 -0.00305844	  0.00044770	  0.00125554	  0.00873896
248	  0.00002279	 -0.00075874	  0.00019789	  0.00561202	 -0.00413985	 -0.00043275	 -0.00065537	  0.00845440
248	 -0.00007782	 -0.00096011	  0.00028355	  0.00511704	 -0.00468307	 -0.00013000	 -0.00072588	  0.00639837
248	 -0.00015755	 -0.00034933	  0.00059930	  0.00450718	 -0.00262679	  0.00103874	  0.00181659	  0.00832866
248	 -0.00024018	 -0.00045333	  0.00003786	  0.00371400	 -0.00191884	  0.00081903	  0.00172612	  0.00542835
248	 -0.00015053	 -0.00051122	  0.00001794	  0.00347700	 -0.00252424	  0.00065667	  0.00003088	  0.00499362
249	  0.00117941	 -0.00975412	  0.00184442	 -0.01161132	  0.00893089	 -0.00319539	 -0.00924712	 -0.05782472
249	  0.00045489	 -0.00643864	  0.00106335	 -0.00032943	 -0.00396309	 -0.00262165	 -0.00276257	 -0.02890485
249	  0.00060904	 -0.00421887	  0.00003485	  0.00430300	 -0.00734331	 -0.00275839	  0.00073575	 -0.01386229
249	  0.00013428	 -0.00286647	  0.00072007	  0.00684626	 -0.00673225	  0.00046891	 -0.00058379	 -0.00022858
250	  0.00090547	 -0.00851596	  0.00035016	 -0.00331994	 -0.00002196	 -0.00253641	 -0.00391063	 -0.03601409
250	  0.00078097	 -0.00674534	  0.00030666	  0.00436105	 -0.00587684	 -0.00152056	  0.00048177	 -0.02265163
250	  0.00020548	 -0.00483575	  0.00081966	  0.00773834	 -0.00967761	 -0.00061027	 -0.00013721	 -0.00855004
250	  0.00008803	 -0.00377218	  0.00081808	  0.00845634	 -0.00903384	  0.00027720	  0.00068394	 -0.00422887
250	 -0.00024707	 -0.00302924	  0.00018431	  0.00914902	 -0.00813961	  0.00041073	  0.00196474	  0.00228762
250	 -0.00000778	 -0.00182405	  0.00031904	  0.00929005	 -0.00780102	  0.00151640	  0.00153105	  0.00862997
250	  0.00004540	 -0.00165817	  0.00068189	  0.00896023	 -0.00623820	  0.00158550	  0.00194272	  0.01031579
250	 -0.00031211	 -0.00100144	  0.00053307	  0.00737714	 -0.00444601	  0.00151146	  0.00155354	  0.01109859
250	 -0.00032529	 -0.00098176	  0.00046318	  0.00823711	 -0.00572648	  0.00138293	  0.00151091	  0.01363627
250	 -0.00055083	 -0.00067241	  0.00038152	  0.00650807	 -0.00399659	  0.00156826	 -0.00137559	  0.01303780
250	 -0.00021788	 -0.00085822	  0.00014602	  0.00669601	 -0.00352847	  0.00064913	  0.00165596	  0.01245774
250	 -0.00020317	 -0.00072013	  0.00000298	  0.00675500	 -0.00425128	  0.00045193	  0.00058751	  0.01178711
250	  0.00001125	 -0.00104804	  0.00042675	  0.00760409	 -0.00538237	  0.00068845	  0.00060621	  0.01270821
250	 -0.00033533	 -0.00080471	  0.00019371	  0.00666102	 -0.00329992	  0.00048740	 -0.00012338	  0.01132564
250	 -0.00011897	 -0.00089001	  0.00075003	  0.00663128	 -0.00434241	  0.00159415	  0.00134533	  0.01010187
250	 -0.00020031	 -0.00064492	  0.00052658	  0.00649614	 -0.00482862	  0.00002738	  0.00025385	  0.01181610
250	 -0.00044160	 -0.00067381	  0.00018189	  0.00609602	 -0.00330593	  0.00044667	  0.00079772	  0.01133767
250	 -0.00029049	 -0.00071455	  0.00042145	  0.00605709	 -0.00328271	  0.00140808	  0.00237977	  0.01101889
250	 -0.00028995	 -0.00063644	  0.00010343	  0.00554001	 -0.00307404	  0.00062721	  0.00021034	  0.01098205
250	 -0.00015289	 -0.00064444	  0.00045553	  0.00542010	 -0.00399917	  0.00183522	  0.00163957	  0.00903674
250	 -0.00006247	 -0.00084133	  0.00082845	  0.00548635	 -0.00310801	  0.00127243	  0.00248486	  0.00752958
250	 -0.00037567	 -0.00067675	  0.00050398	  0.00600013	 -0.00344884	  0.00105293	  0.00141078	  0.01114932
250	 -0.00010661	 -0.00048970	  0.00053841	  0.00481615	 -0.00322451	 -0.00007689	 -0.00128397	  0.00739697
250	 -0.00021341	 -0.00050651	  0.00030944	  0.00505205	 -0.00340475	  0.00016224	 -0.00040222	  0.01005539
250	 -0.00029657	 -0.00057653	  0.00041314	  0.00450609	 -0.00307232	 -0.00039793	 -0.00342337	  0.00667099
250	  0.00006067	 -0.00042488	  0.00040695	  0.00504608	 -0.00282075	 -0.00004692	  0.00079474	  0.00857310
250	  0.00017668	 -0.00040872	  0.00062289	  0.00339419	 -0.00141064	  0.00068878	  0.00037730	  0.00633149
251	  0.00099566	 -0.00945370	  0.00269360	 -0.00913141	  0.00501085	 -0.00446617	 -0.00517488	 -0.05596123
251	  0.00056658	 -0.00589370	  0.00049548	  0.00305812	 -0.00675431	 -0.00193373	  0.00340315	 -0.02111850
251	  0.00036087	 -0.00349109	  0.00058082	  0.00547717	 -0.00752183	  0.00004138	  0.00061477	 -0.00768259
251	 -0.00030214	 -0.00218735	  0.00017964	  0.00758602	 -0.00666535	 -0.00045972	 -0.00135771	  0.00493668
251	 -0.00012627	 -0.00156765	  0.00001687	  0.00787900	 -0.00631822	 -0.00030846	 -0.00032437	  0.00838186
251	  0.00000668	 -0.00136698	  0.00046392	  0.00879911	 -0.00642127	 -0.00048474	  0.00110926	  0.01316918
251	 -0.00011667	 -0.00134713	  0.00019131	  0.00882702	 -0.00585719	  0.00053937	  0.00012918	  0.01326085
251	 -0.00029230	 -0.00112942	  0.00010322	  0.00757001	 -0.00484334	  0.00002431	 -0.00023650	  0.01091138
251	 -0.00016880	 -0.00113037	  0.00000496	  0.00852400	 -0.00527900	  0.00057314	  0.00023931	  0.01460933
251	 -0.00011949	 -0.00085687	  0.00013388	  0.00834101	 -0.00482377	 -0.00002415	  0.00109429	  0.01552836
251	 -0.00019859	 -0.00076157	  0.00025516	  0.00719803	 -0.00536444	 -0.00019025	 -0.00007566	  0.01247024
251	 -0.00030442	 -0.00087286	  0.00016960	  0.00823401	 -0.00545913	 -0.00045829	 -0.00019605	  0.01412662
251	 -0.00017279	 -0.00070075	  0.00084107	  0.00585836	 -0.00313026	  0.00188730	  0.00281321	  0.01083059
251	 -0.00040412	 -0.00041243	  0.00007770	  0.00388800	 -0.00045813	  0.00111570	 -0.00042887	  0.00849050
251	 -0.00030474	 -0.00027921	  0.00054912	  0.00341615	 -0.00311831	  0.00007247	 -0.00169134	  0.00757717
251	  0.00012285	 -0.00032161	  0.00053745	  0.00102214	 -0.00118736	 -0.00106627	 -0.00098614	  0.00190053
252	  0.00122890	 -0.00940171	  0.00158873	 -0.00549274	  0.00155418	 -0.00276163	 -0.00485346	 -0.05083494
252	  0.00023861	 -0.00533186	  0.00059882	  0.00530418	 -0.00709462	 -0.00123870	  0.00209846	 -0.01597838
252	 -0.00025573	 -0.00316014	  0.00052456	  0.00845714	 -0.00802957	  0.00089122	 -0.00079011	  0.00073706
252	 -0.00046495	 -0.00233222	  0.00010300	  0.00974501	 -0.00764848	  0.00014875	  0.00057493	  0.00871604
252	 -0.00041029	 -0.00161568	  0.00042299	  0.01185109	 -0.00799130	  0.00235270	  0.00164594	  0.01837897
252	 -0.00019296	 -0.00146913	  0.00032946	  0.01075605	 -0.00806251	  0.00068989	  0.00036854	  0.01650335
252	  0.00005547	 -0.00107952	  0.00025103	  0.00784303	 -0.00541545	  0.00030101	 -0.00019551	  0.01195237
252	 -0.00031250	 -0.00118503	  0.00003171	  0.00926600	 -0.00668705	 -0.00026731	 -0.00173814	  0.01527108
252	 -0.00039234	 -0.00082038	  0.00001488	  0.00806200	 -0.00567129	  0.00091454	 -0.00132711	  0.01513518
252	 -0.00017549	 -0.00065126	  0.00003977	  0.00575900	 -0.00291720	 -0.00002375	  0.00019383	  0.00953011
252	 -0.00003355	 -0.00054664	  0.00021407	  0.00433502	 -0.00338222	  0.00055333	  0.00103847	  0.00671609
252	  0.00009295	 -0.00047270	  0.00006482	  0.00272700	 -0.00185494	  0.00001009	  0.00029101	  0.00396417
253	  0.00104770	 -0.00980459	  0.00197615	 -0.00159505	 -0.00096264	 -0.00309504	 -0.00325733	 -0.04461089
253	  0.00046668	 -0.00538517	  0.00062343	  0.00893720	 -0.01016276	 -0.00065950	  0.00378741	 -0.00702534
253	 -0.00005382	 -0.00288590	  0.00170468	  0.01074447	 -0.00821730	  0.00033524	  0.00187573	  0.00852795
253	 -0.00043155	 -0.00209271	  0.00034881	  0.01201206	 -0.00910792	  0.00093159	  0.00126589	  0.01579749
253	 -0.00030246	 -0.00148222	  0.00028696	  0.01059004	 -0.00753145	  0.00070930	 -0.00062888	  0.01638772
253	 -0.00037890	 -0.00108192	  0.00031333	  0.00850605	 -0.00608400	  0.00078822	 -0.00236979	  0.01453797
253	  0.00010468	 -0.00089549	  0.00001191	  0.00726600	 -0.00463929	 -0.00007043	  0.00124492	  0.01213292
253	  0.00017170	 -0.00091694	  0.00074795	  0.00674828	 -0.00549044	  0.00064352	  0.00196947	  0.01078542
253	 -0.00031629	 -0.00022471	  0.00001598	  0.00131200	  0.00008591	  0.00116247	  0.00059620	  0.00235021
254	  0.00152336	 -0.01017664	  0.00014025	 -0.00181099	 -0.00058079	 -0.00185644	 -0.00104888	 -0.04731778
254	  0.00044091	 -0.00567221	  0.00039694	  0.01021908	 -0.01082389	 -0.00124957	  0.00046067	 -0.00832813
254	 -0.00015034	 -0.00295937	  0.00056225	  0.01201016	 -0.00998076	 -0.00065481	 -0.00200041	  0.01270101
254	 -0.00050860	 -0.00206045	  0.00042745	  0.01299409	 -0.00999828	 -0.00044983	 -0.00149214	  0.01751635
254	 -0.00008215	 -0.00142159	  0.00031877	  0.01012005	 -0.00755083	  0.00076780	  0.00061267	  0.01491775
254	 -0.00033690	 -0.00111750	  0.00028138	  0.00931104	 -0.00602647	  0.00206803	 -0.00010403	  0.01536215
254	 -0.00013953	 -0.00078618	  0.00036081	  0.00606307	 -0.00409585	  0.00187415	  0.00264128	  0.00988405
254	 -0.00008246	 -0.00053106	  0.00102641	  0.00349853	 -0.00094639	  0.00164926	  0.00279578	  0.00591356
254	 -0.00033680	 -0.00009087	  0.00018062	  0.00209602	 -0.00152681	 -0.00003764	 -0.00091855	  0.00511441
255	  0.00140885	 -0.01118136	  0.00208347	 -0.00118683	 -0.00238830	 -0.00406386	 -0.00408346	 -0.05136717
255	  0.00053768	 -0.00564069	  0.00095603	  0.01042946	 -0.01132399	  0.00009111	  0.00384337	 -0.00670377
255	 -0.00054504	 -0.00315392	  0.00076884	  0.01320830	 -0.01096497	  0.00101604	 -0.00008678	  0.01406624
255	 -0.00028762	 -0.00199782	  0.00032438	  0.01115105	 -0.00895627	 -0.00043125	 -0.00210058	  0.01531103
255	 -0.00013784	 -0.00149882	  0.00070689	  0.01006525	 -0.00690977	  0.00184747	  0.00252971	  0.01467933
255	 -0.00046955	 -0.00066481	  0.00044467	  0.00749310	 -0.00375553	  0.00149710	  0.00037001	  0.01477391
255	  0.00024390	 -0.00077393	  0.00022682	  0.00518303	 -0.00442410	 -0.00012236	  0.00015264	  0.00768515
255	 -0.00016769	 -0.00017347	  0.00087659	  0.00389439	 -0.00190146	 -0.00098051	 -0.00156856	  0.00945701
255	 -0.00006870	 -0.00034531	  0.00058191	  0.00187517	 -0.00017333	  0.00111680	  0.00243706	  0.00307892
256	  0.00157471	 -0.01112456	  0.00132353	 -0.00266313	 -0.00149745	 -0.00337903	 -0.00225783	 -0.05640490
256	  0.00054631	 -0.00584542	  0.00129157	  0.01117084	 -0.01283461	 -0.00002449	  0.00326528	 -0.00718050
256	 -0.00047611	 -0.00332067	  0.00044114	  0.01328610	 -0.00979918	  0.00082072	  0.00015819	  0.01181990
256	 -0.00040083	 -0.00193397	  0.00045120	  0.01284510	 -0.00899726	  0.00181063	 -0.00001892	  0.01749234
256	 -0.00035332	 -0.00133558	  0.00014731	  0.01150401	 -0.00811572	  0.00053069	 -0.00069757	  0.01924784
256	 -0.00049178	 -0.00105849	  0.00025963	  0.00910903	 -0.00512408	  0.00094474	 -0.00024760	  0.01687855
256	  0.00017298	 -0.00065005	  0.00044226	  0.00619310	 -0.00483241	  0.00076312	  0.00152747	  0.01009598
256	 -0.00013687	 -0.00034383	  0.00063767	  0.00366120	 -0.00250031	 -0.00071777	 -0.00018138	  0.00689973
256	 -0.00023287	 -0.00004699	  0.00031242	  0.00186405	 -0.00135751	 -0.00013333	 -0.00193170	  0.00423845
257	  0.00169351	 -0.01140751	  0.00033942	 -0.00123494	 -0.00192841	 -0.00304611	  0.00014944	 -0.05318828
257	  0.00079245	 -0.00590375	  0.00179541	  0.01146763	 -0.01278953	  0.00064735	  0.00459225	 -0.00743750
257	 -0.00056399	 -0.00308845	  0.00046859	  0.01369011	 -0.01155236	  0.00106888	 -0.00087829	  0.01269376
257	 -0.00065652	 -0.00184278	  0.00024489	  0.01269003	 -0.00952894	  0.00055038	 -0.00098623	  0.01924754
257	 -0.00051655	 -0.00138615	  0.00007810	  0.01146600	 -0.00723997	  0.00014491	 -0.00044667	  0.01867596
257	 -0.00042191	 -0.00073964	  0.00044466	  0.00750510	 -0.00445825	  0.00065111	 -0.00121674	  0.01472781
257	 -0.00005377	 -0.00044428	  0.00025998	  0.00390603	 -0.00192149	  0.00001146	 -0.00078467	  0.00682854
257	  0.00021786	 -0.00044689	  0.00018752	  0.00256902	 -0.00192010	  0.00017818	  0.00078195	  0.00289956
258	  0.00101226	 -0.01098035	  0.00100303	  0.00096850	 -0.00253840	 -0.00184966	 -0.00000609	 -0.04789065
258	  0.00029618	 -0.00520401	  0.00105555	  0.01274156	 -0.01276509	  0.00068661	  0.00312769	 -0.00103469
258	 -0.00034827	 -0.00329523	  0.00021785	  0.01447302	 -0.01255226	 -0.00034478	 -0.00131278	  0.01387051
258	 -0.00048162	 -0.00145679	  0.00017878	  0.01244302	 -0.00831080	  0.00115413	  0.00020141	  0.02089481
258	 -0.00053270	 -0.00098893	  0.00032033	  0.00833505	 -0.00451704	  0.00096839	 -0.00088587	  0.01479583
258	 -0.00006464	 -0.00060222	  0.00018086	  0.00629102	 -0.00354666	  0.00012685	 -0.00075967	  0.01242507
258	 -0.00017372	 -0.00026204	  0.00010660	  0.00371801	 -0.00236819	  0.00006402	 -0.00090293	  0.00803727
258	 -0.00009988	 -0.00028825	  0.00020545	  0.00266302	 -0.00169351	 -0.00010836	  0.00000097	  0.00472841
259	  0.00101442	 -0.01083412	  0.00040537	  0.00401208	 -0.00587824	 -0.00201154	  0.00122920	 -0.04697953
259	  0.00018247	 -0.00515514	  0.00102093	  0.01378353	 -0.01426017	  0.00068973	  0.00133633	  0.00248320
259	 -0.00047051	 -0.00256479	  0.00006607	  0.01410500	 -0.01080761	  0.00083648	  0.00010149	  0.01779492
259	 -0.00045683	 -0.00154632	  0.00000890	  0.01143300	 -0.00731636	  0.00085615	  0.00019704	  0.01816910
259	 -0.00020253	 -0.00067798	  0.00045457	  0.00754410	 -0.00440508	 -0.00068680	 -0.00157543	  0.01458262
259	 -0.00000695	 -0.00040737	  0.00013446	  0.00399201	 -0.00273113	  0.00023669	  0.00109666	  0.00719616
259	 -0.00003087	 -0.00027132	  0.00008778	  0.00250400	 -0.00127479	  0.00025846	  0.00071750	  0.00433190
260	  0.00093369	 -0.01066064	  0.00083044	  0.00549535	 -0.00693940	 -0.00303453	 -0.00024806	 -0.04274964
260	 -0.00028372	 -0.00463349	  0.00091138	  0.01494442	 -0.01551410	 -0.00005749	 -0.00031344	  0.00669564
260	 -0.00042877	 -0.00199800	  0.00012032	  0.01399001	 -0.01005346	  0.00090807	  0.00015589	  0.02067168
260	 -0.00020926	 -0.00101392	  0.00020238	  0.00801602	 -0.00426665	  0.00074490	 -0.00035686	  0.01377988
260	 -0.00021337	 -0.00054122	  0.00033026	  0.00527605	 -0.00234374	 -0.00032352	  0.00023959	  0.00989678
260	 -0.00019437	 -0.00030696	  0.00027512	  0.00320404	 -0.00128918	  0.00112006	  0.00023860	  0.00705320
260	 -0.00004089	 -0.00020974	  0.00013184	  0.00119901	 -0.00126557	  0.00066404	 -0.00008121	  0.00154319
261	  0.00084771	 -0.01001953	  0.00084825	  0.00795936	 -0.00954269	 -0.00308727	 -0.00156872	 -0.03639389
261	 -0.00021493	 -0.00417994	  0.00088744	  0.01527940	 -0.01402525	  0.00060413	  0.00178867	  0.00939692
261	 -0.00049852	 -0.00157291	  0.00053114	  0.01103514	 -0.00756025	  0.00059648	 -0.00115238	  0.01622823
261	 -0.00010764	 -0.00092545	  0.00038032	  0.00703507	 -0.00450350	  0.00047096	  0.00121255	  0.01152978
261	 -0.00032087	 -0.00022592	  0.00038139	  0.00423307	 -0.00170746	  0.00178678	  0.00046718	  0.00950809
261	 -0.00027034	 -0.00031711	  0.00026032	  0.00259403	 -0.00108745	  0.00105598	  0.00105721	  0.00461219
262	  0.00066511	 -0.00933904	  0.00004351	  0.01134300	 -0.01165287	 -0.00112176	 -0.00013538	 -0.02998008
262	 -0.00039643	 -0.00357585	  0.00094552	  0.01531745	 -0.01302610	  0.00168666	 -0.00126075	  0.01395127
262	 -0.00022701	 -0.00130028	  0.00113426	  0.01034965	 -0.00604958	  0.00190634	  0.00254114	  0.01578563
262	 -0.00028628	 -0.00056966	  0.00043933	  0.00608410	 -0.00418559	 -0.00011942	 -0.00152908	  0.01143691
262	 -0.00007800	 -0.00033698	  0.00023929	  0.00296703	 -0.00149754	 -0.00008511	  0.00026324	  0.00570616
263	  0.00116535	 -0.00862548	  0.00068812	  0.01290724	 -0.01263874	 -0.00018245	  0.00011451	 -0.02513251
263	  0.00001349	 -0.00269306	  0.00133962	  0.01446591	 -0.01138193	  0.00115286	  0.00070953	  0.01647777
263	 -0.00029423	 -0.00096869	  0.00003375	  0.00753200	 -0.00520579	  0.00013183	 -0.00103704	  0.01221609
263	 -0.00007506	 -0.00041866	  0.00028607	  0.00326004	 -0.00162491	 -0.00073115	 -0.00060037	  0.00573703
264	  0.00107952	 -0.00769508	  0.00034286	  0.01498306	 -0.01398497	 -0.00140679	  0.00007276	 -0.01672528
264	  0.00017007	 -0.00248346	  0.00063810	  0.01395121	 -0.01148256	 -0.00037815	  0.00027754	  0.01672989
264	 -0.00006595	 -0.00072595	  0.00043599	  0.00691410	 -0.00363794	  0.00020300	  0.00145412	  0.01173917
264	  0.00008866	 -0.00021508	  0.00009459	  0.00431500	 -0.00196746	 -0.00052592	  0.00017967	  0.00954891
264	 -0.00015615	 -0.00028608	  0.00023029	  0.00308003	 -0.00281224	 -0.00041736	  0.00000358	  0.00613511
265	  0.00142729	 -0.00732457	  0.00037670	  0.01405907	 -0.01325247	 -0.00054737	  0.00333255	 -0.01993956
265	  0.00027707	 -0.00235344	  0.00155318	  0.01147122	 -0.00895290	  0.00101133	  0.00093935	  0.01106459
265	 -0.00013115	 -0.00077187	  0.00002583	  0.00664300	 -0.00418419	 -0.00058323	 -0.00066867	  0.01139092
265	  0.00009783	 -0.00013262	  0.00024733	  0.00271503	 -0.00145420	 -0.00059802	 -0.00121094	  0.00618877
266	  0.00096309	 -0.00655574	  0.00051402	  0.01552213	 -0.01437005	  0.00020433	  0.00094105	 -0.01518993
266	 -0.00002291	 -0.00216115	  0.00059911	  0.01149218	 -0.00851820	  0.00014715	  0.00082673	  0.01302371
266	 -0.00001167	 -0.00077525	  0.00008945	  0.00613000	 -0.00447760	  0.00049059	  0.00025162	  0.01078081
266	  0.00013485	 -0.00000196	  0.00023764	  0.00150303	 -0.00038963	 -0.00090255	 -0.00118462	  0.00444753
267	  0.00038045	 -0.00558036	  0.00013094	  0.01571501	 -0.01360398	 -0.00178082	 -0.00049882	 -0.00927029
267	 -0.00000265	 -0.00182901	  0.00001879	  0.01093000	 -0.00737737	  0.00020067	  0.00023096	  0.01270905
267	 -0.00007099	 -0.00083994	  0.00037918	  0.00480107	 -0.00273296	  0.00021692	 -0.00012819	  0.00643907
267	 -0.00001000	 -0.00009879	  0.00007185	  0.00209800	 -0.00108274	 -0.00012566	 -0.00009755	  0.00494562
268	  0.00062693	 -0.00470547	  0.00022852	  0.01523203	 -0.01393533	 -0.00174072	  0.00185546	 -0.00633480
268	  0.00020148	 -0.00193204	  0.00049687	  0.00831312	 -0.00655743	 -0.00011037	  0.00007720	  0.00531784
268	  0.00018665	 -0.00040633	  0.00043811	  0.00430510	 -0.00259300	  0.00036927	  0.00260331	  0.00741426
268	 -0.00006999	 -0.00016272	  0.00014874	  0.00175801	 -0.00097535	 -0.00044108	 -0.00218863	  0.00445453
269	  0.00059668	 -0.00372118	  0.00021871	  0.01503602	 -0.01272924	 -0.00165199	 -0.00041791	 -0.00541143
269	  0.00014691	 -0.00148701	  0.00085958	  0.00747437	 -0.00443380	  0.00108902	  0.00151728	  0.00711050
269	 -0.00006124	 -0.00057559	  0.00051979	  0.00424914	 -0.00297392	 -0.00106492	 -0.00212452	  0.00536006
269	 -0.00004995	 -0.00003696	  0.00027277	  0.00082604	 -0.00003909	  0.00043163	 -0.00029423	  0.00167966
270	  0.00054538	 -0.00313606	  0.00142263	  0.01713403	 -0.01243598	  0.00072262	  0.00621225	 -0.00076950
270	 -0.00017211	 -0.00086705	  0.00013110	  0.00683501	 -0.00416958	  0.00063014	 -0.00248064	  0.00897590
270	  0.00016342	 -0.00041166	  0.00047635	  0.00345611	 -0.00186541	 -0.00029388	  0.00192347	  0.00728132
270	  0.00005201	  0.00001001	  0.00035579	  0.00058106	 -0.00063298	 -0.00098120	 -0.00150056	  0.00144222
271	  0.00066924	 -0.00212989	  0.00048547	  0.01757812	 -0.01198583	 -0.00097970	  0.00074591	  0.00217684
271	  0.00032275	 -0.00060153	  0.00104412	  0.00467255	 -0.00297398	 -0.00012255	 -0.00181831	  0.00512493
271	  0.00027667	 -0.00001597	  0.00002596	  0.00167800	 -0.00053312	 -0.00057402	  0.00074825	  0.00423231
272	  0.00014600	 -0.00070503	  0.00110990	  0.01721263	 -0.01179821	 -0.00063440	  0.00104458	  0.00440699
272	  0.00010644	 -0.00051473	  0.00048481	  0.00451212	 -0.00258026	 -0.00019637	 -0.00095405	  0.00591765
272	  0.00018779	 -0.00005597	  0.00024367	  0.00136003	 -0.00044229	 -0.00045948	  0.00018916	  0.00272742
273	  0.00028906	  0.00071764	  0.00179196	  0.01787763	 -0.01133342	 -0.00218560	  0.00134141	  0.00936892
273	  0.00038189	 -0.00017484	  0.00091233	  0.00292942	 -0.00073424	 -0.00066173	  0.00007086	  0.00326654
274	  0.00159977	  0.00171088	  0.00206864	  0.01564417	 -0.00934991	  0.00055271	  0.00059509	  0.00821048
274	  0.00063595	 -0.00014553	  0.00009565	  0.00367800	 -0.00254642	 -0.00220414	 -0.00204327	  0.00586571
274	  0.00016195	 -0.00005301	  0.00024784	  0.00063103	 -0.00067236	 -0.00087461	 -0.00001530	  0.00119023
275	  0.00126318	  0.00396450	  0.00177571	  0.01367860	 -0.00760052	 -0.00140447	  0.00227875	  0.01369008
275	  0.00073536	  0.00004217	  0.00103034	  0.00161153	 -0.00059253	 -0.00146625	 -0.00334405	 -0.00053550
276	  0.00146454	  0.00476946	  0.00261313	  0.01104745	 -0.00447464	 -0.00073471	  0.00548176	  0.01571098
276	  0.00063256	  0.00034153	  0.00011886	  0.00116801	 -0.00042016	 -0.00290666	 -0.00384101	 -0.00103243
277	  0.00134726	  0.00433866	  0.00111777	  0.00825763	 -0.00382953	 -0.00075706	  0.00311584	  0.01017090
277	  0.00056796	  0.00030296	  0.00107246	  0.00143258	 -0.00031760	 -0.00087808	 -0.00024949	  0.00071749
278	  0.00096752	  0.00442713	  0.00039367	  0.00593008	 -0.00054552	 -0.00190449	  0.00199401	  0.00944999
278	  0.00005444	  0.00050739	  0.00030163	  0.00124305	 -0.00004733	 -0.00129737	 -0.00269568	  0.00361682
279	  0.00065107	  0.00459257	  0.00008652	  0.00552500	 -0.00016807	 -0.00003482	  0.00241721	  0.00973551
279	  0.00006511	  0.00028865	  0.00031659	  0.00128405	 -0.00093205	 -0.00078570	 -0.00324868	  0.00057973
280	  0.00094309	  0.00523950	  0.00009771	  0.00294100	  0.00102512	 -0.00139280	  0.00233412	  0.00624712
280	  0.00030334	  0.00042451	  0.00021878	  0.00098902	 -0.00004568	 -0.00125077	 -0.00184371	  0.00203528
281	  0.00073827	  0.00560931	  0.00019043	  0.00300102	  0.00161602	 -0.00066731	  0.00234903	  0.00987648
281	  0.00022099	  0.00032479	  0.00020489	  0.00051702	  0.00052782	 -0.00047565	 -0.00150918	 -0.00120241
282	 -0.00029849	  0.00470944	  0.00221528	  0.00167846	  0.00287254	 -0.00119337	  0.00085794	  0.00804364
282	  0.00008650	  0.00054126	  0.00004902	 -0.00047400	  0.00109956	  0.00078032	 -0.00067158	  0.00000056
283	 -0.00095582	  0.00376585	  0.00329212	  0.00027042	  0.00247886	 -0.00105688	 -0.00093293	  0.00440593
283	 -0.00040592	  0.00021777	  0.00016788	  0.00072601	  0.00048394	  0.00171268	 -0.00029140	  0.00146548
284	 -0.00059159	  0.00369723	  0.00248312	  0.00035608	  0.00307620	  0.00092203	  0.00039635	  0.00672527
284	 -0.00026028	  0.00031385	  0.00019794	  0.00031402	  0.00063310	  0.00149141	  0.00051269	  0.00090285
285	 -0.00048711	  0.00365584	  0.00256206	 -0.00002072	  0.00330310	  0.00117757	 -0.00051656	  0.00614708
285	 -0.00030333	  0.00031511	  0.00032901	 -0.00001795	  0.00061936	  0.00197024	 -0.00072767	  0.00032920
286	 -0.00069164	  0.00357345	  0.00255515	 -0.00005674	  0.00317807	  0.00073692	 -0.00029318	  0.00622634
286	 -0.00017334	  0.00022894	  0.00001000	  0.00026800	  0.00077282	  0.00224439	  0.00141553	  0.00079759
287	 -0.00096405	  0.00315173	  0.00237051	 -0.00063719	  0.00306764	  0.00028492	 -0.00029716	  0.00595960
287	 -0.00038292	  0.00016592	  0.00050635	 -0.00069487	  0.00163775	  0.00121001	 -0.00052553	 -0.00005614
288	 -0.00095501	  0.00245766	  0.00115289	  0.00009766	  0.00185424	  0.00123574	 -0.00012626	  0.00476084
288	 -0.00049049	  0.00041130	  0.00051769	 -0.00133487	  0.00188119	  0.00131178	  0.00061041	 -0.00049678
289	 -0.00093407	  0.00195461	  0.00136862	 -0.00045306	  0.00148963	  0.00069628	 -0.00024470	  0.00222652
290	 -0.00120656	  0.00206092	  0.00146649	 -0.00033193	  0.00223876	  0.00137418	  0.00090082	  0.00445892
290	 -0.00053036	  0.00025579	  0.00069243	 -0.00061776	  0.00122611	  0.00195836	 -0.00109739	 -0.00007614
291	 -0.00132987	  0.00171327	  0.00118058	 -0.00048930	  0.00215879	  0.00062176	 -0.00032820	  0.00360836
291	 -0.00021880	 -0.00008702	  0.00010205	 -0.00045599	  0.00086225	  0.00137572	  0.00151663	 -0.00240403
292	 -0.00117283	  0.00179803	  0.00044714	 -0.00030990	  0.00231406	  0.00076220	  0.00116881	  0.00481108
292	 -0.00030911	  0.00003280	  0.00071340	 -0.00055575	  0.00030241	  0.00033497	 -0.00179360	 -0.00020924
293	 -0.00079095	  0.00164778	  0.00078419	 -0.00023969	  0.00156023	 -0.00018327	  0.00056400	  0.00349850
294	 -0.00136560	  0.00160514	  0.00038340	 -0.00103693	  0.00185466	  0.00192929	 -0.00014090	  0.00256098
295	 -0.00125997	  0.00139857	  0.00120795	 -0.00078227	  0.00132473	  0.00140250	 -0.00154155	  0.00051142
296	 -0.00057432	  0.00113170	  0.00059471	 -0.00119682	  0.00320071	  0.00189217	  0.00079609	  0.00054162
297	 -0.00028038	  0.00087295	  0.00026731	 -0.00116896	  0.00172642	  0.00148928	 -0.00028494	 -0.00038495
298	 -0.00016905	  0.00102090	  0.00011310	 -0.00086099	  0.00209365	  0.00134640	 -0.00026495	  0.00247546
299	 -0.00000941	  0.00090079	  0.00000701	 -0.00087800	  0.00142825	  0.00046342	  0.00028284	  0.00053134
300	  0.00024938	  0.00077159	  0.00016112	 -0.00071499	  0.00184115	 -0.00102003	 -0.00104272	  0.00063856
301	 -0.00009967	  0.00070575	  0.00012595	  0.00037201	  0.00023894	 -0.00025288	  0.00040118	  0.00453646
302	  0.00022708	  0.00039698	  0.00030103	 -0.00011595	  0.00021001	  0.00004307	  0.00182075	  0.00025350
303	 -0.00005695	  0.00033808	  0.00036911	 -0.00028893	  0.00074605	 -0.00044540	 -0.00201401	  0.00018090
304	 -0.00001003	  0.00009998	  0.00014997	  0.00021301	  0.00039384	  0.00049995	  0.00058852	  0.00081762
305	  0.00022496	 -0.00020792	  0.00021896	  0.00016802	 -0.00065310	 -0.00095670	 -0.00037430	 -0.00054119
306	 -0.00011808	 -0.00001999	  0.00005800	  0.00005800	 -0.00063794	 -0.00034802	 -0.00077150	  0.00085364
307	 -0.00000789	 -0.00022104	  0.00019303	 -0.00016898	 -0.00036200	  0.00033913	  0.00031791	 -0.00134440
308	  0.00013888	 -0.00026892	  0.00005098	  0.00031000	 -0.00045084	 -0.00045188	  0.00082514	 -0.00053742
309	 -0.00022497	 -0.00016496	  0.00010999	  0.00012201	 -0.00036702	  0.00062588	 -0.00076121	  0.00020837
310	  0.00003005	 -0.00040873	  0.00020687	  0.00063402	 -0.00037578	 -0.00007687	  0.00050090	  0.00013685
311	  0.00011198	 -0.00024811	  0.00016206	 -0.00037399	 -0.00010301	 -0.00015107	  0.00080749	 -0.00067600
312	  0.00000616	 -0.00042791	  0.00010798	  0.00021701	 -0.00076781	  0.00025103	 -0.00047540	 -0.00127055
313	 -0.00031603	 -0.00039773	  0.00004197	  0.00063900	 -0.00139213	  0.00057058	 -0.00050937	 -0.00044645
314	 -0.00005487	 -0.00034371	  0.00020983	  0.00080202	 -0.00008303	  0.00048260	  0.00064948	  0.00023463
315	 -0.00003311	 -0.00013309	  0.00016811	 -0.00066199	 -0.00005917	 -0.00080352	  0.00018478	 -0.00208827
316	  0.00020814	 -0.00015808	  0.00068075	  0.00037123	 -0.00014920	  0.00183922	  0.00136173	 -0.00004756
317	 -0.00002896	  0.00004197	  0.00064577	  0.00035821	 -0.00052589	 -0.00166207	 -0.00127759	  0.00097235
318	 -0.00020696	 -0.00009104	  0.00012302	 -0.00018399	  0.00007508	  0.00055809	 -0.00098910	  0.00002468
319	  0.00000400	 -0.00005399	  0.00006398	  0.00027000	 -0.00023894	 -0.00007596	  0.00004206	  0.00093075
320	  0.00000297	 -0.00023097	  0.00039194	  0.00014408	 -0.00020808	  0.00026988	  0.00135238	 -0.00075173
321	  0.00000495	 -0.00029295	  0.00000900	  0.00017700	 -0.00025696	 -0.00019596	  0.00017500	 -0.00107178
322	 -0.00008400	 -0.00043299	  0.00003900	  0.00001900	 -0.00001100	  0.00003500	 -0.00017196	 -0.00109198
323	 -0.00000894	 -0.00029694	  0.00014197	  0.00019501	 -0.00030593	  0.00007503	  0.00010787	 -0.00100383
324	  0.00018895	 -0.00042291	  0.00008298	  0.00024100	 -0.00108870	 -0.00041599	  0.00071768	 -0.00082644
325	 -0.00013793	 -0.00006402	  0.00012600	 -0.00001299	  0.00021407	  0.00052298	 -0.00123879	 -0.00033920
326	  0.00003402	  0.00002801	  0.00030405	 -0.00016095	 -0.00016518	 -0.00052103	 -0.00016984	  0.00071708
327	  0.00017505	 -0.00008304	  0.00046376	  0.00052311	 -0.00091962	  0.00022546	  0.00052195	  0.00055383
328	 -0.00022190	 -0.00012401	  0.00008299	  0.00007100	  0.00039097	 -0.00007003	 -0.00019596	 -0.00063795
329	 -0.00005701	 -0.00007204	  0.00017607	 -0.00037998	 -0.00015803	  0.00014508	 -0.00019428	 -0.00097531
330	  0.00010098	 -0.00004402	  0.00012302	 -0.00015099	  0.00040304	  0.00020808	  0.00058988	 -0.00025209
331	 -0.00009503	  0.00004897	  0.00026698	  0.00006404	 -0.00038106	 -0.00032688	 -0.00081208	  0.00065791
332	  0.00007404	 -0.00017003	  0.00032001	 -0.00003195	 -0.00012916	  0.00048397	  0.00033230	 -0.00078408
333	 -0.00005298	  0.00008299	  0.00005900	  0.00008400	  0.00024197	 -0.00009501	  0.00053085	  0.00044898
334	  0.00013999	  0.00000499	  0.00004199	  0.00017600	 -0.00010799	  0.00009698	  0.00012800	 -0.00011799
335	 -0.00011101	 -0.00009196	  0.00029096	  0.00012904	 -0.00027106	  0.00033588	 -0.00021609	  0.00018899
336	  0.00009795	 -0.00002501	  0.00023789	  0.00045503	  0.00014281	  0.00050780	  0.00155876	  0.00127800
337	 -0.00005000	  0.00004300	  0.00072361	 -0.00084474	  0.00033833	 -0.00132637	 -0.00237822	 -0.00140762
338	 -0.00003500	  0.00000301	  0.00033089	  0.00033905	 -0.00028218	  0.00083562	  0.00071075	  0.00062243
339	  0.00008598	 -0.00010994	  0.00027291	  0.00031804	 -0.00070799	 -0.00079855	 -0.00113737	  0.00026632
340	  0.00012906	  0.00007301	  0.00028817	 -0.00060396	  0.00018606	  0.00017316	  0.00090050	 -0.00044116
341	 -0.00011500	 -0.00011604	  0.00045694	  0.00012610	 -0.00006223	 -0.00051391	 -0.00042121	 -0.00051696
342	  0.00002899	 -0.00008402	  0.00064700	  0.00000121	  0.00041859	  0.00063627	  0.00124599	 -0.00078599
343	 -0.00013404	 -0.00007908	  0.00071885	  0.00020326	 -0.00035265	 -0.00100154	 -0.00158618	  0.00007554
344	  0.00007299	 -0.00001205	  0.00069102	 -0.00002876	  0.00016346	  0.00078414	  0.00119696	 -0.00018112
345	 -0.00000200	  0.00018804	  0.00010102	 -0.00022199	  0.00033907	 -0.00007705	 -0.00025384	  0.00125528
346	  0.00004599	  0.00002200	  0.00010196	  0.00038101	 -0.00043580	  0.00032492	  0.00034511	  0.00091650
347	  0.00020294	 -0.00000902	  0.00008101	 -0.00013100	  0.00041307	 -0.00016899	  0.00070785	 -0.00063991
348	 -0.00007998	  0.00021498	  0.00017799	  0.00003502	  0.00015996	 -0.00019002	 -0.00093669	  0.00069096
349	 -0.00018005	 -0.00019885	  0.00012092	  0.00063801	 -0.00099839	  0.00018976	 -0.00067128	  0.00031185
350	  0.00009006	 -0.00015206	  0.00038723	 -0.00059493	  0.00019204	 -0.00020119	 -0.00078443	 -0.00288757
351	 -0.00013604	  0.00008904	  0.00013203	 -0.00019299	  0.00001397	  0.00027005	  0.00042884	  0.00177028
352	 -0.00001200	 -0.00005200	  0.00018099	  0.00003402	 -0.00004402	 -0.00012799	 -0.00005420	 -0.00108596
353	  0.00003800	 -0.00002202	  0.00067076	  0.00036023	 -0.00013655	  0.00089259	  0.00070857	  0.00040770
354	 -0.00010498	  0.00010397	  0.00072733	 -0.00044874	  0.00026029	 -0.00113170	 -0.00069981	  0.00043991
355	  0.00000401	 -0.00001500	  0.00032590	  0.00029405	 -0.00002028	  0.00088673	  0.00106138	  0.00100911
356	  0.00011082	 -0.00010106	  0.00030708	 -0.00025395	  0.00134644	 -0.00031467	  0.00166183	 -0.00210950
357	  0.00012912	  0.00009703	  0.00029899	  0.00004604	 -0.00100005	 -0.00030769	 -0.00207470	  0.00091794
358	 -0.00016499	  0.00022104	  0.00034015	 -0.00042794	  0.00057315	 -0.00027631	 -0.00037686	  0.00023713
359	  0.00005100	 -0.00014294	  0.00055264	  0.00064415	 -0.00072484	  0.00055124	  0.00027081	  0.00037976
360	 -0.00012004	  0.00021992	  0.00078905	 -0.00006369	  0.00014755	 -0.00058315	 -0.00110719	  0.00090629
