  2.00000000	 -0.00003221	  0.00007688	  0.00000094	  0.00002010	 -0.00004972	 -0.00000037	 -0.00004271	  0.00006205
  3.00000000	 -0.00004228	  0.00000812	  0.00000549	 -0.00000596	  0.00001730	  0.00004850	 -0.00005568	  0.00000672
  4.00000000	  0.00000622	  0.00003409	  0.00006841	 -0.00000264	  0.00000946	 -0.00009057	  0.00000805	  0.00002743
  5.00000000	 -0.00006659	 -0.00001765	  0.00003500	  0.00000001	  0.00000438	  0.00000973	 -0.00008757	 -0.00001395
  6.00000000	  0.00005059	  0.00005704	  0.00005638	 -0.00000380	  0.00000505	  0.00005501	  0.00006636	  0.00004573
  7.00000000	  0.00008339	 -0.00015631	  0.00008466	 -0.00000764	  0.00001662	 -0.00012954	  0.00011038	 -0.00012623
  8.00000000	 -0.00003250	  0.00007496	  0.00000107	  0.00001744	 -0.00004418	  0.00004723	 -0.00004307	  0.00006050
  9.00000000	  0.00001713	 -0.00003969	  0.00002440	 -0.00004222	  0.00010767	  0.00004654	  0.00002270	 -0.00003204
 10.00000000	 -0.00005203	  0.00008163	  0.00003219	  0.00001312	 -0.00002893	 -0.00003349	 -0.00006881	  0.00006596
 11.00000000	  0.00007689	 -0.00005200	  0.00006306	  0.00000689	 -0.00002537	  0.00004218	  0.00010140	 -0.00004219
 12.00000000	 -0.00005679	  0.00004916	  0.00003005	  0.00000275	 -0.00000096	 -0.00005666	 -0.00007494	  0.00003982
 13.00000000	  0.00000976	 -0.00007348	  0.00003768	  0.00000402	 -0.00001442	  0.00008648	  0.00001314	 -0.00005922
 14.00000000	  0.00002604	  0.00002935	  0.00003527	  0.00000434	 -0.00001132	 -0.00005744	  0.00003416	  0.00002353
 15.00000000	  0.00002603	  0.00002935	  0.00002536	  0.00000192	 -0.00000682	  0.00000319	  0.00003414	  0.00002354
 16.00000000	 -0.00009647	 -0.00008163	  0.00000640	 -0.00000994	  0.00003154	  0.00002996	 -0.00012664	 -0.00006536
 17.00000000	  0.00004083	 -0.00000978	  0.00000015	 -0.00000170	  0.00000140	  0.00000012	  0.00005377	 -0.00000804
 18.00000000	 -0.00000528	  0.00010403	  0.00003970	  0.00000369	 -0.00000802	 -0.00001571	 -0.00000737	  0.00008381
 19.00000000	 -0.00004647	 -0.00002049	  0.00000738	  0.00001208	 -0.00002644	 -0.00006537	 -0.00006108	 -0.00001632
 20.00000000	  0.00012218	 -0.00003126	  0.00006120	 -0.00001019	  0.00001424	  0.00010857	  0.00016094	 -0.00002567
 21.00000000	 -0.00012218	  0.00003128	  0.00006120	  0.00003327	 -0.00007487	 -0.00010408	 -0.00016094	  0.00002568
 22.00000000	  0.00003193	 -0.00007882	  0.00000083	 -0.00004585	  0.00011589	  0.00004346	  0.00004234	 -0.00006361
 23.00000000	 -0.00003249	  0.00007496	  0.00000108	  0.00001744	 -0.00004417	  0.00004725	 -0.00004306	  0.00006051
 24.00000000	 -0.00000475	 -0.00003244	  0.00000214	  0.00001272	 -0.00003267	 -0.00001868	 -0.00000612	 -0.00002611
 25.00000000	  0.00001005	  0.00006871	  0.00005611	 -0.00002253	  0.00005876	  0.00000281	  0.00001294	  0.00005529
 26.00000000	  0.00001928	 -0.00000855	  0.00002724	  0.00002717	 -0.00007485	  0.00007218	  0.00002541	 -0.00000697
 27.00000000	  0.00000028	  0.00000191	  0.00000013	  0.00000266	 -0.00000554	 -0.00004760	  0.00000036	  0.00000154
 28.00000000	  0.00004227	 -0.00000817	  0.00000549	 -0.00004022	  0.00010398	 -0.00005750	  0.00005567	 -0.00000675
 29.00000000	 -0.00000619	 -0.00003407	  0.00005285	  0.00003056	 -0.00007910	 -0.00002620	 -0.00000801	 -0.00002742
 30.00000000	 -0.00000360	 -0.00003271	  0.00005727	 -0.00000778	  0.00001930	  0.00003645	 -0.00000460	 -0.00002633
 31.00000000	 -0.00001535	  0.00003527	  0.00003516	 -0.00002236	  0.00005900	  0.00003315	 -0.00002034	  0.00002847
 32.00000000	  0.00004468	  0.00002488	  0.00006402	  0.00002700	 -0.00007508	  0.00004182	  0.00005870	  0.00001986
 33.00000000	  0.00000507	  0.00003438	  0.00012355	  0.00001787	 -0.00004252	 -0.00014570	  0.00000654	  0.00002766
 34.00000000	  0.00000643	 -0.00010431	  0.00009484	 -0.00002419	  0.00005998	  0.00007086	  0.00000889	 -0.00008403
 35.00000000	 -0.00004110	  0.00000784	  0.00006066	 -0.00002163	  0.00006028	 -0.00001765	 -0.00005412	  0.00000648
 36.00000000	 -0.00002101	  0.00000503	  0.00003300	  0.00000869	 -0.00002219	  0.00003301	 -0.00002767	  0.00000414
 37.00000000	 -0.00001093	  0.00007379	  0.00002846	  0.00003474	 -0.00008920	 -0.00001584	 -0.00001469	  0.00005947
 38.00000000	  0.00006270	 -0.00001701	  0.00002240	 -0.00003355	  0.00008110	  0.00006982	  0.00008260	 -0.00001396
 39.00000000	 -0.00005062	 -0.00005706	  0.00000427	 -0.00002170	  0.00006007	  0.00000115	 -0.00006638	 -0.00004575
 40.00000000	  0.00004469	  0.00002488	  0.00000338	  0.00002941	 -0.00007957	 -0.00001880	  0.00005872	  0.00001985
 41.00000000	  0.00000117	 -0.00000028	  0.00000551	 -0.00001809	  0.00004748	 -0.00000551	  0.00000154	 -0.00000023
 42.00000000	 -0.00003721	  0.00004252	  0.00011805	  0.00003500	 -0.00008585	 -0.00009269	 -0.00004914	  0.00003440
 43.00000000	  0.00002009	 -0.00000286	  0.00003302	 -0.00001344	  0.00003431	 -0.00001896	  0.00002646	 -0.00000238
 44.00000000	 -0.00007017	 -0.00005037	  0.00003163	 -0.00000535	  0.00001919	 -0.00001446	 -0.00009215	 -0.00004029
 45.00000000	  0.00004027	 -0.00001358	  0.00000040	  0.00001607	 -0.00004816	  0.00009981	  0.00005306	 -0.00001110
 46.00000000	  0.00003438	  0.00009453	  0.00003405	  0.00002008	 -0.00005410	 -0.00001008	  0.00004487	  0.00007599
 47.00000000	 -0.00003078	 -0.00006182	  0.00002322	 -0.00001229	  0.00003479	 -0.00002636	 -0.00004027	 -0.00004966
 48.00000000	 -0.00001955	  0.00000667	  0.00002736	 -0.00000674	  0.00001975	 -0.00002009	 -0.00002576	  0.00000545
 49.00000000	 -0.00001893	  0.00000256	  0.00003853	 -0.00002773	  0.00007381	  0.00000895	 -0.00002493	  0.00000214
 50.00000000	  0.00003994	 -0.00000757	  0.00000553	  0.00004213	 -0.00011225	 -0.00003748	  0.00005260	 -0.00000625
 51.00000000	 -0.00003609	  0.00004220	  0.00005836	 -0.00003652	  0.00009640	  0.00007472	 -0.00004768	  0.00003413
 52.00000000	  0.00000530	 -0.00010400	  0.00002095	  0.00002181	 -0.00005712	 -0.00004044	  0.00000739	 -0.00008378
 53.00000000	  0.00006155	  0.00012357	  0.00004646	 -0.00002159	  0.00005169	  0.00004375	  0.00008051	  0.00009928
 54.00000000	 -0.00001571	 -0.00009900	  0.00001207	  0.00000741	 -0.00001867	 -0.00001191	 -0.00002027	 -0.00007967
 55.00000000	 -0.00000672	  0.00010235	  0.00009469	 -0.00000155	  0.00000618	 -0.00002773	 -0.00000925	  0.00008246
 56.00000000	  0.00001176	 -0.00006801	  0.00003179	 -0.00000609	  0.00001645	 -0.00006183	  0.00001575	 -0.00005482
 57.00000000	 -0.00004497	 -0.00002676	  0.00000326	 -0.00000899	  0.00002448	  0.00007090	 -0.00005908	 -0.00002137
 58.00000000	 -0.00000000	  0.00000000	  0.00000000	 -0.00000000	  0.00000000	  0.00000000	  0.00000000	 -0.00000000
 59.00000000	  0.00002099	 -0.00000503	  0.00002764	 -0.00001110	  0.00002669	  0.00002762	  0.00002765	 -0.00000414
 60.00000000	  0.00002369	  0.00002991	  0.00003638	  0.00003810	 -0.00010176	  0.00001421	  0.00003105	  0.00002399
 61.00000000	  0.00000087	 -0.00000219	  0.00005526	 -0.00002316	  0.00005750	  0.00010273	  0.00000116	 -0.00000177
 62.00000000	 -0.00007274	  0.00008857	  0.00005995	  0.00002687	 -0.00006115	 -0.00010869	 -0.00009610	  0.00007163
 63.00000000	  0.00009029	  0.00004757	  0.00005925	  0.00004049	 -0.00011065	 -0.00005616	  0.00011865	  0.00003794
 64.00000000	 -0.00003941	 -0.00012892	  0.00003633	 -0.00003310	  0.00008760	  0.00003453	 -0.00005136	 -0.00010366
 65.00000000	 -0.00006423	 -0.00001819	  0.00003666	 -0.00001065	  0.00003420	 -0.00005744	 -0.00008446	 -0.00001439
 66.00000000	  0.00008136	 -0.00002148	  0.00006106	 -0.00000848	  0.00001283	  0.00010847	  0.00010717	 -0.00001763
 67.00000000	  0.00002487	  0.00002960	  0.00002976	 -0.00000066	  0.00000185	 -0.00005643	  0.00003261	  0.00002374
 68.00000000	 -0.00004083	  0.00000978	  0.00000015	  0.00000170	 -0.00000140	 -0.00000011	 -0.00005377	  0.00000804
 69.00000000	  0.00001982	 -0.00000475	  0.00003314	  0.00000698	 -0.00002079	  0.00003313	  0.00002610	 -0.00000390
 70.00000000	 -0.00002628	  0.00010910	  0.00000670	  0.00003547	 -0.00009085	  0.00002181	 -0.00003503	  0.00008797
 71.00000000	  0.00000764	 -0.00010464	  0.00009261	 -0.00005812	  0.00015461	 -0.00012112	  0.00001048	 -0.00008430
 72.00000000	 -0.00004590	 -0.00002458	  0.00012339	 -0.00001615	  0.00004108	  0.00014559	 -0.00006030	 -0.00001961
 73.00000000	  0.00005708	 -0.00004727	  0.00003071	 -0.00002076	  0.00005156	 -0.00005607	  0.00007531	 -0.00003831
 74.00000000	 -0.00003966	  0.00000950	  0.00000566	 -0.00001639	  0.00004608	 -0.00000563	 -0.00005223	  0.00000781
 75.00000000	  0.00002700	  0.00006070	  0.00002075	  0.00004323	 -0.00011553	  0.00002538	  0.00003529	  0.00004878
 76.00000000	  0.00001596	 -0.00003938	  0.00002990	 -0.00000104	 -0.00000044	  0.00005654	  0.00002116	 -0.00003179
 77.00000000	  0.00001538	 -0.00003527	  0.00008610	  0.00002720	 -0.00006800	 -0.00015440	  0.00002038	 -0.00002847
 78.00000000	 -0.00005321	  0.00008191	  0.00003395	  0.00002879	 -0.00007190	  0.00003265	 -0.00007037	  0.00006618
 79.00000000	  0.00001597	  0.00010092	  0.00004845	 -0.00000716	  0.00001762	  0.00002496	  0.00002061	  0.00008121
 80.00000000	 -0.00000503	 -0.00003435	  0.00000227	  0.00001006	 -0.00002713	  0.00002892	 -0.00000648	 -0.00002764
 81.00000000	  0.00000119	 -0.00000028	  0.00006615	 -0.00001567	  0.00004297	 -0.00006615	  0.00000157	 -0.00000023
 82.00000000	 -0.00000416	 -0.00003654	  0.00005752	 -0.00001310	  0.00003037	  0.00013166	 -0.00000533	 -0.00002941
 83.00000000	  0.00002126	 -0.00000308	  0.00008815	  0.00001223	 -0.00003499	  0.00004516	  0.00002799	 -0.00000257
 84.00000000	 -0.00002716	 -0.00002908	  0.00014115	  0.00002100	 -0.00004967	 -0.00011896	 -0.00003564	 -0.00002331
 85.00000000	  0.00002843	  0.00006232	  0.00003425	  0.00000229	 -0.00000846	  0.00002840	  0.00003717	  0.00005007
 86.00000000	 -0.00002314	 -0.00002608	  0.00002400	 -0.00003519	  0.00009520	 -0.00004877	 -0.00003035	 -0.00002091
 87.00000000	  0.00001481	 -0.00003911	  0.00002523	  0.00001946	 -0.00005242	  0.00000141	  0.00001964	 -0.00003155
 88.00000000	 -0.00002099	  0.00000503	  0.00002764	  0.00001110	 -0.00002669	 -0.00002762	 -0.00002765	  0.00000414
 89.00000000	  0.00007132	  0.00005009	  0.00002350	 -0.00001516	  0.00003279	  0.00006958	  0.00009367	  0.00004005
 90.00000000	 -0.00002575	 -0.00002743	  0.00002549	  0.00000073	  0.00000128	 -0.00005079	 -0.00003378	 -0.00002199
 91.00000000	 -0.00007045	 -0.00005228	  0.00003176	 -0.00000801	  0.00002472	  0.00003314	 -0.00009251	 -0.00004182
 92.00000000	  0.00007072	  0.00005417	  0.00003188	 -0.00001242	  0.00003038	 -0.00008523	  0.00009287	  0.00004334
 93.00000000	 -0.00002011	  0.00000287	  0.00002762	  0.00001103	 -0.00002981	  0.00007960	 -0.00002648	  0.00000239
 94.00000000	 -0.00003724	  0.00004253	  0.00000322	  0.00003015	 -0.00007684	  0.00002857	 -0.00004919	  0.00003441
 95.00000000	  0.00000145	  0.00000163	  0.00000564	 -0.00001542	  0.00004194	 -0.00005311	  0.00000190	  0.00000131
 96.00000000	  0.00001597	 -0.00003942	  0.00003074	 -0.00002171	  0.00005570	 -0.00000860	  0.00002118	 -0.00003181
 97.00000000	  0.00001594	 -0.00003941	  0.00009054	 -0.00002654	  0.00006468	  0.00011269	  0.00002114	 -0.00003180
 98.00000000	 -0.00001711	  0.00003968	  0.00008503	  0.00004464	 -0.00011217	 -0.00010716	 -0.00002268	  0.00003203
 99.00000000	  0.00004082	 -0.00000979	  0.00000014	 -0.00000170	  0.00000140	  0.00000011	  0.00005377	 -0.00000805
100.00000000	 -0.00007636	 -0.00008447	  0.00002123	  0.00000212	  0.00000072	 -0.00004516	 -0.00010016	 -0.00006772
101.00000000	  0.00003670	  0.00009397	  0.00001558	 -0.00001851	  0.00004535	  0.00003955	  0.00004793	  0.00007553
102.00000000	  0.00001982	 -0.00000475	  0.00003314	  0.00000699	 -0.00002079	  0.00003313	  0.00002610	 -0.00000391
103.00000000	  0.00001984	 -0.00000475	  0.00002749	  0.00000940	 -0.00002529	 -0.00002751	  0.00002613	 -0.00000391
104.00000000	 -0.00002340	 -0.00002799	  0.00003652	 -0.00003544	  0.00009623	 -0.00006182	 -0.00003069	 -0.00002245
105.00000000	 -0.00004560	 -0.00002265	  0.00006263	  0.00001201	 -0.00002958	  0.00004184	 -0.00005992	 -0.00001806
106.00000000	  0.00006395	  0.00001630	  0.00003678	  0.00003108	 -0.00008929	  0.00010952	  0.00008411	  0.00001286
107.00000000	 -0.00005033	 -0.00005512	  0.00000414	  0.00000405	 -0.00000610	 -0.00004196	 -0.00006602	 -0.00004419
108.00000000	  0.00002692	  0.00002710	  0.00004065	 -0.00006258	  0.00016298	 -0.00002435	  0.00003532	  0.00002172
109.00000000	  0.00000243	  0.00003304	  0.00005175	  0.00007205	 -0.00018803	 -0.00002193	  0.00000307	  0.00002660
110.00000000	  0.00002747	  0.00003096	  0.00001973	 -0.00003659	  0.00009576	 -0.00005442	  0.00003604	  0.00002482
111.00000000	 -0.00002012	  0.00000284	  0.00002762	 -0.00001206	  0.00003082	  0.00007511	 -0.00002649	  0.00000237
112.00000000	 -0.00005654	 -0.00008921	  0.00001191	  0.00000911	 -0.00002007	 -0.00001203	 -0.00007405	 -0.00007163
113.00000000	  0.00004703	  0.00002429	  0.00000763	 -0.00002985	  0.00007601	 -0.00003431	  0.00006180	  0.00001938
114.00000000	 -0.00003753	  0.00004067	  0.00006398	  0.00007127	 -0.00018808	  0.00014577	 -0.00004957	  0.00003291
115.00000000	  0.00004587	  0.00002454	  0.00006276	 -0.00003243	  0.00008467	 -0.00009395	  0.00006027	  0.00001957
116.00000000	 -0.00002071	  0.00000694	  0.00002776	  0.00001376	 -0.00003222	 -0.00007521	 -0.00002728	  0.00000568
117.00000000	  0.00001686	 -0.00004161	  0.00003612	 -0.00004246	  0.00010872	  0.00003349	  0.00002236	 -0.00003358
118.00000000	 -0.00002192	  0.00000721	  0.00009902	  0.00000393	 -0.00001008	  0.00004706	 -0.00002887	  0.00000589
119.00000000	  0.00001571	 -0.00004128	  0.00009124	  0.00002422	 -0.00006454	 -0.00001263	  0.00002085	 -0.00003331
120.00000000	  0.00000502	  0.00003436	  0.00005837	 -0.00001247	  0.00003163	  0.00003172	  0.00000646	  0.00002765
121.00000000	 -0.00000359	 -0.00003274	  0.00000337	 -0.00002846	  0.00007545	 -0.00002869	 -0.00000459	 -0.00002636
122.00000000	  0.00004944	  0.00005731	  0.00000124	  0.00001669	 -0.00004691	 -0.00000013	  0.00006484	  0.00004596
123.00000000	 -0.00009619	 -0.00007971	  0.00000627	 -0.00000728	  0.00002600	 -0.00001765	 -0.00012628	 -0.00006381
124.00000000	  0.00008166	 -0.00001954	  0.00000029	  0.00001968	 -0.00005782	  0.00000474	  0.00010755	 -0.00001607
125.00000000	 -0.00001480	  0.00003911	  0.00002522	 -0.00001946	  0.00005242	 -0.00000142	 -0.00001964	  0.00003156
126.00000000	 -0.00005231	  0.00007974	  0.00003207	  0.00003354	 -0.00008402	  0.00001861	 -0.00006917	  0.00006443
127.00000000	  0.00000504	  0.00003438	  0.00000227	  0.00001303	 -0.00003351	 -0.00002442	  0.00000649	  0.00002767
128.00000000	  0.00004084	 -0.00000979	  0.00006050	  0.00000071	 -0.00000310	 -0.00006053	  0.00005380	 -0.00000805
129.00000000	 -0.00001984	  0.00000472	  0.00002750	 -0.00003249	  0.00008593	  0.00002302	 -0.00002613	  0.00000388
130.00000000	 -0.00000119	  0.00000028	  0.00006614	  0.00001568	 -0.00004298	  0.00006614	 -0.00000157	  0.00000023
131.00000000	 -0.00001005	  0.00007157	  0.00002309	 -0.00000909	  0.00002444	  0.00002177	 -0.00001352	  0.00005768
132.00000000	 -0.00003578	 -0.00009614	  0.00008160	  0.00002327	 -0.00005747	 -0.00005359	 -0.00004671	 -0.00007728
133.00000000	  0.00002485	  0.00002963	  0.00003088	  0.00002001	 -0.00005430	  0.00000871	  0.00003260	  0.00002376
134.00000000	  0.00002072	 -0.00000698	  0.00003288	 -0.00003443	  0.00008837	  0.00001008	  0.00002730	 -0.00000571
135.00000000	 -0.00002459	 -0.00002768	  0.00002963	  0.00000332	 -0.00000738	  0.00000883	 -0.00003225	 -0.00002219
136.00000000	  0.00006209	 -0.00001290	  0.00002765	 -0.00001015	  0.00002255	 -0.00001987	  0.00008178	 -0.00001064
137.00000000	 -0.00001626	  0.00003747	  0.00003086	 -0.00000403	  0.00001047	  0.00005170	 -0.00002155	  0.00003024
138.00000000	 -0.00000055	 -0.00000387	  0.00006038	 -0.00002599	  0.00006721	  0.00003007	 -0.00000070	 -0.00000311
139.00000000	 -0.00003965	  0.00000954	  0.00000565	  0.00000670	 -0.00001456	 -0.00000112	 -0.00005222	  0.00000785
140.00000000	  0.00001148	 -0.00006993	  0.00003191	 -0.00000875	  0.00002199	 -0.00001424	  0.00001540	 -0.00005637
141.00000000	  0.00005561	 -0.00004891	  0.00003556	 -0.00000775	  0.00001412	  0.00005767	  0.00007339	 -0.00003963
142.00000000	 -0.00004053	  0.00001172	  0.00006091	  0.00002987	 -0.00007208	 -0.00010385	 -0.00005339	  0.00000961
143.00000000	  0.00005975	 -0.00001238	  0.00003868	 -0.00002015	  0.00004888	 -0.00001783	  0.00007869	 -0.00001021
144.00000000	 -0.00003490	  0.00004196	  0.00000780	 -0.00000601	  0.00001811	  0.00001754	 -0.00004610	  0.00003394
145.00000000	 -0.00006774	 -0.00001735	  0.00002013	  0.00004361	 -0.00010822	 -0.00004090	 -0.00008908	 -0.00001370
146.00000000	  0.00003671	  0.00009397	  0.00004505	 -0.00001610	  0.00004086	 -0.00002109	  0.00004795	  0.00007553
147.00000000	  0.00002459	  0.00002771	  0.00002963	  0.00001977	 -0.00005325	 -0.00000433	  0.00003226	  0.00002222
148.00000000	  0.00001980	 -0.00000475	  0.00009378	  0.00000457	 -0.00001630	  0.00009376	  0.00002608	 -0.00000390
149.00000000	 -0.00006040	 -0.00012385	  0.00000868	  0.00000108	  0.00000027	  0.00001140	 -0.00007899	 -0.00009950
150.00000000	  0.00007133	  0.00005008	  0.00003714	 -0.00001274	  0.00002829	  0.00000895	  0.00009369	  0.00004004
151.00000000	  0.00000028	  0.00000189	  0.00000012	 -0.00002043	  0.00005510	 -0.00005210	  0.00000036	  0.00000152
152.00000000	 -0.00006065	  0.00001453	  0.00003329	 -0.00000528	  0.00001939	 -0.00003324	 -0.00007987	  0.00001195
153.00000000	 -0.00002102	  0.00000504	  0.00009363	  0.00000628	 -0.00001770	  0.00009365	 -0.00002769	  0.00000414
154.00000000	  0.00003967	 -0.00000951	  0.00005498	  0.00001880	 -0.00005057	 -0.00005501	  0.00005225	 -0.00000782
155.00000000	 -0.00003078	 -0.00006178	  0.00002322	  0.00001079	 -0.00002585	 -0.00002187	 -0.00004026	 -0.00004963
156.00000000	  0.00001571	  0.00009900	  0.00001206	 -0.00000741	  0.00001866	  0.00001192	  0.00002028	  0.00007967
157.00000000	  0.00003989	 -0.00000761	  0.00012679	 -0.00000887	  0.00001801	  0.00007479	  0.00005254	 -0.00000629
158.00000000	 -0.00009527	 -0.00008189	  0.00005975	 -0.00000252	  0.00001389	 -0.00003169	 -0.00012506	 -0.00006556
159.00000000	  0.00004558	  0.00002265	  0.00000199	 -0.00001442	  0.00003407	  0.00001880	  0.00005989	  0.00001806
160.00000000	  0.00004082	 -0.00000978	  0.00000015	 -0.00000170	  0.00000140	  0.00000011	  0.00005377	 -0.00000805
161.00000000	 -0.00006183	  0.00001482	  0.00003285	  0.00001039	 -0.00002359	  0.00003290	 -0.00008144	  0.00001219
162.00000000	  0.00005510	  0.00008757	  0.00006691	  0.00000873	 -0.00002638	  0.00000451	  0.00007217	  0.00007030
163.00000000	  0.00000173	  0.00000355	  0.00000576	 -0.00001277	  0.00003640	 -0.00010071	  0.00000227	  0.00000285
164.00000000	 -0.00000979	 -0.00006681	  0.00000441	 -0.00000031	  0.00000084	  0.00000575	 -0.00001261	 -0.00005377
165.00000000	  0.00003942	  0.00012891	  0.00003632	  0.00003310	 -0.00008761	 -0.00003451	  0.00005136	  0.00010366
166.00000000	 -0.00011100	 -0.00004062	  0.00003151	 -0.00002674	  0.00007845	 -0.00001902	 -0.00014593	 -0.00003227
167.00000000	  0.00002718	 -0.00011122	  0.00000129	 -0.00001003	  0.00002258	  0.00002924	  0.00003622	 -0.00008969
168.00000000	  0.00003965	 -0.00000953	  0.00000566	 -0.00000670	  0.00001456	  0.00000113	  0.00005223	 -0.00000783
169.00000000	 -0.00005232	  0.00007974	  0.00002857	  0.00003112	 -0.00007952	  0.00007925	 -0.00006919	  0.00006444
170.00000000	  0.00000170	 -0.00013678	  0.00002432	 -0.00002973	  0.00007895	 -0.00007364	  0.00000280	 -0.00011017
171.00000000	  0.00001484	  0.00010118	  0.00006730	  0.00001575	 -0.00003884	 -0.00009079	  0.00001913	  0.00008143
172.00000000	  0.00004439	  0.00002297	  0.00006414	  0.00002434	 -0.00006955	  0.00008942	  0.00005834	  0.00001832
173.00000000	 -0.00006094	  0.00001262	  0.00002748	 -0.00001036	  0.00002943	  0.00007500	 -0.00008026	  0.00001042
174.00000000	  0.00000119	 -0.00000028	  0.00006615	 -0.00001567	  0.00004297	 -0.00006615	  0.00000156	 -0.00000023
175.00000000	  0.00008136	 -0.00002146	  0.00006104	  0.00001461	 -0.00004780	  0.00011294	  0.00010717	 -0.00001762
176.00000000	 -0.00004583	 -0.00002460	  0.00011915	 -0.00000649	  0.00002309	 -0.00009696	 -0.00006022	 -0.00001962
177.00000000	 -0.00005653	  0.00005109	  0.00009111	  0.00000057	  0.00000251	  0.00001703	 -0.00007462	  0.00004138
178.00000000	  0.00009556	 -0.00005648	  0.00001956	  0.00003680	 -0.00010262	 -0.00004047	  0.00012601	 -0.00004588
179.00000000	 -0.00010480	 -0.00000648	  0.00008435	 -0.00001113	  0.00003626	  0.00001614	 -0.00013792	 -0.00000481
180.00000000	  0.00009141	 -0.00009304	  0.00003796	  0.00000061	 -0.00001162	  0.00008670	  0.00012070	 -0.00007530
181.00000000	 -0.00000115	  0.00000025	  0.00011577	 -0.00000017	  0.00000416	 -0.00012026	 -0.00000151	  0.00000021
182.00000000	 -0.00000528	  0.00010400	  0.00003970	 -0.00001939	  0.00005261	 -0.00002021	 -0.00000736	  0.00008378
183.00000000	 -0.00001033	  0.00006965	  0.00002321	 -0.00001175	  0.00002998	  0.00006936	 -0.00001387	  0.00005614
184.00000000	 -0.00003975	 -0.00012280	  0.00010206	  0.00005980	 -0.00015389	 -0.00002867	 -0.00005181	 -0.00009874
185.00000000	 -0.00003001	 -0.00018840	  0.00020538	  0.00011319	 -0.00029410	 -0.00006200	 -0.00003873	 -0.00015160
186.00000000	 -0.00012807	 -0.00026595	  0.00046504	  0.00015817	 -0.00041147	  0.00013058	 -0.00016759	 -0.00021366
187.00000000	 -0.00004285	  0.00001215	  0.00001066	  0.00013276	 -0.00034449	 -0.00001898	 -0.00005652	  0.00000994
188.00000000	  0.00006965	  0.00027210	  0.00039320	 -0.00039449	  0.00102944	  0.00009961	  0.00009083	  0.00021873
189.00000000	  0.00004570	  0.00070994	  0.00004026	 -0.00025666	  0.00067357	  0.00003088	  0.00005726	  0.00057167
190.00000000	  0.00003819	 -0.00002672	  0.00030432	  0.00008947	 -0.00023480	 -0.00008304	  0.00005036	 -0.00002167
191.00000000	 -0.00007947	 -0.00008160	  0.00000495	  0.00017448	 -0.00045026	 -0.00005397	 -0.00010427	 -0.00006542
192.00000000	 -0.00009179	 -0.00004917	  0.00030750	  0.00003467	 -0.00009551	  0.00036531	 -0.00012065	 -0.00003924
193.00000000	 -0.00020344	  0.00025770	  0.00071495	 -0.00026264	  0.00068531	  0.00065537	 -0.00026895	  0.00020840
194.00000000	 -0.00042793	  0.00076830	  0.00117742	 -0.00025049	  0.00066404	  0.00089428	 -0.00056703	  0.00062104
195.00000000	  0.00012962	  0.00069522	  0.00018827	 -0.00027062	  0.00069881	  0.00012648	  0.00016649	  0.00055993
196.00000000	  0.00006421	 -0.00001427	  0.00086062	 -0.00006422	  0.00016402	 -0.00002095	  0.00008441	 -0.00001178
197.00000000	 -0.00040898	  0.00006573	  0.00196630	 -0.00006491	  0.00016986	  0.00098338	 -0.00053736	  0.00005453
198.00000000	 -0.00045566	  0.00014606	  0.00208704	 -0.00000359	  0.00000974	  0.00108452	 -0.00059918	  0.00011965
199.00000000	 -0.00047840	 -0.00001368	  0.00216065	  0.00006479	 -0.00016350	  0.00090801	 -0.00062798	 -0.00000913
200.00000000	 -0.00049897	 -0.00017389	  0.00537670	  0.00064750	 -0.00169189	  0.00111734	 -0.00065410	 -0.00014014
201.00000000	 -0.00037902	 -0.00122256	  0.00784631	  0.00086679	 -0.00225828	  0.00013895	 -0.00048634	 -0.00098635
202.00000000	 -0.00051397	 -0.00131062	  0.01139169	  0.00100074	 -0.00260295	 -0.00037405	 -0.00066669	 -0.00106081
203.00000000	 -0.00036138	 -0.00173224	  0.01321421	  0.00129749	 -0.00340642	 -0.00169522	 -0.00047148	 -0.00139820
204.00000000	  0.00002993	 -0.00142368	  0.01495065	  0.00095094	 -0.00254518	 -0.00164845	  0.00003499	 -0.00113843
205.00000000	  0.00050483	 -0.00105634	  0.01571370	  0.00070573	 -0.00195907	 -0.00217968	  0.00065964	 -0.00082004
206.00000000	  0.00006267	 -0.00112909	  0.01791703	  0.00084569	 -0.00236303	 -0.00292895	  0.00005816	 -0.00089922
207.00000000	  0.00043888	 -0.00082685	  0.02103498	  0.00099484	 -0.00284215	 -0.00303280	  0.00055966	 -0.00062575
208.00000000	  0.00068754	  0.00083394	  0.02388451	  0.00083226	 -0.00251128	 -0.00355319	  0.00096084	  0.00073976
209.00000000	  0.00052281	 -0.00069465	  0.02734861	  0.00025477	 -0.00101226	 -0.00317823	  0.00065757	 -0.00049495
210.00000000	  0.00031140	 -0.00183983	  0.03171587	  0.00104193	 -0.00313357	 -0.00293185	  0.00027469	 -0.00144699
211.00000000	 -0.00028289	  0.00007961	  0.03392817	  0.00110450	 -0.00311238	 -0.00158232	 -0.00036994	  0.00001693
212.00000000	 -0.00058585	 -0.00220814	  0.03736309	  0.00135560	 -0.00371245	 -0.00121783	 -0.00102742	 -0.00193973
213.00000000	  0.00081664	 -0.00419663	  0.04270780	  0.00356608	 -0.00927810	  0.00009984	  0.00054408	 -0.00332975
214.00000000	 -0.00063963	 -0.00095685	  0.03661492	  0.00136199	 -0.00434304	 -0.00407830	 -0.00099451	 -0.00096322
215.00000000	  0.00143809	 -0.00133914	  0.03553793	  0.00127735	 -0.00348637	 -0.00054638	  0.00165529	 -0.00078675
216.00000000	 -0.00277029	 -0.00104684	  0.04396670	  0.00138071	 -0.00312515	  0.00058597	 -0.00380539	 -0.00169564
217.00000000	 -0.00047573	 -0.00430178	  0.05018020	  0.00310535	 -0.00833888	 -0.00281813	 -0.00146755	 -0.00400005
218.00000000	 -0.00011369	  0.00112448	  0.05214495	  0.00163751	 -0.00511010	 -0.00408773	  0.00010140	  0.00099622
219.00000000	  0.00201848	 -0.00476318	  0.05900603	  0.00367743	 -0.00832691	  0.00087441	  0.00140435	 -0.00378560
220.00000000	 -0.00019269	 -0.00239968	  0.06309269	  0.00234229	 -0.00610549	 -0.00276975	 -0.00082476	 -0.00242490
221.00000000	 -0.00210965	 -0.00008498	  0.06325676	 -0.00026579	  0.00110998	  0.00136429	 -0.00252274	 -0.00092805
222.00000000	  0.00259798	 -0.00255389	  0.06327528	  0.00110950	 -0.00290621	 -0.00156801	  0.00228978	 -0.00164805
223.00000000	  0.00030082	  0.00298127	  0.05659373	  0.00027980	 -0.00281587	 -0.00714374	  0.00116625	  0.00341010
224.00000000	 -0.00125671	 -0.00086901	  0.04580865	  0.00212665	 -0.00303975	  0.00337889	 -0.00161283	 -0.00148437
225.00000000	  0.00072591	 -0.00187849	  0.03976441	  0.00033047	 -0.00255525	 -0.00650144	  0.00020550	 -0.00190422
226.00000000	  0.00130413	 -0.00282532	  0.03841633	  0.00354519	 -0.00801299	 -0.00493541	  0.00049590	 -0.00285772
227.00000000	  0.00385121	 -0.00208080	  0.04175222	  0.00130205	 -0.00324584	 -0.00265169	  0.00328034	 -0.00103179
228.00000000	  0.00204983	  0.00023130	  0.04739078	  0.00044828	 -0.00241931	 -0.00584033	  0.00208092	  0.00108773
229.00000000	  0.00199335	 -0.00118635	  0.05894748	  0.00175350	 -0.00393827	 -0.00352453	  0.00159246	 -0.00073916
230.00000000	  0.00202438	 -0.00217663	  0.06245223	  0.00405792	 -0.00759395	 -0.00352248	  0.00135011	 -0.00209587
231.00000000	  0.00273971	 -0.00399228	  0.06357972	  0.00467907	 -0.00827478	 -0.00298052	  0.00160094	 -0.00437818
232.00000000	  0.00319676	 -0.00116594	  0.06685540	  0.00694080	 -0.01069181	  0.00310803	  0.00254425	 -0.00056162
233.00000000	  0.00263142	 -0.00320918	  0.06341036	  0.00516140	 -0.00777001	  0.00360874	  0.00174415	 -0.00365785
234.00000000	  0.00010194	 -0.00219227	  0.05840303	  0.00473647	 -0.00704151	  0.00365012	 -0.00015847	 -0.00299078
235.00000000	  0.00073436	 -0.00122611	  0.05956908	  0.00474589	 -0.00701293	  0.00535480	  0.00050070	 -0.00154593
236.00000000	  0.00229582	 -0.00277218	  0.06073128	  0.00517341	 -0.00792145	  0.00448354	  0.00173215	 -0.00345391
237.00000000	  0.00351852	 -0.00168210	  0.05651125	  0.00415808	 -0.00669143	 -0.00178976	  0.00277513	 -0.00188306
238.00000000	  0.00079130	 -0.00142300	  0.05750813	  0.00484905	 -0.00762502	  0.00071314	  0.00067287	 -0.00187245
239.00000000	  0.00202013	  0.00015602	  0.05248132	  0.00428084	 -0.00685748	  0.00062407	  0.00158702	  0.00031282
240.00000000	  0.00164025	  0.00032993	  0.04506387	  0.00424141	 -0.00680718	 -0.00036442	  0.00128002	  0.00046702
241.00000000	 -0.00027784	 -0.00040963	  0.04150154	  0.00208679	 -0.00336942	  0.00065992	 -0.00018214	 -0.00054041
242.00000000	  0.00346110	 -0.00026042	  0.04252314	  0.00374571	 -0.00620020	 -0.00047520	  0.00284484	 -0.00045459
243.00000000	  0.00220661	  0.00026897	  0.04075753	  0.00348155	 -0.00565117	 -0.00191599	  0.00177978	  0.00023158
244.00000000	  0.00226474	 -0.00003033	  0.04414135	  0.00378605	 -0.00614722	 -0.00248423	  0.00189944	 -0.00018981
245.00000000	  0.00142439	 -0.00093464	  0.04268887	  0.00380293	 -0.00636546	 -0.00077869	  0.00137846	 -0.00129568
246.00000000	 -0.00055476	  0.00027276	  0.02923419	  0.00443820	 -0.00746377	 -0.00030540	 -0.00052892	  0.00040004
247.00000000	  0.00125878	  0.00027494	  0.01998031	  0.00056645	 -0.00042535	 -0.00492866	  0.00105580	  0.00017455
248.00000000	  0.00000983	  0.00170463	  0.02280280	  0.00016501	  0.00011580	 -0.00333071	 -0.00029851	  0.00206521
249.00000000	  0.00048789	  0.00161392	  0.02105443	  0.00138438	 -0.00205301	 -0.00317578	  0.00013962	  0.00187365
250.00000000	  0.00076470	  0.00076474	  0.01740122	  0.00295116	 -0.00550618	  0.00182111	  0.00054898	  0.00079792
251.00000000	  0.00166522	 -0.00115086	  0.01541772	  0.00279462	 -0.00513348	  0.00086620	  0.00172938	 -0.00161197
252.00000000	 -0.00013123	 -0.00162336	  0.02208296	  0.00273416	 -0.00495812	  0.00093539	  0.00020126	 -0.00187244
253.00000000	 -0.00009963	 -0.00199717	  0.03250076	  0.00193611	 -0.00397903	  0.00340832	  0.00033889	 -0.00228536
254.00000000	  0.00063495	  0.00194817	  0.02877654	  0.00106231	 -0.00216903	  0.00069529	  0.00016980	  0.00211377
255.00000000	 -0.00149685	 -0.00098363	  0.01018009	 -0.00042733	  0.00016370	  0.00434502	 -0.00122948	 -0.00082873
256.00000000	  0.00090987	 -0.00083907	  0.00915082	  0.00266561	 -0.00514159	  0.00145944	  0.00103360	 -0.00113936
257.00000000	 -0.00040310	 -0.00157290	  0.00261444	  0.00121412	 -0.00201928	 -0.00072234	 -0.00007591	 -0.00169287
258.00000000	 -0.00000870	  0.00039865	  0.02039359	 -0.00088440	  0.00144921	  0.00097694	 -0.00009698	  0.00044974
259.00000000	 -0.00025739	  0.00074557	  0.02200386	 -0.00095426	  0.00163461	  0.00071778	 -0.00042015	  0.00088056
260.00000000	 -0.00073327	  0.00051410	  0.00029419	  0.00105819	 -0.00192948	 -0.00005475	 -0.00082320	  0.00072426
261.00000000	 -0.00019911	 -0.00192388	  0.02229768	  0.00018974	 -0.00040355	  0.00076390	  0.00015834	 -0.00210222
262.00000000	  0.00049300	 -0.00204282	  0.00101386	  0.00127083	 -0.00259894	  0.00164203	  0.00089539	 -0.00239250
263.00000000	  0.00169765	  0.00316767	  0.03478454	  0.00404358	 -0.00739969	 -0.00192162	  0.00088438	  0.00321851
264.00000000	  0.00012775	 -0.00164733	  0.02399400	 -0.00177578	  0.00360638	 -0.00096859	  0.00051379	 -0.00182224
265.00000000	  0.00000539	  0.00207798	  0.01139815	 -0.00234009	  0.00367798	  0.00348649	 -0.00040518	  0.00227285
266.00000000	 -0.00223045	 -0.00248428	  0.03392588	  0.00147854	 -0.00311232	  0.00330611	 -0.00175912	 -0.00219080
267.00000000	  0.00158522	 -0.00109096	  0.00447011	  0.00235490	 -0.00449925	  0.00044689	  0.00178085	 -0.00155586
268.00000000	  0.00125715	  0.00250062	  0.04160562	  0.00430942	 -0.00834619	  0.00041918	  0.00060212	  0.00252517
269.00000000	 -0.00059760	 -0.00280341	  0.02551252	 -0.00189579	  0.00436110	 -0.00300739	  0.00007906	 -0.00291054
270.00000000	  0.00032297	  0.00268768	  0.00289855	 -0.00168205	  0.00305376	  0.00015819	 -0.00024218	  0.00282415
271.00000000	 -0.00077016	  0.00074892	  0.03741778	 -0.00087991	  0.00125840	  0.00220129	 -0.00090145	  0.00101104
272.00000000	 -0.00188757	 -0.00529911	  0.02900449	  0.00114113	 -0.00225563	  0.00236374	 -0.00089582	 -0.00538462
273.00000000	  0.00301340	  0.00335903	  0.01615055	  0.00064116	 -0.00185622	  0.00188810	  0.00219723	  0.00311456
274.00000000	 -0.00018250	 -0.00089580	  0.03222806	  0.00126192	 -0.00160214	 -0.00384891	  0.00004383	 -0.00094504
275.00000000	  0.00168862	  0.00143778	  0.01214609	 -0.00017596	 -0.00025985	  0.00220650	  0.00137514	  0.00120690
276.00000000	 -0.00034013	 -0.00091092	  0.03512791	 -0.00402641	  0.00673813	  0.00472802	 -0.00017631	 -0.00090571
277.00000000	 -0.00335552	 -0.00278656	  0.03462322	  0.00056159	 -0.00127526	  0.00290106	 -0.00279293	 -0.00223460
278.00000000	  0.00268785	  0.00189928	  0.01200265	 -0.00576643	  0.00981273	  0.00355074	  0.00218431	  0.00156670
279.00000000	 -0.00370755	 -0.00155473	  0.05245425	  0.00660582	 -0.01147486	 -0.00286101	 -0.00323048	 -0.00109415
280.00000000	  0.00210335	  0.00006932	  0.02000245	 -0.00140286	  0.00309969	 -0.00273802	  0.00211226	 -0.00035876
281.00000000	 -0.00166739	  0.00122787	  0.02263974	 -0.00091847	  0.00118003	  0.00305491	 -0.00193326	  0.00176148
282.00000000	 -0.00195406	 -0.00258415	  0.04726011	 -0.00198667	  0.00328155	  0.00309834	 -0.00148070	 -0.00231952
283.00000000	 -0.00007103	 -0.00142110	  0.00299174	 -0.00001768	 -0.00094658	  0.00525615	  0.00024899	 -0.00158482
284.00000000	  0.00101417	  0.00024065	  0.03229206	  0.00222120	 -0.00407944	 -0.00058924	  0.00093955	  0.00006689
285.00000000	  0.00161634	  0.00001461	  0.01949085	  0.00008187	 -0.00004695	 -0.00101649	  0.00161960	 -0.00033147
286.00000000	 -0.00132888	  0.00063137	  0.01602671	  0.00064584	 -0.00137203	  0.00111393	 -0.00147507	  0.00103265
287.00000000	 -0.00096573	 -0.00148007	  0.03656576	 -0.00110793	  0.00188970	  0.00129620	 -0.00066975	 -0.00138509
288.00000000	  0.00017327	  0.00124943	  0.00344748	 -0.00208547	  0.00384078	 -0.00020574	 -0.00011599	  0.00136932
289.00000000	 -0.00098542	  0.00235278	  0.02967808	 -0.00038595	  0.00203943	 -0.00666062	 -0.00159621	  0.00283575
290.00000000	  0.00113348	  0.00080003	  0.02141334	 -0.00291257	  0.00618535	 -0.00395004	  0.00092258	  0.00065658
291.00000000	 -0.00154115	  0.00006328	  0.01475832	 -0.00097723	  0.00143702	  0.00237101	 -0.00154023	  0.00044928
292.00000000	 -0.00064684	 -0.00227440	  0.03562257	 -0.00021143	 -0.00024970	  0.00387771	 -0.00020222	 -0.00239230
293.00000000	  0.00006919	 -0.00057122	  0.00132010	  0.00039859	 -0.00102809	  0.00161004	  0.00019672	 -0.00066644
294.00000000	  0.00189133	  0.00006811	  0.02920662	  0.00247518	 -0.00450209	 -0.00092286	  0.00183607	 -0.00030012
295.00000000	 -0.00063974	  0.00000478	  0.00677815	  0.00036492	 -0.00060346	 -0.00018765	 -0.00063523	  0.00014966
296.00000000	  0.00108710	  0.00079659	  0.04098506	  0.00090877	 -0.00192981	  0.00093436	  0.00091998	  0.00059638
297.00000000	 -0.00156814	 -0.00285622	  0.04810919	 -0.00239835	  0.00468391	 -0.00108885	 -0.00101339	 -0.00283997
298.00000000	 -0.00215911	  0.00438135	  0.01728021	 -0.00635011	  0.01210886	 -0.00396614	 -0.00289986	  0.00562850
299.00000000	 -0.00331775	  0.00144503	  0.00191754	 -0.00418471	  0.00823398	 -0.00363585	 -0.00339543	  0.00240123
300.00000000	 -0.00022291	 -0.00097311	  0.01011054	 -0.00541833	  0.00972704	 -0.00047284	 -0.00001336	 -0.00111441
301.00000000	  0.00093344	  0.00019452	  0.03652540	  0.00008470	  0.00000736	 -0.00129991	  0.00081473	  0.00001219
302.00000000	  0.00226873	 -0.00022396	  0.05069536	  0.00063166	 -0.00122481	  0.00020825	  0.00204761	 -0.00081892
303.00000000	 -0.00061988	  0.00009873	  0.04738318	  0.00007527	  0.00031410	 -0.00325869	 -0.00055240	  0.00025664
304.00000000	 -0.00091801	  0.00207589	  0.03968501	 -0.00361679	  0.00678739	 -0.00635406	 -0.00100857	  0.00278560
305.00000000	 -0.00271139	  0.00157297	  0.03664258	 -0.00596187	  0.01050269	 -0.00486982	 -0.00241733	  0.00246154
306.00000000	 -0.00238203	  0.00152133	  0.04157950	 -0.00559226	  0.00983612	 -0.00707681	 -0.00205755	  0.00233493
307.00000000	 -0.00082262	  0.00241921	  0.04645271	 -0.00502403	  0.00858825	 -0.00743366	 -0.00074263	  0.00330873
308.00000000	 -0.00008756	  0.00205688	  0.04203078	 -0.00561343	  0.00937096	 -0.00905234	 -0.00008704	  0.00277307
309.00000000	 -0.00147059	  0.00268752	  0.03543608	 -0.00730572	  0.01179164	 -0.00472624	 -0.00112525	  0.00375606
310.00000000	 -0.00346013	  0.00304249	  0.03113692	 -0.00876870	  0.01399809	 -0.00420861	 -0.00260592	  0.00434190
311.00000000	 -0.00298522	  0.00107639	  0.03141476	 -0.00711275	  0.01121531	 -0.00237751	 -0.00225043	  0.00156078
312.00000000	 -0.00100852	  0.00041477	  0.03721136	 -0.00416123	  0.00648160	  0.00027118	 -0.00074194	  0.00058998
313.00000000	 -0.00091634	  0.00093948	  0.03993871	 -0.00336535	  0.00518259	 -0.00071105	 -0.00060205	  0.00132339
314.00000000	 -0.00101477	  0.00045731	  0.03495176	 -0.00326707	  0.00505829	 -0.00023946	 -0.00072561	  0.00060192
315.00000000	 -0.00109142	  0.00015878	  0.02978365	 -0.00474934	  0.00731521	 -0.00097489	 -0.00082514	  0.00013950
316.00000000	 -0.00084745	  0.00095849	  0.02441673	 -0.00309765	  0.00469228	 -0.00111761	 -0.00050894	  0.00129624
317.00000000	  0.00039384	  0.00056030	  0.02303447	 -0.00236058	  0.00338267	 -0.00252066	  0.00040718	  0.00086109
318.00000000	  0.00071054	  0.00085103	  0.02381678	 -0.00107091	  0.00135257	 -0.00243604	  0.00072677	  0.00133209
319.00000000	  0.00154841	  0.00047809	  0.02511907	 -0.00144971	  0.00192160	 -0.00217175	  0.00133916	  0.00093403
320.00000000	 -0.00168516	  0.00145777	  0.02932230	 -0.00294502	  0.00414018	 -0.00370663	 -0.00101863	  0.00180591
321.00000000	  0.00217408	 -0.00096957	  0.03458537	  0.00014436	 -0.00033186	 -0.00029208	  0.00152779	 -0.00097960
322.00000000	  0.00021624	  0.00013175	  0.04222804	  0.00189691	 -0.00355409	 -0.00326416	  0.00022082	  0.00022976
323.00000000	  0.00205912	 -0.00093622	  0.04292021	  0.00096252	 -0.00175975	 -0.00073408	  0.00147780	 -0.00082885
324.00000000	  0.00294830	 -0.00134959	  0.04000640	 -0.00096642	  0.00129692	 -0.00082605	  0.00216075	 -0.00109490
325.00000000	  0.00017331	 -0.00045459	  0.03725487	 -0.00082614	  0.00154789	  0.00078399	 -0.00000351	 -0.00056177
326.00000000	 -0.00033327	 -0.00020852	  0.04086223	 -0.00084367	  0.00181354	  0.00152500	 -0.00038953	 -0.00036801
327.00000000	  0.00052767	 -0.00063361	  0.04667416	 -0.00076385	  0.00187034	  0.00221919	  0.00025757	 -0.00066297
328.00000000	 -0.00074670	  0.00008159	  0.05294199	 -0.00287743	  0.00492252	 -0.00093714	 -0.00070792	 -0.00011926
329.00000000	 -0.00201905	  0.00270261	  0.05635176	 -0.00633929	  0.01088883	 -0.00295942	 -0.00090978	  0.00269520
330.00000000	 -0.00119301	  0.00042641	  0.05885317	 -0.00322213	  0.00494739	 -0.00383379	 -0.00107707	  0.00012956
331.00000000	 -0.00106805	  0.00171298	  0.05464391	 -0.00714198	  0.01286686	 -0.00349697	 -0.00040072	  0.00164715
332.00000000	 -0.00193810	  0.00010034	  0.05048782	 -0.00033643	  0.00166199	  0.00246964	 -0.00215102	 -0.00054102
333.00000000	  0.00003010	  0.00153495	  0.05218775	 -0.00388068	  0.00675160	 -0.00363351	  0.00072796	  0.00170357
334.00000000	 -0.00061550	  0.00170508	  0.05599631	 -0.00309141	  0.00571085	 -0.00265615	  0.00003395	  0.00162040
335.00000000	 -0.00143935	  0.00291374	  0.05556632	 -0.00308793	  0.00552475	 -0.00390086	 -0.00048214	  0.00254605
336.00000000	 -0.00050787	  0.00207727	  0.06118707	 -0.00279363	  0.00539403	 -0.00301163	  0.00027523	  0.00191833
337.00000000	 -0.00137013	  0.00328560	  0.05541695	 -0.00400259	  0.00856520	 -0.00325464	 -0.00041051	  0.00275609
338.00000000	  0.00161344	  0.00411814	  0.04276773	 -0.00396495	  0.00800228	 -0.00438602	  0.00378910	  0.00437252
339.00000000	 -0.00231189	  0.00368925	  0.03823189	 -0.00316989	  0.00735991	 -0.00237975	 -0.00174022	  0.00271759
340.00000000	 -0.00044234	  0.00223288	  0.02971465	 -0.00343130	  0.00806344	 -0.00219691	  0.00019029	  0.00189734
341.00000000	 -0.00160087	  0.00307902	  0.02651993	 -0.00298214	  0.00732112	 -0.00163429	 -0.00114836	  0.00230345
342.00000000	 -0.00020775	  0.00092563	  0.02648757	 -0.00299431	  0.00793220	  0.00018889	  0.00001931	  0.00076362
343.00000000	 -0.00256128	  0.00152254	  0.02935394	 -0.00181581	  0.00524728	  0.00056831	 -0.00306008	  0.00068136
344.00000000	 -0.00169055	  0.00209657	  0.03319227	 -0.00205670	  0.00570910	  0.00004035	 -0.00171420	  0.00140933
345.00000000	 -0.00186839	  0.00081079	  0.03234071	 -0.00135028	  0.00474140	  0.00328753	 -0.00238407	  0.00029331
346.00000000	 -0.00097046	  0.00136264	  0.03468889	 -0.00228432	  0.00668508	  0.00117851	 -0.00100495	  0.00095102
347.00000000	 -0.00160802	  0.00307502	  0.03171397	 -0.00212486	  0.00616175	  0.00046223	 -0.00153228	  0.00224860
348.00000000	 -0.00040057	  0.00342455	  0.03030485	 -0.00194494	  0.00535063	 -0.00065376	  0.00017664	  0.00271428
349.00000000	 -0.00132342	  0.00153926	  0.02553824	 -0.00176643	  0.00508083	  0.00004874	 -0.00156722	  0.00105328
350.00000000	  0.00135792	  0.00080539	  0.02043196	 -0.00148034	  0.00440251	  0.00238864	  0.00205428	  0.00081503
351.00000000	 -0.00169132	 -0.00067413	  0.01799351	 -0.00160738	  0.00488378	  0.00169790	 -0.00248375	 -0.00073021
352.00000000	  0.00041126	  0.00080321	  0.01725015	 -0.00141158	  0.00402490	  0.00082872	  0.00069091	  0.00067907
353.00000000	 -0.00068380	  0.00239267	  0.01584657	 -0.00176108	  0.00484846	 -0.00137849	 -0.00064825	  0.00182699
354.00000000	  0.00056086	  0.00063606	  0.01286027	 -0.00183020	  0.00501375	 -0.00045533	  0.00085667	  0.00055444
355.00000000	 -0.00064765	  0.00265167	  0.01252023	 -0.00198212	  0.00551471	 -0.00062430	 -0.00060466	  0.00204416
356.00000000	  0.00074230	  0.00316202	  0.01324493	 -0.00294501	  0.00796278	 -0.00154234	  0.00135115	  0.00256599
357.00000000	 -0.00010170	  0.00620950	  0.01563241	 -0.00395137	  0.01062937	 -0.00284966	  0.00047830	  0.00493786
358.00000000	  0.00083573	  0.00396197	  0.01077259	 -0.00326931	  0.00865804	 -0.00164164	  0.00148371	  0.00322853
359.00000000	  0.00080772	  0.00139475	  0.00961081	 -0.00164496	  0.00423570	 -0.00173106	  0.00120119	  0.00117358
360.00000000	  0.00050902	  0.00260306	  0.01270126	 -0.00188993	  0.00487519	 -0.00208018	  0.00089820	  0.00212353
361.00000000	  0.00070286	  0.00183677	  0.01571044	 -0.00197170	  0.00505708	 -0.00253321	  0.00108448	  0.00151600
362.00000000	  0.00085859	  0.00097677	  0.01377580	 -0.00126861	  0.00325916	 -0.00026376	  0.00121007	  0.00082744
363.00000000	  0.00090506	  0.00026692	  0.01690896	 -0.00111177	  0.00282956	 -0.00078775	  0.00121393	  0.00024792
364.00000000	  0.00005987	  0.00156025	  0.01583192	 -0.00146470	  0.00382853	  0.00010178	  0.00017580	  0.00126032
365.00000000	  0.00030329	  0.00026173	  0.00920912	  0.00012735	 -0.00036643	 -0.00028092	  0.00041148	  0.00022006
366.00000000	  0.00048845	 -0.00087875	  0.00362184	  0.00041426	 -0.00112309	 -0.00038723	  0.00060816	 -0.00069227
367.00000000	  0.00050291	 -0.00034452	  0.00377512	 -0.00055426	  0.00140455	 -0.00128129	  0.00064893	 -0.00026137
368.00000000	  0.00044162	  0.00062558	  0.00196109	 -0.00066661	  0.00169131	 -0.00139423	  0.00060347	  0.00051977
369.00000000	  0.00032907	 -0.00070769	  0.00071179	 -0.00019552	  0.00048557	 -0.00002484	  0.00040693	 -0.00055907
370.00000000	 -0.00022251	 -0.00062978	  0.00025320	 -0.00000067	  0.00003328	  0.00094009	 -0.00031484	 -0.00051635
371.00000000	 -0.00028055	 -0.00034690	  0.00235823	 -0.00023712	  0.00065304	  0.00164143	 -0.00038100	 -0.00028855
372.00000000	  0.00014311	 -0.00060903	  0.00350248	 -0.00071434	  0.00185472	  0.00077847	  0.00016620	 -0.00048822
373.00000000	 -0.00003771	  0.00060944	  0.00447716	 -0.00051994	  0.00134741	  0.00140104	 -0.00002923	  0.00049195
374.00000000	 -0.00030111	 -0.00046758	  0.00541936	 -0.00094627	  0.00248521	  0.00079572	 -0.00040677	 -0.00038366
375.00000000	  0.00009234	  0.00059424	  0.00460139	 -0.00091501	  0.00234861	  0.00093803	  0.00013514	  0.00048309
376.00000000	 -0.00034428	  0.00028924	  0.00320886	 -0.00097357	  0.00253763	  0.00063256	 -0.00044074	  0.00023042
377.00000000	 -0.00031019	  0.00029619	  0.00011886	 -0.00081494	  0.00213166	 -0.00038335	 -0.00039674	  0.00023593
378.00000000	 -0.00015114	 -0.00039448	  0.00318320	 -0.00083904	  0.00217178	  0.00010415	 -0.00020037	 -0.00032455
379.00000000	 -0.00051860	  0.00050009	  0.00566598	 -0.00078398	  0.00204881	  0.00041790	 -0.00066089	  0.00039571
380.00000000	 -0.00043086	 -0.00071243	  0.00844165	 -0.00035166	  0.00093975	  0.00056919	 -0.00056243	 -0.00059545
381.00000000	 -0.00093445	  0.00086315	  0.00349160	 -0.00001215	  0.00009670	  0.00165445	 -0.00118158	  0.00068270
382.00000000	  0.00034358	 -0.00005769	  0.00584521	 -0.00044227	  0.00109531	  0.00081497	  0.00043894	 -0.00004244
383.00000000	  0.00035974	  0.00038406	  0.00670593	 -0.00037300	  0.00092173	 -0.00038132	  0.00047002	  0.00031836
384.00000000	  0.00035910	  0.00010151	  0.00788578	 -0.00067939	  0.00170208	 -0.00017753	  0.00046156	  0.00008539
385.00000000	  0.00033681	  0.00010679	  0.00944474	 -0.00024113	  0.00059205	 -0.00046201	  0.00043240	  0.00008793
386.00000000	  0.00023381	 -0.00087927	  0.00592623	  0.00073367	 -0.00187162	 -0.00024805	  0.00028692	 -0.00072028
387.00000000	  0.00056247	 -0.00282876	  0.00064438	  0.00207209	 -0.00527201	 -0.00190842	  0.00070517	 -0.00230607
388.00000000	  0.00054534	 -0.00139314	  0.00257334	  0.00113942	 -0.00293024	 -0.00166213	  0.00068772	 -0.00113005
389.00000000	  0.00001099	 -0.00076637	  0.00026570	  0.00048635	 -0.00125485	  0.00015174	  0.00000589	 -0.00062298
390.00000000	 -0.00013476	 -0.00118779	  0.00013948	  0.00066916	 -0.00171702	  0.00020245	 -0.00018707	 -0.00096598
391.00000000	 -0.00011306	 -0.00126482	  0.00005598	  0.00085010	 -0.00220220	  0.00067226	 -0.00016026	 -0.00102661
392.00000000	 -0.00024881	 -0.00154721	  0.00021818	  0.00105423	 -0.00272315	  0.00046455	 -0.00033929	 -0.00125441
393.00000000	 -0.00038614	 -0.00126009	  0.00019764	  0.00087032	 -0.00223445	  0.00010385	 -0.00051684	 -0.00102144
394.00000000	 -0.00001812	 -0.00075562	  0.00099367	  0.00056674	 -0.00149126	  0.00048555	 -0.00003038	 -0.00060961
395.00000000	 -0.00013008	 -0.00085447	  0.00027383	  0.00029838	 -0.00077781	  0.00013894	 -0.00017876	 -0.00068981
396.00000000	 -0.00025022	 -0.00019778	  0.00022218	  0.00018753	 -0.00046823	  0.00001506	 -0.00033066	 -0.00016176
397.00000000	 -0.00005924	 -0.00009206	  0.00019682	  0.00006633	 -0.00017534	  0.00028232	 -0.00007875	 -0.00007470
398.00000000	  0.00010919	 -0.00009551	  0.00004167	  0.00001142	 -0.00003901	 -0.00009226	  0.00014265	 -0.00007587
399.00000000	 -0.00012329	  0.00027130	  0.00003323	  0.00002738	 -0.00005795	  0.00004376	 -0.00015951	  0.00021728
400.00000000	  0.00012431	  0.00007469	  0.00018258	 -0.00018572	  0.00048084	 -0.00028225	  0.00016412	  0.00006134
401.00000000	  0.00017099	  0.00023656	  0.00001818	 -0.00024138	  0.00061919	 -0.00012116	  0.00022690	  0.00019226
402.00000000	 -0.00005681	  0.00041717	  0.00028863	 -0.00005590	  0.00015694	 -0.00006579	 -0.00007041	  0.00033564
403.00000000	  0.00018886	 -0.00014948	  0.00012973	  0.00002277	 -0.00008038	  0.00006735	  0.00024651	 -0.00011861
404.00000000	 -0.00015323	 -0.00025146	  0.00019791	  0.00014158	 -0.00035409	 -0.00013889	 -0.00020364	 -0.00020417
405.00000000	  0.00004228	 -0.00000078	  0.00024132	 -0.00002290	  0.00005465	  0.00004647	  0.00005552	 -0.00000019
406.00000000	  0.00021994	  0.00014737	  0.00024455	 -0.00007243	  0.00017439	 -0.00020744	  0.00029035	  0.00012094
407.00000000	 -0.00003889	  0.00040444	  0.00004791	 -0.00015750	  0.00042433	 -0.00025290	 -0.00004696	  0.00032553
408.00000000	  0.00009975	  0.00007880	  0.00007555	 -0.00005312	  0.00013223	 -0.00010916	  0.00013174	  0.00006457
409.00000000	 -0.00005284	 -0.00029572	  0.00022671	  0.00012864	 -0.00033839	  0.00022688	 -0.00007243	 -0.00023891
410.00000000	 -0.00001210	 -0.00029858	  0.00017212	  0.00017873	 -0.00046874	  0.00003411	 -0.00001897	 -0.00024071
411.00000000	  0.00000819	 -0.00035061	  0.00017740	  0.00004636	 -0.00013121	  0.00024733	  0.00000711	 -0.00028236
412.00000000	  0.00001598	  0.00020579	  0.00018509	 -0.00012721	  0.00033852	 -0.00025626	  0.00002315	  0.00016596
413.00000000	  0.00000803	  0.00054832	  0.00018664	 -0.00016114	  0.00042910	 -0.00017598	  0.00001639	  0.00044196
414.00000000	 -0.00000821	  0.00020154	  0.00026517	 -0.00006075	  0.00016423	 -0.00013688	 -0.00000859	  0.00016237
415.00000000	  0.00002233	 -0.00034905	  0.00017567	  0.00006487	 -0.00017783	  0.00013672	  0.00002563	 -0.00028111
416.00000000	 -0.00002363	 -0.00026225	  0.00024388	  0.00011804	 -0.00031107	  0.00012651	 -0.00003376	 -0.00021160
417.00000000	 -0.00006190	 -0.00011925	  0.00007172	  0.00009470	 -0.00024338	  0.00004606	 -0.00008255	 -0.00009674
418.00000000	  0.00017794	  0.00004561	  0.00006777	 -0.00000762	  0.00000001	  0.00014539	  0.00023420	  0.00003858
419.00000000	 -0.00014251	  0.00028043	  0.00012779	 -0.00011024	  0.00030805	 -0.00017335	 -0.00018422	  0.00022448
420.00000000	 -0.00001974	  0.00027894	  0.00005002	 -0.00005718	  0.00015428	 -0.00002309	 -0.00002299	  0.00022460
421.00000000	 -0.00003229	  0.00004427	  0.00001599	 -0.00004418	  0.00011967	 -0.00004281	 -0.00004192	  0.00003534
422.00000000	  0.00010405	 -0.00026519	  0.00006009	  0.00005611	 -0.00015888	  0.00000135	  0.00013381	 -0.00021263
423.00000000	  0.00002885	 -0.00021226	  0.00011125	  0.00005036	 -0.00013805	  0.00007798	  0.00003565	 -0.00017075
424.00000000	 -0.00000148	  0.00000049	  0.00005405	  0.00004368	 -0.00011262	 -0.00004948	 -0.00000193	  0.00000038
425.00000000	 -0.00000328	 -0.00004046	  0.00000946	 -0.00007870	  0.00020276	  0.00010345	 -0.00000474	 -0.00003264
426.00000000	 -0.00008888	  0.00036919	  0.00006277	  0.00000188	  0.00000893	 -0.00007124	 -0.00011282	  0.00029660
427.00000000	  0.00006970	  0.00005073	  0.00003431	 -0.00002306	  0.00005346	  0.00002320	  0.00009204	  0.00004162
428.00000000	 -0.00008306	 -0.00011394	  0.00007630	  0.00004116	 -0.00009791	 -0.00011551	 -0.00011023	 -0.00009270
429.00000000	 -0.00000092	 -0.00027893	  0.00019844	  0.00001450	 -0.00004662	  0.00026209	 -0.00000411	 -0.00022479
430.00000000	  0.00007752	 -0.00004824	  0.00000255	  0.00001417	 -0.00004224	 -0.00011337	  0.00010128	 -0.00003806
431.00000000	 -0.00006970	 -0.00002038	  0.00004300	  0.00001342	 -0.00003118	  0.00011309	 -0.00009174	 -0.00001715
432.00000000	  0.00008567	  0.00011866	  0.00017258	 -0.00002127	  0.00005368	 -0.00022386	  0.00011374	  0.00009651
433.00000000	 -0.00000080	  0.00010242	  0.00000550	 -0.00010438	  0.00027297	  0.00001524	  0.00000003	  0.00008253
434.00000000	  0.00003429	 -0.00004228	  0.00005115	  0.00000795	 -0.00002269	 -0.00007643	  0.00004456	 -0.00003372
435.00000000	 -0.00005865	 -0.00008951	  0.00004535	  0.00007861	 -0.00020010	 -0.00000736	 -0.00007795	 -0.00007276
436.00000000	 -0.00001352	 -0.00006304	  0.00013949	  0.00003442	 -0.00009128	  0.00009372	 -0.00001842	 -0.00005095
437.00000000	 -0.00001404	  0.00003962	  0.00009705	  0.00000867	 -0.00001811	 -0.00011937	 -0.00001801	  0.00003178
438.00000000	  0.00002327	  0.00013472	  0.00004227	 -0.00006312	  0.00016419	 -0.00001796	  0.00003198	  0.00010882
439.00000000	  0.00000690	  0.00016991	  0.00004789	  0.00000428	 -0.00000948	 -0.00002621	  0.00001088	  0.00013700
440.00000000	 -0.00001800	  0.00003542	  0.00002317	  0.00003703	 -0.00009561	  0.00004962	 -0.00002325	  0.00002836
441.00000000	 -0.00000039	 -0.00027647	  0.00007726	  0.00002196	 -0.00006221	  0.00009336	 -0.00000343	 -0.00022278
442.00000000	  0.00002859	 -0.00007677	  0.00007287	 -0.00000985	  0.00002056	  0.00006997	  0.00003674	 -0.00006156
443.00000000	  0.00000053	  0.00000249	  0.00012123	  0.00000748	 -0.00001566	 -0.00016877	  0.00000072	  0.00000201
444.00000000	 -0.00000895	  0.00007154	  0.00003933	 -0.00000645	  0.00001936	 -0.00004105	 -0.00001099	  0.00005755
445.00000000	  0.00000486	  0.00016762	  0.00001930	 -0.00002900	  0.00007506	  0.00007940	  0.00000817	  0.00013513
446.00000000	  0.00004035	 -0.00004388	  0.00004400	 -0.00006957	  0.00017668	  0.00001870	  0.00005251	 -0.00003494
447.00000000	 -0.00004413	 -0.00012653	  0.00000904	  0.00009831	 -0.00025358	  0.00000828	 -0.00005927	 -0.00010244
448.00000000	 -0.00005830	  0.00002036	  0.00001998	 -0.00004249	  0.00011837	 -0.00007953	 -0.00007634	  0.00001578
449.00000000	  0.00002297	 -0.00011134	  0.00013637	 -0.00004852	  0.00011971	  0.00015132	  0.00002898	 -0.00008949
450.00000000	 -0.00000642	  0.00009654	  0.00015599	  0.00006428	 -0.00016640	  0.00001926	 -0.00000739	  0.00007774
451.00000000	  0.00013023	  0.00000446	  0.00005113	 -0.00003427	  0.00007751	 -0.00002372	  0.00017102	  0.00000497
452.00000000	 -0.00007856	  0.00006150	  0.00005122	  0.00001598	 -0.00002947	 -0.00017759	 -0.00010248	  0.00004872
453.00000000	 -0.00001136	 -0.00020731	  0.00010517	 -0.00004094	  0.00010215	  0.00015345	 -0.00001713	 -0.00016719
454.00000000	  0.00003336	  0.00019654	  0.00008413	  0.00005185	 -0.00013566	 -0.00002821	  0.00004589	  0.00015874
455.00000000	 -0.00003889	  0.00004339	  0.00001004	  0.00002588	 -0.00006403	  0.00003077	 -0.00005060	  0.00003455
456.00000000	 -0.00009562	  0.00006343	  0.00002357	 -0.00001169	  0.00004138	 -0.00005062	 -0.00012488	  0.00005010
457.00000000	  0.00013415	  0.00002893	  0.00004898	 -0.00003264	  0.00006939	  0.00014193	  0.00017643	  0.00002472
458.00000000	 -0.00004709	 -0.00001843	  0.00011206	  0.00001763	 -0.00003743	 -0.00018464	 -0.00006202	 -0.00001535
459.00000000	  0.00000536	 -0.00010382	  0.00003563	  0.00000105	 -0.00000471	  0.00001674	  0.00000594	 -0.00008361
460.00000000	  0.00001554	 -0.00017820	  0.00000821	  0.00001179	 -0.00003510	  0.00004316	  0.00001851	 -0.00014344
461.00000000	  0.00002061	  0.00012788	  0.00001116	  0.00001816	 -0.00004992	  0.00008496	  0.00002842	  0.00010326
462.00000000	  0.00008351	 -0.00001151	  0.00006117	 -0.00003689	  0.00009406	 -0.00026076	  0.00010953	 -0.00000838
463.00000000	 -0.00007412	 -0.00005772	  0.00003980	  0.00000221	 -0.00000350	  0.00018441	 -0.00009794	 -0.00004730
464.00000000	  0.00000949	  0.00017713	  0.00012648	 -0.00001206	  0.00003224	  0.00000548	  0.00001432	  0.00014285
465.00000000	 -0.00001580	 -0.00009852	  0.00005191	 -0.00003163	  0.00008477	 -0.00007986	 -0.00002180	 -0.00007957
466.00000000	  0.00001141	 -0.00004670	  0.00001685	  0.00002857	 -0.00007956	  0.00015270	  0.00001448	 -0.00003752
467.00000000	 -0.00008716	 -0.00014896	  0.00001926	 -0.00001577	  0.00004876	 -0.00004071	 -0.00011599	 -0.00012096
468.00000000	 -0.00000398	  0.00024980	  0.00001443	  0.00004076	 -0.00010017	 -0.00013712	 -0.00000259	  0.00020127
469.00000000	 -0.00000618	  0.00006830	  0.00011253	 -0.00002041	  0.00005591	 -0.00006215	 -0.00000738	  0.00005498
470.00000000	  0.00008361	 -0.00001932	  0.00017503	 -0.00004980	  0.00011888	  0.00012268	  0.00010955	 -0.00001467
471.00000000	 -0.00008047	  0.00004922	  0.00011063	  0.00007319	 -0.00018297	  0.00001449	 -0.00010512	  0.00003882
472.00000000	  0.00004885	 -0.00021522	  0.00014458	 -0.00000935	  0.00001635	  0.00005000	  0.00006189	 -0.00017291
473.00000000	 -0.00003442	  0.00017821	  0.00004778	  0.00002677	 -0.00006530	  0.00002613	 -0.00004330	  0.00014325
474.00000000	  0.00004524	 -0.00011184	  0.00007902	 -0.00002180	  0.00005493	 -0.00015472	  0.00005821	 -0.00008965
475.00000000	  0.00002468	 -0.00011150	  0.00000890	  0.00000727	 -0.00002335	  0.00003751	  0.00003121	 -0.00008959
476.00000000	 -0.00011664	 -0.00006694	  0.00003491	 -0.00003275	  0.00009779	 -0.00008788	 -0.00015385	 -0.00005521
477.00000000	  0.00006512	  0.00014948	  0.00000734	  0.00002133	 -0.00006273	  0.00010928	  0.00008710	  0.00012116
478.00000000	  0.00001389	 -0.00017806	  0.00007520	 -0.00004173	  0.00010341	  0.00009647	  0.00001635	 -0.00014335
479.00000000	 -0.00001439	  0.00017577	  0.00004600	  0.00008060	 -0.00020880	  0.00008141	 -0.00001704	  0.00014150
480.00000000	 -0.00002221	  0.00000810	  0.00020232	 -0.00003010	  0.00008674	 -0.00026353	 -0.00002908	  0.00000629
481.00000000	  0.00002181	 -0.00014931	  0.00000081	 -0.00004535	  0.00011238	  0.00009772	  0.00002703	 -0.00012010
482.00000000	 -0.00004368	  0.00001403	  0.00007309	  0.00003935	 -0.00009887	  0.00002565	 -0.00005719	  0.00001084
483.00000000	  0.00008873	  0.00014876	  0.00001280	  0.00004385	 -0.00012223	  0.00004339	  0.00011808	  0.00012081
484.00000000	 -0.00007142	 -0.00005065	  0.00009318	 -0.00003275	  0.00008960	  0.00009057	 -0.00009431	 -0.00004157
485.00000000	  0.00004102	  0.00009696	  0.00005535	 -0.00005218	  0.00013618	 -0.00013170	  0.00005488	  0.00007857
486.00000000	  0.00007529	 -0.00005298	  0.00011155	  0.00000799	 -0.00002543	 -0.00013695	  0.00009827	 -0.00004190
487.00000000	  0.00001411	 -0.00003954	  0.00003654	  0.00001678	 -0.00004697	  0.00006343	  0.00001810	 -0.00003171
488.00000000	 -0.00002474	  0.00011151	  0.00005159	 -0.00000955	  0.00002789	  0.00002298	 -0.00003130	  0.00008960
489.00000000	 -0.00004087	  0.00001066	  0.00006060	  0.00000452	 -0.00000639	 -0.00006047	 -0.00005354	  0.00000816
490.00000000	 -0.00004010	  0.00001582	  0.00000054	  0.00003122	 -0.00007535	 -0.00009096	 -0.00005248	  0.00001231
491.00000000	  0.00006837	 -0.00012561	  0.00006422	 -0.00005525	  0.00013607	  0.00000724	  0.00008839	 -0.00010050
492.00000000	  0.00001953	  0.00026915	  0.00007742	  0.00004695	 -0.00012433	  0.00012247	  0.00002852	  0.00021712
493.00000000	 -0.00010374	 -0.00011393	  0.00007213	 -0.00000153	  0.00000987	  0.00012350	 -0.00013741	 -0.00009291
494.00000000	  0.00009990	 -0.00016437	  0.00004218	  0.00003614	 -0.00010470	 -0.00003442	  0.00012944	 -0.00013140
495.00000000	 -0.00010573	  0.00013779	  0.00000953	 -0.00002015	  0.00006717	 -0.00013757	 -0.00013737	  0.00010990
496.00000000	  0.00009136	  0.00004810	  0.00006113	  0.00003796	 -0.00010757	  0.00001612	  0.00012047	  0.00003974
497.00000000	 -0.00013423	 -0.00003953	  0.00005455	 -0.00002041	  0.00006473	  0.00003814	 -0.00017668	 -0.00003328
498.00000000	  0.00000340	 -0.00010604	  0.00004231	 -0.00000678	  0.00001474	  0.00006640	  0.00000333	 -0.00008541
499.00000000	  0.00007368	  0.00004505	  0.00004516	  0.00003450	 -0.00009793	  0.00006168	  0.00009723	  0.00003707
500.00000000	 -0.00003657	  0.00004769	  0.00000317	 -0.00005603	  0.00015204	 -0.00008491	 -0.00004751	  0.00003804
501.00000000	  0.00004796	 -0.00011494	  0.00009174	 -0.00001487	  0.00003553	 -0.00011075	  0.00006174	 -0.00009212
502.00000000	 -0.00000722	 -0.00003397	  0.00013046	  0.00002362	 -0.00006483	  0.00015740	 -0.00000984	 -0.00002745
503.00000000	 -0.00004735	  0.00011752	  0.00009001	  0.00004778	 -0.00011625	 -0.00011397	 -0.00006092	  0.00009419
504.00000000	  0.00003736	  0.00009518	  0.00007881	 -0.00004633	  0.00011720	  0.00004547	  0.00005007	  0.00007710
505.00000000	 -0.00006311	 -0.00012703	  0.00001190	  0.00001877	 -0.00004688	  0.00011523	 -0.00008422	 -0.00010303
506.00000000	  0.00001199	  0.00007392	  0.00006693	  0.00001142	 -0.00002532	 -0.00021134	  0.00001652	  0.00005969
507.00000000	  0.00002540	 -0.00011702	  0.00000286	 -0.00003993	  0.00009773	  0.00012199	  0.00003210	 -0.00009403
508.00000000	  0.00004631	 -0.00011472	  0.00002474	 -0.00004524	  0.00011355	 -0.00005288	  0.00005959	 -0.00009196
509.00000000	 -0.00006716	  0.00012257	  0.00000253	  0.00001320	 -0.00002604	 -0.00003103	 -0.00008685	  0.00009806
510.00000000	  0.00009569	  0.00007491	  0.00005880	  0.00001931	 -0.00006164	  0.00012950	  0.00012643	  0.00006138
511.00000000	  0.00002666	 -0.00010959	  0.00005826	 -0.00005210	  0.00013413	 -0.00008635	  0.00003384	 -0.00008803
512.00000000	 -0.00000003	  0.00000022	  0.00006047	  0.00004405	 -0.00011642	  0.00006960	 -0.00000004	  0.00000017
513.00000000	 -0.00003457	  0.00005012	  0.00000355	 -0.00000186	  0.00001154	 -0.00012547	 -0.00004485	  0.00004002
