   -0.038526	   -0.038526	   -0.038526	   -0.038526	   -0.038526	  481.697894	  443.792768	  405.887642	  367.982516	  330.077389
   -0.038194	   -0.038194	   -0.038194	   -0.038194	   -0.038194	  481.434375	  443.582188	  405.730000	  367.877813	  330.025625
   -0.036136	   -0.036136	   -0.036136	   -0.036136	   -0.036136	  480.971195	  443.062898	  405.154600	  367.246303	  329.338006
   -0.038862	   -0.038862	   -0.038862	   -0.038862	   -0.038862	  481.567203	  443.733754	  405.900305	  368.066856	  330.233407
   -0.036373	   -0.036373	   -0.036373	   -0.036373	   -0.036373	  480.991773	  443.101210	  405.210647	  367.320084	  329.429521
   -0.039517	   -0.039517	   -0.039517	   -0.039517	   -0.039517	  481.964331	  444.076878	  406.189426	  368.301973	  330.414520
   -0.036791	   -0.036791	   -0.036791	   -0.036791	   -0.036791	  481.366213	  443.404470	  405.442728	  367.480986	  329.519243
   -0.039202	   -0.039202	   -0.039202	   -0.039202	   -0.039202	  481.800968	  443.938052	  406.075136	  368.212220	  330.349304
   -0.036806	   -0.036806	   -0.036806	   -0.036806	   -0.036806	  481.097542	  443.206875	  405.316208	  367.425542	  329.534875
   -0.033707	   -0.033707	   -0.033707	   -0.033707	   -0.033707	  480.387961	  442.434255	  404.480549	  366.526843	  328.573138
   -0.033994	   -0.033994	   -0.033994	   -0.033994	   -0.033994	  480.462630	  442.507362	  404.552093	  366.596825	  328.641556
   -0.034264	   -0.034289	   -0.034314	   -0.034338	   -0.034363	  480.435054	  442.518254	  404.601266	  366.684090	  328.766728
   -0.036161	   -0.036161	   -0.036161	   -0.036161	   -0.036161	  480.717371	  442.889388	  405.061405	  367.233421	  329.405438
   -0.041683	   -0.041683	   -0.041683	   -0.041683	   -0.041683	  482.254006	  444.485224	  406.716443	  368.947662	  331.178881
   -0.033574	   -0.033574	   -0.033574	   -0.033574	   -0.033574	  480.193279	  442.267809	  404.342339	  366.416869	  328.491399
   -0.037433	   -0.037433	   -0.037433	   -0.037433	   -0.037433	  481.222246	  443.348877	  405.475508	  367.602139	  329.728770
   -0.038194	   -0.038194	   -0.038194	   -0.038194	   -0.038194	  481.629722	  443.726007	  405.822292	  367.918576	  330.014861
   -0.036423	   -0.036423	   -0.036423	   -0.036423	   -0.036423	  480.843831	  442.994627	  405.145423	  367.296219	  329.447015
   -0.036457	   -0.036457	   -0.036457	   -0.036457	   -0.036457	  481.006860	  443.116497	  405.226134	  367.335772	  329.445409
   -0.035105	   -0.035105	   -0.035105	   -0.035105	   -0.035105	  480.655353	  442.738302	  404.821251	  366.904201	  328.987150
   -0.035714	   -0.035714	   -0.035714	   -0.035714	   -0.035714	  480.736071	  442.858571	  404.981071	  367.103571	  329.226071
   -0.035044	   -0.035044	   -0.035044	   -0.035044	   -0.035044	  480.680732	  442.765199	  404.849666	  366.934134	  329.018601
   -0.033323	   -0.033323	   -0.033322	   -0.033321	   -0.033320	  480.248849	  442.287759	  404.324793	  366.359951	  328.393233
   -0.036423	   -0.036423	   -0.036423	   -0.036423	   -0.036423	  480.838367	  442.990620	  405.142873	  367.295126	  329.447379
   -0.037537	   -0.037537	   -0.037537	   -0.037537	   -0.037537	  481.221587	  443.369140	  405.516693	  367.664246	  329.811799
   -0.035070	   -0.035046	   -0.035021	   -0.034996	   -0.034971	  480.596055	  442.690402	  404.784940	  366.879670	  328.974591
   -0.036522	   -0.036522	   -0.036522	   -0.036522	   -0.036522	  480.964272	  443.085244	  405.206217	  367.327189	  329.448162
   -0.033608	   -0.033608	   -0.033608	   -0.033608	   -0.033608	  480.239155	  442.304965	  404.370774	  366.436584	  328.502393
   -0.033333	   -0.033333	   -0.033333	   -0.033333	   -0.033333	  480.400667	  442.407333	  404.414000	  366.420667	  328.427333
   -0.039297	   -0.039273	   -0.039248	   -0.039223	   -0.039198	  481.744787	  443.892933	  406.041265	  368.189784	  330.338490
   -0.038484	   -0.038484	   -0.038484	   -0.038484	   -0.038484	  481.610717	  443.726827	  405.842937	  367.959047	  330.075157
   -0.037129	   -0.037129	   -0.037129	   -0.037129	   -0.037129	  481.146241	  443.286068	  405.425894	  367.565720	  329.705547
   -0.037448	   -0.037448	   -0.037448	   -0.037448	   -0.037448	  481.470596	  443.538696	  405.606796	  367.674896	  329.742996
   -0.036791	   -0.036791	   -0.036791	   -0.036791	   -0.036791	  481.062902	  443.182263	  405.301624	  367.420986	  329.540347
   -0.035142	   -0.035142	   -0.035142	   -0.035142	   -0.035142	  480.503515	  442.637800	  404.772085	  366.906369	  329.040654
   -0.039144	   -0.039144	   -0.039144	   -0.039144	   -0.039144	  481.817548	  443.943175	  406.068802	  368.194429	  330.320055
   -0.037213	   -0.037189	   -0.037164	   -0.037139	   -0.037114	  481.082715	  443.234406	  405.386285	  367.538351	  329.690604
   -0.035020	   -0.035020	   -0.035020	   -0.035020	   -0.035020	  480.699306	  442.772067	  404.844829	  366.917591	  328.990353
   -0.037485	   -0.037485	   -0.037485	   -0.037485	   -0.037485	  481.294647	  443.412301	  405.529954	  367.647608	  329.765262
   -0.034004	   -0.034004	   -0.034004	   -0.034004	   -0.034004	  480.474823	  442.519875	  404.564927	  366.609979	  328.655031
   -0.034038	   -0.034038	   -0.034038	   -0.034038	   -0.034038	  480.390780	  442.467129	  404.543478	  366.619827	  328.696176
   -0.035044	   -0.035044	   -0.035044	   -0.035044	   -0.035044	  480.476339	  442.609404	  404.742470	  366.875536	  329.008601
   -0.038797	   -0.038796	   -0.038795	   -0.038794	   -0.038793	  481.583800	  443.740647	  405.895629	  368.048746	  330.199997
   -0.040076	   -0.040076	   -0.040076	   -0.040076	   -0.040076	  481.954015	  444.128272	  406.302529	  368.476786	  330.651043
   -0.032386	   -0.032361	   -0.032337	   -0.032312	   -0.032287	  479.765549	  441.857331	  403.949297	  366.041448	  328.133784
   -0.034254	   -0.034279	   -0.034304	   -0.034328	   -0.034353	  480.561413	  442.601899	  404.642191	  366.682287	  328.722189
   -0.037474	   -0.037474	   -0.037474	   -0.037474	   -0.037474	  481.248480	  443.376905	  405.505330	  367.633754	  329.762179
   -0.036061	   -0.036061	   -0.036061	   -0.036061	   -0.036061	  481.089834	  443.140596	  405.191359	  367.242122	  329.292885
   -0.036831	   -0.036831	   -0.036831	   -0.036831	   -0.036831	  480.980883	  443.131640	  405.282397	  367.433155	  329.583912
   -0.038846	   -0.038846	   -0.038846	   -0.038846	   -0.038846	  481.613474	  443.759666	  405.905858	  368.052049	  330.198241
   -0.037026	   -0.037051	   -0.037076	   -0.037100	   -0.037125	  481.301318	  443.386712	  405.471913	  367.556919	  329.641732
   -0.033264	   -0.033264	   -0.033264	   -0.033264	   -0.033264	  480.404969	  442.399771	  404.394574	  366.389376	  328.384179
   -0.036765	   -0.036765	   -0.036765	   -0.036765	   -0.036765	  481.124790	  443.224201	  405.323611	  367.423022	  329.522432
   -0.039446	   -0.039446	   -0.039446	   -0.039446	   -0.039446	  481.941183	  444.044263	  406.147343	  368.250422	  330.353502
   -0.036097	   -0.036097	   -0.036097	   -0.036097	   -0.036097	  480.851920	  442.972614	  405.093308	  367.214002	  329.334697
   -0.040944	   -0.040944	   -0.040944	   -0.040944	   -0.040944	  482.083164	  444.294552	  406.505940	  368.717328	  330.928716
   -0.037459	   -0.037459	   -0.037459	   -0.037459	   -0.037459	  481.162636	  443.311464	  405.460291	  367.609119	  329.757947
   -0.036846	   -0.036846	   -0.036846	   -0.036846	   -0.036846	  480.868110	  443.058103	  405.248096	  367.438089	  329.628082
   -0.035133	   -0.035108	   -0.035083	   -0.035059	   -0.035034	  480.604913	  442.699477	  404.794232	  366.889178	  328.984314
   -0.039786	   -0.039785	   -0.039784	   -0.039783	   -0.039782	  481.921223	  444.065338	  406.207586	  368.347969	  330.486487
   -0.031647	   -0.031647	   -0.031647	   -0.031647	   -0.031647	  479.877045	  441.876283	  403.875521	  365.874759	  327.873997
   -0.038423	   -0.038448	   -0.038473	   -0.038498	   -0.038522	  481.510972	  443.655162	  405.799162	  367.942972	  330.086591
   -0.036097	   -0.036097	   -0.036097	   -0.036097	   -0.036097	  480.973364	  443.063697	  405.154030	  367.244363	  329.334697
   -0.036704	   -0.036704	   -0.036704	   -0.036704	   -0.036704	  481.108075	  443.206503	  405.304931	  367.403359	  329.501787
   -0.036806	   -0.036806	   -0.036806	   -0.036806	   -0.036806	  481.076069	  443.195771	  405.315472	  367.435174	  329.554875
   -0.035030	   -0.035030	   -0.035030	   -0.035030	   -0.035030	  480.461918	  442.595010	  404.728103	  366.861195	  328.994287
   -0.035403	   -0.035403	   -0.035403	   -0.035403	   -0.035403	  480.547766	  442.690855	  404.833944	  366.977033	  329.120122
   -0.034028	   -0.034028	   -0.034028	   -0.034028	   -0.034028	  480.350285	  442.435972	  404.521660	  366.607347	  328.693035
   -0.034339	   -0.034340	   -0.034341	   -0.034342	   -0.034343	  480.738567	  442.728371	  404.720049	  366.713600	  328.709026
   -0.037099	   -0.037099	   -0.037099	   -0.037099	   -0.037099	  481.420554	  443.466355	  405.512157	  367.557958	  329.603759
   -0.036047	   -0.036047	   -0.036047	   -0.036047	   -0.036047	  480.827096	  442.947526	  405.067956	  367.188386	  329.308816
   -0.040362	   -0.040362	   -0.040362	   -0.040362	   -0.040362	  482.045790	  444.219102	  406.392415	  368.565727	  330.739040
   -0.032444	   -0.032419	   -0.032395	   -0.032370	   -0.032345	  479.714624	  441.826283	  403.938126	  366.050155	  328.162370
   -0.036050	   -0.036050	   -0.036050	   -0.036050	   -0.036050	  481.123545	  443.165049	  405.206553	  367.248058	  329.289562
   -0.039501	   -0.039501	   -0.039501	   -0.039501	   -0.039501	  481.761726	  443.923909	  406.086091	  368.248274	  330.410457
   -0.032287	   -0.032287	   -0.032287	   -0.032287	   -0.032287	  479.852707	  441.922976	  403.993246	  366.063515	  328.133784
   -0.033561	   -0.033561	   -0.033561	   -0.033561	   -0.033561	  480.224354	  442.290252	  404.356151	  366.422049	  328.487948
   -0.039435	   -0.039435	   -0.039435	   -0.039435	   -0.039435	  481.943521	  444.047413	  406.151304	  368.255195	  330.359086
   -0.036548	   -0.036523	   -0.036498	   -0.036473	   -0.036449	  481.060511	  443.163821	  405.267316	  367.370999	  329.474868
   -0.036846	   -0.036846	   -0.036846	   -0.036846	   -0.036846	  480.957005	  443.117366	  405.277728	  367.438089	  329.598451
   -0.038183	   -0.038182	   -0.038181	   -0.038180	   -0.038179	  481.673056	  443.753024	  405.831119	  367.907341	  329.981690
   -0.037745	   -0.037745	   -0.037745	   -0.037745	   -0.037745	  481.534668	  443.612575	  405.690481	  367.768388	  329.846295
   -0.036497	   -0.036496	   -0.036495	   -0.036494	   -0.036493	  481.180230	  443.242687	  405.303269	  367.361977	  329.418810
   -0.039556	   -0.039556	   -0.039556	   -0.039556	   -0.039556	  481.811645	  443.966093	  406.120541	  368.274990	  330.429438
   -0.036493	   -0.036493	   -0.036493	   -0.036493	   -0.036493	  481.019445	  443.129012	  405.238580	  367.348148	  329.457715
   -0.039936	   -0.039936	   -0.039936	   -0.039936	   -0.039936	  481.879797	  444.054318	  406.228838	  368.403358	  330.577878
   -0.036483	   -0.036483	   -0.036483	   -0.036483	   -0.036483	  481.029063	  443.130841	  405.232618	  367.334396	  329.436173
   -0.033082	   -0.033057	   -0.033032	   -0.033007	   -0.032982	  480.361036	  442.340527	  404.320205	  366.300071	  328.280125
   -0.037474	   -0.037474	   -0.037474	   -0.037474	   -0.037474	  481.283727	  443.401027	  405.518328	  367.635628	  329.752929
   -0.040250	   -0.040250	   -0.040250	   -0.040250	   -0.040250	  481.982602	  444.145725	  406.308848	  368.471971	  330.635094
   -0.036908	   -0.036908	   -0.036908	   -0.036908	   -0.036908	  480.850529	  443.042987	  405.235446	  367.427904	  329.620362
   -0.034722	   -0.034722	   -0.034722	   -0.034722	   -0.034722	  480.719861	  442.754931	  404.790000	  366.825069	  328.860139
   -0.039544	   -0.039544	   -0.039544	   -0.039544	   -0.039544	  481.945139	  444.060400	  406.175662	  368.290924	  330.406185
   -0.037813	   -0.037812	   -0.037811	   -0.037810	   -0.037809	  481.364961	  443.496013	  405.625192	  367.752499	  329.877934
   -0.036678	   -0.036678	   -0.036678	   -0.036678	   -0.036678	  481.178533	  443.247744	  405.316955	  367.386166	  329.455377
   -0.037151	   -0.037126	   -0.037101	   -0.037076	   -0.037052	  481.287633	  443.368337	  405.449231	  367.530315	  329.611589
   -0.037777	   -0.037778	   -0.037779	   -0.037780	   -0.037781	  481.515876	  443.590832	  405.667656	  367.746348	  329.826908
   -0.037188	   -0.037189	   -0.037189	   -0.037190	   -0.037191	  481.221905	  443.330214	  405.440395	  367.552448	  329.666373
   -0.039869	   -0.039869	   -0.039869	   -0.039869	   -0.039869	  481.861193	  444.035043	  406.208893	  368.382743	  330.556593
   -0.036729	   -0.036729	   -0.036729	   -0.036729	   -0.036729	  481.341753	  443.381601	  405.421448	  367.461296	  329.501143
   -0.038248	   -0.038248	   -0.038248	   -0.038248	   -0.038248	  481.432782	  443.580494	  405.728206	  367.875918	  330.023630
   -0.036780	   -0.036780	   -0.036780	   -0.036780	   -0.036780	  481.173539	  443.264761	  405.355982	  367.447203	  329.538425
   -0.034401	   -0.034401	   -0.034401	   -0.034401	   -0.034401	  480.763235	  442.757185	  404.751136	  366.745087	  328.739037
   -0.036718	   -0.036718	   -0.036718	   -0.036718	   -0.036718	  481.144616	  443.225586	  405.306556	  367.387526	  329.468496
   -0.036409	   -0.036409	   -0.036409	   -0.036409	   -0.036409	  480.990136	  443.103508	  405.216880	  367.330252	  329.443624
   -0.040506	   -0.040506	   -0.040506	   -0.040506	   -0.040506	  482.506398	  444.547817	  406.589235	  368.630654	  330.672073
   -0.040166	   -0.040166	   -0.040166	   -0.040166	   -0.040166	  481.892812	  444.066898	  406.240983	  368.415069	  330.589155
   -0.031228	   -0.031228	   -0.031228	   -0.031228	   -0.031228	  479.549049	  441.590652	  403.632255	  365.673858	  327.715461
   -0.031865	   -0.031866	   -0.031867	   -0.031868	   -0.031869	  479.649059	  441.684995	  403.722803	  365.762483	  327.804036
   -0.028017	   -0.028017	   -0.028017	   -0.028017	   -0.028017	  478.568014	  440.543381	  402.518748	  364.494114	  326.469481
   -0.030459	   -0.030459	   -0.030459	   -0.030459	   -0.030459	  479.303176	  441.294086	  403.284996	  365.275906	  327.266816
   -0.037500	   -0.037500	   -0.037500	   -0.037500	   -0.037500	  481.097875	  443.246625	  405.395375	  367.544125	  329.692875
   -0.034784	   -0.034784	   -0.034784	   -0.034784	   -0.034784	  480.302288	  442.479328	  404.656369	  366.833409	  329.010449
   -0.036432	   -0.036432	   -0.036432	   -0.036432	   -0.036432	  481.271016	  443.310338	  405.349659	  367.388981	  329.428303
   -0.035517	   -0.035517	   -0.035517	   -0.035517	   -0.035517	  481.083686	  443.073362	  405.063039	  367.052715	  329.042391
   -0.037177	   -0.037177	   -0.037177	   -0.037177	   -0.037177	  481.107277	  443.238500	  405.369723	  367.500947	  329.632170
   -0.035542	   -0.035542	   -0.035542	   -0.035542	   -0.035542	  480.784382	  442.846498	  404.908614	  366.970730	  329.032845
   -0.034390	   -0.034390	   -0.034390	   -0.034390	   -0.034390	  480.345513	  442.450859	  404.556205	  366.661551	  328.766897
   -0.036806	   -0.036806	   -0.036806	   -0.036806	   -0.036806	  481.050917	  443.172458	  405.294000	  367.415542	  329.537083
   -0.033923	   -0.033923	   -0.033923	   -0.033923	   -0.033923	  480.407141	  442.453025	  404.498910	  366.544795	  328.590679
   -0.038877	   -0.038877	   -0.038877	   -0.038877	   -0.038877	  481.650158	  443.797457	  405.944757	  368.092056	  330.239355
   -0.035343	   -0.035343	   -0.035343	   -0.035343	   -0.035343	  480.728482	  442.811684	  404.894886	  366.978087	  329.061289
   -0.035308	   -0.035308	   -0.035308	   -0.035308	   -0.035308	  480.939496	  442.952057	  404.964619	  366.977180	  328.989742
   -0.031547	   -0.031547	   -0.031548	   -0.031549	   -0.031550	  479.644588	  441.661767	  403.680819	  365.701743	  327.724539
   -0.030857	   -0.030833	   -0.030808	   -0.030783	   -0.030759	  479.509285	  441.481465	  403.453838	  365.426402	  327.399158
   -0.031526	   -0.031526	   -0.031526	   -0.031526	   -0.031526	  479.620767	  441.630238	  403.639709	  365.649179	  327.658650
   -0.029456	   -0.029480	   -0.029505	   -0.029530	   -0.029555	  478.881259	  440.922973	  402.964498	  365.005834	  327.046980
   -0.028801	   -0.028801	   -0.028801	   -0.028801	   -0.028801	  478.719300	  440.745441	  402.771583	  364.797725	  326.823866
   -0.026039	   -0.026063	   -0.026088	   -0.026113	   -0.026138	  477.992711	  439.961746	  401.930594	  363.899255	  325.867729
   -0.028452	   -0.028452	   -0.028452	   -0.028452	   -0.028452	  478.463331	  440.488987	  402.514643	  364.540298	  326.565954
   -0.027778	   -0.027778	   -0.027778	   -0.027778	   -0.027778	  478.095833	  440.141111	  402.186389	  364.231667	  326.276944
   -0.022837	   -0.022837	   -0.022837	   -0.022837	   -0.022837	  476.828678	  438.762318	  400.695958	  362.629599	  324.563239
   -0.020718	   -0.020718	   -0.020718	   -0.020718	   -0.020718	  476.277721	  438.144627	  400.011533	  361.878439	  323.745345
   -0.017241	   -0.017241	   -0.017241	   -0.017241	   -0.017241	  475.231379	  437.055345	  398.879310	  360.703276	  322.527241
   -0.014226	   -0.014226	   -0.014226	   -0.014226	   -0.014226	  474.229982	  436.040818	  397.851654	  359.662490	  321.473325
   -0.005115	   -0.005114	   -0.005114	   -0.005114	   -0.005114	  471.850121	  433.491914	  395.131821	  356.769843	  318.405980
   -0.002762	   -0.002762	   -0.002762	   -0.002762	   -0.002762	  470.809613	  432.533923	  394.258232	  355.982541	  317.706851
   -0.009678	   -0.009678	   -0.009679	   -0.009679	   -0.009679	  472.051687	  434.039205	  396.028599	  358.019867	  320.013010
   -0.010788	   -0.010788	   -0.010787	   -0.010787	   -0.010787	  472.794514	  434.685358	  396.574317	  358.461394	  320.346586
   -0.011765	   -0.011765	   -0.011765	   -0.011765	   -0.011765	  472.835765	  434.791882	  396.748000	  358.704118	  320.660235
    0.001381	    0.001381	    0.001381	    0.001381	    0.001381	  469.520221	  431.223066	  392.925912	  354.628757	  316.331602
   -0.005928	   -0.005928	   -0.005928	   -0.005928	   -0.005928	  471.487493	  433.295341	  395.103189	  356.911037	  318.718886
    0.001385	    0.001385	    0.001385	    0.001385	    0.001385	  469.388795	  431.111676	  392.834557	  354.557438	  316.280319
   -0.003068	   -0.003068	   -0.003068	   -0.003068	   -0.003068	  470.416508	  432.240372	  394.064237	  355.888101	  317.711965
    0.003167	    0.003142	    0.003117	    0.003093	    0.003068	  469.011612	  430.673181	  392.336446	  354.001407	  315.668063
   -0.001687	   -0.001687	   -0.001687	   -0.001687	   -0.001687	  469.987245	  431.813787	  393.640328	  355.466870	  317.293412
   -0.000991	   -0.000991	   -0.000991	   -0.000991	   -0.000991	  470.025684	  431.783651	  393.541619	  355.299587	  317.057554
   -0.005150	   -0.005150	   -0.005150	   -0.005150	   -0.005150	  471.130701	  432.949938	  394.769174	  356.588410	  318.407647
   -0.007311	   -0.007311	   -0.007311	   -0.007311	   -0.007311	  471.499077	  433.403798	  395.308518	  357.213238	  319.117959
   -0.008025	   -0.008025	   -0.008025	   -0.008025	   -0.008025	  471.495986	  433.479375	  395.462764	  357.446153	  319.429542
   -0.009736	   -0.009736	   -0.009736	   -0.009736	   -0.009736	  472.071321	  434.061168	  396.051015	  358.040862	  320.030709
   -0.015331	   -0.015331	   -0.015331	   -0.015331	   -0.015331	  472.933387	  435.181958	  397.430530	  359.679101	  321.927672
   -0.016309	   -0.016309	   -0.016309	   -0.016309	   -0.016309	  473.313823	  435.550553	  397.787283	  360.024014	  322.260744
   -0.003470	   -0.003470	   -0.003470	   -0.003470	   -0.003470	  470.065031	  432.057918	  394.050805	  356.043692	  318.036579
    0.014507	    0.014507	    0.014507	    0.014507	    0.014507	  465.077762	  426.797791	  388.517821	  350.237851	  311.957880
   -0.007621	   -0.007621	   -0.007620	   -0.007620	   -0.007620	  472.007512	  433.685892	  395.362378	  357.036969	  318.709665
   -0.007953	   -0.007953	   -0.007953	   -0.007953	   -0.007953	  470.861305	  432.738819	  394.616333	  356.493846	  318.371360
   -0.000691	   -0.000691	   -0.000691	   -0.000691	   -0.000691	  467.220356	  429.209348	  391.198339	  353.187330	  315.176322
    0.001082	    0.001082	    0.001082	    0.001082	    0.001082	  465.964530	  427.925871	  389.887213	  351.848554	  313.809896
    0.014523	    0.014523	    0.014523	    0.014523	    0.014523	  460.622573	  422.555207	  384.487842	  346.420477	  308.353112
    0.027905	    0.027905	    0.027905	    0.027905	    0.027905	  454.470219	  416.631660	  378.793101	  340.954543	  303.115984
    0.043756	    0.043731	    0.043706	    0.043681	    0.043656	  449.964885	  411.706787	  373.448680	  335.190564	  296.932440
    0.037982	    0.037982	    0.037982	    0.037982	    0.037982	  448.976070	  411.228474	  373.480877	  335.733281	  297.985684
    0.067014	    0.067014	    0.067014	    0.067014	    0.067014	  441.140955	  402.682757	  364.224559	  325.766360	  287.308162
    0.054130	    0.054130	    0.054130	    0.054130	    0.054130	  442.409897	  404.435767	  366.461636	  328.487506	  290.513375
    0.077551	    0.077551	    0.077551	    0.077551	    0.077551	  434.767673	  396.426327	  358.084980	  319.743633	  281.402286
    0.051513	    0.051513	    0.051513	    0.051513	    0.051513	  440.773790	  402.611124	  364.448459	  326.285793	  288.123127
    0.045408	    0.045408	    0.045408	    0.045408	    0.045408	  439.799157	  401.915080	  364.031003	  326.146927	  288.262850
    0.048648	    0.048648	    0.048648	    0.048648	    0.048648	  435.379649	  397.756028	  360.132407	  322.508785	  284.885164
    0.054269	    0.054269	    0.054269	    0.054269	    0.054269	  431.615490	  393.741380	  355.867270	  317.993160	  280.119050
    0.034945	    0.034945	    0.034945	    0.034945	    0.034945	  434.444540	  396.556287	  358.668034	  320.779782	  282.891529
    0.025198	    0.025172	    0.025146	    0.025120	    0.025094	  433.709515	  395.802819	  357.896103	  319.989366	  282.082608
    0.029609	    0.029635	    0.029661	    0.029687	    0.029713	  428.527918	  390.382599	  352.237327	  314.092100	  275.946920
    0.025495	    0.025495	    0.025495	    0.025495	    0.025495	  424.431464	  386.382739	  348.334014	  310.285289	  272.236563
    0.011813	    0.011813	    0.011813	    0.011813	    0.011813	  423.876423	  385.699022	  347.521621	  309.344220	  271.166819
    0.003670	    0.003670	    0.003670	    0.003670	    0.003670	  420.040576	  382.051713	  344.062851	  306.073988	  268.085126
   -0.013249	   -0.013249	   -0.013249	   -0.013249	   -0.013249	  418.691022	  380.985855	  343.280688	  305.575521	  267.870353
   -0.019020	   -0.019020	   -0.019020	   -0.019020	   -0.019020	  415.082992	  377.243482	  339.403972	  301.564462	  263.724952
   -0.027400	   -0.027426	   -0.027452	   -0.027479	   -0.027505	  411.614231	  373.869989	  336.125697	  298.381356	  260.636966
   -0.035793	   -0.035793	   -0.035793	   -0.035793	   -0.035793	  408.078181	  370.449211	  332.820241	  295.191271	  257.562301
   -0.025804	   -0.025830	   -0.025856	   -0.025882	   -0.025908	  400.491935	  362.413691	  324.335378	  286.256997	  248.178546
   -0.038434	   -0.038434	   -0.038434	   -0.038434	   -0.038434	  399.629739	  361.469376	  323.309014	  285.148651	  246.988289
   -0.045698	   -0.045698	   -0.045698	   -0.045698	   -0.045698	  398.009000	  359.562334	  321.115669	  282.669004	  244.222338
   -0.073351	   -0.073351	   -0.073351	   -0.073351	   -0.073351	  402.309232	  364.035537	  325.761843	  287.488149	  249.214454
   -0.071861	   -0.071863	   -0.071865	   -0.071867	   -0.071869	  398.509767	  359.895230	  321.282661	  282.672061	  244.063429
   -0.087419	   -0.087419	   -0.087419	   -0.087419	   -0.087419	  399.924541	  361.263967	  322.603392	  283.942818	  245.282244
   -0.094193	   -0.094193	   -0.094193	   -0.094193	   -0.094193	  399.455397	  360.452741	  321.450085	  282.447429	  243.444773
   -0.101627	   -0.101652	   -0.101677	   -0.101702	   -0.101727	  399.446547	  360.049152	  320.651465	  281.253487	  241.855218
   -0.106396	   -0.106393	   -0.106390	   -0.106388	   -0.106385	  398.099173	  358.468732	  318.836367	  279.202078	  239.565865
   -0.106854	   -0.106854	   -0.106854	   -0.106854	   -0.106854	  394.099306	  354.569811	  315.040316	  275.510821	  235.981327
   -0.108666	   -0.108666	   -0.108666	   -0.108666	   -0.108666	  390.757510	  351.388680	  312.019849	  272.651018	  233.282187
   -0.108899	   -0.108899	   -0.108899	   -0.108899	   -0.108899	  387.234333	  347.953970	  308.673607	  269.393244	  230.112881
   -0.114621	   -0.114621	   -0.114621	   -0.114621	   -0.114621	  385.993246	  346.854600	  307.715955	  268.577309	  229.438664
   -0.108090	   -0.108090	   -0.108090	   -0.108090	   -0.108090	  381.468674	  342.184670	  302.900666	  263.616662	  224.332658
   -0.100410	   -0.100410	   -0.100410	   -0.100410	   -0.100410	  375.716230	  336.606127	  297.496025	  258.385922	  219.275820
   -0.089980	   -0.089980	   -0.089980	   -0.089980	   -0.089980	  370.389509	  331.126462	  291.863415	  252.600368	  213.337321
   -0.087848	   -0.087825	   -0.087803	   -0.087781	   -0.087759	  367.723119	  328.546432	  289.371895	  250.199509	  211.029272
   -0.087995	   -0.087995	   -0.087995	   -0.087995	   -0.087995	  366.614529	  327.430464	  288.246398	  249.062333	  209.878267
   -0.070556	   -0.070556	   -0.070556	   -0.070556	   -0.070556	  359.984328	  320.342293	  280.700258	  241.058223	  201.416187
   -0.070189	   -0.070189	   -0.070189	   -0.070189	   -0.070189	  358.582639	  319.122253	  279.661867	  240.201481	  200.741095
   -0.066174	   -0.066174	   -0.066174	   -0.066174	   -0.066174	  356.577029	  317.027623	  277.478216	  237.928810	  198.379403
   -0.064785	   -0.064809	   -0.064833	   -0.064857	   -0.064881	  354.331854	  315.166647	  276.001225	  236.835586	  197.669731
   -0.058994	   -0.058994	   -0.058994	   -0.058994	   -0.058994	  351.664928	  312.512811	  273.360694	  234.208577	  195.056460
   -0.051494	   -0.051470	   -0.051446	   -0.051422	   -0.051398	  348.597226	  309.393439	  270.189845	  230.986442	  191.783232
   -0.051081	   -0.051081	   -0.051081	   -0.051081	   -0.051081	  348.079367	  309.047420	  270.015473	  230.983526	  191.951580
   -0.055593	   -0.055593	   -0.055593	   -0.055593	   -0.055593	  350.513315	  311.516020	  272.518725	  233.521431	  194.524136
   -0.051089	   -0.051089	   -0.051089	   -0.051089	   -0.051089	  349.688229	  310.523205	  271.358180	  232.193155	  193.028131
   -0.037123	   -0.037123	   -0.037123	   -0.037123	   -0.037123	  345.652332	  306.093283	  266.534235	  226.975187	  187.416138
   -0.043503	   -0.043503	   -0.043503	   -0.043503	   -0.043503	  347.721934	  308.708842	  269.695751	  230.682659	  191.669568
   -0.039779	   -0.039779	   -0.039779	   -0.039779	   -0.039779	  348.467002	  309.133013	  269.799025	  230.465036	  191.131048
   -0.049007	   -0.049007	   -0.049007	   -0.049007	   -0.049007	  353.095113	  314.193470	  275.291826	  236.390183	  197.488540
   -0.052900	   -0.052900	   -0.052900	   -0.052900	   -0.052900	  356.656669	  317.897695	  279.138720	  240.379746	  201.620771
   -0.049363	   -0.049363	   -0.049363	   -0.049363	   -0.049363	  357.356814	  318.616607	  279.876399	  241.136192	  202.395985
   -0.053513	   -0.053513	   -0.053513	   -0.053513	   -0.053513	  361.965882	  323.247785	  284.529688	  245.811591	  207.093494
   -0.058893	   -0.058918	   -0.058942	   -0.058967	   -0.058992	  367.514312	  328.803893	  290.093252	  251.382389	  212.671303
   -0.081155	   -0.081155	   -0.081155	   -0.081155	   -0.081155	  380.361045	  342.037895	  303.714746	  265.391596	  227.068446
   -0.085788	   -0.085786	   -0.085783	   -0.085781	   -0.085779	  386.082769	  347.660893	  309.237139	  270.811507	  232.383997
   -0.078746	   -0.078771	   -0.078796	   -0.078821	   -0.078846	  385.897841	  347.349371	  308.800646	  270.251669	  231.702437
   -0.085419	   -0.085419	   -0.085419	   -0.085419	   -0.085419	  392.047431	  353.559364	  315.071296	  276.583229	  238.095161
   -0.093823	   -0.093797	   -0.093772	   -0.093747	   -0.093722	  399.085099	  360.637911	  322.191007	  283.744388	  245.298053
   -0.102303	   -0.102303	   -0.102303	   -0.102303	   -0.102303	  406.325364	  367.863340	  329.401316	  290.939293	  252.477269
   -0.103878	   -0.103903	   -0.103929	   -0.103954	   -0.103980	  410.435141	  371.774465	  333.113460	  294.452128	  255.790466
   -0.109319	   -0.109322	   -0.109325	   -0.109328	   -0.109330	  416.785492	  377.825945	  338.868346	  299.912696	  260.958994
   -0.115189	   -0.115189	   -0.115189	   -0.115189	   -0.115189	  422.437798	  383.449715	  344.461631	  305.473547	  266.485464
   -0.118434	   -0.118434	   -0.118434	   -0.118434	   -0.118434	  427.009109	  387.927081	  348.845052	  309.763024	  270.680995
   -0.137945	   -0.137920	   -0.137894	   -0.137868	   -0.137843	  439.895583	  400.849709	  361.804274	  322.759278	  283.714722
   -0.130430	   -0.130430	   -0.130430	   -0.130430	   -0.130430	  439.166705	  400.014551	  360.862396	  321.710241	  282.558087
   -0.129802	   -0.129802	   -0.129802	   -0.129802	   -0.129802	  441.323971	  402.328420	  363.332869	  324.337317	  285.341766
   -0.131614	   -0.131614	   -0.131614	   -0.131614	   -0.131614	  445.951257	  406.824787	  367.698317	  328.571847	  289.445378
   -0.133970	   -0.133970	   -0.133970	   -0.133970	   -0.133970	  450.594460	  411.437672	  372.280884	  333.124096	  293.967308
   -0.126302	   -0.126302	   -0.126302	   -0.126302	   -0.126302	  450.348608	  411.060251	  371.771893	  332.483535	  293.195178
   -0.124131	   -0.124131	   -0.124131	   -0.124131	   -0.124131	  452.445171	  413.269061	  374.092952	  334.916843	  295.740734
   -0.132382	   -0.132356	   -0.132330	   -0.132304	   -0.132278	  459.656807	  420.738524	  381.820701	  342.903337	  303.986433
   -0.131579	   -0.131579	   -0.131579	   -0.131579	   -0.131579	  461.628947	  423.133421	  384.637895	  346.142368	  307.646842
   -0.121043	   -0.121043	   -0.121043	   -0.121043	   -0.121043	  458.125186	  420.092689	  382.060192	  344.027696	  305.995199
   -0.106909	   -0.106909	   -0.106909	   -0.106909	   -0.106909	  454.031047	  415.983149	  377.935251	  339.887353	  301.839455
   -0.093033	   -0.093033	   -0.093033	   -0.093033	   -0.093033	  450.421059	  412.220337	  374.019615	  335.818894	  297.618172
   -0.086456	   -0.086456	   -0.086456	   -0.086456	   -0.086456	  448.757224	  410.886531	  373.015839	  335.145147	  297.274455
   -0.078920	   -0.078946	   -0.078972	   -0.078998	   -0.079023	  448.056005	  410.033607	  372.011032	  333.988278	  295.965346
   -0.079861	   -0.079861	   -0.079861	   -0.079861	   -0.079861	  451.081165	  413.051790	  375.022414	  336.993039	  298.963663
   -0.063212	   -0.063212	   -0.063212	   -0.063212	   -0.063212	  445.883067	  407.453192	  369.023317	  330.593442	  292.163567
   -0.067236	   -0.067236	   -0.067236	   -0.067236	   -0.067236	  449.904328	  411.673559	  373.442790	  335.212021	  296.981252
   -0.057770	   -0.057770	   -0.057770	   -0.057770	   -0.057770	  448.240121	  409.759642	  371.279163	  332.798684	  294.318205
   -0.057810	   -0.057809	   -0.057808	   -0.057806	   -0.057805	  450.282909	  412.004875	  373.724921	  335.443045	  297.159247
   -0.053227	   -0.053227	   -0.053227	   -0.053227	   -0.053227	  449.784442	  411.733989	  373.683536	  335.633084	  297.582631
   -0.044128	   -0.044128	   -0.044128	   -0.044128	   -0.044128	  448.601637	  410.221189	  371.840740	  333.460292	  295.079843
   -0.046165	   -0.046165	   -0.046165	   -0.046165	   -0.046165	  451.950170	  413.639702	  375.329233	  337.018764	  298.708295
   -0.042692	   -0.042692	   -0.042692	   -0.042692	   -0.042692	  451.969839	  413.791909	  375.613978	  337.436048	  299.258118
   -0.033789	   -0.033789	   -0.033789	   -0.033789	   -0.033789	  449.267132	  411.115442	  372.963753	  334.812063	  296.660374
   -0.033510	   -0.033510	   -0.033510	   -0.033510	   -0.033510	  451.788529	  413.545178	  375.301827	  337.058476	  298.815125
   -0.025054	   -0.025054	   -0.025054	   -0.025054	   -0.025054	  450.070072	  411.666815	  373.263558	  334.860301	  296.457044
   -0.019034	   -0.019034	   -0.019034	   -0.019034	   -0.019034	  449.256768	  410.793913	  372.331058	  333.868203	  295.405348
   -0.013907	   -0.013907	   -0.013907	   -0.013907	   -0.013907	  448.904342	  410.342117	  371.779892	  333.217666	  294.655441
   -0.030322	   -0.030322	   -0.030322	   -0.030322	   -0.030322	  458.845647	  420.585647	  382.325647	  344.065647	  305.805647
   -0.012815	   -0.012815	   -0.012815	   -0.012815	   -0.012815	  451.454949	  413.048153	  374.641357	  336.234561	  297.827764
   -0.028603	   -0.028602	   -0.028602	   -0.028601	   -0.028600	  460.977438	  422.839647	  384.699936	  346.558302	  308.414747
   -0.013861	   -0.013861	   -0.013861	   -0.013861	   -0.013861	  454.612600	  416.433966	  378.255332	  340.076698	  301.898064
   -0.000711	   -0.000711	   -0.000711	   -0.000711	   -0.000711	  449.291046	  411.041821	  372.792596	  334.543371	  296.294147
    0.006401	    0.006401	    0.006401	    0.006401	    0.006401	  446.701999	  408.543101	  370.384203	  332.225306	  294.066408
    0.017705	    0.017705	    0.017705	    0.017705	    0.017705	  442.475489	  404.151586	  365.827684	  327.503782	  289.179880
    0.015574	    0.015574	    0.015574	    0.015574	    0.015574	  444.286742	  406.173380	  368.060018	  329.946657	  291.833295
    0.028438	    0.028439	    0.028439	    0.028440	    0.028441	  439.975196	  401.417216	  362.861190	  324.307117	  285.754997
    0.028197	    0.028197	    0.028197	    0.028197	    0.028197	  440.202115	  401.829819	  363.457523	  325.085227	  286.712931
    0.018606	    0.018606	    0.018606	    0.018606	    0.018606	  447.624529	  408.996248	  370.367966	  331.739685	  293.111404
    0.028910	    0.028910	    0.028910	    0.028910	    0.028910	  442.807543	  404.078514	  365.349485	  326.620456	  287.891427
    0.027322	    0.027322	    0.027322	    0.027322	    0.027322	  443.114072	  404.577188	  366.040303	  327.503419	  288.966534
    0.027022	    0.026997	    0.026972	    0.026947	    0.026922	  443.743255	  405.120240	  366.497361	  327.874618	  289.252012
    0.028910	    0.028910	    0.028910	    0.028910	    0.028910	  443.021761	  404.285333	  365.548906	  326.812479	  288.076052
    0.027235	    0.027235	    0.027235	    0.027235	    0.027235	  443.828932	  405.134071	  366.439211	  327.744351	  289.049490
    0.027625	    0.027625	    0.027625	    0.027625	    0.027625	  443.609392	  404.905965	  366.202538	  327.499111	  288.795685
    0.032950	    0.032974	    0.032999	    0.033024	    0.033049	  441.125899	  402.256009	  363.386009	  324.515901	  285.645683
    0.028324	    0.028324	    0.028324	    0.028324	    0.028324	  443.310882	  404.580292	  365.849703	  327.119113	  288.388524
    0.032255	    0.032280	    0.032304	    0.032329	    0.032354	  442.007253	  403.003270	  363.999194	  324.995025	  285.990762
    0.036212	    0.036212	    0.036212	    0.036212	    0.036212	  439.886657	  400.861170	  361.835682	  322.810195	  283.784708
    0.029175	    0.029175	    0.029175	    0.029175	    0.029175	  443.354865	  404.451233	  365.547600	  326.643968	  287.740336
    0.031272	    0.031272	    0.031272	    0.031272	    0.031272	  442.298624	  403.369854	  364.441084	  325.512314	  286.583544
    0.032011	    0.032011	    0.032011	    0.032011	    0.032011	  441.994809	  403.043758	  364.092707	  325.141656	  286.190605
    0.036147	    0.036148	    0.036149	    0.036150	    0.036151	  439.788677	  400.761659	  361.736576	  322.713427	  283.692213
    0.029873	    0.029873	    0.029873	    0.029873	    0.029873	  443.147718	  404.148144	  365.148570	  326.148996	  287.149421
    0.033333	    0.033333	    0.033333	    0.033333	    0.033333	  441.447333	  402.356667	  363.266000	  324.175333	  285.084667
    0.042256	    0.042257	    0.042258	    0.042259	    0.042260	  437.232120	  397.885240	  358.540304	  319.197312	  279.856263
    0.037972	    0.037971	    0.037970	    0.037969	    0.037968	  439.643661	  400.274307	  360.903014	  321.529782	  282.154610
    0.041042	    0.041042	    0.041042	    0.041042	    0.041042	  438.127340	  398.675178	  359.223015	  319.770852	  280.318690
    0.036418	    0.036419	    0.036419	    0.036420	    0.036421	  440.279740	  400.955565	  361.633334	  322.313047	  282.994703
    0.042378	    0.042378	    0.042378	    0.042378	    0.042378	  436.905341	  397.598643	  358.291945	  318.985247	  279.678549
    0.036831	    0.036831	    0.036831	    0.036831	    0.036831	  440.010229	  400.721869	  361.433509	  322.145149	  282.856789
    0.038618	    0.038618	    0.038618	    0.038618	    0.038618	  439.023770	  399.743262	  360.462754	  321.182246	  281.901737
    0.040630	    0.040630	    0.040630	    0.040630	    0.040630	  437.934805	  398.634333	  359.333860	  320.033387	  280.732914
    0.038526	    0.038525	    0.038524	    0.038523	    0.038522	  439.046466	  399.771786	  360.495164	  321.216599	  281.936092
    0.035739	    0.035764	    0.035789	    0.035814	    0.035838	  440.263409	  401.072195	  361.880903	  322.689536	  283.498092
    0.037908	    0.037908	    0.037908	    0.037908	    0.037908	  439.401274	  400.112843	  360.824412	  321.535981	  282.247550
    0.036729	    0.036729	    0.036729	    0.036729	    0.036729	  440.238725	  400.895953	  361.553181	  322.210409	  282.867637
    0.041385	    0.041361	    0.041336	    0.041311	    0.041286	  437.793970	  398.417869	  359.041840	  319.665882	  280.289996
    0.035417	    0.035417	    0.035417	    0.035417	    0.035417	  440.591833	  401.354563	  362.117292	  322.880021	  283.642750
    0.041340	    0.041341	    0.041342	    0.041343	    0.041344	  437.611368	  398.294386	  358.979355	  319.666274	  280.355142
    0.040430	    0.040430	    0.040430	    0.040430	    0.040430	  437.772400	  398.559247	  359.346094	  320.132942	  280.919789
    0.042420	    0.042420	    0.042420	    0.042420	    0.042420	  436.914937	  397.619729	  358.324520	  319.029312	  279.734103
    0.032175	    0.032175	    0.032175	    0.032175	    0.032175	  442.313398	  403.102162	  363.890927	  324.679691	  285.468456
    0.040306	    0.040306	    0.040306	    0.040306	    0.040306	  438.196727	  398.859319	  359.521911	  320.184503	  280.847095
    0.038473	    0.038472	    0.038471	    0.038470	    0.038469	  439.137140	  399.819037	  360.498993	  321.177006	  281.853077
    0.039743	    0.039743	    0.039743	    0.039743	    0.039743	  438.779954	  399.356108	  359.932262	  320.508416	  281.084570
    0.038439	    0.038463	    0.038488	    0.038513	    0.038538	  439.271508	  399.904374	  360.537179	  321.169924	  281.802608
    0.038077	    0.038076	    0.038075	    0.038075	    0.038074	  439.399722	  400.070694	  360.739723	  321.406810	  282.071954
    0.040550	    0.040550	    0.040550	    0.040550	    0.040550	  438.233330	  398.831839	  359.430347	  320.028856	  280.627364
    0.041860	    0.041862	    0.041863	    0.041864	    0.041865	  437.459721	  398.053619	  358.649464	  319.247258	  279.846998
    0.040123	    0.040123	    0.040123	    0.040123	    0.040123	  438.215692	  398.875631	  359.535570	  320.195508	  280.855447
    0.041001	    0.041001	    0.041001	    0.041001	    0.041001	  437.946685	  398.561265	  359.175844	  319.790424	  280.405003
    0.040899	    0.040900	    0.040901	    0.040902	    0.040903	  437.747576	  398.420374	  359.095116	  319.771804	  280.450437
    0.036061	    0.036061	    0.036061	    0.036061	    0.036061	  440.217961	  400.966685	  361.715409	  322.464133	  283.212857
    0.036628	    0.036628	    0.036628	    0.036628	    0.036628	  440.263601	  400.895653	  361.527706	  322.159758	  282.791811
    0.032140	    0.032140	    0.032140	    0.032140	    0.032140	  442.349402	  403.104296	  363.859190	  324.614084	  285.368978
    0.028148	    0.028148	    0.028148	    0.028148	    0.028148	  444.906423	  405.548542	  366.190660	  326.832779	  287.474897
    0.027835	    0.027836	    0.027836	    0.027837	    0.027838	  445.034128	  405.662506	  366.292812	  326.925047	  287.559210
    0.032543	    0.032543	    0.032543	    0.032543	    0.032543	  443.126822	  403.544456	  363.962090	  324.379724	  284.797357
    0.031528	    0.031528	    0.031528	    0.031528	    0.031528	  443.685045	  404.084640	  364.484236	  324.883831	  285.283427
    0.032293	    0.032293	    0.032293	    0.032293	    0.032293	  442.952955	  403.431976	  363.910996	  324.390017	  284.869037
    0.033760	    0.033760	    0.033760	    0.033760	    0.033760	  441.904474	  402.448945	  362.993415	  323.537886	  284.082356
    0.033677	    0.033677	    0.033677	    0.033677	    0.033677	  442.215649	  402.681842	  363.148034	  323.614227	  284.080419
    0.028826	    0.028826	    0.028826	    0.028826	    0.028826	  444.596163	  405.156074	  365.715985	  326.275896	  286.835806
    0.032967	    0.032967	    0.032967	    0.032967	    0.032967	  442.522967	  403.001099	  363.479231	  323.957363	  284.435495
    0.031593	    0.031593	    0.031593	    0.031593	    0.031593	  443.264409	  403.753036	  364.241662	  324.730288	  285.218915
    0.034036	    0.034036	    0.034036	    0.034036	    0.034036	  442.040150	  402.478237	  362.916325	  323.354412	  283.792499
    0.034757	    0.034732	    0.034708	    0.034683	    0.034659	  441.616710	  402.066732	  362.516793	  322.966893	  283.417030
    0.036822	    0.036847	    0.036871	    0.036896	    0.036920	  440.522821	  400.921910	  361.320953	  321.719949	  282.118899
    0.037128	    0.037128	    0.037128	    0.037128	    0.037128	  440.421840	  400.798102	  361.174365	  321.550628	  281.926890
    0.040550	    0.040550	    0.040550	    0.040550	    0.040550	  438.730529	  399.027553	  359.324577	  319.621601	  279.918625
    0.035052	    0.035052	    0.035052	    0.035052	    0.035052	  441.223897	  401.690227	  362.156557	  322.622887	  283.089216
    0.027264	    0.027264	    0.027264	    0.027264	    0.027264	  445.051592	  405.689050	  366.326509	  326.963968	  287.601426
    0.035493	    0.035493	    0.035493	    0.035493	    0.035493	  440.978970	  401.464417	  361.949865	  322.435313	  282.920761
    0.033271	    0.033272	    0.033273	    0.033274	    0.033274	  442.431780	  402.867104	  363.304368	  323.743573	  284.184717
    0.032201	    0.032201	    0.032201	    0.032201	    0.032201	  442.941822	  403.401840	  363.861858	  324.321875	  284.781893
    0.034013	    0.034013	    0.034013	    0.034013	    0.034013	  441.876968	  402.345744	  362.814520	  323.283295	  283.752071
    0.025726	    0.025702	    0.025677	    0.025653	    0.025628	  446.135503	  406.733659	  367.331836	  327.930033	  288.528251
    0.032032	    0.032032	    0.032031	    0.032030	    0.032029	  442.406473	  403.068606	  363.728802	  324.387061	  285.043382
    0.034496	    0.034496	    0.034495	    0.034494	    0.034493	  441.258667	  401.859977	  362.459346	  323.056775	  283.652263
    0.037871	    0.037871	    0.037871	    0.037871	    0.037871	  439.335941	  399.957006	  360.578071	  321.199136	  281.820200
    0.041420	    0.041420	    0.041420	    0.041420	    0.041420	  437.986627	  398.376331	  358.766036	  319.155740	  279.545444
    0.048209	    0.048209	    0.048209	    0.048209	    0.048209	  434.630565	  394.823567	  355.016570	  315.209573	  275.402576
    0.046939	    0.046939	    0.046939	    0.046939	    0.046939	  435.412408	  395.469265	  355.526122	  315.582980	  275.639837
    0.044577	    0.044577	    0.044577	    0.044577	    0.044577	  435.766119	  395.968541	  356.170963	  316.373385	  276.575807
    0.054531	    0.054533	    0.054534	    0.054535	    0.054537	  429.419745	  389.718633	  350.019465	  310.322243	  270.626966
    0.055434	    0.055434	    0.055434	    0.055434	    0.055434	  428.289099	  388.556415	  348.823731	  309.091047	  269.358363
    0.043733	    0.043733	    0.043733	    0.043733	    0.043733	  432.883309	  393.299198	  353.715086	  314.130975	  274.546863
    0.039353	    0.039353	    0.039353	    0.039353	    0.039353	  432.217779	  392.961181	  353.704582	  314.447983	  275.191384
    0.045885	    0.045885	    0.045885	    0.045885	    0.045885	  426.695243	  387.239452	  347.783662	  308.327871	  268.872080
    0.018906	    0.018906	    0.018905	    0.018905	    0.018904	  436.775521	  397.875329	  358.973162	  320.069018	  281.162899
    0.012687	    0.012687	    0.012687	    0.012687	    0.012687	  435.464347	  396.893055	  358.321764	  319.750472	  281.179181
    0.018494	    0.018494	    0.018494	    0.018494	    0.018494	  428.820714	  390.039063	  351.257412	  312.475761	  273.694110
    0.011589	    0.011589	    0.011589	    0.011589	    0.011589	  427.333675	  388.739040	  350.144404	  311.549768	  272.955132
   -0.002910	   -0.002910	   -0.002910	   -0.002910	   -0.002910	  430.985456	  392.225631	  353.465805	  314.705980	  275.946155
    0.006318	    0.006319	    0.006319	    0.006319	    0.006319	  420.244334	  381.511436	  342.780577	  304.051757	  265.324976
    0.017507	    0.017507	    0.017507	    0.017507	    0.017507	  409.516775	  370.418525	  331.320276	  292.222027	  253.123777
   -0.000425	   -0.000399	   -0.000372	   -0.000345	   -0.000319	  412.475493	  373.680684	  334.885895	  296.091126	  257.296378
   -0.001492	   -0.001492	   -0.001492	   -0.001492	   -0.001492	  406.475096	  367.844812	  329.214529	  290.584246	  251.953962
   -0.007429	   -0.007429	   -0.007429	   -0.007429	   -0.007429	  403.485275	  364.892897	  326.300520	  287.708143	  249.115765
   -0.004751	   -0.004751	   -0.004751	   -0.004751	   -0.004751	  396.232220	  357.579987	  318.927754	  280.275521	  241.623288
   -0.022895	   -0.022895	   -0.022895	   -0.022895	   -0.022895	  399.823685	  361.367659	  322.911632	  284.455606	  245.999579
   -0.031561	   -0.031561	   -0.031561	   -0.031561	   -0.031561	  398.031333	  359.793559	  321.555785	  283.318011	  245.080237
   -0.032981	   -0.032981	   -0.032981	   -0.032981	   -0.032981	  393.247470	  355.013170	  316.778870	  278.544570	  240.310270
   -0.052654	   -0.052654	   -0.052654	   -0.052654	   -0.052654	  397.477835	  359.582018	  321.686201	  283.790384	  245.894567
   -0.064322	   -0.064322	   -0.064322	   -0.064322	   -0.064322	  398.586489	  360.671001	  322.755513	  284.840025	  246.924537
   -0.072797	   -0.072795	   -0.072793	   -0.072791	   -0.072789	  397.906298	  360.021146	  322.134059	  284.245036	  246.354078
   -0.070864	   -0.070838	   -0.070812	   -0.070787	   -0.070761	  392.433094	  354.391673	  316.350466	  278.309472	  240.268692
   -0.077358	   -0.077358	   -0.077358	   -0.077358	   -0.077358	  390.472827	  352.669546	  314.866265	  277.062983	  239.259702
   -0.081081	   -0.081081	   -0.081081	   -0.081081	   -0.081081	  389.084054	  351.029730	  312.975405	  274.921081	  236.866757
   -0.084211	   -0.084211	   -0.084211	   -0.084211	   -0.084211	  388.076211	  349.672947	  311.269684	  272.866421	  234.463158
   -0.072558	   -0.072533	   -0.072508	   -0.072483	   -0.072458	  379.479830	  340.748616	  302.017717	  263.287132	  224.556861
   -0.084497	   -0.084497	   -0.084497	   -0.084497	   -0.084497	  381.329358	  342.883052	  304.436746	  265.990440	  227.544134
   -0.074191	   -0.074191	   -0.074191	   -0.074191	   -0.074191	  374.202841	  335.427979	  296.653118	  257.878256	  219.103394
   -0.069836	   -0.069836	   -0.069836	   -0.069836	   -0.069836	  370.278468	  331.227283	  292.176097	  253.124912	  214.073727
   -0.072186	   -0.072184	   -0.072182	   -0.072181	   -0.072179	  369.262108	  330.196862	  291.129742	  252.060750	  212.989883
   -0.074475	   -0.074475	   -0.074475	   -0.074475	   -0.074475	  368.558389	  329.467190	  290.375992	  251.284794	  212.193595
   -0.071138	   -0.071138	   -0.071138	   -0.071138	   -0.071138	  366.295488	  326.985163	  287.674837	  248.364512	  209.054187
   -0.092840	   -0.092838	   -0.092836	   -0.092833	   -0.092831	  373.810018	  334.954284	  296.096717	  257.237318	  218.376085
   -0.089619	   -0.089619	   -0.089619	   -0.089619	   -0.089619	  372.085970	  333.014522	  293.943073	  254.871625	  215.800176
   -0.097082	   -0.097082	   -0.097082	   -0.097082	   -0.097082	  375.119422	  335.968182	  296.816943	  257.665703	  218.514463
   -0.101487	   -0.101487	   -0.101487	   -0.101487	   -0.101487	  376.642369	  337.469883	  298.297398	  259.124912	  219.952427
   -0.126649	   -0.126649	   -0.126649	   -0.126649	   -0.126649	  386.825594	  347.956332	  309.087071	  270.217810	  231.348549
   -0.131976	   -0.131976	   -0.131976	   -0.131976	   -0.131976	  389.212956	  350.334140	  311.455324	  272.576508	  233.697692
   -0.131183	   -0.131183	   -0.131183	   -0.131183	   -0.131183	  389.872923	  350.821956	  311.770989	  272.720022	  233.669055
   -0.140494	   -0.140491	   -0.140488	   -0.140485	   -0.140481	  393.619093	  354.850706	  316.080568	  277.308677	  238.535035
   -0.149547	   -0.149523	   -0.149500	   -0.149477	   -0.149453	  397.816360	  359.274118	  320.732245	  282.190743	  243.649611
   -0.152792	   -0.152816	   -0.152840	   -0.152864	   -0.152887	  400.965154	  362.467146	  323.968815	  285.470163	  246.971187
   -0.142474	   -0.142498	   -0.142522	   -0.142546	   -0.142570	  399.818000	  361.207703	  322.597083	  283.986141	  245.374875
   -0.150500	   -0.150500	   -0.150500	   -0.150500	   -0.150500	  405.720192	  367.198591	  328.676990	  290.155389	  251.633788
   -0.140421	   -0.140421	   -0.140421	   -0.140421	   -0.140421	  405.890716	  367.230686	  328.570655	  289.910625	  251.250594
   -0.140822	   -0.140822	   -0.140822	   -0.140822	   -0.140822	  409.304111	  370.852626	  332.401142	  293.949657	  255.498172
   -0.119164	   -0.119164	   -0.119164	   -0.119164	   -0.119164	  406.204885	  367.674124	  329.143363	  290.612602	  252.081841
   -0.094670	   -0.094670	   -0.094670	   -0.094670	   -0.094670	  401.968154	  363.536802	  325.105449	  286.674097	  248.242745
   -0.082093	   -0.082093	   -0.082093	   -0.082093	   -0.082093	  402.872318	  364.430969	  325.989619	  287.548270	  249.106921
   -0.068244	   -0.068269	   -0.068294	   -0.068320	   -0.068345	  404.042111	  365.558605	  327.074977	  288.591227	  250.107354
   -0.061956	   -0.061956	   -0.061956	   -0.061956	   -0.061956	  406.159739	  368.173978	  330.188218	  292.202458	  254.216697
   -0.054469	   -0.054469	   -0.054469	   -0.054469	   -0.054469	  408.693333	  371.059017	  333.424702	  295.790386	  258.156070
   -0.029063	   -0.029037	   -0.029011	   -0.028984	   -0.028958	  406.838552	  369.012305	  331.186119	  293.359996	  255.533935
   -0.027902	   -0.027902	   -0.027902	   -0.027902	   -0.027902	  411.678162	  374.169791	  336.661421	  299.153050	  261.644679
    0.007519	    0.007519	    0.007519	    0.007519	    0.007519	  407.064737	  369.146917	  331.229098	  293.311278	  255.393459
    0.009286	    0.009313	    0.009339	    0.009366	    0.009393	  412.780301	  374.691989	  336.603685	  298.515390	  260.427103
    0.016317	    0.016317	    0.016317	    0.016317	    0.016317	  414.039892	  376.482712	  338.925533	  301.368353	  263.811174
    0.037719	    0.037747	    0.037774	    0.037801	    0.037828	  412.135143	  374.477921	  336.820645	  299.163318	  261.505938
    0.028756	    0.028784	    0.028811	    0.028839	    0.028866	  418.864131	  381.495726	  344.127247	  306.758694	  269.390068
    0.026596	    0.026596	    0.026596	    0.026596	    0.026596	  422.550106	  385.526277	  348.502447	  311.478617	  274.454787
    0.021463	    0.021463	    0.021463	    0.021463	    0.021463	  428.096943	  391.084709	  354.072475	  317.060241	  280.048007
    0.036083	    0.036083	    0.036083	    0.036083	    0.036083	  427.302493	  390.101668	  352.900843	  315.700018	  278.499194
    0.045621	    0.045621	    0.045621	    0.045621	    0.045621	  428.072857	  390.646014	  353.219171	  315.792327	  278.365484
    0.030323	    0.030323	    0.030323	    0.030323	    0.030323	  433.989121	  397.289714	  360.590308	  323.890901	  287.191494
    0.024003	    0.024003	    0.024003	    0.024003	    0.024003	  440.163427	  403.137906	  366.112386	  329.086865	  292.061344
    0.032617	    0.032617	    0.032617	    0.032617	    0.032617	  439.885130	  402.884040	  365.882950	  328.881861	  291.880771
    0.051197	    0.051224	    0.051251	    0.051277	    0.051304	  436.697132	  399.524158	  362.351134	  325.178059	  288.004934
    0.046539	    0.046565	    0.046592	    0.046619	    0.046645	  440.931340	  403.675222	  366.419065	  329.162868	  291.906633
    0.048041	    0.048041	    0.048041	    0.048041	    0.048041	  443.259712	  405.811064	  368.362417	  330.913769	  293.465122
    0.028123	    0.028123	    0.028123	    0.028123	    0.028123	  451.541144	  414.167050	  376.792956	  339.418861	  302.044767
    0.018537	    0.018537	    0.018537	    0.018537	    0.018537	  456.776219	  419.081049	  381.385879	  343.690709	  305.995539
    0.000407	    0.000407	    0.000407	    0.000407	    0.000407	  461.742154	  424.512666	  387.283178	  350.053691	  312.824203
    0.016236	    0.016236	    0.016236	    0.016236	    0.016236	  456.794158	  419.548446	  382.302733	  345.057021	  307.811308
    0.002450	    0.002475	    0.002501	    0.002526	    0.002552	  462.521281	  424.985743	  387.450336	  349.915061	  312.379918
   -0.003228	   -0.003228	   -0.003228	   -0.003228	   -0.003228	  466.134173	  428.149104	  390.164036	  352.178967	  314.193898
   -0.010175	   -0.010200	   -0.010226	   -0.010251	   -0.010276	  468.163728	  430.307368	  392.450860	  354.594205	  316.737401
   -0.010881	   -0.010881	   -0.010881	   -0.010881	   -0.010881	  468.249573	  430.424231	  392.598890	  354.773548	  316.948207
   -0.005282	   -0.005282	   -0.005282	   -0.005282	   -0.005282	  466.182948	  428.436345	  390.689743	  352.943141	  315.196538
    0.014870	    0.014870	    0.014870	    0.014870	    0.014870	  459.867807	  422.014907	  384.162007	  346.309108	  308.456208
    0.007503	    0.007503	    0.007503	    0.007503	    0.007503	  462.127433	  424.327036	  386.526639	  348.726243	  310.925846
   -0.000715	   -0.000715	   -0.000715	   -0.000715	   -0.000715	  464.011400	  426.440513	  388.869626	  351.298739	  313.727853
   -0.008960	   -0.008935	   -0.008909	   -0.008884	   -0.008859	  466.819060	  429.208470	  391.598015	  353.987695	  316.377511
   -0.006798	   -0.006798	   -0.006798	   -0.006798	   -0.006798	  466.012921	  428.372792	  390.732663	  353.092534	  315.452406
    0.002542	    0.002542	    0.002542	    0.002542	    0.002542	  462.639654	  424.993060	  387.346467	  349.699873	  312.053279
    0.016879	    0.016879	    0.016879	    0.016879	    0.016879	  457.863252	  420.173170	  382.483088	  344.793005	  307.102923
    0.011951	    0.011951	    0.011951	    0.011951	    0.011951	  459.323425	  421.706332	  384.089240	  346.472147	  308.855055
    0.009644	    0.009644	    0.009644	    0.009644	    0.009644	  459.968691	  422.390457	  384.812222	  347.233988	  309.655754
    0.005410	    0.005410	    0.005410	    0.005410	    0.005410	  461.529588	  423.936674	  386.343761	  348.750848	  311.157935
   -0.010032	   -0.010032	   -0.010032	   -0.010032	   -0.010032	  465.826945	  428.542901	  391.258857	  353.974812	  316.690768
   -0.011078	   -0.011053	   -0.011028	   -0.011002	   -0.010977	  466.941466	  429.446835	  391.952351	  354.458014	  316.963823
   -0.011372	   -0.011372	   -0.011372	   -0.011372	   -0.011372	  467.290689	  429.753973	  392.217257	  354.680540	  317.143824
   -0.006081	   -0.006081	   -0.006081	   -0.006081	   -0.006081	  465.998403	  428.332395	  390.664480	  352.994656	  315.322925
   -0.005270	   -0.005270	   -0.005270	   -0.005270	   -0.005270	  465.954875	  428.206970	  390.459065	  352.711159	  314.963254
   -0.005984	   -0.005984	   -0.005984	   -0.005984	   -0.005984	  466.057003	  428.328027	  390.599052	  352.870076	  315.141100
   -0.005674	   -0.005674	   -0.005674	   -0.005674	   -0.005674	  465.693177	  428.014440	  390.335702	  352.656965	  314.978227
    0.001428	    0.001428	    0.001428	    0.001428	    0.001428	  463.126334	  425.478376	  387.830418	  350.182460	  312.534503
    0.002140	    0.002140	    0.002140	    0.002140	    0.002140	  462.785371	  425.158324	  387.531278	  349.904232	  312.277186
    0.001430	    0.001430	    0.001430	    0.001430	    0.001430	  462.856154	  425.278084	  387.700014	  350.121944	  312.543874
   -0.008251	   -0.008251	   -0.008251	   -0.008251	   -0.008251	  465.875602	  428.383555	  390.891509	  353.399462	  315.907416
   -0.002851	   -0.002851	   -0.002851	   -0.002851	   -0.002851	  464.745617	  427.081454	  389.417292	  351.753129	  314.088967
   -0.010661	   -0.010661	   -0.010661	   -0.010661	   -0.010661	  467.060661	  429.514883	  391.969104	  354.423326	  316.877548
   -0.011359	   -0.011359	   -0.011359	   -0.011359	   -0.011359	  467.421055	  429.875606	  392.330158	  354.784710	  317.239262
   -0.013485	   -0.013485	   -0.013485	   -0.013485	   -0.013485	  467.988382	  430.500312	  393.012243	  355.524173	  318.036104
   -0.007097	   -0.007097	   -0.007097	   -0.007097	   -0.007097	  466.479361	  428.809709	  391.140057	  353.470405	  315.800752
   -0.005662	   -0.005662	   -0.005662	   -0.005662	   -0.005662	  466.285244	  428.527148	  390.769052	  353.010955	  315.252859
   -0.006365	   -0.006365	   -0.006365	   -0.006365	   -0.006365	  466.092871	  428.443897	  390.794922	  353.145948	  315.496973
   -0.009915	   -0.009915	   -0.009915	   -0.009915	   -0.009915	  467.367125	  429.682351	  391.997578	  354.312805	  316.628031
   -0.011356	   -0.011356	   -0.011356	   -0.011356	   -0.011356	  467.553747	  429.967282	  392.380816	  354.794351	  317.207885
   -0.007388	   -0.007388	   -0.007388	   -0.007388	   -0.007388	  466.631696	  428.930614	  391.229532	  353.528451	  315.827369
   -0.011376	   -0.011376	   -0.011376	   -0.011376	   -0.011376	  467.647248	  430.071663	  392.496077	  354.920492	  317.344906
   -0.005680	   -0.005680	   -0.005680	   -0.005680	   -0.005680	  465.990016	  428.352292	  390.714568	  353.076844	  315.439120
    0.000305	    0.000305	    0.000305	    0.000305	    0.000305	  464.437026	  426.674558	  388.914008	  351.155376	  313.398661
   -0.001114	   -0.001114	   -0.001114	   -0.001114	   -0.001114	  465.066742	  427.265204	  389.463666	  351.662128	  313.860590
   -0.007077	   -0.007077	   -0.007077	   -0.007077	   -0.007077	  466.723843	  429.003793	  391.283744	  353.563694	  315.843645
   -0.008903	   -0.008878	   -0.008853	   -0.008827	   -0.008802	  467.455184	  429.663098	  391.871164	  354.079384	  316.287756
   -0.007510	   -0.007510	   -0.007510	   -0.007510	   -0.007510	  466.645200	  428.933710	  391.222219	  353.510728	  315.799237
   -0.005992	   -0.005992	   -0.005992	   -0.005992	   -0.005992	  466.031563	  428.342215	  390.652867	  352.963519	  315.274171
   -0.008852	   -0.008878	   -0.008903	   -0.008929	   -0.008954	  467.110031	  429.425185	  391.740184	  354.055027	  316.369715
   -0.009976	   -0.009975	   -0.009975	   -0.009975	   -0.009975	  467.559424	  429.877151	  392.192961	  354.506856	  316.818834
   -0.008532	   -0.008532	   -0.008532	   -0.008532	   -0.008531	  466.957655	  429.318247	  391.676929	  354.033701	  316.388562
   -0.013070	   -0.013095	   -0.013121	   -0.013146	   -0.013171	  468.634426	  430.983862	  393.333149	  355.682287	  318.031277
   -0.012817	   -0.012817	   -0.012817	   -0.012817	   -0.012817	  468.206240	  430.658169	  393.110098	  355.562026	  318.013955
   -0.008907	   -0.008882	   -0.008856	   -0.008831	   -0.008806	  467.514713	  429.782891	  392.051219	  354.319697	  316.588325
   -0.000710	   -0.000710	   -0.000710	   -0.000710	   -0.000710	  464.709974	  427.009008	  389.308043	  351.607077	  313.906112
   -0.003856	   -0.003856	   -0.003856	   -0.003856	   -0.003856	  465.894515	  428.168925	  390.443334	  352.717744	  314.992153
   -0.001423	   -0.001423	   -0.001423	   -0.001423	   -0.001423	  465.341077	  427.571966	  389.800936	  352.027986	  314.253117
   -0.000306	   -0.000306	   -0.000306	   -0.000306	   -0.000306	  464.743489	  427.053072	  389.362656	  351.672239	  313.981823
    0.003158	    0.003158	    0.003158	    0.003158	    0.003158	  464.042636	  426.217026	  388.391415	  350.565804	  312.740194
    0.001426	    0.001426	    0.001426	    0.001426	    0.001426	  464.238193	  426.522998	  388.805881	  351.086844	  313.365885
   -0.003150	   -0.003150	   -0.003150	   -0.003150	   -0.003150	  465.815093	  428.080621	  390.346148	  352.611675	  314.877203
   -0.000710	   -0.000710	   -0.000710	   -0.000710	   -0.000710	  465.270048	  427.451924	  389.631883	  351.809925	  313.986048
   -0.002835	   -0.002835	   -0.002835	   -0.002835	   -0.002835	  465.939830	  428.115493	  390.291155	  352.466818	  314.642481
   -0.005257	   -0.005257	   -0.005257	   -0.005257	   -0.005257	  466.679387	  428.871554	  391.063721	  353.255887	  315.448054
   -0.004967	   -0.004966	   -0.004966	   -0.004966	   -0.004966	  466.359489	  428.625362	  390.889322	  353.151372	  315.411509
   -0.009217	   -0.009217	   -0.009217	   -0.009217	   -0.009217	  467.538038	  429.864858	  392.191677	  354.518497	  316.845317
   -0.002128	   -0.002128	   -0.002128	   -0.002128	   -0.002128	  465.449957	  427.686851	  389.923745	  352.160638	  314.397532
   -0.008472	   -0.008472	   -0.008472	   -0.008472	   -0.008472	  467.667522	  429.874899	  392.082275	  354.289652	  316.497029
   -0.011323	   -0.011323	   -0.011323	   -0.011323	   -0.011323	  468.442300	  430.705655	  392.969009	  355.232364	  317.495718
   -0.009551	   -0.009551	   -0.009551	   -0.009551	   -0.009551	  467.691644	  429.997986	  392.304328	  354.610671	  316.917013
   -0.015839	   -0.015865	   -0.015890	   -0.015915	   -0.015940	  469.915117	  432.189345	  394.463418	  356.737335	  319.011098
   -0.016997	   -0.016997	   -0.016997	   -0.016997	   -0.016997	  470.007280	  432.351445	  394.695609	  357.039773	  319.383938
   -0.014909	   -0.014909	   -0.014909	   -0.014909	   -0.014909	  469.400628	  431.717817	  394.035007	  356.352197	  318.669386
   -0.016031	   -0.016031	   -0.016031	   -0.016031	   -0.016031	  469.750128	  432.075921	  394.401715	  356.727508	  319.053302
   -0.012035	   -0.012035	   -0.012035	   -0.012035	   -0.012035	  468.780034	  430.980779	  393.181523	  355.382267	  317.583012
   -0.004980	   -0.004980	   -0.004980	   -0.004980	   -0.004980	  466.806737	  428.899267	  390.991797	  353.084327	  315.176856
   -0.009262	   -0.009262	   -0.009262	   -0.009262	   -0.009262	  467.588180	  429.844194	  392.100209	  354.356223	  316.612237
   -0.004280	   -0.004280	   -0.004280	   -0.004280	   -0.004280	  466.020271	  428.213852	  390.407432	  352.601013	  314.794593
   -0.001123	   -0.001123	   -0.001123	   -0.001123	   -0.001123	  464.570649	  426.828965	  389.087281	  351.345597	  313.603912
    0.008578	    0.008578	    0.008578	    0.008578	    0.008578	  461.522895	  423.685332	  385.847770	  348.010207	  310.172645
    0.016977	    0.016977	    0.016977	    0.016977	    0.016977	  458.338360	  420.588902	  382.839444	  345.089987	  307.340529
    0.015058	    0.015058	    0.015058	    0.015058	    0.015058	  458.945144	  421.193516	  383.441887	  345.690258	  307.938629
    0.007556	    0.007556	    0.007556	    0.007556	    0.007556	  460.754117	  423.192883	  385.631648	  348.070414	  310.509179
    0.006786	    0.006786	    0.006786	    0.006786	    0.006786	  461.123080	  423.511427	  385.899774	  348.288121	  310.676468
    0.003543	    0.003543	    0.003543	    0.003543	    0.003543	  461.910471	  424.374899	  386.839327	  349.303755	  311.768183
    0.000707	    0.000707	    0.000707	    0.000707	    0.000707	  462.670585	  425.181475	  387.692366	  350.203257	  312.714148
   -0.002122	   -0.002122	   -0.002122	   -0.002122	   -0.002122	  463.539994	  426.057044	  388.574093	  351.091143	  313.608193
   -0.005660	   -0.005660	   -0.005660	   -0.005660	   -0.005660	  464.720323	  427.232456	  389.744589	  352.256721	  314.768854
   -0.006774	   -0.006774	   -0.006774	   -0.006774	   -0.006774	  465.090733	  427.590708	  390.090682	  352.590657	  315.090632
   -0.001117	   -0.001117	   -0.001117	   -0.001117	   -0.001117	  463.249138	  425.727530	  388.205923	  350.684315	  313.162707
   -0.003148	   -0.003148	   -0.003148	   -0.003148	   -0.003148	  463.708806	  426.234368	  388.759930	  351.285492	  313.811054
   -0.005692	   -0.005692	   -0.005692	   -0.005692	   -0.005692	  464.413790	  426.975594	  389.537398	  352.099202	  314.661006
    0.005426	    0.005426	    0.005426	    0.005426	    0.005426	  460.688890	  423.225890	  385.762889	  348.299888	  310.836888
    0.012547	    0.012547	    0.012547	    0.012547	    0.012547	  459.260985	  421.497673	  383.734361	  345.971049	  308.207736
    0.017224	    0.017224	    0.017224	    0.017224	    0.017224	  457.938064	  420.109422	  382.280779	  344.452137	  306.623494
    0.013640	    0.013640	    0.013640	    0.013640	    0.013640	  458.902211	  421.139397	  383.376583	  345.613769	  307.850955
    0.008954	    0.008980	    0.009006	    0.009031	    0.009057	  459.883507	  422.295464	  384.707546	  347.119751	  309.532079
    0.008615	    0.008615	    0.008615	    0.008615	    0.008615	  459.936755	  422.377782	  384.818808	  347.259835	  309.700861
    0.006147	    0.006147	    0.006147	    0.006147	    0.006147	  460.703492	  423.171606	  385.639720	  348.107834	  310.575948
   -0.002548	   -0.002548	   -0.002548	   -0.002548	   -0.002548	  463.184908	  425.791544	  388.398180	  351.004817	  313.611453
   -0.006438	   -0.006438	   -0.006438	   -0.006438	   -0.006438	  464.354979	  427.016481	  389.677983	  352.339485	  315.000987
   -0.003977	   -0.003977	   -0.003977	   -0.003977	   -0.003977	  463.719431	  426.334182	  388.948932	  351.563683	  314.178434
   -0.008128	   -0.008128	   -0.008128	   -0.008128	   -0.008128	  464.978545	  427.637572	  390.296598	  352.955625	  315.614651
   -0.009229	   -0.009229	   -0.009229	   -0.009229	   -0.009229	  465.281194	  427.988642	  390.696090	  353.403539	  316.110987
   -0.001432	   -0.001432	   -0.001432	   -0.001432	   -0.001432	  462.594023	  425.372491	  388.150959	  350.929427	  313.707895
    0.015255	    0.015255	    0.015255	    0.015255	    0.015255	  457.785694	  420.381865	  382.978035	  345.574206	  308.170377
   -0.005023	   -0.005023	   -0.005023	   -0.005023	   -0.005024	  465.391965	  427.821988	  390.253936	  352.687808	  315.123606
   -0.004289	   -0.004289	   -0.004289	   -0.004289	   -0.004289	  466.112652	  428.366262	  390.619871	  352.873481	  315.127091
   -0.001727	   -0.001753	   -0.001778	   -0.001803	   -0.001829	  465.344429	  427.630593	  389.916609	  352.202478	  314.488200
    0.013294	    0.013294	    0.013294	    0.013294	    0.013294	  460.661617	  422.878766	  385.095915	  347.313064	  309.530213
    0.020752	    0.020752	    0.020752	    0.020752	    0.020752	  459.106311	  421.075987	  383.045662	  345.015338	  306.985014
    0.018249	    0.018248	    0.018248	    0.018248	    0.018247	  460.176791	  422.135424	  384.092104	  346.046832	  307.999606
    0.007551	    0.007551	    0.007551	    0.007551	    0.007551	  463.482922	  425.555759	  387.628596	  349.701433	  311.774269
   -0.001427	   -0.001427	   -0.001427	   -0.001427	   -0.001427	  465.853524	  428.150927	  390.448331	  352.745735	  315.043138
   -0.004283	   -0.004283	   -0.004283	   -0.004283	   -0.004283	  465.660364	  428.342741	  391.025118	  353.707495	  316.389872
    0.014358	    0.014358	    0.014358	    0.014358	    0.014358	  460.224630	  422.756884	  385.289139	  347.821393	  310.353647
   -0.007128	   -0.007128	   -0.007128	   -0.007128	   -0.007128	  467.888909	  430.386151	  392.883393	  355.380634	  317.877876
   -0.020269	   -0.020269	   -0.020269	   -0.020269	   -0.020269	  472.650278	  435.172578	  397.694878	  360.217178	  322.739477
   -0.008541	   -0.008541	   -0.008541	   -0.008541	   -0.008541	  469.232904	  431.647616	  394.062327	  356.477039	  318.891751
   -0.013157	   -0.013157	   -0.013157	   -0.013157	   -0.013157	  471.016787	  433.361395	  395.706002	  358.050610	  320.395218
   -0.019459	   -0.019459	   -0.019459	   -0.019459	   -0.019459	  472.975908	  435.329325	  397.682742	  360.036160	  322.389577
   -0.016197	   -0.016197	   -0.016197	   -0.016197	   -0.016197	  472.046796	  434.262944	  396.479092	  358.695239	  320.911387
   -0.003939	   -0.003939	   -0.003939	   -0.003939	   -0.003939	  467.973665	  430.135748	  392.297831	  354.459913	  316.621996
   -0.001114	   -0.001088	   -0.001063	   -0.001038	   -0.001012	  466.986976	  429.136126	  391.285475	  353.435022	  315.584768
   -0.004252	   -0.004252	   -0.004252	   -0.004252	   -0.004252	  467.910043	  430.121453	  392.332863	  354.544274	  316.755684
   -0.013799	   -0.013799	   -0.013799	   -0.013799	   -0.013799	  470.670860	  433.053401	  395.435942	  357.818482	  320.201023
   -0.022976	   -0.022976	   -0.022976	   -0.022976	   -0.022976	  473.659345	  436.102704	  398.546064	  360.989423	  323.432782
   -0.022432	   -0.022407	   -0.022381	   -0.022356	   -0.022330	  473.374257	  435.872960	  398.371856	  360.870945	  323.370227
