frame	ulx	uly	urx	ury	lrx	lry	llx	lly
frame00001.jpg	43.00	323.00	207.00	310.00	222.00	513.00	59.00	538.00
frame00002.jpg	42.96	322.98	206.97	309.97	221.96	512.99	58.97	537.98
frame00003.jpg	42.95	322.98	206.97	309.96	221.97	513.00	58.97	537.98
frame00004.jpg	42.95	322.99	206.97	309.96	221.96	512.99	58.97	537.98
frame00005.jpg	42.96	322.99	206.98	309.95	221.97	513.00	58.97	537.97
frame00006.jpg	42.95	322.98	206.98	309.96	221.96	513.00	58.97	537.97
frame00007.jpg	42.96	322.99	206.97	309.98	221.96	512.99	58.95	538.00
frame00008.jpg	42.95	322.98	206.97	309.96	221.96	512.99	58.96	537.99
frame00009.jpg	42.95	322.99	206.97	309.98	221.97	512.99	58.96	537.99
frame00010.jpg	42.95	322.99	206.98	309.96	221.97	512.99	58.97	537.98
frame00011.jpg	42.95	322.98	206.97	309.98	221.96	512.99	58.96	537.99
frame00012.jpg	42.95	322.98	206.98	309.96	221.96	512.99	58.96	537.98
frame00013.jpg	42.95	322.98	206.97	309.97	221.97	513.00	58.96	537.99
frame00014.jpg	42.95	322.98	206.97	309.97	221.96	512.99	58.96	537.99
frame00015.jpg	42.95	322.98	206.97	309.98	221.95	512.99	58.96	537.99
frame00016.jpg	42.96	322.99	206.97	309.97	221.97	513.00	58.96	537.98
frame00017.jpg	42.96	322.98	206.97	309.97	221.97	512.99	58.96	537.98
frame00018.jpg	42.95	322.99	206.97	309.97	221.96	512.99	58.97	537.98
frame00019.jpg	42.96	322.99	206.98	309.96	221.96	513.00	58.96	537.98
frame00020.jpg	42.95	322.97	206.97	309.98	221.96	512.99	58.96	537.99
frame00021.jpg	42.96	322.99	206.97	309.96	221.95	513.00	58.96	537.98
frame00022.jpg	42.96	322.99	206.97	309.97	221.97	512.99	58.96	537.98
frame00023.jpg	42.95	322.99	206.97	309.96	221.97	513.00	58.97	537.98
frame00024.jpg	42.96	322.99	206.97	309.96	221.97	513.00	58.97	537.98
frame00025.jpg	42.95	322.98	206.98	309.96	221.96	513.00	58.96	537.97
frame00026.jpg	42.95	322.98	206.97	309.96	221.97	513.00	58.98	537.98
frame00027.jpg	42.95	322.98	206.97	309.96	221.96	513.00	58.97	537.98
frame00028.jpg	42.95	322.98	206.98	309.97	221.96	512.99	58.96	537.98
frame00029.jpg	42.95	322.98	206.97	309.96	221.96	512.99	58.96	537.99
frame00030.jpg	42.96	322.98	206.97	309.97	221.96	512.99	58.96	537.98
frame00031.jpg	42.95	322.99	206.97	309.97	221.97	512.99	58.97	537.98
frame00032.jpg	42.95	322.97	206.97	309.97	221.96	512.99	58.97	537.98
frame00033.jpg	42.95	322.98	206.97	309.96	221.95	512.98	58.97	537.99
frame00034.jpg	42.96	322.98	206.97	309.98	221.96	512.99	58.96	537.99
frame00035.jpg	42.95	322.99	206.97	309.97	221.97	512.99	58.96	537.99
frame00036.jpg	42.95	322.99	206.97	309.97	221.97	513.00	58.96	537.99
frame00037.jpg	42.96	322.98	206.98	309.96	221.96	513.00	58.97	537.98
frame00038.jpg	42.95	322.98	206.97	309.98	221.96	512.99	58.97	537.98
frame00039.jpg	42.95	322.99	206.97	309.98	221.97	513.00	58.96	537.98
frame00040.jpg	42.95	322.98	206.97	309.98	221.96	513.00	58.96	537.99
frame00041.jpg	42.95	322.98	206.97	309.98	221.96	512.99	58.96	537.98
frame00042.jpg	42.95	322.99	206.97	309.96	221.96	512.99	58.97	537.99
frame00043.jpg	42.95	322.98	206.98	309.96	221.96	512.99	58.96	537.99
frame00044.jpg	42.96	322.99	206.98	309.96	221.96	513.00	58.95	537.98
frame00045.jpg	42.96	322.99	206.97	309.97	221.97	513.00	58.97	537.99
frame00046.jpg	42.95	322.98	206.97	309.96	221.96	512.99	58.98	537.99
frame00047.jpg	42.95	322.99	206.97	309.96	221.97	513.00	58.97	538.00
frame00048.jpg	42.95	322.99	206.97	309.96	221.96	513.00	58.96	537.99
frame00049.jpg	42.95	323.00	206.97	309.96	221.97	512.99	58.97	537.98
frame00050.jpg	42.96	322.99	206.97	309.96	221.96	512.99	58.97	537.99
frame00051.jpg	42.95	322.99	206.98	309.96	221.97	513.00	58.97	537.98
frame00052.jpg	42.96	322.99	206.97	309.96	221.97	513.00	58.96	537.99
frame00053.jpg	42.95	322.98	206.98	309.97	221.96	512.99	58.97	537.98
frame00054.jpg	42.95	322.98	206.97	309.97	221.96	513.00	58.95	537.99
frame00055.jpg	42.94	322.98	206.98	309.95	221.97	512.99	58.97	537.99
frame00056.jpg	42.95	322.98	206.98	309.96	221.96	512.99	58.95	537.99
frame00057.jpg	42.95	322.99	206.97	309.96	221.97	512.99	58.96	537.98
frame00058.jpg	42.95	322.99	206.97	309.96	221.97	512.99	58.96	537.98
frame00059.jpg	42.95	322.99	206.97	309.97	221.97	512.99	58.96	537.98
frame00060.jpg	42.95	322.98	206.97	309.97	221.96	513.00	58.96	537.99
frame00061.jpg	42.95	322.98	206.97	309.98	221.97	513.00	58.97	537.98
frame00062.jpg	42.95	322.98	206.98	309.95	221.96	513.00	58.97	537.97
frame00063.jpg	42.95	322.97	206.98	309.95	221.95	512.99	58.98	537.99
frame00064.jpg	42.95	322.98	206.97	309.96	221.96	513.00	58.96	537.99
frame00065.jpg	42.96	323.00	206.97	309.96	221.96	513.00	58.96	537.98
frame00066.jpg	42.95	322.99	206.96	309.98	221.96	513.00	58.96	537.99
frame00067.jpg	42.95	322.98	206.97	309.97	221.96	512.99	58.96	537.99
frame00068.jpg	42.95	322.98	206.97	309.96	221.96	512.99	58.96	537.98
frame00069.jpg	42.95	322.98	206.97	309.97	221.96	513.00	58.96	537.99
frame00070.jpg	42.95	322.98	206.97	309.96	221.95	513.00	58.98	537.98
frame00071.jpg	42.95	323.00	206.97	309.97	221.96	512.99	58.96	537.99
frame00072.jpg	42.95	322.99	206.97	309.97	221.97	513.00	58.96	537.97
frame00073.jpg	42.95	322.99	206.97	309.98	221.97	512.99	58.95	537.98
frame00074.jpg	42.95	323.00	206.97	309.98	221.97	512.99	58.95	537.97
frame00075.jpg	42.94	322.99	206.97	309.97	221.97	513.00	58.96	537.99
frame00076.jpg	42.94	322.98	206.96	309.97	221.97	512.99	58.96	537.98
frame00077.jpg	42.95	322.99	206.96	309.97	221.96	512.99	58.95	538.00
frame00078.jpg	42.95	322.98	206.97	309.95	221.96	513.00	58.96	537.99
frame00079.jpg	42.95	322.98	206.98	309.96	221.95	513.00	58.97	537.98
frame00080.jpg	42.95	322.98	206.97	309.96	221.95	513.00	58.97	537.98
frame00081.jpg	42.95	322.99	206.97	309.96	221.95	512.99	58.97	537.98
frame00082.jpg	42.95	322.99	206.96	309.97	221.96	512.99	58.98	537.97
frame00083.jpg	42.96	322.98	206.96	309.98	221.95	512.99	58.98	537.96
frame00084.jpg	42.96	322.99	206.96	309.96	221.96	512.99	58.98	537.98
frame00085.jpg	42.95	322.97	206.97	309.95	221.96	512.99	58.98	537.98
frame00086.jpg	42.96	322.98	206.98	309.96	221.96	512.99	58.97	537.97
frame00087.jpg	42.96	322.98	206.97	309.96	221.96	512.99	58.97	537.98
frame00088.jpg	42.96	322.98	206.97	309.95	221.96	512.99	58.97	537.98
frame00089.jpg	42.95	322.98	206.97	309.97	221.96	512.99	58.98	537.99
frame00090.jpg	42.95	322.98	206.97	309.96	221.96	512.99	58.97	537.99
frame00091.jpg	42.96	322.99	206.97	309.96	221.97	513.00	58.97	537.98
frame00092.jpg	42.95	322.98	206.98	309.96	221.96	512.99	58.96	537.99
frame00093.jpg	42.95	322.98	206.97	309.96	221.96	512.99	58.97	537.98
frame00094.jpg	42.95	322.98	206.97	309.95	221.96	513.00	58.98	537.98
frame00095.jpg	42.95	322.98	206.97	309.95	221.95	512.99	58.97	537.97
frame00096.jpg	42.95	322.99	206.97	309.96	221.96	512.99	58.97	537.98
frame00097.jpg	42.95	322.98	206.97	309.97	221.97	512.99	58.97	537.97
frame00098.jpg	42.95	322.98	206.97	309.95	221.96	512.99	58.97	537.98
frame00099.jpg	42.95	322.98	206.97	309.96	221.96	512.99	58.97	537.99
frame00100.jpg	42.96	322.99	206.97	309.95	221.97	513.00	58.96	537.99
frame00101.jpg	42.95	322.99	206.97	309.96	221.96	512.99	58.97	537.98
frame00102.jpg	42.95	322.98	206.97	309.96	221.96	512.99	58.97	537.98
frame00103.jpg	42.95	322.98	206.97	309.96	221.96	512.99	58.97	537.99
frame00104.jpg	42.95	322.99	206.97	309.96	221.96	512.98	58.96	537.98
frame00105.jpg	42.96	322.99	206.97	309.96	221.96	512.99	58.96	537.97
frame00106.jpg	42.95	322.97	206.96	309.96	221.96	512.99	58.97	537.98
frame00107.jpg	42.96	322.98	206.96	309.96	221.96	513.00	58.96	537.98
frame00108.jpg	42.95	322.99	206.97	309.97	221.97	512.99	58.96	537.98
frame00109.jpg	42.95	322.98	206.96	309.95	221.96	512.99	58.97	537.99
frame00110.jpg	42.95	322.98	206.97	309.96	221.95	512.98	58.96	537.98
frame00111.jpg	42.95	322.98	206.97	309.96	221.96	512.98	58.97	537.97
frame00112.jpg	42.96	322.99	206.97	309.96	221.97	513.00	58.96	537.98
frame00113.jpg	42.95	322.99	206.97	309.97	221.96	512.99	58.95	537.98
frame00114.jpg	42.96	322.98	206.96	309.96	221.96	513.00	58.98	537.97
frame00115.jpg	42.95	322.98	206.97	309.96	221.96	512.99	58.97	537.98
frame00116.jpg	42.96	322.98	206.98	309.95	221.96	512.99	58.97	537.98
frame00117.jpg	42.95	322.99	206.97	309.96	221.97	512.98	58.97	537.98
frame00118.jpg	42.95	322.98	206.98	309.96	221.97	513.00	58.96	537.98
frame00119.jpg	42.95	322.99	206.96	309.96	221.97	512.99	58.97	537.99
frame00120.jpg	42.95	322.98	206.97	309.96	221.97	512.99	58.97	537.98
frame00121.jpg	42.95	322.99	206.97	309.97	221.97	512.99	58.96	537.98
frame00122.jpg	42.94	322.98	206.97	309.97	221.96	512.99	58.96	537.99
frame00123.jpg	42.95	322.99	206.97	309.96	221.97	513.00	58.95	537.98
frame00124.jpg	42.95	322.98	206.96	309.97	221.96	512.99	58.95	537.99
frame00125.jpg	42.95	322.98	206.97	309.97	221.96	512.99	58.95	537.98
frame00126.jpg	42.95	322.98	206.97	309.95	221.96	512.99	58.97	537.97
frame00127.jpg	42.95	322.98	206.97	309.95	221.95	512.99	58.97	537.97
frame00128.jpg	42.95	322.98	206.97	309.95	221.95	512.98	58.97	537.98
frame00129.jpg	42.94	322.98	206.97	309.95	221.95	512.98	58.96	537.97
frame00130.jpg	42.94	322.97	206.97	309.95	221.95	512.99	58.96	537.97
frame00131.jpg	42.93	322.97	206.97	309.95	221.94	512.99	58.96	537.96
frame00132.jpg	42.94	322.98	206.96	309.94	221.95	512.99	58.96	537.97
frame00133.jpg	42.94	322.97	206.96	309.94	221.94	512.99	58.96	537.97
frame00134.jpg	42.93	322.97	206.96	309.94	221.95	512.98	58.96	537.97
frame00135.jpg	42.94	322.98	206.96	309.95	221.95	512.99	58.96	537.97
frame00136.jpg	42.94	322.97	206.96	309.96	221.94	512.98	58.95	537.97
frame00137.jpg	42.94	322.97	206.97	309.96	221.95	512.99	58.96	537.97
frame00138.jpg	42.92	322.97	206.96	309.95	221.96	512.98	58.96	537.97
frame00139.jpg	42.93	322.98	206.96	309.95	221.96	512.98	58.97	537.96
frame00140.jpg	42.94	322.98	206.96	309.96	221.96	512.98	58.96	537.96
frame00141.jpg	42.94	322.97	206.96	309.97	221.97	512.98	58.96	537.97
frame00142.jpg	42.95	322.98	206.96	309.96	221.96	512.98	58.96	537.97
frame00143.jpg	42.94	322.96	206.97	309.96	221.96	512.98	58.94	537.98
frame00144.jpg	42.94	322.97	206.97	309.96	221.96	512.98	58.95	537.97
frame00145.jpg	42.95	322.97	206.97	309.94	221.96	512.99	58.95	537.97
frame00146.jpg	42.94	322.98	206.97	309.95	221.95	512.98	58.96	537.97
frame00147.jpg	42.94	322.98	206.97	309.95	221.95	512.98	58.97	537.98
frame00148.jpg	42.93	322.96	206.96	309.95	221.94	512.98	58.96	537.97
frame00149.jpg	42.95	322.98	206.96	309.96	221.96	513.00	58.96	537.98
frame00150.jpg	42.94	322.97	206.96	309.96	221.96	512.98	58.97	537.98
frame00151.jpg	42.94	322.97	206.97	309.96	221.96	512.98	58.96	537.98
frame00152.jpg	42.94	322.98	206.97	309.95	221.96	512.98	58.96	537.97
frame00153.jpg	42.94	322.97	206.97	309.95	221.96	512.99	58.96	537.96
frame00154.jpg	42.94	322.96	206.97	309.94	221.96	512.98	58.96	537.97
frame00155.jpg	42.94	322.97	206.96	309.94	221.96	512.99	58.95	537.98
frame00156.jpg	42.94	322.97	206.97	309.94	221.96	512.98	58.97	537.97
frame00157.jpg	42.93	322.95	206.97	309.95	221.95	512.99	58.95	537.97
frame00158.jpg	42.95	322.97	206.97	309.94	221.97	512.99	58.96	537.96
frame00159.jpg	42.94	322.96	206.97	309.94	221.97	512.98	58.96	537.96
frame00160.jpg	42.94	322.96	206.97	309.95	221.97	512.98	58.96	537.97
frame00161.jpg	42.94	322.96	206.97	309.94	221.97	512.99	58.96	537.96
frame00162.jpg	42.93	322.96	206.97	309.94	221.97	512.98	58.98	537.97
frame00163.jpg	42.94	322.96	206.98	309.94	221.96	512.97	58.97	537.96
frame00164.jpg	42.94	322.97	206.97	309.95	221.96	512.98	58.96	537.97
frame00165.jpg	42.93	322.96	206.97	309.94	221.94	512.97	58.97	537.97
frame00166.jpg	42.94	322.98	206.98	309.94	221.95	512.99	58.96	537.96
frame00167.jpg	42.95	322.98	206.97	309.95	221.96	512.98	58.96	537.96
frame00168.jpg	42.94	322.97	206.97	309.95	221.96	512.98	58.95	537.97
frame00169.jpg	42.94	322.97	206.97	309.94	221.96	512.99	58.97	537.96
frame00170.jpg	42.95	322.98	206.97	309.95	221.97	512.99	58.95	537.97
frame00171.jpg	42.94	322.98	206.97	309.94	221.95	512.98	58.95	537.97
frame00172.jpg	42.94	322.96	206.97	309.94	221.95	512.98	58.96	537.97
frame00173.jpg	42.94	322.97	206.97	309.94	221.96	512.99	58.97	537.96
frame00174.jpg	42.94	322.98	206.97	309.94	221.96	512.98	58.97	537.96
frame00175.jpg	42.94	322.97	206.96	309.96	221.96	512.98	58.98	537.97
frame00176.jpg	42.94	322.99	206.96	309.95	221.97	512.98	58.98	537.98
frame00177.jpg	42.95	322.98	206.98	309.94	221.97	512.99	58.98	537.96
frame00178.jpg	42.95	322.96	206.97	309.94	221.96	512.98	58.97	537.98
frame00179.jpg	42.98	322.96	206.99	309.93	221.97	512.98	58.98	537.94
frame00180.jpg	42.97	322.94	206.97	309.94	221.97	512.97	58.97	537.95
frame00181.jpg	42.96	322.96	206.97	309.94	221.97	512.98	58.96	537.98
frame00182.jpg	42.94	322.99	206.97	309.96	221.96	513.00	58.96	538.00
frame00183.jpg	42.93	322.99	206.97	309.96	221.96	513.00	58.97	537.99
frame00184.jpg	42.99	322.95	206.99	309.93	221.97	512.98	58.98	537.95
frame00185.jpg	43.08	322.86	207.02	309.87	221.97	512.94	58.98	537.88
frame00186.jpg	43.20	322.73	207.06	309.79	221.98	512.92	58.98	537.77
frame00187.jpg	43.24	322.69	207.06	309.74	221.97	512.90	59.01	537.74
frame00188.jpg	43.05	322.91	207.02	309.91	222.00	512.99	58.98	537.89
frame00189.jpg	42.94	323.06	207.09	310.05	221.99	513.10	59.00	537.98
frame00190.jpg	43.05	323.00	207.16	310.05	221.98	513.09	59.02	537.93
frame00191.jpg	43.10	322.92	207.15	309.95	221.97	513.04	59.04	537.87
frame00192.jpg	43.11	322.90	207.13	309.96	221.97	513.07	59.05	537.83
frame00193.jpg	43.09	322.98	207.16	310.11	221.96	513.17	59.05	537.74
frame00194.jpg	43.08	323.05	207.27	310.26	221.92	513.35	59.08	537.58
frame00195.jpg	42.99	323.14	207.34	310.40	221.88	513.41	59.09	537.60
frame00196.jpg	43.21	323.04	207.56	310.46	221.92	513.42	59.12	537.48
frame00197.jpg	43.47	322.86	207.78	310.51	221.94	513.50	59.16	537.13
frame00198.jpg	43.73	322.67	207.94	310.56	221.88	513.54	59.20	536.70
frame00199.jpg	44.06	322.42	208.12	310.56	221.81	513.53	59.23	536.21
frame00200.jpg	45.12	321.49	208.87	310.40	221.71	513.50	59.31	535.19
frame00201.jpg	47.10	319.88	210.35	310.01	221.78	513.23	59.42	533.60
frame00202.jpg	49.99	317.65	212.69	309.54	221.90	512.93	59.56	531.37
frame00203.jpg	53.69	314.83	215.79	308.80	222.20	512.48	59.79	528.75
frame00204.jpg	57.87	311.85	219.41	308.26	222.63	511.96	60.20	525.84
frame00205.jpg	62.73	308.82	223.75	307.89	223.47	511.37	61.08	522.83
frame00206.jpg	68.92	305.46	229.26	307.42	224.91	510.69	62.66	519.26
frame00207.jpg	76.43	301.65	235.97	307.07	226.88	509.94	64.94	515.20
frame00208.jpg	85.25	297.67	244.05	307.07	229.35	509.19	68.08	510.75
frame00209.jpg	95.48	293.52	253.32	307.33	232.63	508.45	71.77	505.72
frame00210.jpg	107.09	288.22	263.48	307.00	236.20	507.20	75.89	499.40
frame00211.jpg	119.42	281.68	274.50	305.68	240.23	504.79	80.91	491.50
frame00212.jpg	133.22	274.04	286.38	303.51	244.87	501.38	86.59	481.90
frame00213.jpg	148.88	264.15	299.12	300.06	250.10	496.69	93.20	470.29
frame00214.jpg	164.72	253.66	312.96	294.89	256.17	490.18	100.81	457.77
frame00215.jpg	180.34	243.61	326.03	290.18	262.81	482.94	109.13	445.26
frame00216.jpg	197.68	234.03	340.62	286.14	269.30	476.12	118.50	431.14
frame00217.jpg	217.28	224.24	355.83	282.80	275.51	469.62	128.21	416.50
frame00218.jpg	237.26	215.06	371.85	280.98	281.42	463.43	138.01	402.77
frame00219.jpg	257.69	207.31	386.90	280.79	287.19	458.39	147.80	388.84
frame00220.jpg	279.48	200.91	402.92	282.05	292.34	453.62	158.46	374.91
frame00221.jpg	301.10	196.36	419.66	284.78	298.31	449.12	169.95	361.91
frame00222.jpg	323.56	192.75	435.37	288.26	304.47	444.77	181.93	349.44
frame00223.jpg	345.52	189.64	450.32	291.68	310.56	439.64	194.74	338.33
frame00224.jpg	363.40	187.72	463.57	294.02	318.10	435.40	207.53	328.85
frame00225.jpg	381.68	186.91	476.39	296.55	325.25	432.06	220.22	321.12
frame00226.jpg	399.02	187.15	488.00	299.62	332.71	429.43	233.61	314.30
frame00227.jpg	415.79	189.26	498.54	304.43	339.45	427.33	245.82	308.45
frame00228.jpg	432.66	193.24	508.19	311.58	344.46	426.13	257.56	303.66
frame00229.jpg	449.24	199.41	516.46	321.12	347.62	425.51	269.07	298.56
frame00230.jpg	464.94	206.35	523.38	331.18	349.93	424.92	280.71	293.35
frame00231.jpg	479.75	213.92	529.56	341.25	351.82	424.33	292.44	288.19
frame00232.jpg	493.66	221.60	534.75	351.88	353.82	423.43	303.46	282.93
frame00233.jpg	506.19	229.44	539.57	361.67	355.56	422.27	314.33	278.11
frame00234.jpg	517.50	236.63	543.89	370.62	357.41	420.68	324.78	273.92
frame00235.jpg	528.24	243.81	547.48	379.48	358.98	418.67	334.65	269.51
frame00236.jpg	537.83	251.35	549.83	387.84	360.05	416.01	344.75	264.92
frame00237.jpg	546.72	259.16	550.98	395.58	360.99	413.48	354.85	261.34
frame00238.jpg	554.74	267.12	551.57	403.42	362.07	410.50	364.88	258.19
frame00239.jpg	562.00	274.52	551.84	410.07	363.75	407.46	374.35	255.40
frame00240.jpg	568.76	280.90	552.54	415.67	366.04	404.80	383.39	253.12
frame00241.jpg	575.05	286.52	553.50	420.45	368.29	401.82	391.80	251.16
frame00242.jpg	580.15	292.02	553.27	424.51	369.97	398.44	400.00	248.53
frame00243.jpg	584.41	297.29	552.23	428.11	371.43	394.92	407.67	246.31
frame00244.jpg	587.84	302.81	550.04	431.75	372.04	390.90	415.07	243.90
frame00245.jpg	590.63	308.36	547.80	435.57	372.49	387.22	421.89	242.08
frame00246.jpg	593.76	312.00	547.43	437.96	374.98	384.46	428.15	240.81
frame00247.jpg	597.83	314.00	548.52	438.79	377.55	382.04	434.32	239.43
frame00248.jpg	601.29	315.80	548.62	438.93	379.88	378.62	439.93	237.49
frame00249.jpg	604.89	316.38	549.26	438.02	382.75	374.45	445.81	234.52
frame00250.jpg	608.76	315.92	551.43	436.68	386.52	370.23	451.51	230.97
frame00251.jpg	612.48	315.34	553.83	435.68	389.75	366.44	457.06	227.72
frame00252.jpg	615.09	316.98	554.24	436.51	391.84	363.28	462.11	225.97
frame00253.jpg	616.17	321.03	552.19	439.07	391.98	360.16	466.35	225.18
frame00254.jpg	617.54	323.39	550.12	439.54	392.29	356.13	470.30	222.68
frame00255.jpg	620.83	321.60	552.47	437.51	394.86	352.10	473.72	219.38
frame00256.jpg	624.82	317.69	557.89	434.93	399.10	350.45	476.81	216.38
frame00257.jpg	627.12	316.99	560.59	434.76	401.66	350.38	479.17	216.23
frame00258.jpg	626.78	320.62	557.96	436.74	400.81	349.35	480.83	216.99
frame00259.jpg	626.48	322.55	554.96	437.06	399.54	346.30	482.39	215.59
frame00260.jpg	628.10	319.02	556.50	433.50	401.53	342.70	484.12	211.91
frame00261.jpg	631.32	313.33	562.53	429.72	405.29	342.08	485.04	209.72
frame00262.jpg	631.33	313.94	563.32	430.64	405.97	342.93	485.46	210.82
frame00263.jpg	627.23	320.87	555.37	434.74	402.43	342.03	486.10	212.06
frame00264.jpg	625.12	323.37	550.52	435.44	399.58	339.10	486.75	211.76
frame00265.jpg	627.14	317.51	553.97	429.81	401.69	335.75	486.83	207.44
frame00266.jpg	631.32	309.19	562.20	424.85	406.38	335.17	486.70	203.92
frame00267.jpg	631.24	308.73	563.20	425.01	406.98	335.79	486.82	204.05
frame00268.jpg	626.27	317.44	553.97	430.51	402.75	335.17	487.26	206.28
frame00269.jpg	623.10	323.12	547.53	434.58	398.46	335.13	487.04	209.09
frame00270.jpg	623.59	321.12	548.17	432.09	398.96	333.74	486.99	207.34
frame00271.jpg	627.65	312.25	556.39	425.92	403.35	333.26	486.24	203.50
frame00272.jpg	630.65	307.05	563.10	424.05	406.60	334.68	485.82	202.91
frame00273.jpg	628.14	311.54	559.27	426.63	404.57	335.52	485.46	204.65
frame00274.jpg	624.27	317.70	551.36	430.81	400.00	334.49	485.61	206.26
frame00275.jpg	622.88	316.17	548.98	428.15	398.48	330.25	485.49	202.78
frame00276.jpg	626.44	305.69	556.82	420.01	401.90	327.58	484.12	197.66
frame00277.jpg	630.52	299.75	564.64	417.81	405.56	329.60	483.11	196.47
frame00278.jpg	628.26	305.69	561.41	421.68	402.58	332.65	481.62	201.07
frame00279.jpg	622.36	317.73	548.99	431.45	396.07	332.93	481.65	204.85
frame00280.jpg	619.50	320.14	543.65	432.29	392.24	330.83	481.31	204.47
frame00281.jpg	621.77	313.31	548.38	427.01	394.62	329.12	480.12	200.59
frame00282.jpg	626.65	305.43	558.50	423.46	398.75	332.07	478.27	199.49
frame00283.jpg	626.33	306.83	559.26	425.45	398.50	334.20	477.13	201.41
frame00284.jpg	622.35	313.13	551.68	429.69	394.20	333.18	477.12	202.66
frame00285.jpg	619.86	314.33	547.08	429.40	391.42	329.94	477.23	201.07
frame00286.jpg	621.33	308.84	550.42	424.93	393.68	328.08	476.81	197.86
frame00287.jpg	624.52	303.07	557.91	421.98	397.21	330.63	475.55	197.66
frame00288.jpg	623.90	305.15	557.54	423.69	396.62	333.39	474.43	200.41
frame00289.jpg	619.80	311.85	548.88	427.68	391.98	333.24	474.03	202.71
frame00290.jpg	616.58	314.23	542.63	427.98	387.65	330.69	473.32	202.22
frame00291.jpg	617.48	309.80	545.26	424.49	388.90	329.59	472.09	200.09
frame00292.jpg	620.50	304.13	552.74	422.16	391.95	332.17	470.43	199.62
frame00293.jpg	619.88	305.65	552.55	423.95	391.44	334.02	469.60	201.34
frame00294.jpg	616.38	310.54	546.05	426.82	388.05	332.26	470.15	201.76
frame00295.jpg	615.34	309.75	544.17	425.54	387.07	329.91	469.90	200.02
frame00296.jpg	617.72	302.98	551.63	421.50	390.81	332.50	468.10	199.09
frame00297.jpg	619.25	298.17	558.52	420.44	392.44	338.65	463.98	201.91
frame00298.jpg	617.04	299.47	556.57	421.94	388.85	343.67	458.23	205.62
frame00299.jpg	612.13	303.77	549.83	426.17	381.79	347.50	451.83	209.52
frame00300.jpg	607.90	305.90	546.33	428.98	375.90	351.93	445.34	213.50
frame00301.jpg	605.53	303.84	548.29	429.30	374.74	358.45	439.52	217.15
frame00302.jpg	604.01	299.38	553.50	427.68	376.12	365.77	434.01	220.94
frame00303.jpg	602.22	295.02	557.38	425.44	377.71	372.02	429.01	224.85
frame00304.jpg	599.71	292.37	558.74	423.68	377.57	377.74	423.51	229.29
frame00305.jpg	596.82	290.45	559.39	422.43	376.71	383.23	417.48	234.34
frame00306.jpg	593.78	288.38	560.41	420.86	376.67	389.36	411.81	240.27
frame00307.jpg	590.40	286.43	561.71	419.15	377.38	396.42	406.10	247.04
frame00308.jpg	586.58	285.64	561.92	417.94	377.61	403.19	400.89	254.23
frame00309.jpg	582.53	285.60	561.32	417.40	377.00	409.15	395.05	261.06
frame00310.jpg	578.76	285.56	560.29	417.02	375.76	414.15	389.07	267.32
frame00311.jpg	574.98	284.86	559.97	416.23	374.98	418.78	383.75	273.00
frame00312.jpg	571.17	283.17	560.95	414.76	375.60	424.04	378.81	278.56
frame00313.jpg	567.40	280.96	562.13	412.62	377.02	429.12	374.30	284.13
frame00314.jpg	563.48	279.39	562.69	410.85	378.02	433.60	370.17	289.40
frame00315.jpg	559.51	278.72	562.50	409.63	378.13	437.60	366.10	294.54
frame00316.jpg	555.71	278.63	561.57	409.04	377.95	441.23	362.39	299.21
frame00317.jpg	552.03	278.32	560.43	408.08	377.68	444.37	359.06	303.23
frame00318.jpg	548.29	277.51	559.23	406.56	377.89	447.07	356.06	306.86
frame00319.jpg	544.31	275.99	558.03	404.30	377.92	449.37	352.67	309.93
frame00320.jpg	540.26	273.43	557.05	401.00	378.38	450.83	349.37	313.07
frame00321.jpg	535.41	269.86	556.61	396.45	379.83	452.70	346.16	315.77
frame00322.jpg	530.12	265.00	556.10	390.58	382.30	454.25	343.41	318.85
frame00323.jpg	524.11	260.06	555.32	384.19	384.62	455.55	340.08	321.62
frame00324.jpg	517.52	255.35	553.57	377.75	385.67	456.24	335.76	323.83
frame00325.jpg	510.01	250.22	550.84	371.21	385.62	456.03	330.65	325.41
frame00326.jpg	501.52	244.58	547.68	364.01	385.54	455.69	324.95	327.18
frame00327.jpg	491.79	238.35	544.00	355.70	385.79	455.23	318.71	329.23
frame00328.jpg	481.08	231.92	539.83	346.64	385.81	454.62	311.85	332.10
frame00329.jpg	469.45	226.00	534.78	337.49	385.42	453.29	304.28	335.82
frame00330.jpg	456.46	220.27	528.47	328.03	384.54	452.63	296.60	339.95
frame00331.jpg	443.50	215.70	521.78	319.44	382.89	451.18	288.31	343.96
frame00332.jpg	429.01	211.29	513.37	311.19	380.72	450.27	280.49	347.57
frame00333.jpg	415.40	207.84	505.03	303.50	378.50	449.05	272.57	351.99
frame00334.jpg	400.98	204.61	496.11	295.33	376.85	447.41	265.35	356.73
frame00335.jpg	386.60	201.88	486.93	287.51	374.96	445.50	258.56	361.58
frame00336.jpg	371.19	199.41	476.94	279.04	373.73	443.25	252.10	366.92
frame00337.jpg	356.21	198.59	466.94	272.48	371.54	441.48	245.55	372.48
frame00338.jpg	343.23	199.25	457.38	269.19	368.00	441.06	238.40	378.49
frame00339.jpg	330.54	200.86	448.43	266.60	364.19	441.58	232.00	384.15
frame00340.jpg	319.12	203.48	439.89	265.95	359.69	443.10	225.09	389.86
frame00341.jpg	308.12	206.43	431.70	265.86	354.98	444.98	218.50	395.42
frame00342.jpg	296.90	209.31	423.23	265.60	350.58	446.80	211.68	400.90
frame00343.jpg	285.31	212.05	414.65	264.45	346.54	448.44	205.72	406.19
frame00344.jpg	273.04	214.39	405.50	262.53	342.67	449.27	199.72	411.49
frame00345.jpg	260.15	216.66	395.47	260.31	338.67	449.75	193.71	416.20
frame00346.jpg	246.95	219.05	385.09	257.98	334.49	449.64	187.46	421.00
frame00347.jpg	234.06	221.41	374.94	255.95	329.73	449.55	181.16	425.42
frame00348.jpg	221.43	223.87	364.73	254.40	324.58	449.51	174.68	430.00
frame00349.jpg	209.56	226.53	354.87	253.26	319.22	449.91	168.09	433.98
frame00350.jpg	198.00	229.08	344.79	253.25	313.42	450.56	161.06	438.07
frame00351.jpg	186.60	232.31	334.88	253.44	307.21	452.14	153.56	441.93
frame00352.jpg	175.25	235.38	325.03	254.15	300.70	453.78	145.88	446.33
frame00353.jpg	164.25	239.05	315.69	255.44	293.77	455.95	138.10	450.85
frame00354.jpg	153.72	242.96	306.54	257.60	286.90	458.70	130.09	455.75
frame00355.jpg	143.61	247.56	297.93	260.25	280.21	461.81	122.77	460.72
frame00356.jpg	133.88	252.99	289.94	263.93	274.06	465.40	115.82	466.63
frame00357.jpg	124.45	259.52	282.82	268.18	268.57	469.33	109.89	473.07
frame00358.jpg	116.95	265.56	276.88	272.81	263.87	473.30	104.83	478.96
frame00359.jpg	111.01	270.92	271.77	276.86	260.12	477.15	100.73	484.53
frame00360.jpg	105.31	276.55	266.94	280.62	257.04	480.48	97.66	489.98
frame00361.jpg	99.56	281.97	262.10	283.70	254.56	483.26	94.98	495.40
frame00362.jpg	94.22	286.49	257.37	286.20	252.38	485.56	92.67	500.08
frame00363.jpg	89.11	290.68	252.79	287.85	250.97	487.12	91.06	504.55
frame00364.jpg	84.61	294.60	248.96	289.20	250.10	488.33	90.22	508.25
frame00365.jpg	81.92	297.04	246.40	290.19	249.28	489.48	89.49	510.96
frame00366.jpg	80.28	298.59	244.58	291.26	248.22	490.59	88.42	512.81
frame00367.jpg	78.33	300.25	242.65	292.43	246.83	491.44	86.97	514.37
frame00368.jpg	76.11	301.54	240.57	293.51	244.77	492.14	84.98	515.43
frame00369.jpg	73.94	302.09	238.41	294.26	242.56	492.83	82.56	516.11
frame00370.jpg	71.65	302.39	236.09	294.55	240.47	493.24	80.32	516.46
frame00371.jpg	69.01	302.98	233.43	294.69	238.66	493.38	78.48	516.92
frame00372.jpg	66.17	303.84	230.66	295.02	236.83	493.51	76.48	517.65
frame00373.jpg	63.08	304.87	227.79	295.30	235.05	493.74	74.75	518.56
frame00374.jpg	60.02	306.39	224.88	295.87	233.46	494.18	72.96	519.80
frame00375.jpg	57.06	308.15	222.25	296.89	231.86	495.05	71.30	521.39
frame00376.jpg	54.41	310.38	219.92	298.51	230.28	496.62	69.53	523.37
frame00377.jpg	52.34	312.64	218.26	300.71	228.51	498.92	67.42	525.57
frame00378.jpg	50.78	315.04	217.03	303.61	226.75	501.87	65.17	527.99
frame00379.jpg	49.81	317.45	216.55	306.83	225.19	505.31	63.17	530.38
frame00380.jpg	49.92	319.56	216.90	310.25	224.10	509.02	61.50	532.67
frame00381.jpg	49.78	321.24	217.14	312.27	223.88	511.58	61.09	534.45
frame00382.jpg	48.49	322.44	216.03	312.57	224.11	511.83	61.24	535.74
frame00383.jpg	47.12	323.61	214.90	312.69	224.19	511.92	61.31	537.00
frame00384.jpg	45.33	325.08	213.33	312.92	224.15	511.99	61.22	538.43
frame00385.jpg	43.22	326.55	211.36	312.87	223.96	511.91	61.08	539.98
frame00386.jpg	41.78	326.84	209.74	312.21	223.59	511.49	60.73	540.68
frame00387.jpg	42.29	326.06	209.47	311.70	223.16	511.32	60.24	540.76
frame00388.jpg	42.20	325.81	208.94	311.16	222.97	510.87	60.13	540.97
frame00389.jpg	42.20	325.62	208.69	310.94	222.90	510.71	60.09	540.91
frame00390.jpg	42.38	325.38	208.52	310.71	222.90	510.61	60.08	540.84
frame00391.jpg	42.45	325.02	208.19	310.33	222.88	510.41	60.09	540.72
frame00392.jpg	42.66	324.55	207.88	309.86	222.82	510.15	60.08	540.48
frame00393.jpg	42.91	324.12	207.70	309.39	222.79	509.89	60.08	540.19
frame00394.jpg	43.16	323.75	207.69	309.19	222.77	509.79	60.09	539.98
frame00395.jpg	43.30	323.51	207.63	308.98	222.80	509.65	60.06	539.82
frame00396.jpg	43.39	323.41	207.63	308.86	222.79	509.61	60.06	539.70
frame00397.jpg	43.42	323.38	207.62	308.85	222.81	509.62	60.09	539.67
frame00398.jpg	43.41	323.36	207.61	308.85	222.80	509.61	60.06	539.70
frame00399.jpg	43.41	323.38	207.62	308.83	222.79	509.61	60.11	539.66
frame00400.jpg	43.38	323.48	207.66	308.93	222.80	509.65	60.08	539.75
frame00401.jpg	43.31	323.58	207.71	309.07	222.79	509.73	60.03	539.85
frame00402.jpg	43.26	323.71	207.73	309.13	222.80	509.80	60.09	539.93
frame00403.jpg	43.28	323.65	207.72	309.14	222.79	509.76	60.08	539.92
frame00404.jpg	43.38	323.57	207.75	309.06	222.79	509.74	60.06	539.85
frame00405.jpg	43.41	323.52	207.79	309.06	222.79	509.73	60.05	539.81
frame00406.jpg	43.39	323.57	207.81	309.12	222.79	509.72	60.07	539.88
frame00407.jpg	43.38	323.66	207.92	309.20	222.79	509.81	60.06	539.93
frame00408.jpg	43.37	323.68	207.94	309.23	222.79	509.81	60.06	539.96
frame00409.jpg	43.43	323.57	207.92	309.15	222.81	509.76	60.07	539.88
frame00410.jpg	43.50	323.44	207.90	309.05	222.80	509.69	60.06	539.80
frame00411.jpg	43.53	323.41	207.85	309.06	222.81	509.68	60.05	539.78
frame00412.jpg	43.50	323.50	207.89	309.12	222.81	509.72	60.04	539.84
frame00413.jpg	43.42	323.60	207.94	309.18	222.79	509.77	60.05	539.89
frame00414.jpg	43.39	323.68	207.96	309.21	222.81	509.80	60.08	539.95
frame00415.jpg	43.42	323.62	207.94	309.19	222.83	509.80	60.05	539.95
frame00416.jpg	43.47	323.52	207.91	309.13	222.81	509.75	60.03	539.87
frame00417.jpg	43.52	323.47	207.90	309.08	222.81	509.71	60.05	539.81
frame00418.jpg	43.48	323.47	207.87	309.11	222.81	509.70	60.07	539.85
frame00419.jpg	43.45	323.56	207.91	309.14	222.81	509.75	60.07	539.87
frame00420.jpg	43.41	323.61	207.94	309.17	222.81	509.80	60.08	539.91
frame00421.jpg	43.41	323.62	207.95	309.17	222.81	509.79	60.08	539.89
frame00422.jpg	43.44	323.56	207.93	309.15	222.81	509.75	60.06	539.88
frame00423.jpg	43.47	323.50	207.91	309.12	222.81	509.71	60.05	539.84
frame00424.jpg	43.48	323.49	207.91	309.10	222.81	509.70	60.06	539.84
frame00425.jpg	43.47	323.54	207.91	309.15	222.84	509.73	60.07	539.87
frame00426.jpg	43.44	323.58	207.93	309.15	222.81	509.76	60.09	539.87
frame00427.jpg	43.42	323.58	207.94	309.17	222.81	509.78	60.08	539.90
frame00428.jpg	43.45	323.57	207.94	309.13	222.82	509.76	60.08	539.88
frame00429.jpg	43.48	323.53	207.91	309.13	222.84	509.74	60.08	539.84
frame00430.jpg	43.49	323.50	207.91	309.12	222.82	509.71	60.06	539.83
frame00431.jpg	43.49	323.51	207.91	309.12	222.84	509.74	60.07	539.84
frame00432.jpg	43.47	323.55	207.91	309.15	222.81	509.74	60.06	539.88
frame00433.jpg	43.45	323.58	207.93	309.18	222.82	509.75	60.06	539.88
frame00434.jpg	43.45	323.57	207.93	309.17	222.82	509.74	60.05	539.89
frame00435.jpg	43.47	323.56	207.91	309.14	222.82	509.73	60.06	539.88
frame00436.jpg	43.48	323.53	207.91	309.13	222.82	509.74	60.05	539.87
frame00437.jpg	43.48	323.54	207.91	309.12	222.81	509.73	60.05	539.87
frame00438.jpg	43.47	323.56	207.94	309.15	222.81	509.75	60.05	539.88
frame00439.jpg	43.45	323.57	207.94	309.15	222.79	509.75	60.06	539.88
frame00440.jpg	43.45	323.56	207.94	309.13	222.80	509.75	60.08	539.88
frame00441.jpg	43.48	323.56	207.91	309.15	222.81	509.75	60.07	539.88
frame00442.jpg	43.48	323.53	207.91	309.14	222.82	509.74	60.06	539.87
frame00443.jpg	43.48	323.54	207.91	309.13	222.81	509.73	60.05	539.88
frame00444.jpg	43.48	323.56	207.92	309.14	222.81	509.74	60.06	539.89
frame00445.jpg	43.45	323.56	207.93	309.14	222.81	509.75	60.07	539.89
frame00446.jpg	43.45	323.57	207.93	309.17	222.81	509.74	60.06	539.88
frame00447.jpg	43.48	323.56	207.91	309.15	222.81	509.74	60.07	539.88
frame00448.jpg	43.49	323.56	207.93	309.14	222.81	509.73	60.06	539.85
frame00449.jpg	43.48	323.54	207.93	309.15	222.83	509.74	60.04	539.85
frame00450.jpg	43.47	323.56	207.91	309.14	222.83	509.74	60.08	539.87
frame00451.jpg	43.46	323.56	207.91	309.18	222.81	509.74	60.06	539.89
frame00452.jpg	43.47	323.56	207.94	309.15	222.81	509.75	60.05	539.89
frame00453.jpg	43.48	323.56	207.93	309.17	222.84	509.76	60.04	539.89
frame00454.jpg	43.47	323.55	207.92	309.15	222.81	509.73	60.07	539.87
frame00455.jpg	43.47	323.54	207.93	309.13	222.82	509.74	60.08	539.87
frame00456.jpg	43.47	323.55	207.94	309.12	222.81	509.75	60.07	539.85
frame00457.jpg	43.45	323.56	207.93	309.17	222.81	509.76	60.08	539.88
frame00458.jpg	43.46	323.56	207.94	309.14	222.81	509.75	60.07	539.88
frame00459.jpg	43.47	323.56	207.93	309.15	222.81	509.75	60.06	539.88
frame00460.jpg	43.49	323.57	207.91	309.17	222.82	509.75	60.06	539.89
frame00461.jpg	43.48	323.57	207.91	309.17	222.82	509.75	60.09	539.89
frame00462.jpg	43.48	323.57	207.93	309.18	222.80	509.74	60.05	539.91
frame00463.jpg	43.47	323.58	207.91	309.18	222.82	509.76	60.06	539.91
frame00464.jpg	43.47	323.57	207.93	309.19	222.79	509.76	60.06	539.88
frame00465.jpg	43.48	323.57	207.94	309.18	222.81	509.75	60.05	539.88
frame00466.jpg	43.46	323.56	207.91	309.17	222.82	509.75	60.06	539.89
frame00467.jpg	43.48	323.59	207.91	309.18	222.84	509.77	60.05	539.90
frame00468.jpg	43.48	323.58	207.94	309.16	222.81	509.77	60.06	539.89
frame00469.jpg	43.48	323.60	207.94	309.16	222.81	509.75	60.08	539.88
frame00470.jpg	43.47	323.58	207.94	309.19	222.80	509.75	60.06	539.87
frame00471.jpg	43.47	323.58	207.93	309.15	222.81	509.75	60.09	539.87
frame00472.jpg	43.49	323.56	207.93	309.17	222.82	509.76	60.06	539.88
frame00473.jpg	43.48	323.56	207.93	309.15	222.81	509.75	60.09	539.86
frame00474.jpg	43.48	323.58	207.93	309.17	222.81	509.76	60.06	539.90
frame00475.jpg	43.48	323.58	207.91	309.18	222.81	509.76	60.05	539.91
frame00476.jpg	43.50	323.59	207.93	309.17	222.82	509.77	60.03	539.89
frame00477.jpg	43.48	323.57	207.93	309.16	222.82	509.76	60.06	539.89
frame00478.jpg	43.49	323.57	207.93	309.18	222.85	509.77	60.05	539.90
frame00479.jpg	43.49	323.56	207.92	309.17	222.82	509.77	60.08	539.88
frame00480.jpg	43.48	323.58	207.94	309.15	222.83	509.77	60.06	539.91
frame00481.jpg	43.47	323.59	207.91	309.17	222.84	509.76	60.05	539.91
frame00482.jpg	43.48	323.58	207.92	309.16	222.84	509.78	60.05	539.91
frame00483.jpg	43.47	323.56	207.91	309.16	222.81	509.76	60.07	539.90
frame00484.jpg	43.47	323.57	207.91	309.17	222.82	509.78	60.06	539.89
frame00485.jpg	43.47	323.58	207.93	309.18	222.81	509.76	60.06	539.88
frame00486.jpg	43.47	323.58	207.93	309.18	222.81	509.75	60.05	539.91
frame00487.jpg	43.47	323.57	207.92	309.18	222.81	509.75	60.05	539.91
frame00488.jpg	43.47	323.56	207.94	309.17	222.81	509.75	60.06	539.89
frame00489.jpg	43.47	323.57	207.94	309.16	222.81	509.75	60.06	539.89
frame00490.jpg	43.48	323.57	207.94	309.15	222.79	509.75	60.05	539.88
frame00491.jpg	43.48	323.59	207.93	309.18	222.81	509.74	60.05	539.90
frame00492.jpg	43.46	323.57	207.94	309.17	222.79	509.75	60.08	539.89
frame00493.jpg	43.47	323.58	207.93	309.17	222.81	509.77	60.08	539.88
frame00494.jpg	43.48	323.57	207.91	309.18	222.81	509.76	60.07	539.91
frame00495.jpg	43.48	323.57	207.94	309.15	222.80	509.76	60.06	539.88
frame00496.jpg	43.48	323.55	207.94	309.16	222.78	509.76	60.06	539.89
frame00497.jpg	43.48	323.57	207.94	309.14	222.81	509.77	60.07	539.88
frame00498.jpg	43.48	323.57	207.93	309.15	222.82	509.78	60.06	539.89
frame00499.jpg	43.48	323.57	207.91	309.16	222.81	509.76	60.09	539.89
frame00500.jpg	43.47	323.57	207.94	309.15	222.82	509.77	60.07	539.89
frame00501.jpg	43.47	323.58	207.92	309.16	222.81	509.75	60.05	539.90
frame00502.jpg	43.47	323.56	207.91	309.16	222.81	509.76	60.05	539.89
frame00503.jpg	43.46	323.56	207.91	309.13	222.79	509.76	60.05	539.89
frame00504.jpg	43.45	323.55	207.93	309.14	222.79	509.76	60.05	539.88
frame00505.jpg	43.46	323.56	207.91	309.14	222.81	509.77	60.06	539.88
frame00506.jpg	43.47	323.56	207.93	309.13	222.79	509.76	60.05	539.88
frame00507.jpg	43.46	323.56	207.91	309.14	222.81	509.75	60.05	539.88
frame00508.jpg	43.45	323.56	207.90	309.15	222.81	509.74	60.02	539.89
frame00509.jpg	43.44	323.55	207.91	309.12	222.80	509.74	60.02	539.87
frame00510.jpg	43.41	323.52	207.89	309.12	222.78	509.73	60.02	539.87
frame00511.jpg	43.40	323.52	207.88	309.12	222.78	509.71	59.99	539.87
frame00512.jpg	43.40	323.51	207.86	309.12	222.76	509.71	59.99	539.86
frame00513.jpg	43.41	323.50	207.88	309.10	222.75	509.70	59.98	539.84
