   2.00000000	   0.69314501	   0.69314501	   0.69314501	   0.69314501
   3.00000000	   1.08239857	   1.08239857	   1.08239857	   1.08239857
   4.00000000	   1.94030350	   1.94030350	   1.94030350	   1.94030350
   5.00000000	   1.57946516	   1.57946516	   1.57946516	   1.57946516
   6.00000000	   2.38559852	   2.38559852	   2.38559852	   2.38559852
   7.00000000	   2.16913692	   2.16913692	   2.16913692	   2.16913692
   8.00000000	   1.72401446	   1.72401446	   1.72401446	   1.72401446
   9.00000000	   2.53784331	   2.53784331	   2.53784331	   2.53784331
  10.00000000	   2.38929265	   2.38929265	   2.38929265	   2.38929265
  11.00000000	   2.09914314	   2.09914314	   2.09914314	   2.09914314
  12.00000000	   2.66770838	   2.66770838	   2.66770838	   2.66770838
  13.00000000	   4.14861518	   4.14861518	   4.14861518	   4.14861518
  14.00000000	   3.91754026	   3.91754026	   3.91754026	   3.91754026
  15.00000000	   3.90515142	   3.90515142	   3.90515142	   3.90515142
  16.00000000	   4.08136435	   4.08136435	   4.08136435	   4.08136435
  17.00000000	   3.52696911	   3.52696911	   3.52696911	   3.52696911
  18.00000000	   4.95929430	   4.95929430	   4.95929430	   4.95929430
  19.00000000	   5.20373811	   5.20373811	   5.20373811	   5.20373811
  20.00000000	   4.34825594	   4.34825594	   4.34825594	   4.34825594
  21.00000000	   5.63590746	   5.63590746	   5.63590746	   5.63590746
  22.00000000	   5.86045536	   5.86045536	   5.86045536	   5.86045536
  23.00000000	   5.94798955	   5.94798955	   5.94798955	   5.94798955
  24.00000000	   6.52977944	   6.52977944	   6.52977944	   6.52977944
  25.00000000	   7.21254130	   7.21254130	   7.21254130	   7.21254130
  26.00000000	   7.77409742	   7.77409742	   7.77409742	   7.77409742
  27.00000000	   8.04357802	   8.04357802	   8.04357802	   8.04357802
  28.00000000	   8.74040968	   8.74040968	   8.74040968	   8.74040968
  29.00000000	   8.42113015	   8.42113015	   8.42113015	   8.42113015
  30.00000000	   9.89805958	   9.89805958	   9.89805958	   9.89805958
  31.00000000	   9.70336823	   9.70336823	   9.70336823	   9.70336823
  32.00000000	   9.21628168	   9.21628168	   9.21628168	   9.21628168
  33.00000000	   9.19240792	   9.19240792	   9.19240792	   9.19240792
  34.00000000	   9.25358273	   9.25358273	   9.25358273	   9.25358273
  35.00000000	   9.97860752	   9.97860752	   9.97860752	   9.97860752
  36.00000000	  10.82430568	  10.82430568	  10.82430568	  10.82430568
  37.00000000	  11.16760832	  11.16760832	  11.16760832	  11.16760832
  38.00000000	  11.40208804	  11.40208804	  11.40208804	  11.40208804
  39.00000000	  11.78806364	  11.78806364	  11.78806364	  11.78806364
  40.00000000	  11.81902173	  11.81902173	  11.81902173	  11.81902173
  41.00000000	  13.02537447	  13.02537447	  13.02537447	  13.02537447
  42.00000000	  13.21090962	  13.21090962	  13.21090962	  13.21090962
  43.00000000	  13.65027310	  13.65027310	  13.65027310	  13.65027310
  44.00000000	  12.84690284	  12.84690284	  12.84690284	  12.84690284
  45.00000000	  14.19175201	  14.19175201	  14.19175201	  14.19175201
  46.00000000	  13.96223638	  13.96223638	  13.96223638	  13.96223638
  47.00000000	  14.42655212	  14.42655212	  14.42655212	  14.42655212
  48.00000000	  14.06145274	  14.06145274	  14.06145274	  14.06145274
  49.00000000	  14.44236154	  14.44236154	  14.44236154	  14.44236154
  50.00000000	  15.05527124	  15.05527124	  15.05527124	  15.05527124
  51.00000000	  14.88184432	  14.88184432	  14.88184432	  14.88184432
  52.00000000	  16.15294901	  16.15294901	  16.15294901	  16.15294901
  53.00000000	  16.93283846	  16.93283846	  16.93283846	  16.93283846
  54.00000000	  16.64370061	  16.64370061	  16.64370061	  16.64370061
  55.00000000	  16.55048639	  16.55048639	  16.55048639	  16.55048639
  56.00000000	  17.47223832	  17.47223832	  17.47223832	  17.47223832
  57.00000000	  17.69817494	  17.69817494	  17.69817494	  17.69817494
  58.00000000	  17.97537915	  17.97537915	  17.97537915	  17.97537915
  59.00000000	  19.18991745	  19.18991745	  19.18991745	  19.18991745
  60.00000000	  19.44099543	  19.44099543	  19.44099543	  19.44099543
  61.00000000	  19.97522256	  19.97522256	  19.97522256	  19.97522256
  62.00000000	  21.03215521	  21.03215521	  21.03215521	  21.03215521
  63.00000000	  20.24477590	  20.24477590	  20.24477590	  20.24477590
  64.00000000	  21.19662001	  21.19662001	  21.19662001	  21.19662001
  65.00000000	  22.30180155	  22.30180155	  22.30180155	  22.30180155
  66.00000000	  22.54707287	  22.54707287	  22.54707287	  22.54707287
  67.00000000	  22.19915980	  22.19915980	  22.19915980	  22.19915980
  68.00000000	  22.88137918	  22.88137918	  22.88137918	  22.88137918
  69.00000000	  24.16570022	  24.16570022	  24.16570022	  24.16570022
  70.00000000	  24.11917800	  24.11917800	  24.11917800	  24.11917800
  71.00000000	  24.50284850	  24.50284850	  24.50284850	  24.50284850
  72.00000000	  23.98502822	  23.98502822	  23.98502822	  23.98502822
  73.00000000	  24.61438463	  24.61438463	  24.61438463	  24.61438463
  74.00000000	  25.47874092	  25.47874092	  25.47874092	  25.47874092
  75.00000000	  26.13926719	  26.13926719	  26.13926719	  26.13926719
  76.00000000	  26.50311367	  26.50311367	  26.50311367	  26.50311367
  77.00000000	  26.70490562	  26.70490562	  26.70490562	  26.70490562
  78.00000000	  27.47000422	  27.47000422	  27.47000422	  27.47000422
  79.00000000	  27.21532268	  27.21532268	  27.21532268	  27.21532268
  80.00000000	  27.45654970	  27.45654970	  27.45654970	  27.45654970
  81.00000000	  28.45175787	  28.45175787	  28.45175787	  28.45175787
  82.00000000	  27.83511495	  27.83511495	  27.83511495	  27.83511495
  83.00000000	  27.99226923	  27.99226923	  27.99226923	  27.99226923
  84.00000000	  28.83766558	  28.83766558	  28.83766558	  28.83766558
  85.00000000	  28.81508311	  28.81508311	  28.81508311	  28.81508311
  86.00000000	  29.34791184	  29.34791184	  29.34791184	  29.34791184
  87.00000000	  30.14097991	  30.14097991	  30.14097991	  30.14097991
  88.00000000	  30.21807592	  30.21807592	  30.21807592	  30.21807592
  89.00000000	  30.92715585	  30.92715585	  30.92715585	  30.92715585
  90.00000000	  30.67839627	  30.67839627	  30.67839627	  30.67839627
  91.00000000	  30.59046416	  30.59046416	  30.59046416	  30.59046416
  92.00000000	  30.55205769	  30.55205769	  30.55205769	  30.55205769
  93.00000000	  30.57900426	  30.57900426	  30.57900426	  30.57900426
  94.00000000	  31.40769600	  31.40769600	  31.40769600	  31.40769600
  95.00000000	  31.59310109	  31.59310109	  31.59310109	  31.59310109
  96.00000000	  32.71074160	  32.71074160	  32.71074160	  32.71074160
  97.00000000	  31.98950555	  31.98950555	  31.98950555	  31.98950555
  98.00000000	  32.42233941	  32.42233941	  32.42233941	  32.42233941
  99.00000000	  32.90527120	  32.90527120	  32.90527120	  32.90527120
 100.00000000	  33.19573061	  33.19573061	  33.19573061	  33.19573061
 101.00000000	  32.73290789	  32.73290789	  32.73290789	  32.73290789
 102.00000000	  33.20925045	  33.20925045	  33.20925045	  33.20925045
 103.00000000	  33.32808402	  33.32808402	  33.32808402	  33.32808402
 104.00000000	  33.75632561	  33.75632561	  33.75632561	  33.75632561
 105.00000000	  33.74648979	  33.74648979	  33.74648979	  33.74648979
 106.00000000	  34.33750762	  34.33750762	  34.33750762	  34.33750762
 107.00000000	  34.82350004	  34.82350004	  34.82350004	  34.82350004
 108.00000000	  35.02923191	  35.02923191	  35.02923191	  35.02923191
 109.00000000	  35.19633718	  35.19633718	  35.19633718	  35.19633718
 110.00000000	  36.09062307	  36.09062307	  36.09062307	  36.09062307
 111.00000000	  35.97376427	  35.97376427	  35.97376427	  35.97376427
 112.00000000	  36.37056679	  36.37056679	  36.37056679	  36.37056679
 113.00000000	  36.35684309	  36.35684309	  36.35684309	  36.35684309
 114.00000000	  35.58998417	  35.58998417	  35.58998417	  35.58998417
 115.00000000	  37.13870231	  37.13870231	  37.13870231	  37.13870231
 116.00000000	  37.39876257	  37.39876257	  37.39876257	  37.39876257
 117.00000000	  37.20586990	  37.20586990	  37.20586990	  37.20586990
 118.00000000	  36.55325756	  36.55325756	  36.55325756	  36.55325756
 119.00000000	  37.60607755	  37.60607755	  37.60607755	  37.60607755
 120.00000000	  37.03313445	  37.03313445	  37.03313445	  37.03313445
 121.00000000	  37.26468396	  37.26468396	  37.26468396	  37.26468396
 122.00000000	  36.58854063	  36.58854063	  36.58854063	  36.58854063
 123.00000000	  36.86346800	  36.86346800	  36.86346800	  36.86346800
 124.00000000	  37.81888455	  37.81888455	  37.81888455	  37.81888455
 125.00000000	  36.83782692	  36.83782692	  36.83782692	  36.83782692
 126.00000000	  37.14974272	  37.14974272	  37.14974272	  37.14974272
 127.00000000	  37.07648019	  37.07648019	  37.07648019	  37.07648019
 128.00000000	  34.94624031	  34.94624031	  34.94624031	  34.94624031
 129.00000000	  31.96426171	  31.96426171	  31.96426171	  31.96426171
 130.00000000	  29.82100268	  29.82100268	  29.82100268	  29.82100268
 131.00000000	  26.19790449	  26.19790449	  26.19790449	  26.19790449
 132.00000000	  22.00239140	  22.00239140	  22.00239140	  22.00239140
 133.00000000	  18.07841451	  18.07841451	  18.07841451	  18.07841451
 134.00000000	  14.92454727	  14.92454727	  14.92454727	  14.92454727
 135.00000000	  11.56030012	  11.56030012	  11.56030012	  11.56030012
 136.00000000	  12.97635678	  12.97635678	  12.97635678	  12.97635678
 137.00000000	  18.20655295	  18.20655295	  18.20655295	  18.20655295
 138.00000000	  24.27081394	  24.27081394	  24.27081394	  24.27081394
 139.00000000	  30.91244669	  30.91244669	  30.91244669	  30.91244669
 140.00000000	  37.17375451	  37.17375451	  37.17375451	  37.17375451
 141.00000000	  44.15635471	  44.15635471	  44.15635471	  44.15635471
 142.00000000	  50.83587725	  50.83587725	  50.83587725	  50.83587725
 143.00000000	  56.85015336	  56.85015336	  56.85015336	  56.85015336
 144.00000000	  61.55320140	  61.55320140	  61.55320140	  61.55320140
 145.00000000	  67.00167128	  67.00167128	  67.00167128	  67.00167128
 146.00000000	  71.53860005	  71.53860005	  71.53860005	  71.53860005
 147.00000000	  74.19568560	  74.19568560	  74.19568560	  74.19568560
 148.00000000	  78.21951841	  78.21951841	  78.21951841	  78.21951841
 149.00000000	  81.57070841	  81.57070841	  81.57070841	  81.57070841
 150.00000000	  83.29663734	  83.29663734	  83.29663734	  83.29663734
 151.00000000	  86.44106299	  86.44106299	  86.44106299	  86.44106299
 152.00000000	  87.65255430	  87.65255430	  87.65255430	  87.65255430
 153.00000000	  90.19705850	  90.19705850	  90.19705850	  90.19705850
 154.00000000	  92.50218656	  92.50218656	  92.50218656	  92.50218656
 155.00000000	  94.29052752	  94.29052752	  94.29052752	  94.29052752
 156.00000000	  95.28945022	  95.28945022	  95.28945022	  95.28945022
 157.00000000	  96.56652432	  96.56652432	  96.56652432	  96.56652432
 158.00000000	  97.24269659	  97.24269659	  97.24269659	  97.24269659
 159.00000000	  98.29148663	  98.29148663	  98.29148663	  98.29148663
 160.00000000	  99.11588907	  99.11588907	  99.11588907	  99.11588907
 161.00000000	  99.38948584	  99.38948584	  99.38948584	  99.38948584
 162.00000000	  99.63693365	  99.63693365	  99.63693365	  99.63693365
 163.00000000	 100.21511971	 100.21511971	 100.21511971	 100.21511971
 164.00000000	 100.93066841	 100.93066841	 100.93066841	 100.93066841
 165.00000000	 101.01882191	 101.01882191	 101.01882191	 101.01882191
 166.00000000	 100.77772218	 100.77772218	 100.77772218	 100.77772218
 167.00000000	 101.41364771	 101.41364771	 101.41364771	 101.41364771
 168.00000000	 100.46032194	 100.46032194	 100.46032194	 100.46032194
 169.00000000	 100.49978659	 100.49978659	 100.49978659	 100.49978659
 170.00000000	 100.64867825	 100.64867825	 100.64867825	 100.64867825
 171.00000000	 100.95158100	 100.95158100	 100.95158100	 100.95158100
 172.00000000	 100.43625907	 100.43625907	 100.43625907	 100.43625907
 173.00000000	  99.85233429	  99.85233429	  99.85233429	  99.85233429
 174.00000000	  97.94607788	  97.94607788	  97.94607788	  97.94607788
 175.00000000	  96.94142778	  96.94142778	  96.94142778	  96.94142778
 176.00000000	 104.32455753	 104.32455753	 104.32455753	 104.32455753
 177.00000000	 111.02111914	 111.02111914	 111.02111914	 111.02111914
 178.00000000	 117.76187648	 117.76187648	 117.76187648	 117.76187648
 179.00000000	 122.45440992	 122.45440992	 122.45440992	 122.45440992
 180.00000000	 128.08811734	 128.08811734	 128.08811734	 128.08811734
 181.00000000	 131.16617304	 131.16617304	 131.16617304	 131.16617304
 182.00000000	 135.74333387	 135.74333387	 135.74333387	 135.74333387
 183.00000000	 138.20675588	 138.20675588	 138.20675588	 138.20675588
 184.00000000	 141.71762449	 141.71762449	 141.71762449	 141.71762449
 185.00000000	 145.50090217	 145.50090217	 145.50090217	 145.50090217
 186.00000000	 148.52605976	 148.52605976	 148.52605976	 148.52605976
 187.00000000	 151.03913322	 151.03913322	 151.03913322	 151.03913322
 188.00000000	 154.42723169	 154.42723169	 154.42723169	 154.42723169
 189.00000000	 157.22859566	 157.22859566	 157.22859566	 157.22859566
 190.00000000	 159.51028029	 159.51028029	 159.51028029	 159.51028029
 191.00000000	 162.41875605	 162.41875605	 162.41875605	 162.41875605
 192.00000000	 165.13920790	 165.13920790	 165.13920790	 165.13920790
 193.00000000	 167.20644847	 167.20644847	 167.20644847	 167.20644847
 194.00000000	 169.88762823	 169.88762823	 169.88762823	 169.88762823
 195.00000000	 173.07453674	 173.07453674	 173.07453674	 173.07453674
 196.00000000	 177.46949481	 177.46949481	 177.46949481	 177.46949481
 197.00000000	 180.84088342	 180.84088342	 180.84088342	 180.84088342
 198.00000000	 187.79294405	 187.79294405	 187.79294405	 187.79294405
 199.00000000	 181.95230014	 181.95230014	 181.95230014	 181.95230014
 200.00000000	 176.58007798	 176.58007798	 176.58007798	 176.58007798
 201.00000000	 168.21476512	 168.21476512	 168.21476512	 168.21476512
 202.00000000	 162.10457076	 162.10457076	 162.10457076	 162.10457076
 203.00000000	 155.08547939	 155.08547939	 155.08547939	 155.08547939
 204.00000000	 145.52132657	 145.52132657	 145.52132657	 145.52132657
 205.00000000	 136.71501802	 136.71501802	 136.71501802	 136.71501802
 206.00000000	 136.01635079	 136.01635079	 136.01635079	 136.01635079
 207.00000000	 134.47198303	 134.47198303	 134.47198303	 134.47198303
 208.00000000	 134.00452418	 134.00452418	 134.00452418	 134.00452418
 209.00000000	 133.32097205	 133.32097205	 133.32097205	 133.32097205
 210.00000000	 132.75752413	 132.75752413	 132.75752413	 132.75752413
 211.00000000	 131.82821948	 131.82821948	 131.82821948	 131.82821948
 212.00000000	 131.51281946	 131.51281946	 131.51281946	 131.51281946
 213.00000000	 131.18331616	 131.18331616	 131.18331616	 131.18331616
 214.00000000	 130.16925114	 130.16925114	 130.16925114	 130.16925114
 215.00000000	 128.58766549	 128.58766549	 128.58766549	 128.58766549
 216.00000000	 127.02284496	 127.02284496	 127.02284496	 127.02284496
 217.00000000	 125.31766675	 125.31766675	 125.31766675	 125.31766675
 218.00000000	 122.31224429	 122.31224429	 122.31224429	 122.31224429
 219.00000000	 120.72720041	 120.72720041	 120.72720041	 120.72720041
 220.00000000	 117.37387405	 117.37387405	 117.37387405	 117.37387405
 221.00000000	 111.53972512	 111.53972512	 111.53972512	 111.53972512
 222.00000000	 106.39099831	 106.39099831	 106.39099831	 106.39099831
 223.00000000	  99.49622313	  99.49622313	  99.49622313	  99.49622313
 224.00000000	  96.11219625	  96.11219625	  96.11219625	  96.11219625
 225.00000000	  90.82582241	  90.82582241	  90.82582241	  90.82582241
 226.00000000	  88.98297112	  88.98297112	  88.98297112	  88.98297112
 227.00000000	  88.01396778	  88.01396778	  88.01396778	  88.01396778
 228.00000000	  87.32686066	  87.32686066	  87.32686066	  87.32686066
 229.00000000	  88.03586413	  88.03586413	  88.03586413	  88.03586413
 230.00000000	  89.13890552	  89.13890552	  89.13890552	  89.13890552
 231.00000000	  90.56067510	  90.56067510	  90.56067510	  90.56067510
 232.00000000	  91.84191569	  91.84191569	  91.84191569	  91.84191569
 233.00000000	  93.68327496	  93.68327496	  93.68327496	  93.68327496
 234.00000000	  95.33949044	  95.33949044	  95.33949044	  95.33949044
 235.00000000	  96.95837765	  96.95837765	  96.95837765	  96.95837765
 236.00000000	  99.08101449	  99.08101449	  99.08101449	  99.08101449
 237.00000000	  99.86602223	  99.86602223	  99.86602223	  99.86602223
 238.00000000	 101.58605683	 101.58605683	 101.58605683	 101.58605683
 239.00000000	 103.10438774	 103.10438774	 103.10438774	 103.10438774
 240.00000000	 103.44864690	 103.44864690	 103.44864690	 103.44864690
 241.00000000	 105.68256752	 105.68256752	 105.68256752	 105.68256752
 242.00000000	 106.12416614	 106.12416614	 106.12416614	 106.12416614
 243.00000000	 108.32790759	 108.32790759	 108.32790759	 108.32790759
 244.00000000	 108.38460271	 108.38460271	 108.38460271	 108.38460271
 245.00000000	 109.80051990	 109.80051990	 109.80051990	 109.80051990
 246.00000000	 110.06207746	 110.06207746	 110.06207746	 110.06207746
 247.00000000	 110.17354511	 110.17354511	 110.17354511	 110.17354511
 248.00000000	 110.08407667	 110.08407667	 110.08407667	 110.08407667
 249.00000000	 110.87189379	 110.87189379	 110.87189379	 110.87189379
 250.00000000	 111.33458819	 111.33458819	 111.33458819	 111.33458819
 251.00000000	 111.86041732	 111.86041732	 111.86041732	 111.86041732
 252.00000000	 112.90057797	 112.90057797	 112.90057797	 112.90057797
 253.00000000	 112.94343239	 112.94343239	 112.94343239	 112.94343239
 254.00000000	 114.16041030	 114.16041030	 114.16041030	 114.16041030
 255.00000000	 113.69397314	 113.69397314	 113.69397314	 113.69397314
 256.00000000	 114.47751624	 114.47751624	 114.47751624	 114.47751624
 257.00000000	 114.87934327	 114.87934327	 114.87934327	 114.87934327
 258.00000000	 115.08823984	 115.08823984	 115.08823984	 115.08823984
 259.00000000	 116.12040380	 116.12040380	 116.12040380	 116.12040380
 260.00000000	 116.10506195	 116.10506195	 116.10506195	 116.10506195
 261.00000000	 116.28651177	 116.28651177	 116.28651177	 116.28651177
 262.00000000	 116.48607092	 116.48607092	 116.48607092	 116.48607092
 263.00000000	 116.87877798	 116.87877798	 116.87877798	 116.87877798
 264.00000000	 116.84973052	 116.84973052	 116.84973052	 116.84973052
 265.00000000	 118.20051376	 118.20051376	 118.20051376	 118.20051376
 266.00000000	 117.84036917	 117.84036917	 117.84036917	 117.84036917
 267.00000000	 118.32961817	 118.32961817	 118.32961817	 118.32961817
 268.00000000	 118.31800862	 118.31800862	 118.31800862	 118.31800862
 269.00000000	 118.89324201	 118.89324201	 118.89324201	 118.89324201
 270.00000000	 119.52832142	 119.52832142	 119.52832142	 119.52832142
 271.00000000	 119.09224859	 119.09224859	 119.09224859	 119.09224859
 272.00000000	 118.97323297	 118.97323297	 118.97323297	 118.97323297
 273.00000000	 119.23720334	 119.23720334	 119.23720334	 119.23720334
 274.00000000	 119.04064743	 119.04064743	 119.04064743	 119.04064743
 275.00000000	 119.22865498	 119.22865498	 119.22865498	 119.22865498
 276.00000000	 119.47233519	 119.47233519	 119.47233519	 119.47233519
 277.00000000	 119.83668135	 119.83668135	 119.83668135	 119.83668135
 278.00000000	 120.22214106	 120.22214106	 120.22214106	 120.22214106
 279.00000000	 120.86919765	 120.86919765	 120.86919765	 120.86919765
 280.00000000	 120.63873271	 120.63873271	 120.63873271	 120.63873271
 281.00000000	 120.91272997	 120.91272997	 120.91272997	 120.91272997
 282.00000000	 120.59255342	 120.59255342	 120.59255342	 120.59255342
 283.00000000	 121.05768356	 121.05768356	 121.05768356	 121.05768356
 284.00000000	 120.90675673	 120.90675673	 120.90675673	 120.90675673
 285.00000000	 121.35977449	 121.35977449	 121.35977449	 121.35977449
 286.00000000	 121.01858260	 121.01858260	 121.01858260	 121.01858260
 287.00000000	 121.63942703	 121.63942703	 121.63942703	 121.63942703
 288.00000000	 120.89100277	 120.89100277	 120.89100277	 120.89100277
 289.00000000	 120.98571758	 120.98571758	 120.98571758	 120.98571758
 290.00000000	 120.51923590	 120.51923590	 120.51923590	 120.51923590
 291.00000000	 121.13004315	 121.13004315	 121.13004315	 121.13004315
 292.00000000	 121.03732616	 121.03732616	 121.03732616	 121.03732616
 293.00000000	 121.26787649	 121.26787649	 121.26787649	 121.26787649
 294.00000000	 121.48190466	 121.48190466	 121.48190466	 121.48190466
 295.00000000	 122.11240409	 122.11240409	 122.11240409	 122.11240409
 296.00000000	 122.81908222	 122.81908222	 122.81908222	 122.81908222
 297.00000000	 122.83577468	 122.83577468	 122.83577468	 122.83577468
 298.00000000	 122.61032213	 122.61032213	 122.61032213	 122.61032213
 299.00000000	 122.63136762	 122.63136762	 122.63136762	 122.63136762
 300.00000000	 122.79633786	 122.79633786	 122.79633786	 122.79633786
 301.00000000	 123.58526919	 123.58526919	 123.58526919	 123.58526919
 302.00000000	 123.52454987	 123.52454987	 123.52454987	 123.52454987
 303.00000000	 123.26820575	 123.26820575	 123.26820575	 123.26820575
 304.00000000	 123.47906016	 123.47906016	 123.47906016	 123.47906016
 305.00000000	 124.25408314	 124.25408314	 124.25408314	 124.25408314
 306.00000000	 123.50819963	 123.50819963	 123.50819963	 123.50819963
 307.00000000	 123.93881276	 123.93881276	 123.93881276	 123.93881276
 308.00000000	 124.67730349	 124.67730349	 124.67730349	 124.67730349
 309.00000000	 124.63741179	 124.63741179	 124.63741179	 124.63741179
 310.00000000	 123.85127558	 123.85127558	 123.85127558	 123.85127558
 311.00000000	 123.81410753	 123.81410753	 123.81410753	 123.81410753
 312.00000000	 125.20106100	 125.20106100	 125.20106100	 125.20106100
 313.00000000	 125.07854967	 125.07854967	 125.07854967	 125.07854967
 314.00000000	 124.22573722	 124.22573722	 124.22573722	 124.22573722
 315.00000000	 123.87932230	 123.87932230	 123.87932230	 123.87932230
 316.00000000	 124.99649839	 124.99649839	 124.99649839	 124.99649839
 317.00000000	 124.58114458	 124.58114458	 124.58114458	 124.58114458
 318.00000000	 124.87454045	 124.87454045	 124.87454045	 124.87454045
 319.00000000	 124.80315840	 124.80315840	 124.80315840	 124.80315840
 320.00000000	 124.23852900	 124.23852900	 124.23852900	 124.23852900
 321.00000000	 124.33019863	 124.33019863	 124.33019863	 124.33019863
 322.00000000	 125.40523672	 125.40523672	 125.40523672	 125.40523672
 323.00000000	 126.10487986	 126.10487986	 126.10487986	 126.10487986
 324.00000000	 125.30866267	 125.30866267	 125.30866267	 125.30866267
 325.00000000	 125.01713454	 125.01713454	 125.01713454	 125.01713454
 326.00000000	 124.60006250	 124.60006250	 124.60006250	 124.60006250
 327.00000000	 125.49503856	 125.49503856	 125.49503856	 125.49503856
 328.00000000	 125.08232603	 125.08232603	 125.08232603	 125.08232603
 329.00000000	 125.24652211	 125.24652211	 125.24652211	 125.24652211
 330.00000000	 126.40326700	 126.40326700	 126.40326700	 126.40326700
 331.00000000	 125.54483051	 125.54483051	 125.54483051	 125.54483051
 332.00000000	 126.46587901	 126.46587901	 126.46587901	 126.46587901
 333.00000000	 126.49297586	 126.49297586	 126.49297586	 126.49297586
 334.00000000	 125.78195892	 125.78195892	 125.78195892	 125.78195892
 335.00000000	 126.46705562	 126.46705562	 126.46705562	 126.46705562
 336.00000000	 126.76864132	 126.76864132	 126.76864132	 126.76864132
