  2.00000000	  0.00000000	  0.00000000	  0.00000000	  0.00000000	  0.00000000	  0.00000000	  0.00000000	  0.00000000
  3.00000000	  0.00000000	  0.00000000	  0.00000000	  0.00000000	  0.00000000	  0.00000000	  0.00000000	  0.00000000
  4.00000000	  0.00000000	  0.00000000	  0.00000000	  0.00000000	  0.00000000	  0.00000000	  0.00000000	  0.00000000
  5.00000000	  0.00000000	  0.00000000	  0.00000000	  0.00000000	  0.00000000	  0.00000000	  0.00000000	  0.00000000
  6.00000000	  0.00000000	  0.00000000	  0.00000000	  0.00000000	  0.00000000	  0.00000000	  0.00000000	  0.00000000
  7.00000000	  0.00000000	  0.00000000	  0.00000000	  0.00000000	  0.00000000	  0.00000000	  0.00000000	  0.00000000
  8.00000000	  0.00000000	  0.00000000	  0.00000000	  0.00000000	  0.00000000	  0.00000000	  0.00000000	  0.00000000
  9.00000000	  0.00000000	  0.00000000	  0.00000000	  0.00000000	  0.00000000	  0.00000000	  0.00000000	  0.00000000
 10.00000000	  0.00000000	  0.00000000	  0.00000000	  0.00000000	  0.00000000	  0.00000000	  0.00000000	  0.00000000
 11.00000000	  0.00000000	  0.00000000	  0.00000000	  0.00000000	  0.00000000	  0.00000000	  0.00000000	  0.00000000
 12.00000000	  0.00000000	  0.00000000	  0.00000000	  0.00000000	  0.00000000	  0.00000000	  0.00000000	  0.00000000
 13.00000000	  0.00000000	  0.00000000	  0.00000000	  0.00000000	  0.00000000	  0.00000000	  0.00000000	  0.00000000
 14.00000000	  0.00000000	  0.00000000	  0.00000000	  0.00000000	  0.00000000	  0.00000000	  0.00000000	  0.00000000
 15.00000000	  0.00000000	  0.00000000	  0.00000000	  0.00000000	  0.00000000	  0.00000000	  0.00000000	  0.00000000
 16.00000000	  0.00000000	  0.00000000	  0.00000000	  0.00000000	  0.00000000	  0.00000000	  0.00000000	  0.00000000
 17.00000000	  0.00000000	  0.00000000	  0.00000000	  0.00000000	  0.00000000	  0.00000000	  0.00000000	  0.00000000
 18.00000000	  0.00000000	  0.00000000	  0.00000000	  0.00000000	  0.00000000	  0.00000000	  0.00000000	  0.00000000
 19.00000000	  0.00000000	  0.00000000	  0.00000000	  0.00000000	  0.00000000	  0.00000000	  0.00000000	  0.00000000
 20.00000000	  0.00000000	  0.00000000	  0.00000000	  0.00000000	  0.00000000	  0.00000000	  0.00000000	  0.00000000
 21.00000000	  0.00000000	  0.00000000	  0.00000000	  0.00000000	  0.00000000	  0.00000000	  0.00000000	  0.00000000
 22.00000000	  0.00000000	  0.00000000	  0.00000000	  0.00000000	  0.00000000	  0.00000000	  0.00000000	  0.00000000
 23.00000000	  0.00000000	  0.00000000	  0.00000000	  0.00000000	  0.00000000	  0.00000000	  0.00000000	  0.00000000
 24.00000000	  0.00000000	  0.00000000	  0.00000000	  0.00000000	  0.00000000	  0.00000000	  0.00000000	 -0.00344828
 25.00000000	  0.00000000	  0.00000000	  0.00000000	  0.00000000	  0.00000000	  0.00000000	  0.00000000	  0.00344828
 26.00000000	  0.00000000	  0.00000000	  0.00000000	  0.00000000	  0.00000000	  0.00000000	  0.00000000	  0.00000000
 27.00000000	 -0.00344828	  0.00000000	  0.00000000	  0.00000000	  0.00000000	  0.00000000	  0.00000000	  0.00000000
 28.00000000	  0.00000000	  0.00000000	  0.00000000	  0.00000000	  0.00000000	  0.00000000	  0.00000000	  0.00000000
 29.00000000	  0.00000000	  0.00000000	  0.00000000	  0.00000000	  0.00000000	  0.00344828	  0.00000000	  0.00000000
 30.00000000	  0.00000000	  0.00000000	  0.00000000	 -0.00338534	  0.00000000	 -0.00344828	  0.00000000	  0.00000000
 31.00000000	 -0.00344828	  0.00344828	  0.00000000	  0.00000000	  0.00000000	  0.00000000	 -0.00344828	  0.00344828
 32.00000000	  0.00000000	  0.00000000	  0.00000000	  0.00000000	  0.00000000	 -0.00344828	  0.00000000	 -0.00344828
 33.00000000	  0.00000000	 -0.00344828	  0.00000000	  0.00000000	  0.00000000	  0.00000000	  0.00000000	  0.00000000
 34.00000000	  0.00000000	  0.00344828	  0.00000000	  0.00000000	  0.00000000	  0.00000000	  0.00000000	  0.00000000
 35.00000000	  0.00000000	  0.00000000	  0.00000000	  0.00000000	  0.00344828	  0.00000000	  0.00344828	  0.00000000
 36.00000000	  0.00000000	  0.00000000	  0.00000000	  0.00000000	  0.00000000	  0.00000000	  0.00000000	  0.00000000
 37.00000000	  0.00000000	  0.00000000	  0.00000000	  0.00000000	  0.00000000	  0.00000000	  0.00000000	  0.00000000
 38.00000000	  0.00000000	  0.00000000	 -0.00344828	  0.00000000	  0.00000000	  0.00000000	  0.00000000	  0.00000000
 39.00000000	  0.00000000	  0.00000000	  0.00344828	  0.00000000	  0.00000000	  0.00000000	  0.00000000	  0.00000000
 40.00000000	  0.00000000	  0.00000000	  0.00000000	  0.00000000	  0.00000000	  0.00000000	  0.00000000	  0.00000000
 41.00000000	  0.00000000	  0.00000000	  0.00000000	  0.00000000	  0.00000000	  0.00000000	  0.00000000	  0.00000000
 42.00000000	  0.00000000	  0.00000000	  0.00000000	  0.00000000	  0.00000000	  0.00000000	 -0.00344828	  0.00000000
 43.00000000	  0.00000000	  0.00000000	  0.00000000	  0.00000000	  0.00000000	  0.00000000	  0.00000000	  0.00000000
 44.00000000	  0.00000000	  0.00000000	  0.00000000	  0.00000000	 -0.00344828	  0.00344828	  0.00000000	  0.00344828
 45.00000000	  0.00000000	  0.00000000	  0.00000000	  0.00000000	  0.00344828	 -0.00344828	  0.00000000	  0.00000000
 46.00000000	  0.00000000	  0.00000000	  0.00000000	  0.00000000	 -0.00344828	  0.00344828	  0.00000000	  0.00000000
 47.00000000	  0.00000000	  0.00000000	  0.00000000	  0.00000000	  0.00000000	  0.00000000	  0.00000000	  0.00000000
 48.00000000	  0.00000000	  0.00000000	  0.00000000	  0.00000000	  0.00344828	 -0.00344828	  0.00000000	 -0.00344828
 49.00000000	  0.00000000	  0.00000000	  0.00000000	  0.00000000	 -0.00344828	  0.00000000	  0.00000000	  0.00000000
 50.00000000	  0.00000000	  0.00000000	  0.00000000	  0.00000000	  0.00344828	  0.00344828	  0.00000000	  0.00000000
 51.00000000	  0.00000000	  0.00000000	  0.00000000	  0.00000000	 -0.00344828	  0.00000000	  0.00000000	  0.00344828
 52.00000000	  0.00000000	  0.00000000	  0.00000000	  0.00000000	  0.00000000	  0.00000000	  0.00000000	  0.00000000
 53.00000000	  0.00000000	  0.00000000	  0.00000000	  0.00000000	  0.00000000	 -0.00344828	  0.00000000	  0.00000000
 54.00000000	  0.00000000	  0.00000000	  0.00000000	  0.00000000	  0.00000000	  0.00344828	  0.00000000	  0.00000000
 55.00000000	  0.00000000	  0.00000000	  0.00000000	  0.00000000	  0.00000000	  0.00000000	  0.00000000	  0.00000000
 56.00000000	  0.00000000	  0.00000000	  0.00000000	  0.00000000	  0.00000000	 -0.00344828	  0.00000000	 -0.00344828
 57.00000000	  0.00000000	  0.00000000	  0.00000000	  0.00000000	  0.00000000	  0.00000000	  0.00000000	  0.00000000
 58.00000000	  0.00000000	  0.00000000	  0.00000000	  0.00000000	  0.00344828	  0.00344828	  0.00000000	  0.00000000
 59.00000000	  0.00000000	  0.00000000	  0.00000000	  0.00338534	 -0.00344828	  0.00344828	  0.00000000	  0.00000000
 60.00000000	  0.00000000	  0.00000000	  0.00344828	 -0.00338534	  0.00000000	  0.00000000	  0.00000000	  0.00000000
 61.00000000	  0.00000000	  0.00344828	  0.00000000	  0.00000000	  0.00000000	  0.00000000	  0.00000000	  0.00000000
 62.00000000	  0.00000000	 -0.00344828	 -0.00344828	  0.00338534	  0.00000000	  0.00000000	  0.00000000	  0.00000000
 63.00000000	  0.00000000	  0.00000000	  0.00000000	  0.00000000	  0.00000000	  0.00000000	  0.00000000	  0.00000000
 64.00000000	  0.00000000	  0.00000000	  0.00000000	  0.00000000	  0.00000000	  0.00000000	  0.00000000	  0.00000000
 65.00000000	  0.00000000	  0.00000000	  0.00000000	  0.00000000	  0.00000000	  0.00000000	  0.00000000	  0.00000000
 66.00000000	  0.00000000	  0.00000000	  0.00000000	  0.00000000	  0.00000000	  0.00000000	  0.00000000	  0.00000000
 67.00000000	  0.00000000	  0.00000000	  0.00000000	  0.00000000	  0.00344828	 -0.00344828	  0.00000000	  0.00000000
 68.00000000	  0.00000000	  0.00000000	  0.00000000	  0.00000000	 -0.00344828	  0.00344828	  0.00000000	  0.00000000
 69.00000000	  0.00000000	  0.00000000	  0.00000000	  0.00000000	  0.00344828	 -0.00344828	  0.00344828	 -0.00344828
 70.00000000	  0.00000000	 -0.00344828	  0.00000000	 -0.00338534	  0.00000000	 -0.00344828	 -0.00344828	 -0.00344828
 71.00000000	  0.00000000	  0.00000000	  0.00000000	  0.00000000	  0.00000000	  0.00000000	  0.00344828	  0.00000000
 72.00000000	  0.00000000	  0.00000000	  0.00000000	  0.00000000	  0.00000000	  0.00000000	  0.00000000	  0.00000000
 73.00000000	  0.00000000	  0.00000000	  0.00000000	  0.00000000	  0.00000000	  0.00000000	 -0.00344828	  0.00000000
 74.00000000	  0.00000000	  0.00000000	  0.00000000	  0.00000000	  0.00000000	  0.00000000	  0.00000000	  0.00000000
 75.00000000	  0.00000000	  0.00000000	  0.00000000	  0.00000000	  0.00000000	  0.00000000	  0.00000000	  0.00000000
 76.00000000	 -0.00344828	  0.00000000	  0.00000000	  0.00000000	  0.00000000	  0.00000000	 -0.00344828	  0.00000000
 77.00000000	  0.00000000	  0.00000000	  0.00000000	 -0.00338534	 -0.00344828	  0.00000000	  0.00000000	  0.00000000
 78.00000000	  0.00000000	  0.00000000	  0.00000000	  0.00000000	  0.00000000	  0.00000000	  0.00000000	  0.00000000
 79.00000000	  0.00000000	  0.00000000	  0.00000000	  0.00000000	  0.00000000	  0.00344828	  0.00000000	  0.00000000
 80.00000000	  0.00000000	  0.00000000	  0.00000000	  0.00000000	  0.00000000	 -0.00344828	  0.00000000	  0.00000000
 81.00000000	  0.00000000	  0.00000000	  0.00000000	 -0.00338534	  0.00000000	  0.00000000	  0.00000000	  0.00000000
 82.00000000	  0.00000000	  0.00000000	  0.00000000	  0.00338534	  0.00000000	  0.00000000	  0.00000000	  0.00000000
 83.00000000	  0.00000000	  0.00000000	  0.00000000	  0.00000000	  0.00000000	 -0.00344828	  0.00000000	  0.00344828
 84.00000000	  0.00000000	  0.00000000	  0.00000000	  0.00000000	  0.00344828	  0.00000000	  0.00000000	  0.00000000
 85.00000000	  0.00000000	  0.00000000	  0.00000000	  0.00000000	 -0.00344828	  0.00000000	  0.00000000	  0.00000000
 86.00000000	  0.00000000	  0.00000000	  0.00000000	  0.00000000	  0.00000000	  0.00000000	  0.00000000	  0.00000000
 87.00000000	  0.00000000	  0.00000000	  0.00000000	  0.00000000	  0.00000000	 -0.00344828	  0.00000000	  0.00000000
 88.00000000	  0.00000000	  0.00000000	  0.00000000	  0.00000000	  0.00000000	  0.00344828	  0.00000000	  0.00000000
 89.00000000	  0.00000000	  0.00000000	  0.00000000	  0.00000000	  0.00000000	  0.00344828	  0.00000000	 -0.00344828
 90.00000000	  0.00000000	  0.00000000	  0.00344828	  0.00338534	  0.00000000	  0.00000000	  0.00000000	  0.00000000
 91.00000000	  0.00000000	  0.00000000	 -0.00344828	 -0.00338534	  0.00000000	  0.00344828	  0.00000000	  0.00000000
 92.00000000	  0.00000000	  0.00000000	  0.00000000	  0.00338534	  0.00344828	 -0.00344828	  0.00000000	  0.00000000
 93.00000000	  0.00000000	  0.00000000	  0.00000000	  0.00000000	  0.00000000	  0.00000000	  0.00000000	  0.00000000
 94.00000000	  0.00000000	  0.00000000	  0.00000000	  0.00000000	  0.00000000	  0.00000000	  0.00000000	  0.00000000
 95.00000000	 -0.00344828	  0.00000000	  0.00000000	 -0.00338534	  0.00000000	  0.00000000	  0.00000000	  0.00000000
 96.00000000	 -0.01034483	  0.00000000	  0.00000000	  0.00000000	  0.00000000	 -0.00344828	 -0.00344828	  0.00344828
 97.00000000	 -0.01034483	  0.00000000	  0.00000000	  0.00000000	  0.00000000	 -0.00344828	  0.00000000	  0.00000000
 98.00000000	 -0.00344828	  0.00000000	  0.00000000	 -0.00338534	  0.00000000	  0.00344828	  0.00000000	  0.00000000
 99.00000000	 -0.00344828	 -0.00344828	  0.00000000	  0.00338534	  0.00000000	  0.00000000	  0.00000000	  0.00000000
100.00000000	  0.00000000	  0.00344828	  0.00000000	  0.00000000	  0.00000000	  0.00000000	  0.00000000	  0.00000000
101.00000000	  0.00000000	  0.00000000	  0.00000000	 -0.00338534	  0.00000000	  0.00000000	  0.00000000	  0.00344828
102.00000000	  0.00000000	  0.00000000	  0.00000000	  0.00000000	  0.00000000	  0.00344828	  0.00000000	  0.00000000
103.00000000	  0.00000000	  0.00000000	  0.00000000	  0.00338534	  0.00000000	 -0.00344828	  0.00000000	  0.00000000
104.00000000	  0.00000000	  0.00000000	  0.00000000	  0.00000000	  0.00000000	  0.00000000	 -0.00344828	  0.00000000
105.00000000	  0.00000000	  0.00000000	  0.00000000	 -0.00338534	 -0.00344828	 -0.00344828	  0.00344828	  0.00000000
106.00000000	  0.00000000	  0.00000000	  0.00344828	  0.00000000	  0.00000000	  0.00000000	  0.00000000	  0.00000000
107.00000000	  0.00000000	 -0.00344828	  0.00000000	  0.00000000	  0.00000000	  0.00000000	  0.00000000	 -0.00344828
108.00000000	  0.00000000	  0.00000000	  0.00000000	  0.00000000	  0.00000000	  0.00000000	 -0.00344828	 -0.00344828
109.00000000	  0.00000000	  0.00000000	  0.00000000	  0.00000000	  0.00000000	  0.00000000	  0.00344828	  0.00344828
110.00000000	  0.00000000	  0.00000000	  0.00000000	  0.00000000	  0.00000000	  0.00000000	 -0.00344828	 -0.00344828
111.00000000	  0.00000000	  0.00000000	  0.00000000	  0.00000000	  0.00000000	  0.00000000	  0.00000000	  0.00344828
112.00000000	  0.00000000	  0.00000000	  0.00000000	  0.00000000	 -0.00344828	  0.00344828	  0.00000000	  0.00000000
113.00000000	  0.00000000	  0.00000000	  0.00000000	  0.00000000	  0.00000000	 -0.00344828	  0.00000000	  0.00000000
114.00000000	  0.00000000	  0.00000000	  0.00000000	  0.00000000	  0.00000000	  0.00344828	  0.00000000	  0.00000000
115.00000000	  0.00000000	  0.00000000	  0.00344828	  0.00338534	  0.00000000	  0.00000000	  0.00344828	 -0.00344828
116.00000000	  0.00000000	  0.00000000	  0.00000000	  0.00000000	  0.00000000	  0.00000000	  0.00000000	  0.00000000
117.00000000	  0.00000000	  0.00000000	  0.00000000	  0.00000000	  0.00000000	  0.00000000	  0.00000000	  0.00000000
118.00000000	  0.00000000	  0.00000000	  0.00000000	  0.00000000	  0.00000000	  0.00000000	  0.00000000	  0.00000000
119.00000000	  0.00000000	  0.00000000	  0.00000000	  0.00000000	  0.00000000	  0.00000000	  0.00000000	  0.00000000
120.00000000	  0.00000000	  0.00000000	  0.00000000	  0.00000000	  0.00000000	  0.00000000	  0.00000000	  0.00000000
121.00000000	  0.00000000	  0.00000000	  0.00000000	  0.00000000	  0.00000000	  0.00000000	  0.00000000	  0.00000000
122.00000000	  0.00000000	  0.00000000	  0.00000000	  0.00000000	  0.00000000	  0.00000000	  0.00000000	  0.00000000
123.00000000	  0.00000000	  0.00000000	  0.00000000	  0.00000000	  0.00000000	  0.00000000	 -0.00344828	  0.00000000
124.00000000	  0.00000000	  0.00000000	  0.00000000	  0.00000000	  0.00000000	  0.00000000	  0.00344828	  0.00000000
125.00000000	  0.00344828	  0.01034483	 -0.00344828	  0.00000000	  0.00000000	  0.00000000	 -0.01034483	  0.00000000
126.00000000	  0.01034483	  0.04482759	  0.00000000	 -0.01015601	  0.00000000	  0.00344828	  0.00000000	  0.00000000
127.00000000	  0.03103448	  0.09310345	 -0.01034483	 -0.01692668	  0.00344828	  0.01034483	  0.01034483	  0.01034483
128.00000000	  0.03793103	  0.10000000	 -0.00344828	  0.00000000	  0.00344828	 -0.01034483	  0.00344828	 -0.09310345
129.00000000	  0.04482759	  0.10000000	 -0.02413793	  0.09817477	  0.00000000	 -0.01724138	 -0.00344828	 -0.10000000
130.00000000	  0.03793103	  0.10000000	  0.00000000	  0.05755073	 -0.05862069	 -0.06551724	 -0.07241379	 -0.10000000
131.00000000	  0.00000000	  0.10000000	 -0.07241379	 -0.09817477	 -0.01724138	  0.01034483	 -0.01034483	 -0.10000000
132.00000000	  0.08620690	 -0.10000000	 -0.10000000	 -0.02369736	 -0.10000000	  0.08620690	 -0.09310345	  0.07931034
133.00000000	 -0.06551724	 -0.06551724	  0.03103448	  0.06432140	  0.01724138	 -0.04482759	  0.10000000	  0.01724138
134.00000000	  0.00344828	 -0.09310345	 -0.04482759	 -0.08463342	 -0.09310345	  0.09310345	  0.08620690	 -0.03793103
135.00000000	 -0.10000000	  0.10000000	  0.10000000	 -0.05755073	 -0.04482759	 -0.09310345	  0.05862069	 -0.10000000
136.00000000	 -0.10000000	  0.10000000	  0.10000000	 -0.01015601	  0.06551724	 -0.10000000	 -0.07931034	 -0.10000000
137.00000000	  0.08620690	  0.09310345	  0.09310345	  0.08463342	 -0.08620690	  0.03103448	 -0.04482759	 -0.05172414
138.00000000	  0.08620690	  0.05862069	  0.07931034	 -0.09140410	 -0.06551724	  0.05862069	  0.02413793	  0.01724138
139.00000000	  0.04482759	  0.03103448	  0.01034483	  0.00338534	  0.00344828	 -0.00344828	  0.00344828	  0.05172414
140.00000000	  0.00000000	  0.01034483	  0.00344828	 -0.01692668	  0.01724138	  0.00344828	  0.00000000	  0.00000000
141.00000000	 -0.00344828	  0.00344828	  0.00000000	  0.00000000	  0.00344828	 -0.00344828	  0.01724138	  0.00000000
142.00000000	  0.00000000	  0.00000000	  0.00000000	  0.00000000	  0.00000000	  0.00344828	 -0.05172414	  0.05172414
143.00000000	 -0.01034483	 -0.03793103	  0.03103448	  0.02369736	  0.01034483	  0.03103448	 -0.00344828	  0.00344828
144.00000000	 -0.02413793	 -0.00344828	 -0.00344828	  0.00000000	 -0.10000000	  0.01724138	 -0.00344828	  0.00000000
145.00000000	  0.00344828	  0.00000000	  0.00000000	  0.00000000	  0.05172414	 -0.01034483	 -0.04482759	 -0.04482759
146.00000000	 -0.01034483	  0.00000000	  0.00000000	  0.00000000	 -0.01724138	  0.05172414	  0.00000000	  0.00000000
147.00000000	  0.00000000	  0.00000000	  0.00000000	  0.00000000	  0.08620690	  0.07931034	  0.05172414	  0.03103448
148.00000000	  0.01724138	  0.01034483	 -0.03793103	  0.03723871	  0.10000000	  0.03793103	 -0.06551724	  0.06551724
149.00000000	 -0.07241379	  0.00344828	  0.00000000	  0.00000000	  0.07241379	  0.10000000	  0.01724138	  0.04482759
150.00000000	 -0.02413793	  0.03103448	  0.00000000	  0.00000000	  0.04482759	  0.10000000	 -0.01724138	  0.07931034
151.00000000	 -0.00344828	  0.02413793	  0.01034483	  0.01015601	  0.05862069	  0.10000000	  0.03793103	  0.05862069
152.00000000	 -0.01034483	  0.01034483	  0.00000000	 -0.01692668	  0.00000000	  0.10000000	  0.00000000	  0.01724138
153.00000000	  0.00344828	  0.00000000	  0.00000000	  0.00000000	  0.00344828	  0.08620690	 -0.00344828	  0.00000000
154.00000000	  0.00000000	  0.00344828	  0.01034483	  0.01015601	  0.00344828	  0.00344828	  0.00000000	  0.00000000
155.00000000	  0.00344828	  0.00000000	  0.00000000	  0.00000000	 -0.01034483	  0.00000000	 -0.00344828	  0.00000000
156.00000000	 -0.00344828	  0.00000000	  0.00344828	  0.00000000	  0.00000000	 -0.00344828	  0.00000000	  0.00000000
157.00000000	  0.00344828	 -0.00344828	  0.00000000	  0.00000000	  0.00000000	  0.00000000	 -0.00344828	  0.00000000
158.00000000	  0.00000000	  0.00000000	  0.00344828	 -0.00338534	 -0.00344828	  0.01034483	  0.00000000	  0.00000000
159.00000000	  0.00000000	  0.00000000	  0.00000000	  0.01015601	  0.00000000	 -0.00344828	  0.00000000	  0.00000000
160.00000000	  0.00000000	  0.00000000	  0.00000000	 -0.01015601	  0.01034483	 -0.01034483	  0.00000000	  0.00000000
161.00000000	  0.00000000	  0.00344828	  0.00000000	  0.00000000	 -0.00344828	 -0.00344828	 -0.00344828	  0.00344828
162.00000000	  0.00344828	  0.00000000	  0.00000000	  0.00000000	  0.00344828	 -0.05172414	  0.00000000	  0.00000000
163.00000000	  0.00344828	  0.00000000	  0.00000000	  0.00000000	  0.00344828	  0.00000000	  0.00000000	  0.00000000
164.00000000	 -0.00344828	 -0.00344828	  0.00000000	  0.00000000	 -0.00344828	  0.00000000	  0.00000000	  0.00000000
165.00000000	  0.00000000	  0.00000000	  0.00000000	 -0.00338534	  0.00000000	 -0.00344828	 -0.00344828	  0.00000000
166.00000000	  0.00000000	  0.00000000	  0.00000000	  0.00000000	  0.00000000	  0.00000000	  0.00000000	  0.00000000
167.00000000	  0.00000000	  0.00000000	  0.00000000	  0.00000000	  0.00000000	  0.00000000	  0.00000000	  0.00000000
168.00000000	  0.00000000	  0.00344828	  0.00000000	  0.00000000	 -0.00344828	  0.07241379	  0.00344828	  0.00344828
169.00000000	 -0.00344828	  0.00000000	  0.00000000	  0.00000000	  0.00344828	  0.00000000	 -0.00344828	  0.00344828
170.00000000	  0.00344828	  0.00000000	  0.00000000	  0.00000000	  0.00344828	 -0.00344828	  0.00000000	  0.00000000
171.00000000	 -0.00344828	  0.00344828	  0.00000000	  0.00000000	  0.00000000	  0.00344828	  0.00000000	  0.00344828
172.00000000	  0.00344828	 -0.00344828	  0.00000000	  0.00000000	  0.00000000	  0.00344828	  0.00000000	  0.00000000
173.00000000	 -0.00344828	  0.00344828	  0.00000000	  0.00000000	  0.00000000	  0.00000000	  0.00000000	  0.00000000
174.00000000	  0.00344828	 -0.00344828	  0.00000000	  0.00000000	 -0.00344828	  0.00000000	  0.00000000	  0.00000000
175.00000000	 -0.03793103	  0.00344828	  0.00000000	  0.00000000	 -0.04482759	 -0.02413793	  0.00000000	  0.00000000
176.00000000	 -0.01034483	 -0.00344828	  0.00000000	  0.00000000	 -0.01034483	 -0.01034483	  0.00000000	  0.00000000
177.00000000	  0.00000000	  0.00000000	  0.00000000	  0.00000000	  0.01034483	  0.00000000	  0.00000000	  0.00000000
178.00000000	  0.01034483	  0.00344828	  0.00000000	  0.00000000	  0.00000000	  0.01034483	  0.00000000	  0.00000000
179.00000000	 -0.00344828	  0.00000000	  0.00000000	  0.00000000	  0.00000000	 -0.01724138	  0.00344828	  0.00344828
180.00000000	  0.00000000	  0.00000000	  0.00000000	  0.00000000	  0.00000000	  0.00000000	  0.00000000	  0.00000000
181.00000000	  0.00000000	  0.00000000	  0.00000000	  0.00000000	 -0.01034483	 -0.00344828	  0.00000000	  0.00000000
182.00000000	  0.00000000	  0.00000000	  0.00000000	  0.00000000	  0.00000000	  0.00344828	  0.00000000	  0.00000000
183.00000000	  0.00000000	  0.00000000	  0.00000000	  0.00000000	  0.02413793	  0.06551724	  0.00000000	  0.00000000
184.00000000	  0.00000000	  0.00000000	  0.00000000	  0.00000000	 -0.01724138	 -0.05862069	 -0.00344828	 -0.00344828
185.00000000	  0.00000000	  0.00000000	  0.00000000	 -0.00338534	 -0.00344828	  0.00000000	  0.00000000	  0.00000000
186.00000000	 -0.00344828	 -0.00344828	  0.00344828	  0.00338534	  0.00344828	  0.02413793	  0.00000000	  0.00000000
187.00000000	  0.00000000	  0.00000000	  0.00000000	  0.00000000	 -0.01034483	  0.00000000	  0.00000000	  0.00000000
188.00000000	 -0.00344828	  0.00000000	  0.00000000	  0.00000000	  0.00000000	  0.00000000	  0.00000000	  0.00000000
189.00000000	  0.00344828	  0.00000000	  0.00344828	  0.00000000	  0.00000000	  0.00000000	  0.00344828	  0.00344828
190.00000000	 -0.00344828	  0.00000000	  0.00000000	  0.00000000	  0.00344828	  0.00344828	  0.00000000	  0.00000000
191.00000000	  0.00344828	  0.00000000	  0.00000000	  0.00000000	  0.01034483	  0.10000000	  0.00000000	  0.00000000
192.00000000	  0.00000000	  0.00000000	  0.00344828	  0.00338534	  0.00344828	 -0.05862069	  0.00000000	  0.00000000
193.00000000	  0.00000000	  0.00000000	 -0.01034483	 -0.01015601	  0.00000000	  0.00000000	  0.00000000	  0.00000000
194.00000000	  0.00000000	  0.00000000	  0.01034483	  0.02369736	 -0.00344828	  0.03103448	  0.00000000	  0.00344828
195.00000000	  0.00000000	  0.00344828	 -0.00344828	  0.01015601	  0.00344828	  0.00344828	  0.00000000	  0.00000000
196.00000000	  0.00000000	  0.00000000	  0.00000000	  0.00000000	 -0.00344828	 -0.00344828	  0.00344828	  0.00000000
197.00000000	  0.00000000	  0.00344828	  0.00344828	 -0.00338534	 -0.00344828	 -0.00344828	 -0.00344828	  0.00000000
198.00000000	 -0.00344828	  0.00000000	  0.00000000	 -0.00338534	 -0.00344828	 -0.01034483	  0.00000000	  0.00000000
199.00000000	 -0.00344828	  0.00000000	  0.00000000	  0.00000000	 -0.00344828	  0.00000000	  0.00000000	  0.00000000
200.00000000	  0.00000000	  0.00000000	  0.00000000	  0.00000000	  0.00344828	  0.00000000	 -0.00344828	  0.00000000
201.00000000	  0.00000000	  0.00000000	  0.00000000	  0.00338534	 -0.00344828	  0.00344828	  0.00000000	  0.00000000
202.00000000	 -0.00344828	  0.00000000	  0.00000000	  0.00000000	 -0.00344828	  0.00000000	  0.00344828	  0.00344828
203.00000000	  0.00000000	  0.00344828	  0.00000000	  0.00000000	 -0.01724138	 -0.03793103	  0.00000000	  0.00000000
204.00000000	 -0.00344828	 -0.00344828	  0.00344828	  0.00000000	 -0.01034483	 -0.01034483	 -0.00344828	  0.00000000
205.00000000	  0.00344828	  0.00000000	  0.00000000	  0.00000000	  0.02413793	  0.03103448	  0.00000000	  0.00000000
206.00000000	  0.00000000	  0.00000000	  0.00000000	  0.00000000	 -0.01034483	 -0.01724138	  0.00000000	  0.00000000
207.00000000	 -0.00344828	  0.00000000	  0.00000000	  0.00000000	  0.00000000	  0.00000000	  0.00000000	  0.00000000
208.00000000	 -0.00344828	  0.00000000	  0.00000000	  0.00000000	  0.00344828	  0.03793103	  0.00000000	  0.00000000
209.00000000	 -0.00344828	  0.00000000	  0.00000000	  0.00000000	  0.00000000	 -0.01724138	 -0.01034483	  0.00344828
210.00000000	  0.00000000	 -0.00344828	  0.01034483	 -0.01015601	  0.00000000	  0.00344828	  0.00000000	  0.00000000
211.00000000	  0.00344828	  0.00000000	  0.00000000	 -0.00338534	  0.00344828	  0.00000000	  0.00000000	  0.00344828
212.00000000	  0.00000000	  0.00000000	  0.00000000	  0.00338534	 -0.00344828	  0.00000000	  0.00000000	  0.00000000
213.00000000	  0.00000000	  0.00000000	  0.00000000	 -0.00338534	  0.00344828	  0.03103448	 -0.01034483	 -0.00344828
214.00000000	 -0.00344828	  0.00000000	  0.00344828	  0.00338534	 -0.01034483	 -0.00344828	  0.01724138	  0.00344828
215.00000000	  0.00000000	  0.00344828	 -0.01034483	  0.01015601	  0.00000000	  0.00000000	  0.00000000	  0.00000000
216.00000000	  0.00000000	  0.00000000	  0.00000000	  0.00000000	  0.01034483	 -0.03793103	 -0.00344828	 -0.00344828
217.00000000	  0.00344828	  0.00000000	  0.00000000	  0.00000000	  0.00344828	 -0.02413793	  0.00000000	  0.00000000
218.00000000	  0.00000000	  0.00000000	  0.00000000	  0.00000000	 -0.02413793	  0.05172414	  0.01034483	  0.00344828
219.00000000	  0.00000000	  0.00000000	  0.00344828	  0.00338534	  0.01724138	 -0.02413793	  0.00344828	  0.00000000
220.00000000	  0.00000000	 -0.00344828	  0.00000000	  0.00000000	  0.00000000	  0.00000000	  0.00000000	  0.00000000
221.00000000	  0.01034483	  0.00344828	  0.00344828	  0.00000000	 -0.00344828	  0.00344828	  0.00000000	  0.00000000
222.00000000	  0.00344828	 -0.00344828	  0.00344828	  0.00000000	 -0.00344828	  0.00000000	  0.00000000	  0.00000000
223.00000000	  0.00000000	  0.00344828	 -0.01034483	  0.00000000	  0.01034483	  0.00000000	  0.00000000	  0.00000000
224.00000000	  0.00344828	 -0.00344828	  0.00344828	  0.00000000	 -0.01034483	  0.00000000	  0.00000000	  0.00000000
225.00000000	  0.00000000	  0.00344828	  0.00000000	  0.00000000	 -0.00344828	 -0.01724138	  0.00000000	  0.00000000
226.00000000	 -0.02413793	  0.00000000	  0.00000000	  0.00338534	 -0.00344828	  0.00000000	  0.00000000	  0.00000000
227.00000000	  0.01034483	  0.04482759	  0.03793103	 -0.07109208	 -0.06551724	  0.03103448	  0.01034483	  0.00344828
228.00000000	 -0.00344828	  0.00344828	  0.00000000	 -0.00338534	 -0.00344828	 -0.05862069	  0.00000000	  0.00000000
229.00000000	 -0.00344828	  0.00000000	  0.02413793	 -0.03723871	  0.00000000	  0.02413793	  0.00344828	  0.00000000
230.00000000	  0.00000000	  0.00000000	 -0.01724138	  0.01692668	  0.01724138	 -0.01724138	  0.00000000	  0.00000000
231.00000000	 -0.00344828	 -0.07931034	 -0.07931034	  0.09817477	  0.05862069	  0.05862069	  0.00000000	  0.01034483
232.00000000	 -0.05172414	 -0.10000000	 -0.09310345	 -0.00338534	  0.05862069	 -0.07241379	 -0.01034483	 -0.00344828
233.00000000	 -0.04482759	 -0.09310345	 -0.09310345	  0.03723871	  0.02413793	 -0.10000000	  0.07931034	  0.10000000
234.00000000	 -0.03793103	 -0.09310345	 -0.10000000	 -0.09817477	  0.07931034	 -0.01724138	 -0.05172414	  0.09310345
235.00000000	 -0.01724138	 -0.10000000	 -0.07241379	  0.08463342	  0.05172414	 -0.08620690	  0.00000000	 -0.00344828
236.00000000	  0.00344828	 -0.03793103	 -0.07931034	  0.01015601	  0.08620690	  0.03103448	 -0.00344828	 -0.03793103
237.00000000	  0.10000000	  0.10000000	 -0.06551724	 -0.09817477	  0.01034483	  0.05172414	 -0.10000000	 -0.10000000
238.00000000	  0.10000000	 -0.10000000	  0.10000000	 -0.09140410	  0.03103448	  0.10000000	 -0.10000000	 -0.10000000
239.00000000	  0.03103448	 -0.10000000	  0.10000000	 -0.03046803	  0.10000000	  0.10000000	 -0.10000000	  0.10000000
240.00000000	  0.09310345	 -0.10000000	  0.10000000	  0.09817477	  0.05172414	  0.02413793	 -0.10000000	  0.09310345
241.00000000	  0.07931034	 -0.10000000	  0.06551724	  0.02369736	 -0.00344828	  0.00000000	  0.01034483	  0.03793103
242.00000000	  0.09310345	 -0.09310345	  0.00000000	  0.00000000	 -0.03793103	  0.10000000	  0.04482759	  0.02413793
243.00000000	  0.10000000	 -0.10000000	 -0.00344828	  0.07786275	  0.00000000	  0.00000000	  0.00344828	  0.00000000
244.00000000	  0.07241379	 -0.10000000	 -0.01724138	  0.07786275	  0.01034483	 -0.06551724	 -0.02413793	  0.03793103
245.00000000	  0.02413793	 -0.10000000	 -0.04482759	 -0.03723871	 -0.00344828	 -0.01034483	  0.03103448	 -0.00344828
246.00000000	  0.02413793	 -0.10000000	 -0.00344828	  0.00338534	  0.00000000	  0.04482759	  0.00000000	  0.00344828
247.00000000	  0.03103448	 -0.07931034	 -0.02413793	  0.02369736	  0.00344828	  0.00344828	  0.00000000	  0.00000000
248.00000000	  0.03103448	 -0.07241379	 -0.01724138	  0.01692668	  0.00344828	  0.00344828	  0.00344828	  0.00344828
249.00000000	  0.03793103	 -0.05862069	 -0.01034483	  0.05755073	 -0.07241379	  0.03103448	  0.00000000	  0.00344828
250.00000000	  0.01034483	 -0.07931034	 -0.00344828	 -0.00338534	  0.00344828	  0.01034483	  0.00000000	  0.00000000
251.00000000	  0.00344828	 -0.04482759	  0.00000000	 -0.00338534	  0.03103448	  0.04482759	 -0.06551724	 -0.02413793
252.00000000	  0.00000000	 -0.07931034	  0.00344828	  0.01015601	 -0.00344828	  0.00344828	 -0.04482759	 -0.01724138
253.00000000	  0.01724138	 -0.07931034	  0.03103448	  0.00000000	  0.00000000	  0.00000000	 -0.01724138	  0.01724138
254.00000000	  0.03793103	 -0.01034483	 -0.04482759	  0.04400938	  0.00000000	  0.00000000	  0.00000000	 -0.01034483
255.00000000	  0.00344828	 -0.03103448	  0.00344828	 -0.00338534	  0.00000000	  0.00000000	  0.00000000	  0.00344828
256.00000000	  0.00000000	 -0.04482759	  0.00000000	  0.00000000	  0.00000000	  0.00000000	  0.00000000	  0.00000000
257.00000000	  0.00344828	 -0.03793103	  0.00000000	  0.00000000	  0.00000000	  0.00000000	  0.00344828	  0.00344828
258.00000000	  0.00000000	 -0.05172414	  0.00000000	  0.00000000	  0.00000000	  0.00344828	 -0.00344828	  0.01724138
259.00000000	  0.00344828	 -0.02413793	 -0.00344828	  0.00000000	  0.00000000	  0.00000000	  0.00344828	 -0.01034483
260.00000000	  0.00344828	 -0.02413793	  0.00000000	  0.00000000	  0.00000000	  0.00344828	 -0.00344828	 -0.00344828
261.00000000	  0.00000000	 -0.00344828	 -0.00344828	  0.00338534	  0.00000000	  0.00000000	  0.00000000	  0.00000000
262.00000000	  0.00000000	  0.01034483	  0.00000000	  0.00000000	  0.00000000	  0.00000000	  0.00000000	  0.00000000
263.00000000	  0.00000000	  0.00000000	 -0.00344828	  0.00338534	  0.00000000	  0.00000000	 -0.00344828	  0.00000000
264.00000000	  0.00000000	  0.01034483	  0.00000000	  0.00338534	 -0.00344828	  0.00344828	 -0.00344828	  0.00344828
265.00000000	  0.00000000	 -0.01034483	  0.00344828	 -0.00338534	 -0.00344828	 -0.00344828	  0.00344828	  0.00000000
266.00000000	  0.00000000	  0.00000000	  0.00344828	  0.00338534	  0.00000000	  0.00000000	  0.00344828	 -0.01034483
267.00000000	  0.00000000	 -0.01724138	  0.00344828	  0.00000000	  0.00000000	  0.00000000	  0.00000000	 -0.00344828
268.00000000	  0.00000000	 -0.03793103	  0.00000000	  0.00000000	  0.00000000	  0.00000000	  0.00000000	  0.00000000
269.00000000	  0.00000000	 -0.00344828	  0.00000000	  0.00000000	  0.00000000	  0.00000000	  0.00000000	  0.00000000
270.00000000	  0.00000000	  0.00000000	  0.00000000	  0.00000000	  0.00000000	  0.00000000	  0.00000000	 -0.00344828
271.00000000	  0.00000000	  0.04482759	  0.00344828	  0.00000000	  0.00000000	  0.00344828	  0.00000000	  0.00000000
272.00000000	  0.00000000	  0.01034483	  0.00000000	  0.00000000	  0.00000000	  0.00000000	  0.00000000	  0.00344828
273.00000000	 -0.00344828	  0.00000000	  0.00000000	  0.00338534	 -0.00344828	  0.00000000	  0.00000000	  0.00344828
274.00000000	  0.00000000	  0.00344828	  0.00000000	  0.00338534	  0.00000000	  0.00000000	  0.00000000	  0.00000000
275.00000000	  0.00000000	  0.00000000	  0.00344828	  0.00000000	 -0.00344828	  0.00344828	 -0.00344828	  0.00344828
276.00000000	  0.00000000	  0.00000000	  0.00000000	  0.00000000	  0.00000000	  0.00000000	  0.00000000	  0.00344828
277.00000000	  0.00000000	 -0.00344828	  0.00000000	  0.00000000	  0.00000000	  0.00000000	  0.00000000	  0.00000000
278.00000000	  0.00000000	  0.00000000	  0.00000000	 -0.01015601	  0.00000000	  0.00000000	 -0.00344828	  0.00344828
279.00000000	  0.00000000	  0.00000000	  0.00000000	  0.00000000	  0.00000000	  0.00000000	  0.00000000	 -0.00344828
280.00000000	 -0.00344828	  0.00000000	  0.00000000	  0.00338534	  0.00000000	  0.00000000	 -0.00344828	  0.00344828
281.00000000	  0.00000000	 -0.00344828	  0.00000000	  0.00000000	  0.00000000	  0.00000000	  0.00000000	  0.00000000
282.00000000	  0.00000000	  0.00344828	  0.00000000	 -0.00338534	  0.00000000	  0.00000000	  0.00000000	  0.00000000
283.00000000	  0.00000000	  0.00000000	  0.00000000	  0.00338534	  0.00000000	  0.00000000	  0.00344828	 -0.00344828
284.00000000	  0.00000000	  0.00000000	  0.00000000	  0.00338534	  0.00344828	  0.00000000	  0.00000000	  0.00000000
285.00000000	  0.00000000	  0.00000000	  0.00000000	  0.00338534	  0.00000000	  0.00000000	  0.00000000	  0.00000000
286.00000000	  0.00000000	  0.00000000	  0.00000000	  0.00000000	  0.00000000	  0.00344828	  0.00344828	  0.00000000
287.00000000	  0.00000000	  0.00000000	  0.00000000	  0.00338534	  0.00000000	  0.00344828	 -0.00344828	 -0.00344828
288.00000000	  0.00000000	  0.00000000	 -0.00344828	 -0.00338534	  0.00000000	  0.00000000	 -0.00344828	  0.00344828
289.00000000	  0.00000000	  0.00000000	  0.00000000	  0.00338534	  0.00000000	  0.00000000	  0.00000000	  0.00000000
290.00000000	  0.00000000	  0.00000000	  0.00000000	  0.00000000	  0.00000000	  0.00000000	  0.00000000	  0.00000000
291.00000000	  0.00000000	  0.00344828	  0.00000000	  0.00000000	  0.00000000	  0.00000000	  0.00000000	  0.00000000
292.00000000	  0.00000000	 -0.00344828	  0.00000000	  0.00000000	  0.00000000	  0.00000000	  0.00000000	  0.00000000
293.00000000	  0.00000000	  0.00344828	  0.00000000	  0.00000000	  0.00000000	  0.00000000	  0.00000000	  0.00344828
294.00000000	  0.00000000	 -0.00344828	  0.00000000	 -0.00338534	  0.00000000	  0.00000000	  0.00344828	  0.00000000
295.00000000	  0.00000000	  0.00000000	  0.00000000	  0.00000000	  0.00000000	  0.00000000	  0.00000000	  0.00000000
296.00000000	  0.00000000	  0.00000000	  0.00000000	  0.00000000	  0.00344828	 -0.00344828	  0.00000000	  0.00000000
297.00000000	  0.00000000	  0.00000000	  0.00000000	  0.00000000	  0.00000000	  0.00000000	  0.00000000	  0.00000000
298.00000000	  0.00000000	  0.00000000	  0.00000000	  0.00000000	  0.00000000	  0.00000000	  0.00000000	 -0.00344828
299.00000000	  0.00000000	  0.00000000	  0.00000000	  0.00000000	  0.00000000	  0.00000000	  0.00000000	  0.00000000
300.00000000	  0.00000000	  0.00000000	  0.00000000	  0.00000000	  0.00000000	  0.00000000	  0.00000000	  0.00000000
301.00000000	  0.00000000	  0.00000000	  0.00000000	  0.00000000	 -0.00344828	  0.00344828	  0.00000000	  0.00000000
302.00000000	  0.00000000	  0.00000000	  0.00000000	  0.00338534	  0.00344828	  0.00000000	  0.00000000	  0.00000000
303.00000000	  0.00000000	 -0.00344828	  0.00000000	  0.00000000	  0.00000000	  0.00000000	  0.00000000	  0.00000000
304.00000000	  0.00000000	  0.00344828	  0.00000000	  0.00000000	 -0.00344828	  0.00344828	 -0.00344828	  0.00344828
305.00000000	  0.00000000	  0.00000000	  0.00000000	  0.00000000	  0.00000000	  0.00000000	  0.00000000	  0.00344828
306.00000000	  0.00000000	  0.00000000	  0.00000000	  0.00000000	  0.00000000	  0.00000000	  0.00000000	  0.00000000
307.00000000	  0.00000000	  0.00000000	 -0.00344828	  0.00000000	  0.00000000	  0.00000000	 -0.00344828	 -0.00344828
308.00000000	  0.00000000	 -0.00344828	  0.00000000	 -0.00338534	  0.00000000	 -0.00344828	 -0.00344828	  0.00000000
309.00000000	  0.00000000	  0.00344828	  0.00000000	  0.00000000	 -0.00344828	  0.00000000	 -0.00344828	  0.00000000
310.00000000	  0.00000000	  0.00344828	  0.00000000	  0.00338534	  0.00000000	  0.00000000	  0.00344828	 -0.01034483
311.00000000	  0.00000000	 -0.01034483	  0.00344828	  0.00338534	  0.00000000	  0.00000000	  0.00000000	  0.00000000
312.00000000	  0.00000000	  0.00000000	  0.00000000	  0.00000000	  0.00000000	  0.00000000	  0.00344828	 -0.00344828
313.00000000	  0.00000000	  0.00000000	  0.00000000	  0.00000000	  0.00000000	  0.00000000	 -0.00344828	  0.00344828
314.00000000	 -0.00344828	  0.00344828	  0.00344828	  0.00000000	  0.00000000	  0.00000000	  0.00344828	  0.00000000
315.00000000	  0.00344828	  0.00000000	  0.00000000	 -0.01015601	  0.00000000	  0.00000000	  0.00000000	  0.00000000
316.00000000	  0.00000000	 -0.00344828	 -0.00344828	  0.01015601	  0.00000000	  0.00000000	 -0.00344828	 -0.00344828
317.00000000	  0.00000000	  0.00000000	  0.00000000	  0.00000000	  0.00000000	  0.00000000	 -0.00344828	  0.01034483
318.00000000	  0.00000000	  0.01034483	 -0.00344828	 -0.00338534	  0.00000000	  0.00000000	  0.00000000	  0.00000000
319.00000000	  0.00000000	  0.00000000	  0.00000000	  0.00338534	  0.00000000	  0.00344828	  0.00344828	  0.00000000
320.00000000	  0.00000000	  0.00000000	  0.00000000	  0.00000000	  0.00000000	  0.00000000	  0.00000000	  0.00000000
321.00000000	  0.00000000	  0.00000000	  0.00344828	  0.00338534	  0.00000000	  0.00344828	  0.00344828	  0.00000000
322.00000000	  0.00000000	 -0.01034483	  0.00000000	 -0.00338534	  0.00000000	  0.00000000	 -0.00344828	  0.00000000
323.00000000	  0.00000000	  0.00000000	  0.00000000	  0.00338534	  0.00344828	  0.01034483	  0.00000000	  0.00000000
324.00000000	  0.00000000	  0.00000000	 -0.00344828	  0.01015601	  0.00000000	  0.00000000	  0.00344828	  0.00344828
325.00000000	  0.00000000	  0.00344828	 -0.00344828	 -0.00338534	  0.00000000	  0.00000000	 -0.01034483	  0.00344828
326.00000000	  0.00000000	  0.00000000	  0.00000000	  0.00000000	  0.00000000	  0.00000000	  0.00344828	  0.00000000
327.00000000	  0.00000000	  0.00000000	  0.00000000	  0.00000000	  0.00000000	  0.00344828	  0.00000000	 -0.00344828
328.00000000	  0.00000000	  0.00000000	  0.00000000	  0.00000000	  0.00000000	  0.00000000	  0.00000000	  0.00000000
329.00000000	  0.00000000	  0.00000000	  0.00000000	  0.01015601	  0.00344828	  0.00344828	  0.00344828	 -0.00344828
330.00000000	  0.00000000	  0.00000000	 -0.00344828	  0.00000000	  0.00000000	  0.00000000	  0.00000000	 -0.00344828
331.00000000	  0.00000000	  0.00000000	  0.00000000	  0.00000000	  0.00000000	  0.00000000	 -0.00344828	  0.00000000
332.00000000	  0.00000000	  0.00000000	  0.00000000	  0.00000000	  0.00000000	  0.00000000	  0.00344828	  0.00000000
333.00000000	  0.00000000	  0.00000000	  0.00000000	  0.00000000	  0.00000000	  0.00000000	  0.00000000	  0.00000000
334.00000000	  0.00000000	  0.00000000	  0.00000000	  0.00000000	 -0.00344828	  0.00000000	  0.00000000	  0.00000000
335.00000000	  0.00000000	  0.00000000	  0.00000000	  0.00000000	  0.00000000	  0.00000000	 -0.00344828	  0.00000000
336.00000000	  0.00000000	  0.00000000	  0.00344828	  0.00338534	  0.00000000	  0.00000000	  0.00000000	  0.00000000
