 -179.250000	 -179.250000	 -179.250000	 -179.250000	 -179.250000	66380.377500	68712.497500	71044.617500	73376.737500	75708.857500
  -39.365079	  -39.287129	  -39.209487	  -39.132151	  -39.055118	14938.676032	15426.443087	15912.284789	16396.212518	16878.237559
   47.038835	   46.922483	   46.806717	   46.691531	   46.576923	-16798.353010	-17367.939461	-17934.659190	-18498.533784	-19059.584615
   68.930556	   68.930556	   68.930556	   68.930556	   68.930556	-24863.276944	-25756.969271	-26650.661597	-27544.353924	-28438.046250
   48.320000	   48.441104	   48.562815	   48.685139	   48.808081	-17280.922800	-17954.246212	-18630.950394	-19311.060873	-19994.603434
 -386.307692	 -386.307692	 -386.307692	 -386.307692	 -386.307692	142705.983846	147758.928462	152811.873077	157864.817692	162917.762308
  -50.656566	  -50.659090	  -50.661615	  -50.664141	  -50.666667	19082.592424	19749.980594	20417.501775	21085.156009	21752.943333
  -17.092715	  -17.092715	  -17.092715	  -17.092715	  -17.092715	 6741.570596	 6965.438262	 7189.305927	 7413.173593	 7637.041258
  -23.980861	  -23.979665	  -23.978468	  -23.977272	  -23.976077	 9266.045598	 9581.902225	 9897.695937	10213.426752	10529.094689
  -32.251572	  -32.251572	  -32.251572	  -32.251572	  -32.251572	12303.590943	12731.175519	13158.760094	13586.344670	14013.929245
 -123.707317	 -123.707317	 -123.707317	 -123.707317	 -123.707317	45885.400000	47497.416341	49109.432683	50721.449024	52333.465366
   65.360000	   65.142858	   64.927154	   64.712872	   64.500000	-23553.056800	-24314.354569	-25070.612885	-25821.881623	-26568.210000
  -28.833333	  -28.833333	  -28.833333	  -28.833333	  -28.833333	11052.853333	11427.060417	11801.267500	12175.474583	12549.681667
 -336.466667	 -336.466667	 -336.466667	 -336.466667	 -336.466667	124340.355333	128737.178500	133134.001667	137530.824833	141927.648000
  -39.740458	  -39.740458	  -39.740458	  -39.740458	  -39.740458	15062.373740	15586.584828	16110.795916	16635.007004	17159.218092
   84.016667	   84.016667	   84.016667	   84.016667	   84.016667	-30377.643333	-31472.112917	-32566.582500	-33661.052083	-34755.521667
  -26.978723	  -26.978723	  -26.978723	  -26.978723	  -26.978723	10357.668511	10717.590053	11077.511596	11437.433138	11797.354681
   31.554140	   31.552547	   31.550955	   31.549363	   31.547771	-11114.728280	-11528.426734	-11942.041754	-12355.573365	-12769.021592
  -46.570093	  -46.570093	  -46.570093	  -46.570093	  -46.570093	17564.926168	18181.806706	18798.687243	19415.567780	20032.448318
  -23.681159	  -23.709795	  -23.738499	  -23.767273	  -23.796117	 9145.574203	 9474.566733	 9804.352982	10134.935826	10466.318155
  -36.739130	  -36.737318	  -36.735507	  -36.733695	  -36.731884	13940.755652	14424.264939	14907.678922	15390.997629	15874.221087
  -56.370787	  -56.212886	  -56.055867	  -55.899722	  -55.744444	21168.475618	21852.944068	22533.591177	23210.448858	23883.548667
  -89.607143	  -89.611606	  -89.616070	  -89.620534	  -89.625000	33329.805714	34512.052770	35694.535372	36877.253592	38060.207500
  207.791667	  207.802080	  207.812496	  207.822914	  207.833333	-75897.372500	-78626.684630	-81356.543980	-84086.950715	-86817.905000
  -38.539063	  -38.461966	  -38.385184	  -38.308715	  -38.232558	14623.380391	15098.228896	15571.136126	16042.113962	16511.174186
  152.000000	  152.000000	  152.000000	  152.000000	  152.000000	-55391.250000	-57409.130000	-59427.010000	-61444.890000	-63462.770000
   39.700000	   39.700000	   39.700000	   39.700000	   39.700000	-14109.190000	-14626.508250	-15143.826500	-15661.144750	-16178.463000
  366.142857	  359.719303	  353.517248	  347.525428	  341.733333	-134356.002857	-136644.173834	-138853.443570	-140987.823932	-143051.059333
   23.028302	   23.028302	   23.028302	   23.028302	   23.028302	-7982.695377	-8282.388019	-8582.080660	-8881.773302	-9181.465943
 -180.407407	 -180.407407	 -180.407407	 -180.407407	 -180.407407	66785.814074	69114.507685	71443.201296	73771.894907	76100.588519
  -28.172222	  -28.172222	  -28.172222	  -28.172222	  -28.172222	10791.479944	11169.331861	11547.183778	11925.035694	12302.887611
   69.328571	   69.328571	   69.328571	   69.328571	   69.328571	-24947.896143	-25861.133429	-26774.370714	-27687.608000	-28600.845286
  -39.713115	  -39.713115	  -39.713115	  -39.713115	  -39.713115	15050.454918	15574.216270	16097.977623	16621.738975	17145.500328
   60.125000	   60.125000	   60.125000	   60.125000	   60.125000	-21623.443750	-22406.929687	-23190.415625	-23973.901563	-24757.387500
   25.215789	   25.214473	   25.213157	   25.211842	   25.210526	-8772.344579	-9103.617507	-9434.821390	-9765.956249	-10097.022105
   96.440000	   96.440000	   96.440000	   96.440000	   96.440000	-34957.176400	-36237.062700	-37516.949000	-38796.835300	-40076.721600
  -95.132075	  -95.578334	  -96.028753	  -96.483391	  -96.942308	35357.876981	36759.734629	38174.662369	39602.843845	41044.466154
  -53.684783	  -53.684783	  -53.684783	  -53.684783	  -53.684783	20206.840109	20894.245326	21581.650543	22269.055761	22956.460978
  -90.543860	  -90.548244	  -90.552630	  -90.557016	  -90.561404	33676.260000	34863.797844	36051.565736	37239.563742	38427.791930
  -86.771930	  -86.776314	  -86.780700	  -86.785086	  -86.789474	32275.487895	33416.237342	34557.217374	35698.428061	36839.869474
   39.937984	   39.860736	   39.783785	   39.707130	   39.630769	-14178.489225	-14671.816625	-15163.241683	-15652.775380	-16140.428615
  110.239130	  110.846815	  111.461297	  112.082690	  112.711111	-39965.018478	-41621.738693	-43296.988358	-44991.080085	-46704.333556
  568.000000	  568.000000	  568.000000	  568.000000	  568.000000	-208005.450000	-215352.552500	-222699.655000	-230046.757500	-237393.860000
  320.812500	  325.919123	  331.191467	  336.637732	  342.266667	-117541.515000	-123592.353281	-129839.553782	-136292.832699	-142962.558000
  -51.941176	  -51.941176	  -51.941176	  -51.941176	  -51.941176	19538.069412	20220.828971	20903.588529	21586.348088	22269.107647
  -42.403226	  -42.319944	  -42.236980	  -42.154333	  -42.072000	16021.591452	16540.627108	17057.679241	17572.759197	18085.878240
  108.106383	  108.101062	  108.095743	  108.090424	  108.085106	-39235.272553	-40634.904237	-42034.260453	-43433.341283	-44832.146809
 4974.000000	 6631.999872	 9947.999615	19895.998845	875035333849254.000000	-1829096.310002	-2525108.076134	-3917131.608396	-8093202.205182	-367331082796577920.000000
  173.464286	  171.929206	  170.421056	  168.939133	  167.482759	-63162.599643	-64787.599300	-66384.092030	-67952.821445	-69494.505517
  -93.145455	  -93.140908	  -93.136362	  -93.131817	  -93.127273	34725.130364	35927.621738	37129.878392	38331.900396	39533.687818
 -110.500000	 -110.494316	 -110.488634	 -110.482953	 -110.477273	41080.325000	42488.484753	43896.354877	45303.935459	46711.226591
 -276.388889	 -276.388889	 -276.388889	 -276.388889	 -276.388889	101842.975556	105441.616389	109040.257222	112638.898056	116237.538889
  -51.631579	  -51.634210	  -51.636841	  -51.639473	  -51.642105	19399.485789	20070.305126	20741.261158	21412.353926	22083.583474
  -37.075188	  -37.005629	  -36.936330	  -36.867290	  -36.798507	14087.036692	14546.381245	15004.007983	15459.926526	15914.146418
   23.669811	   23.669811	   23.669811	   23.669811	   23.669811	-8217.573774	-8526.358892	-8835.144009	-9143.929127	-9452.714245
   48.710280	   48.712616	   48.714952	   48.717289	   48.719626	-17440.986822	-18081.984181	-18723.104460	-19364.347697	-20005.713925
 4857.000000	 4857.000000	 4857.000000	 4857.000000	 4857.000000	-1778580.679992	-1841758.100002	-1904935.519991	-1968112.940002	-2031290.360013
   35.500000	   35.500000	   35.500000	   35.500000	   35.500000	-12585.900000	-13049.086250	-13512.272500	-13975.458750	-14438.645000
  117.238095	  117.940121	  118.650605	  119.369699	  120.097561	-42463.965714	-44270.131520	-46098.055566	-47948.133408	-49820.770244
   24.069652	   24.069652	   24.069652	   24.069652	   24.069652	-8381.655721	-8694.970846	-9008.285970	-9321.601095	-9634.916219
 -106.130435	 -106.124998	 -106.119563	 -106.114129	 -106.108696	39435.243043	40813.477947	42191.430538	43569.100903	44946.489130
   75.906250	   75.614877	   75.325701	   75.038699	   74.753846	-27380.897812	-28262.773295	-29137.996243	-30006.641649	-30868.783385
   38.330709	   38.332677	   38.334645	   38.336614	   38.338583	-13574.130236	-14079.655969	-14585.285470	-15091.018772	-15596.855906
   22.612150	   22.612150	   22.612150	   22.612150	   22.612150	-7840.687103	-8133.907348	-8427.127593	-8720.347839	-9013.568084
  -47.623762	  -47.621286	  -47.618811	  -47.616336	  -47.613861	17958.572277	18567.703145	19176.707418	19785.585135	20394.336337
 -371.153846	 -378.414073	 -385.963202	 -393.818827	 -402.000000	136828.783846	144432.033746	152337.834919	160564.612806	169132.320000
  -63.986842	  -64.198021	  -64.410598	  -64.624586	  -64.840000	23908.114342	24843.639977	25785.357872	26733.329711	27687.618000
   30.980892	   30.931638	   30.882540	   30.833598	   30.784810	-10894.717134	-11276.729583	-11657.531738	-12037.129342	-12415.528101
   34.770833	   34.770833	   34.770833	   34.770833	   34.770833	-12296.954792	-12752.904635	-13208.854479	-13664.804323	-14120.754167
  325.562500	  325.562500	  325.562500	  325.562500	  325.562500	-119155.774375	-123501.252344	-127846.730313	-132192.208281	-136537.686250
  -78.666667	  -78.666667	  -78.666667	  -78.666667	  -78.666667	29287.210000	30332.670833	31378.131667	32423.592500	33469.053333
 -137.138889	 -137.138889	 -137.138889	 -137.138889	 -137.138889	50792.534444	52573.047569	54353.560694	56134.073819	57914.586944
  -40.152000	  -40.152000	  -40.152000	  -40.152000	  -40.152000	15214.729920	15733.419740	16252.109560	16770.799380	17289.489200
  -36.727941	  -36.795581	  -36.863469	  -36.931609	  -37.000000	13949.036765	14461.460106	14975.771443	15491.981231	16010.100000
  125.025000	  125.018748	  125.012498	  125.006248	  125.000000	-45375.651500	-47040.825500	-48705.666517	-50370.174650	-52034.350000
 -553.333333	 -553.333333	 -553.333333	 -553.333333	 -553.333333	203812.663333	210869.074167	217925.485000	224981.895833	232038.306666
   44.963964	   44.961711	   44.959459	   44.957207	   44.954955	-16041.279910	-16615.316137	-17189.237393	-17763.043715	-18336.735135
-5047.000000	-5047.000000	-5047.000000	-5047.000000	-5047.000000	1851073.950002	1916785.900002	1982497.850002	2048209.800002	2113921.749990
  -33.833333	  -33.833333	  -33.833333	  -33.833333	  -33.833333	12907.763333	13349.093750	13790.424167	14231.754583	14673.085000
   24.756219	   24.756219	   24.756219	   24.756219	   24.756219	-8646.590647	-8962.432985	-9278.275323	-9594.117662	-9909.960000
   38.641221	   38.715106	   38.789273	   38.863724	   38.938462	-13716.734275	-14242.202497	-14769.681366	-15299.182445	-15830.717385
   77.222222	   77.222222	   77.222222	   77.222222	   77.222222	-27969.837778	-28948.400833	-29926.963889	-30905.526944	-31884.090000
 -109.043478	 -109.043478	 -109.043478	 -109.043478	 -109.043478	40571.821304	41974.242935	43376.664565	44779.086196	46181.507826
  153.090909	  154.252258	  155.431243	  156.628267	  157.843750	-55921.809091	-58312.990314	-60740.482689	-63205.119644	-65707.760312
   52.041667	   51.906494	   51.772022	   51.638244	   51.505155	-18651.496250	-19270.048011	-19885.397125	-20497.568401	-21106.586392
  -70.875000	  -70.875000	  -70.875000	  -70.875000	  -70.875000	26525.713750	27447.455937	28369.198125	29290.940312	30212.682500
  -50.390000	  -50.392499	  -50.394999	  -50.397499	  -50.400000	18932.032200	19595.149815	20258.398960	20921.779676	21585.292000
 -189.884615	 -191.728159	 -193.607847	 -195.524756	 -197.480000	70259.744231	73420.550865	76643.330517	79929.923863	83282.245200
  -41.512397	  -41.512397	  -41.512397	  -41.512397	  -41.512397	15691.609669	16234.395413	16777.181157	17319.966901	17862.752645
   73.779412	   73.779412	   73.779412	   73.779412	   73.779412	-26658.250147	-27599.107647	-28539.965147	-29480.822647	-30421.680147
   90.272727	   90.272727	   90.272727	   90.272727	   90.272727	-32687.925455	-33850.098636	-35012.271818	-36174.445000	-37336.618182
 -179.714286	 -179.714286	 -179.714286	 -179.714286	 -179.714286	66545.712857	68864.551429	71183.390000	73502.228571	75821.067143
   55.579545	   55.576704	   55.573862	   55.571022	   55.568182	-19997.727841	-20714.376597	-21430.878861	-22147.234677	-22863.444091
   25.329897	   25.328608	   25.327319	   25.326031	   25.324742	-8820.323402	-9152.663264	-9484.935593	-9817.140409	-10149.277732
  -23.849057	  -23.877214	  -23.905438	  -23.933728	  -23.962085	 9219.921698	 9543.747907	 9868.336992	10193.691651	10519.814597
  -37.776119	  -37.846730	  -37.917604	  -37.988744	  -38.060150	14312.697612	14839.791212	15368.856174	15899.903577	16432.944586
  127.210526	  127.217103	  127.223681	  127.230261	  127.236842	-46313.536842	-47939.092539	-49564.984456	-51191.212698	-52817.777368
   61.839506	   61.649232	   61.460124	   61.272172	   61.085366	-22225.064198	-22960.361670	-23691.150476	-24417.471957	-25139.366951
  167.413793	  168.869568	  170.350881	  171.858410	  173.392857	-60888.788966	-63575.258848	-66308.856635	-69090.833427	-71922.485000
  -76.835821	  -76.839551	  -76.843282	  -76.847014	  -76.850746	28632.896119	29625.902363	30619.101446	31612.493426	32606.078358
  -18.848148	  -18.865617	  -18.883117	  -18.900650	  -18.918216	 7378.388148	 7630.956123	 7883.990051	 8137.491221	 8391.460929
  -42.365854	  -42.365854	  -42.365854	  -42.365854	  -42.365854	16011.106829	16562.594085	17114.081341	17665.568598	18217.055854
   50.707547	   50.590621	   50.474222	   50.358347	   50.242991	-18092.500189	-18735.062039	-19374.729002	-20011.520597	-20645.456168
  108.212766	  107.640213	  107.073686	  106.513091	  105.958333	-39214.528085	-40401.196886	-41575.376594	-42737.263339	-43887.049167
   79.725806	   79.405624	   79.088002	   78.772910	   78.460317	-28718.263710	-29619.295036	-30513.120386	-31399.825859	-32279.496190
   61.797468	   61.797468	   61.797468	   61.797468	   61.797468	-22231.093165	-23024.463671	-23817.834177	-24611.204684	-25404.575190
   33.910345	   33.910345	   33.910345	   33.910345	   33.910345	-11976.218276	-12412.084379	-12847.950483	-13283.816586	-13719.682690
   25.404145	   25.371281	   25.338502	   25.305807	   25.273196	-8859.449637	-9171.330639	-9482.408214	-9792.685460	-10102.165464
  -62.329114	  -62.332278	  -62.335442	  -62.338607	  -62.341772	23376.727342	24172.716988	24968.868229	25765.181116	26561.655696
  -38.233083	  -38.233083	  -38.233083	  -38.233083	  -38.233083	14512.535414	14996.227162	15479.918910	15963.610658	16447.302406
  -34.136986	  -34.136986	  -34.136986	  -34.136986	  -34.136986	12940.613014	13389.311986	13838.010959	14286.709932	14735.408904
 -121.609756	 -121.609756	 -121.609756	 -121.609756	 -121.609756	44954.175122	46547.684451	48141.193780	49734.703110	51328.212439
 -209.666667	 -207.516102	 -205.408997	 -203.344047	 -201.320000	77296.590000	79241.423709	81146.955309	83014.364236	84844.783200
   28.073034	   28.074438	   28.075842	   28.077247	   28.078652	-9820.980393	-10186.162374	-10551.417336	-10916.745301	-11282.146292
  -13.260417	  -13.259765	  -13.259114	  -13.258463	  -13.257812	 5324.793542	 5499.379041	 5673.930447	 5848.447768	 6022.931016
  -30.453488	  -30.453488	  -30.453488	  -30.453488	  -30.453488	11600.966163	12005.676221	12410.386279	12815.096337	13219.806395
  -42.491667	  -42.491667	  -42.491667	  -42.491667	  -42.491667	16013.760417	16578.584708	17143.409000	17708.233292	18273.057583
  -39.811024	  -39.887597	  -39.964458	  -40.041608	  -40.119048	15033.945039	15582.065151	16132.240619	16684.483029	17238.804048
 -851.166667	 -851.166667	 -851.166667	 -851.166667	 -851.166667	312042.785000	323388.859167	334734.933333	346081.007500	357427.081667
   43.361345	   43.361345	   43.361345	   43.361345	   43.361345	-15440.808824	-15999.708845	-16558.608866	-17117.508887	-17676.408908
  -55.934066	  -55.780823	  -55.628416	  -55.476840	  -55.326087	20981.873736	21655.162862	22324.775239	22990.740904	23653.089565
  -25.293269	  -25.323707	  -25.354217	  -25.384801	  -25.415459	 9718.276346	10066.715865	10415.992373	10766.108892	11117.068454
 -305.352941	 -305.352941	 -305.352941	 -305.352941	 -305.352941	112153.363529	116206.971323	120260.579118	124314.186912	128367.794706
   37.007194	   37.075656	   37.144378	   37.213362	   37.282609	-13118.905755	-13618.092835	-14119.176387	-14622.167240	-15127.076304
   72.985294	   72.985294	   72.985294	   72.985294	   72.985294	-26403.341324	-27334.983640	-28266.625956	-29198.268272	-30129.910588
  -41.621849	  -41.709474	  -41.797469	  -41.885836	  -41.974576	15728.038571	16316.134389	16906.708662	17499.777090	18095.355508
  -66.051282	  -66.051282	  -66.051282	  -66.051282	  -66.051282	24872.195897	25735.193269	26598.190641	27461.188013	28324.185385
 -116.609756	 -116.609756	 -116.609756	 -116.609756	 -116.609756	43711.555366	45159.674512	46607.793659	48055.912805	49504.031951
  -13.354749	  -13.364081	  -13.373427	  -13.382785	  -13.392157	 5419.922067	 5591.183226	 5762.681208	 5934.416504	 6106.389608
  -15.503401	  -15.504251	  -15.505102	  -15.505952	  -15.506803	 6239.953810	 6432.456902	 6625.002046	 6817.589253	 7010.218537
   79.733333	   79.402491	   79.074382	   78.748972	   78.426230	-29574.576667	-30423.221126	-31264.854130	-32099.562213	-32927.430492
  -15.816129	  -15.816935	  -15.817742	  -15.818548	  -15.819355	 6372.603226	 6572.378153	 6772.193659	 6972.049754	 7171.946452
   37.604651	   37.679589	   37.754834	   37.830387	   37.906250	-13819.908140	-14321.709279	-14825.563668	-15331.483935	-15839.482813
 -132.189189	 -132.182430	 -132.175673	 -132.168917	 -132.162162	50460.788919	52113.177289	53765.227803	55416.940564	57068.315676
  -52.978022	  -52.978022	  -52.978022	  -52.978022	  -52.978022	20520.892088	21175.145769	21829.399451	22483.653132	23137.906813
   39.796748	   39.875789	   39.955135	   40.034790	   40.114754	-14810.010244	-15344.014490	-15880.086624	-16418.238680	-16958.482787
   18.652344	   18.652344	   18.652344	   18.652344	   18.652344	-6778.075977	-7014.884648	-7251.693320	-7488.501992	-7725.310664
   15.658784	   15.645570	   15.632378	   15.619208	   15.606061	-5672.663986	-5865.303891	-6057.621545	-6249.617758	-6441.293333
  271.055556	  271.055556	  271.055556	  271.055556	  271.055556	-103960.308333	-107382.424722	-110804.541111	-114226.657500	-117648.773889
 -128.842105	 -128.848682	 -128.855260	 -128.861840	 -128.868421	50071.813158	51718.317116	53365.157315	55012.333855	56659.846842
   20.553279	   20.574359	   20.595483	   20.616650	   20.637860	-7641.055902	-7911.186035	-8181.868238	-8453.104205	-8724.895638
  -21.826087	  -21.798544	  -21.771073	  -21.743674	  -21.716346	 8740.425217	 9004.851624	 9268.585182	 9531.628611	 9793.984615
  -34.358209	  -34.358209	  -34.358209	  -34.358209	  -34.358209	13617.484179	14052.318731	14487.153284	14921.987836	15356.822388
  -49.062500	  -49.062500	  -49.062500	  -49.062500	  -49.062500	19331.998750	19949.342344	20566.685938	21184.029531	21801.373125
  -16.850365	  -16.834088	  -16.817844	  -16.801633	  -16.785455	 6806.480584	 7014.167377	 7221.433756	 7428.280994	 7634.710364
   58.276316	   58.276316	   58.276316	   58.276316	   58.276316	-22483.528816	-23216.993059	-23950.457303	-24683.921546	-25417.385789
   31.460993	   31.460993	   31.460993	   31.460993	   31.460993	-12071.944752	-12468.426152	-12864.907553	-13261.388954	-13657.870355
   29.389262	   29.389262	   29.389262	   29.389262	   29.389262	-11312.283826	-11675.134396	-12037.984966	-12400.835537	-12763.686107
   15.714286	   15.713370	   15.712454	   15.711538	   15.710623	-5954.548571	-6147.273625	-6339.953925	-6532.589488	-6725.180330
   15.795367	   15.796332	   15.797297	   15.798262	   15.799228	-5993.393398	-6185.692931	-6378.039283	-6570.432470	-6762.872510
  -24.765060	  -24.802414	  -24.839880	  -24.877459	  -24.915152	 9938.953795	10256.342666	10574.687205	10893.991736	11214.260606
  -19.689320	  -19.666675	  -19.644079	  -19.621532	  -19.599034	 7951.489417	 8187.707627	 8423.415043	 8658.613320	 8893.304106
  -11.924242	  -11.923485	  -11.922727	  -11.921969	  -11.921212	 4878.983182	 5027.640395	 5176.260098	 5324.842305	 5473.387030
  -14.739130	  -14.739130	  -14.739130	  -14.739130	  -14.739130	 5977.783043	 6163.715326	 6349.647609	 6535.579891	 6721.512174
  -20.000000	  -20.000000	  -20.000000	  -20.000000	  -20.000000	 8039.680000	 8295.200000	 8550.720000	 8806.240000	 9061.760000
  -23.809249	  -23.807803	  -23.806358	  -23.804913	  -23.803468	 9544.217110	 9842.689389	10141.089331	10439.416963	10737.672312
  -16.732510	  -16.733539	  -16.734567	  -16.735596	  -16.736626	 6755.707613	 6965.975113	 7176.294130	 7386.664683	 7597.086790
  -24.380952	  -24.418765	  -24.456699	  -24.494755	  -24.532934	 9774.648571	10092.370046	10411.114012	10730.885412	11051.689222
  -60.923077	  -60.919229	  -60.915383	  -60.911537	  -60.907692	24168.625385	24917.408349	25666.002264	26414.407201	27162.623231
  -45.773810	  -45.910449	  -46.047906	  -46.186188	  -46.325301	18178.894167	18794.654190	19414.097245	20037.256475	20664.165422
  -51.791667	  -51.972127	  -52.153848	  -52.336844	  -52.521127	20570.902917	21272.278245	21978.553837	22689.781228	23406.012676
  -18.119403	  -18.119403	  -18.119403	  -18.119403	  -18.119403	 7291.714328	 7513.410448	 7735.106567	 7956.802687	 8178.498806
  -47.373333	  -47.373333	  -47.373333	  -47.373333	  -47.373333	18813.725467	19386.799067	19959.872667	20532.946267	21106.019867
  261.846154	  261.846154	  261.846154	  261.846154	  261.846154	-103194.187692	-106308.155577	-109422.123462	-112536.091346	-115650.059231
   76.860465	   77.309943	   77.764707	   78.224853	   78.690476	-30077.667442	-31177.699119	-32290.670604	-33416.811567	-34556.357143
  143.863636	  145.517241	  147.209301	  148.941176	  150.714286	-56633.790909	-58998.303174	-61417.804732	-63894.236402	-66429.631429
  -31.079208	  -31.076731	  -31.074256	  -31.071781	  -31.069307	12417.929307	12778.465425	13138.886817	13499.193538	13859.385644
   40.571429	   40.703584	   40.836603	   40.970493	   41.105263	-15824.147143	-16358.837721	-16897.020519	-17438.729862	-17984.000526
  -45.846154	  -46.023169	  -46.201555	  -46.381326	  -46.562500	18173.122308	18792.267194	19416.204388	20044.989748	20678.680000
   73.769231	   73.769231	   73.769231	   73.769231	   73.769231	-28902.978462	-29775.100192	-30647.221923	-31519.343654	-32391.465385
 -870.333333	 -870.249952	 -870.166603	 -870.083285	 -870.000000	342292.256668	352475.038673	362653.920070	372828.903100	382999.990000
   29.616279	   29.616279	   29.616279	   29.616279	   29.616279	-11510.605349	-11855.424797	-12200.244244	-12545.063692	-12889.883140
  120.850000	  120.850000	  120.850000	  120.850000	  120.850000	-47343.648500	-48717.583000	-50091.517500	-51465.452000	-52839.386500
   27.883721	   27.883721	   27.883721	   27.883721	   27.883721	-10806.780465	-11124.605756	-11442.431047	-11760.256337	-12078.081628
  -39.916667	  -39.912497	  -39.908330	  -39.904164	  -39.900000	15784.355000	16241.286290	16698.026974	17154.577171	17610.937000
  -38.096774	  -38.096774	  -38.096774	  -38.096774	  -38.096774	15108.740968	15536.318306	15963.895645	16391.472984	16819.050323
  277.000000	  268.605955	  260.705750	  253.257049	  246.222222	-108471.270000	-108162.557031	-107872.006305	-107598.060838	-107339.336667
  -11.103627	  -11.103627	  -11.103627	  -11.103627	  -11.103627	 4500.811192	 4622.936930	 4745.062668	 4867.188407	 4989.314145
  -16.110236	  -16.110236	  -16.110236	  -16.110236	  -16.110236	 6474.359291	 6652.041083	 6829.722874	 7007.404665	 7185.086457
   -9.497674	   -9.497674	   -9.497674	   -9.497674	   -9.497674	 3870.031070	 3976.169186	 4082.307302	 4188.445419	 4294.583535
   -8.388889	   -8.379192	   -8.369517	   -8.359863	   -8.350230	 3423.187222	 3512.764949	 3602.142950	 3691.321893	 3780.302442
  -10.916168	  -10.917663	  -10.919160	  -10.920657	  -10.922156	 4425.537964	 4546.620014	 4667.767767	 4788.981278	 4910.260599
  -10.615894	  -10.633501	  -10.651165	  -10.668887	  -10.686667	 4303.000265	 4424.528401	 4546.451139	 4668.770404	 4791.488133
  -13.312500	  -13.312500	  -13.312500	  -13.312500	  -13.312500	 5359.546875	 5501.197812	 5642.848750	 5784.499687	 5926.150625
   -7.862944	   -7.864212	   -7.865481	   -7.866750	   -7.868020	 3215.882132	 3301.272299	 3386.716491	 3472.214760	 3557.767157
   -5.812500	   -5.806830	   -5.801171	   -5.795522	   -5.789883	 2423.391250	 2482.075549	 2540.653111	 2599.124225	 2657.489183
   -6.000000	   -6.006056	   -6.012123	   -6.018201	   -6.024291	 2486.690000	 2554.856116	 2623.151176	 2691.575546	 2760.129595
   -6.426606	   -6.425458	   -6.424310	   -6.423164	   -6.422018	 2657.326009	 2725.191592	 2793.010095	 2860.781566	 2928.506055
   -6.305419	   -6.313195	   -6.320990	   -6.328803	   -6.336634	 2609.401823	 2680.485298	 2751.733641	 2823.147425	 2894.727228
   -5.645283	   -5.645283	   -5.645283	   -5.645283	   -5.645283	 2342.651132	 2404.633226	 2466.615321	 2528.597415	 2590.579509
   -5.904580	   -5.904580	   -5.904580	   -5.904580	   -5.904580	 2444.833702	 2509.372376	 2573.911050	 2638.449723	 2702.988397
   -6.130435	   -6.130435	   -6.130435	   -6.130435	   -6.130435	 2538.440000	 2604.911522	 2671.383043	 2737.854565	 2804.326087
   -7.460317	   -7.470200	   -7.480108	   -7.490041	   -7.500000	 3055.614286	 3142.187233	 3228.980273	 3315.994247	 3403.230000
   -7.153846	   -7.153846	   -7.153846	   -7.153846	   -7.153846	 2938.903077	 3016.315000	 3093.726923	 3171.138846	 3248.550769
   -7.427746	   -7.438497	   -7.449278	   -7.460089	   -7.470930	 3046.613179	 3129.917472	 3213.452857	 3297.220295	 3381.220756
   -6.679558	   -6.679558	   -6.679558	   -6.679558	   -6.679558	 2770.997735	 2840.151878	 2909.306022	 2978.460166	 3047.614309
   -9.353383	   -9.353383	   -9.353383	   -9.353383	   -9.353383	 3818.286015	 3916.993853	 4015.701692	 4114.409530	 4213.117368
   -8.506329	   -8.506329	   -8.506329	   -8.506329	   -8.506329	 3478.152278	 3569.121361	 3660.090443	 3751.059525	 3842.028608
  -15.852273	  -15.852273	  -15.852273	  -15.852273	  -15.852273	 6380.005000	 6544.505085	 6709.005170	 6873.505256	 7038.005341
   -8.596154	   -8.609954	   -8.623797	   -8.637683	   -8.651613	 3528.472308	 3623.394342	 3718.612120	 3814.127025	 3909.940452
  -14.408163	  -14.408163	  -14.408163	  -14.408163	  -14.408163	 5828.505918	 5977.744439	 6126.982959	 6276.221480	 6425.460000
  -17.975000	  -17.975000	  -17.975000	  -17.975000	  -17.975000	 7219.543750	 7405.875688	 7592.207625	 7778.539562	 7964.871500
  -16.611765	  -16.614703	  -16.617643	  -16.620585	  -16.623529	 6703.344353	 6878.222445	 7053.223742	 7228.348373	 7403.596471
  -82.550000	  -82.537489	  -82.524985	  -82.512489	  -82.500000	32713.346000	33563.159827	34412.458958	35261.243860	36109.515000
   42.195122	   42.453989	   42.716051	   42.981367	   43.250000	-16530.771707	-17077.746957	-17631.473631	-18192.077504	-18759.687500
  -34.127273	  -34.127273	  -34.127273	  -34.127273	  -34.127273	13595.031455	13952.379909	14309.728364	14667.076818	15024.425273
 -123.750000	 -123.750000	 -123.750000	 -123.750000	 -123.750000	48808.792500	50164.087500	51519.382500	52874.677500	54229.972500
 -108.315789	 -108.315789	 -108.315789	 -108.315789	 -108.315789	42789.972105	43955.933289	45121.894474	46287.855658	47453.816842
  -16.511278	  -16.480302	  -16.449440	  -16.418693	  -16.388060	 6620.879549	 6790.516486	 6959.523384	 7127.903744	 7295.661045
  288.625000	  279.914560	  271.712753	  263.976292	  256.666667	-113401.947500	-113038.419154	-112696.118516	-112373.238992	-112068.173333
   71.333333	   71.333333	   71.333333	   71.333333	   71.333333	-27872.950000	-28655.549167	-29438.148333	-30220.747500	-31003.346667
   26.900000	   26.897221	   26.894442	   26.891665	   26.888889	-10444.270000	-10738.197698	-11032.004103	-11325.689290	-11619.253333
  -23.682243	  -23.679905	  -23.677568	  -23.675232	  -23.672897	 9453.714860	 9720.728651	 9987.637273	10254.440786	10521.139252
  -15.538922	  -15.562220	  -15.585587	  -15.609024	  -15.632530	 6282.472036	 6467.684620	 6653.448286	 6839.765499	 7026.638735
  -13.404878	  -13.404878	  -13.404878	  -13.404878	  -13.404878	 5439.329415	 5591.309890	 5743.290366	 5895.270841	 6047.251317
  -11.341667	  -11.330912	  -11.320175	  -11.309456	  -11.298755	 4629.827250	 4756.279617	 4882.519506	 5008.547450	 5134.363983
   -7.338235	   -7.338235	   -7.338235	   -7.338235	   -7.338235	 3064.861618	 3151.947022	 3239.032426	 3326.117831	 3413.203235
  -40.625000	  -40.625000	  -40.625000	  -40.625000	  -40.625000	16126.058750	16607.426250	17088.793750	17570.161250	18051.528750
   45.662162	   45.511852	   45.362506	   45.214113	   45.066667	-17627.802703	-18118.327988	-18605.708489	-19089.974350	-19571.155333
   19.867470	   19.867470	   19.867470	   19.867470	   19.867470	-7543.052410	-7777.993554	-8012.934699	-8247.875843	-8482.816988
  101.531250	  101.531250	  101.531250	  101.531250	  101.531250	-39354.113438	-40538.241641	-41722.369844	-42906.498047	-44090.626250
 -150.818182	 -150.818182	 -150.818182	 -150.818182	 -150.818182	58808.311818	60616.799318	62425.286818	64233.774318	66042.261818
  -27.780488	  -27.782519	  -27.784552	  -27.786584	  -27.788618	10976.106829	11315.949260	11655.890976	11995.932022	12336.072439
  -22.134615	  -22.133012	  -22.131409	  -22.129807	  -22.128205	 8826.076731	 9094.421767	 9362.689267	 9630.879265	 9898.991795
  -94.729730	  -94.736484	  -94.743239	  -94.749997	  -94.756757	36625.078108	37777.524871	38930.300320	40083.404596	41236.837838
 -588.333333	 -613.945279	 -641.892705	 -672.510320	 -706.200000	225292.226667	242555.734373	261393.451763	282030.986590	304739.220000
  -80.266667	  -80.266667	  -80.266667	  -80.266667	  -80.266667	30960.524000	31953.070667	32945.617333	33938.164000	34930.710667
   37.271845	   37.271845	   37.271845	   37.271845	   37.271845	-13821.854951	-14286.786675	-14751.718398	-15216.650121	-15681.581845
   74.666667	   74.302440	   73.941749	   73.584542	   73.230769	-27984.690000	-28747.890502	-29503.682654	-30252.173802	-30993.469231
   42.217391	   42.217391	   42.217391	   42.217391	   42.217391	-15623.841739	-16129.499457	-16635.157174	-17140.814891	-17646.472609
   30.271318	   30.271318	   30.271318	   30.271318	   30.271318	-11071.439302	-11430.698953	-11789.958605	-12149.218256	-12508.477907
-3933.000000	-3933.000000	-3933.000000	-3933.000000	-3933.000000	1480951.829993	1527951.254993	1574950.680001	1621950.105001	1668949.530002
   74.653846	   74.649037	   74.644228	   74.639421	   74.634615	-27655.654615	-28554.931970	-29453.977663	-30352.791784	-31251.374423
   18.600000	   18.600000	   18.600000	   18.600000	   18.600000	-6549.506000	-6777.168000	-7004.830000	-7232.492000	-7460.154000
   11.309659	   11.309659	   11.309659	   11.309659	   11.309659	-3799.291903	-3937.773310	-4076.254716	-4214.736122	-4353.217528
   72.067797	   71.763714	   71.462186	   71.163181	   70.866667	-26480.110847	-27234.783957	-27983.117146	-28725.189972	-29461.080667
   17.770492	   17.769467	   17.768442	   17.767418	   17.766393	-6172.943279	-6391.277686	-6609.561883	-6827.795886	-7045.979713
   51.897727	   51.894885	   51.892044	   51.889204	   51.886364	-18763.171250	-19418.644825	-20073.974906	-20729.161540	-21384.204773
  126.078947	  126.913909	  127.760002	  128.617451	  129.486486	-46272.725000	-48206.808816	-50166.678131	-52152.852069	-54165.863784
  -34.057143	  -34.058928	  -34.060714	  -34.062499	  -34.064286	12999.008000	13431.268266	13863.619098	14296.060524	14728.592571
  -15.245399	  -15.245399	  -15.245399	  -15.245399	  -15.245399	 6050.435215	 6249.228604	 6448.021994	 6646.815383	 6845.608773
  220.772727	  220.772727	  220.772727	  220.772727	  220.772727	-80525.765909	-83391.975341	-86258.184773	-89124.394205	-91990.603636
 -147.323529	 -147.323529	 -147.323529	 -147.323529	 -147.323529	54473.843235	56415.314044	58356.784853	60298.255662	62239.726471
  -54.544444	  -54.544444	  -54.544444	  -54.544444	  -54.544444	20413.194444	21133.324750	21853.455056	22573.585361	23293.715667
  -31.448485	  -31.448485	  -31.448485	  -31.448485	  -31.448485	11985.178182	12397.968939	12810.759697	13223.550455	13636.341212
 -234.045455	 -234.034088	 -234.022723	 -234.011360	 -234.000000	86437.613636	89521.451000	92604.689398	95687.329007	98769.370000
  -23.484018	  -23.485159	  -23.486301	  -23.487443	  -23.488584	 9095.298219	 9402.011487	 9708.784278	10015.616607	10322.508493
 -206.800000	 -208.888892	 -211.020412	 -213.195880	 -215.416667	76494.420000	79992.439638	83561.843939	87204.840567	90923.729167
  -21.915612	  -21.892519	  -21.869474	  -21.846478	  -21.823529	 8525.910506	 8801.206217	 9075.924769	 9350.067978	 9623.637647
  -18.057762	  -18.074973	  -18.092218	  -18.109497	  -18.126812	 7108.023538	 7345.880342	 7584.212018	 7823.019990	 8062.305688
  -34.203947	  -34.147784	  -34.091804	  -34.036007	  -33.980392	13035.063816	13466.290874	13896.106548	14324.517757	14751.531373
  -13.312183	  -13.311548	  -13.310913	  -13.310279	  -13.309645	 5376.795406	 5548.930593	 5721.033141	 5893.103059	 6065.140355
  -26.098522	  -26.098522	  -26.098522	  -26.098522	  -26.098522	10071.522562	10410.967118	10750.411675	11089.856232	11429.300788
  -12.630273	  -12.621820	  -12.613380	  -12.604951	  -12.596535	 5120.040670	 5284.287751	 5448.301828	 5612.083394	 5775.632946
  -23.961353	  -23.932449	  -23.903615	  -23.874850	  -23.846154	 9288.261401	 9600.086960	 9911.163966	10221.495112	10531.083077
  -34.363636	  -34.363636	  -34.363636	  -34.363636	  -34.363636	13131.612727	13584.341591	14037.070455	14489.799318	14942.528182
  -11.178330	  -11.178330	  -11.178330	  -11.178330	  -11.178330	 4588.359571	 4736.137918	 4883.916264	 5031.694611	 5179.472957
  -20.196787	  -20.195783	  -20.194779	  -20.193775	  -20.192771	 7895.994458	 8161.610041	 8427.172935	 8692.683158	 8958.140723
  -25.656566	  -25.655303	  -25.654040	  -25.652777	  -25.651515	 9897.307879	10238.715034	10580.055082	10921.328044	11262.533939
  -39.234848	  -39.234848	  -39.234848	  -39.234848	  -39.234848	14915.323864	15429.051856	15942.779848	16456.507841	16970.235833
  -20.435146	  -20.436192	  -20.437238	  -20.438284	  -20.439331	 7984.284686	 8249.992178	 8515.753932	 8781.569965	 9047.440293
  -55.695652	  -55.695652	  -55.695652	  -55.695652	  -55.695652	20957.495652	21679.966522	22402.437391	23124.908261	23847.379130
  -35.482270	  -35.482270	  -35.482270	  -35.482270	  -35.482270	13533.804043	13985.506011	14437.207979	14888.909947	15340.611915
  -56.123596	  -56.281691	  -56.440679	  -56.600567	  -56.761364	21094.252022	21878.132495	22666.438721	23459.208286	24256.479205
  123.658537	  123.658537	  123.658537	  123.658537	  123.658537	-45026.227073	-46636.044573	-48245.862073	-49855.679573	-51465.497073
  -28.983051	  -28.983051	  -28.983051	  -28.983051	  -28.983051	11083.937288	11465.966653	11847.996017	12230.025381	12612.054746
  -64.450000	  -64.450000	  -64.450000	  -64.450000	  -64.450000	24073.018000	24922.684000	25772.350000	26622.016000	27471.682000
  -73.779412	  -73.779412	  -73.779412	  -73.779412	  -73.779412	27540.758971	28507.653713	29474.548456	30441.443199	31408.337941
  -47.300000	  -47.407746	  -47.515983	  -47.624715	  -47.733945	17786.898000	18451.403977	19118.941492	19789.531337	20463.194495
   83.046154	   83.366796	   83.689924	   84.015565	   84.343750	-29991.444462	-31211.648905	-32441.309436	-33680.536401	-34929.441875
  -18.567376	  -18.550930	  -18.534514	  -18.518126	  -18.501767	 7292.124965	 7529.688232	 7766.833478	 8003.561805	 8239.874311
  -77.521127	  -77.249124	  -76.979022	  -76.710802	  -76.444444	28935.250141	29849.122965	30756.606936	31657.768817	32552.674444
  -29.657303	  -29.658707	  -29.660112	  -29.661516	  -29.662921	11354.251629	11746.427656	12138.677881	12531.002326	12923.401011
  -26.822917	  -26.857888	  -26.892951	  -26.928105	  -26.963351	10309.828125	10672.133294	11035.381793	11399.577313	11764.723560
  -22.202479	  -22.226467	  -22.250509	  -22.274605	  -22.298755	 8609.292025	 8913.445191	 9218.282045	 9523.804895	 9830.016058
  -37.822695	  -37.755753	  -37.689047	  -37.622575	  -37.556338	14317.029220	14795.635631	15272.553228	15747.790932	16221.357606
  -47.227273	  -47.227273	  -47.227273	  -47.227273	  -47.227273	17799.320455	18412.248750	19025.177045	19638.105341	20251.033636
  -47.620370	  -47.620370	  -47.620370	  -47.620370	  -47.620370	17906.896019	18530.410116	19153.924213	19777.438310	20400.952407
  -25.245000	  -25.245000	  -25.245000	  -25.245000	  -25.245000	 9736.454500	10062.511275	10388.568050	10714.624825	11040.681600
  -69.000000	  -68.767678	  -68.536914	  -68.307693	  -68.080000	25853.750000	26648.955379	27438.826089	28223.415633	29002.776800
 -124.023810	 -124.023810	 -124.023810	 -124.023810	 -124.023810	46075.010000	47668.503393	49261.996786	50855.490179	52448.983571
  163.290323	  163.290323	  163.290323	  163.290323	  163.290323	-59399.330323	-61511.555645	-63623.780968	-65736.006290	-67848.231613
  -65.080000	  -65.080000	  -65.080000	  -65.080000	  -65.080000	24382.244800	25211.746700	26041.248600	26870.750500	27700.252400
   19.228682	   19.227713	   19.226744	   19.225775	   19.224806	-6584.875930	-6835.743914	-7086.561455	-7337.328569	-7588.045271
  -41.131148	  -41.133196	  -41.135245	  -41.137294	  -41.139344	15599.711311	16125.359119	16651.111605	17176.968801	17702.930738
   97.941176	   97.468435	   97.000188	   96.536372	   96.076923	-35492.095294	-36573.458675	-37644.541722	-38705.490342	-39756.447692
  -13.218085	  -13.218085	  -13.218085	  -13.218085	  -13.218085	 5330.656968	 5500.365824	 5670.074681	 5839.783537	 6009.492394
  -37.175182	  -37.175182	  -37.175182	  -37.175182	  -37.175182	14109.510584	14586.165109	15062.819635	15539.474161	16016.128686
 -118.159091	 -118.159091	 -118.159091	 -118.159091	 -118.159091	43876.138636	45398.723523	46921.308409	48443.893295	49966.478182
  123.261905	  123.261905	  123.261905	  123.261905	  123.261905	-44721.809762	-46348.345595	-47974.881429	-49601.417262	-51227.953095
  -44.641026	  -44.641026	  -44.641026	  -44.641026	  -44.641026	16803.129487	17392.247115	17981.364744	18570.482372	19159.600000
   25.721393	   25.721393	   25.721393	   25.721393	   25.721393	-8964.044428	-9305.995920	-9647.947413	-9989.898905	-10331.850398
  -50.623762	  -50.623762	  -50.623762	  -50.623762	  -50.623762	19029.169406	19700.849554	20372.529703	21044.209851	21715.890000
  151.294118	  151.301468	  151.308821	  151.316174	  151.323529	-55014.334706	-56992.437706	-58970.925201	-60949.797300	-62929.054118
   88.877193	   88.872806	   88.868419	   88.864034	   88.859649	-32049.719298	-33207.535424	-34365.123005	-35522.482111	-36679.612807
  -41.376000	  -41.376000	  -41.376000	  -41.376000	  -41.376000	15616.562960	16157.879160	16699.195360	17240.511560	17781.827760
 -234.047619	 -231.294124	 -228.604659	 -225.977017	 -223.409091	86375.553333	88332.778568	90244.489806	92112.256398	93937.576364
   63.125000	   63.125000	   63.125000	   63.125000	   63.125000	-22742.126250	-23547.951562	-24353.776875	-25159.602187	-25965.427500
 -554.333333	 -554.361103	 -554.388878	 -554.416658	 -554.444444	203985.303333	211112.473879	218241.072848	225371.100671	232502.557778
   30.850000	   30.850000	   30.850000	   30.850000	   30.850000	-10836.757500	-11234.022750	-11631.288000	-12028.553250	-12425.818500
 -400.923077	 -400.923077	 -400.923077	 -400.923077	 -400.923077	147402.953846	152684.155577	157965.357308	163246.559038	168527.760769
  384.846154	  384.846154	  384.846154	  384.846154	  384.846154	-140632.053077	-145702.393654	-150772.734231	-155843.074808	-160913.415385
   49.460000	   49.460000	   49.460000	   49.460000	   49.460000	-17681.354600	-18330.237500	-18979.120400	-19628.003300	-20276.886200
  -96.120000	  -96.120000	  -96.120000	  -96.120000	  -96.120000	35745.598800	36979.729300	38213.859800	39447.990300	40682.120800
  -65.259740	  -65.472314	  -65.686276	  -65.901640	  -66.118421	24435.335714	25373.698153	26318.190340	27268.872535	28225.805789
   53.808511	   53.668477	   53.529156	   53.390543	   53.252632	-19265.045532	-19917.589211	-20566.811360	-21212.737277	-21855.392000
 1679.333333	 1679.333333	 1679.333333	 1679.333333	 1679.333333	-614660.923333	-636441.861667	-658222.800001	-680003.738335	-701784.676669
  -30.131737	  -30.130239	  -30.128742	  -30.127245	  -30.125749	11526.220060	11916.366588	12306.435665	12696.427313	13086.341557
  -30.624242	  -30.577913	  -30.531723	  -30.485672	  -30.439759	11716.379879	12096.440406	12475.355291	12853.129707	13229.768795
  -16.100649	  -16.100649	  -16.100649	  -16.100649	  -16.100649	 6386.077662	 6597.041136	 6808.004610	 7018.968084	 7229.931558
  125.325000	  125.325000	  125.325000	  125.325000	  125.325000	-45317.867000	-46996.647875	-48675.428750	-50354.209625	-52032.990500
  -75.500000	  -75.503905	  -75.507811	  -75.511718	  -75.515625	28229.175000	29180.873695	30132.769287	31084.861837	32037.151406
  -23.601810	  -23.576279	  -23.550800	  -23.525374	  -23.500000	 9113.338959	 9424.981504	 9735.982876	10046.345052	10356.070000
  -79.276923	  -79.273076	  -79.269229	  -79.265383	  -79.261538	29495.154000	30557.155782	31618.951490	32680.541184	33741.924923
   53.666667	   53.663978	   53.661289	   53.658601	   53.655914	-19168.680000	-19882.801317	-20596.779577	-21310.614823	-22024.307097
  -18.735294	  -18.735294	  -18.735294	  -18.735294	  -18.735294	 7344.792941	 7594.246471	 7843.700000	 8093.153529	 8342.607059
  -20.140625	  -20.161285	  -20.181988	  -20.202737	  -20.223529	 7857.286875	 8130.339012	 8403.975638	 8678.198632	 8953.009882
 -121.023810	 -121.748505	 -122.481931	 -123.224245	 -123.975610	44897.595476	46754.253044	48633.276415	50535.072177	52460.056829
  -26.741117	  -26.739847	  -26.738578	  -26.737309	  -26.736041	10273.241574	10627.695166	10982.081562	11336.400781	11690.652843
  -44.982609	  -44.982609	  -44.982609	  -44.982609	  -44.982609	16983.445217	17576.058717	18168.672217	18761.285717	19353.899217
  119.511628	  119.517440	  119.523254	  119.529068	  119.534884	-43234.349767	-44818.746531	-46403.451555	-47988.464929	-49573.786744
  -87.724138	  -87.724138	  -87.724138	  -87.724138	  -87.724138	32637.876897	33787.674224	34937.471552	36087.268879	37237.066207
  -91.596491	  -91.596491	  -91.596491	  -91.596491	  -91.596491	34067.835965	35290.351140	36512.866316	37735.381491	38957.896667
  -71.424658	  -71.424658	  -71.424658	  -71.424658	  -71.424658	26627.893699	27585.191610	28542.489521	29499.787432	30457.085342
  -20.403226	  -20.424817	  -20.446457	  -20.468144	  -20.489879	 7967.919677	 8244.845944	 8522.383455	 8800.534237	 9079.300324
  -29.491228	  -29.534407	  -29.577713	  -29.621146	  -29.664706	11301.330877	11704.675235	12109.199540	12514.908978	12921.808765
  -41.238095	  -41.238095	  -41.238095	  -41.238095	  -41.238095	15575.651429	16125.282857	16674.914286	17224.545714	17774.177143
  -40.622047	  -40.622047	  -40.622047	  -40.622047	  -40.622047	15335.232520	15881.959055	16428.685591	16975.412126	17522.138661
 -176.793103	 -175.282055	 -173.796615	 -172.336138	 -170.900000	65215.451379	66998.913874	68752.150930	70475.924465	72170.971000
  -18.111888	  -18.112762	  -18.113636	  -18.114510	  -18.115385	 7112.032797	 7352.603701	 7593.220899	 7833.884405	 8074.594231
   28.537634	   28.538978	   28.540322	   28.541666	   28.543011	-9973.994946	-10355.464028	-10737.004882	-11118.617529	-11500.301989
  458.909091	  458.909091	  458.909091	  458.909091	  458.909091	-167804.640000	-173835.850227	-179867.060455	-185898.270682	-191929.480909
 -113.065217	 -113.065217	 -113.065217	 -113.065217	 -113.065217	41968.692391	43451.099891	44933.507391	46415.914891	47898.322391
  -32.864198	  -32.813560	  -32.763077	  -32.712750	  -32.662577	12507.216914	12924.792498	13341.085610	13756.102148	14169.847975
  -88.950000	  -88.950000	  -88.950000	  -88.950000	  -88.950000	33027.324000	34213.842125	35400.360250	36586.878375	37773.396500
