   -0.021583	   -0.021820	   -0.022057	   -0.022295	   -0.022532	  515.062734	  502.159520	  489.241865	  476.309745	  463.363137
   -0.020584	   -0.021021	   -0.021460	   -0.021898	   -0.022337	  514.634295	  501.818864	  488.990154	  476.148144	  463.292812
   -0.020771	   -0.021064	   -0.021357	   -0.021650	   -0.021943	  514.732393	  501.843467	  488.946502	  476.041489	  463.128422
   -0.021587	   -0.021673	   -0.021758	   -0.021844	   -0.021930	  515.074541	  502.109333	  489.127205	  476.128126	  463.112061
   -0.021387	   -0.021575	   -0.021762	   -0.021950	   -0.022138	  514.990796	  502.064438	  489.123672	  476.168474	  463.198819
   -0.021800	   -0.021933	   -0.022066	   -0.022199	   -0.022333	  515.143982	  502.204788	  489.246062	  476.267759	  463.269834
   -0.024005	   -0.023989	   -0.023974	   -0.023958	   -0.023943	  516.077532	  503.070947	  490.047493	  477.007135	  463.949840
   -0.026984	   -0.026731	   -0.026479	   -0.026227	   -0.025974	  517.344327	  504.207612	  491.068635	  477.927397	  464.783896
   -0.027528	   -0.027944	   -0.028359	   -0.028774	   -0.029188	  517.521382	  504.656146	  491.804378	  478.966057	  466.141164
   -0.028520	   -0.028886	   -0.029252	   -0.029617	   -0.029982	  517.915947	  505.031521	  492.160634	  479.303266	  466.459394
   -0.028697	   -0.028827	   -0.028958	   -0.029088	   -0.029218	  518.019609	  505.012036	  492.031517	  479.077969	  466.151307
   -0.026946	   -0.026910	   -0.026873	   -0.026836	   -0.026800	  517.307455	  504.247942	  491.201530	  478.168198	  465.147928
   -0.022187	   -0.022433	   -0.022679	   -0.022926	   -0.023172	  515.295557	  502.390459	  489.481199	  476.567774	  463.650184
   -0.020192	   -0.020381	   -0.020570	   -0.020760	   -0.020950	  514.470416	  501.551152	  488.618788	  475.673304	  462.714679
   -0.019588	   -0.019829	   -0.020069	   -0.020310	   -0.020551	  514.227280	  501.322872	  488.406624	  475.478518	  462.538540
   -0.020396	   -0.020529	   -0.020662	   -0.020795	   -0.020929	  514.576095	  501.637263	  488.677628	  475.697138	  462.695744
   -0.019188	   -0.019574	   -0.019960	   -0.020347	   -0.020734	  514.060168	  501.224433	  488.371649	  475.501783	  462.614801
   -0.019384	   -0.019572	   -0.019760	   -0.019947	   -0.020136	  514.162102	  501.233831	  488.289885	  475.330236	  462.354854
   -0.018981	   -0.019317	   -0.019653	   -0.019990	   -0.020327	  513.973047	  501.113997	  488.237925	  475.344797	  462.434580
   -0.019181	   -0.019568	   -0.019956	   -0.020345	   -0.020734	  514.056763	  501.220572	  488.369899	  475.504719	  462.625008
   -0.019792	   -0.019828	   -0.019864	   -0.019900	   -0.019936	  514.323081	  501.337461	  488.333656	  475.311628	  462.271340
   -0.019996	   -0.020028	   -0.020060	   -0.020092	   -0.020124	  514.418324	  501.433749	  488.425815	  475.394461	  462.339623
   -0.019596	   -0.019730	   -0.019863	   -0.019997	   -0.020132	  514.240954	  501.300265	  488.338773	  475.356427	  462.353177
   -0.019592	   -0.019777	   -0.019963	   -0.020149	   -0.020335	  514.249312	  501.323944	  488.380324	  475.418412	  462.438170
   -0.018985	   -0.019269	   -0.019553	   -0.019838	   -0.020124	  513.964636	  501.090261	  488.196330	  475.282799	  462.349623
   -0.019384	   -0.019470	   -0.019556	   -0.019643	   -0.019729	  514.141908	  501.177451	  488.194796	  475.193905	  462.174739
   -0.019792	   -0.019928	   -0.020063	   -0.020199	   -0.020335	  514.333081	  501.386787	  488.422264	  475.439472	  462.438373
   -0.019588	   -0.019874	   -0.020160	   -0.020447	   -0.020734	  514.257671	  501.372553	  488.470425	  475.551255	  462.615008
   -0.019384	   -0.019571	   -0.019758	   -0.019944	   -0.020132	  514.152102	  501.227886	  488.286716	  475.328558	  462.353379
   -0.020388	   -0.020423	   -0.020459	   -0.020495	   -0.020530	  514.602475	  501.611568	  488.602474	  475.575154	  462.529569
   -0.019788	   -0.019876	   -0.019964	   -0.020052	   -0.020140	  514.331027	  501.360919	  488.375186	  475.373800	  462.356734
   -0.019388	   -0.019625	   -0.019861	   -0.020098	   -0.020335	  514.153726	  501.252887	  488.335071	  475.400244	  462.448373
   -0.019584	   -0.019672	   -0.019760	   -0.019848	   -0.019936	  514.235639	  501.268072	  488.284884	  475.286050	  462.271539
   -0.019188	   -0.019522	   -0.019856	   -0.020191	   -0.020526	  514.059976	  501.206405	  488.333260	  475.440494	  462.528065
   -0.019992	   -0.019979	   -0.019966	   -0.019953	   -0.019940	  514.426649	  501.413632	  488.383741	  475.336941	  462.273200
   -0.019200	   -0.019382	   -0.019563	   -0.019746	   -0.019928	  514.055184	  501.143487	  488.208403	  475.249869	  462.267820
   -0.019784	   -0.019922	   -0.020059	   -0.020197	   -0.020335	  514.319766	  501.375362	  488.415314	  475.439593	  462.448170
   -0.019784	   -0.019923	   -0.020061	   -0.020200	   -0.020339	  514.339568	  501.386310	  488.418690	  475.436685	  462.440271
   -0.018981	   -0.019420	   -0.019858	   -0.020298	   -0.020738	  513.973047	  501.156389	  488.326499	  475.483358	  462.626943
   -0.018789	   -0.019274	   -0.019760	   -0.020246	   -0.020734	  513.882664	  501.093909	  488.288071	  475.465115	  462.625008
   -0.019584	   -0.019822	   -0.020061	   -0.020299	   -0.020538	  514.235835	  501.334361	  488.418480	  475.488169	  462.543402
   -0.019392	   -0.019677	   -0.019962	   -0.020248	   -0.020534	  514.155738	  501.277150	  488.380272	  475.465063	  462.531485
   -0.019596	   -0.019730	   -0.019863	   -0.019997	   -0.020132	  514.240954	  501.297771	  488.333781	  475.348933	  462.343177
   -0.019177	   -0.019417	   -0.019658	   -0.019899	   -0.020140	  514.064966	  501.155728	  488.234655	  475.301729	  462.356935
   -0.018977	   -0.019419	   -0.019861	   -0.020303	   -0.020746	  513.981458	  501.160362	  488.329861	  475.489947	  462.640608
   -0.018992	   -0.019227	   -0.019462	   -0.019697	   -0.019932	  513.968007	  501.072836	  488.158120	  475.223816	  462.269878
   -0.019396	   -0.019729	   -0.020062	   -0.020395	   -0.020730	  514.147363	  501.297633	  488.427042	  475.535540	  462.623074
   -0.019788	   -0.019825	   -0.019862	   -0.019899	   -0.019936	  514.331225	  501.341675	  488.335233	  475.311865	  462.271539
   -0.019588	   -0.019724	   -0.019860	   -0.019995	   -0.020132	  514.247476	  501.301279	  488.336856	  475.354168	  462.353177
   -0.019580	   -0.019816	   -0.020053	   -0.020289	   -0.020526	  514.244196	  501.340613	  488.420052	  475.482478	  462.527860
   -0.019192	   -0.019425	   -0.019657	   -0.019890	   -0.020124	  514.061775	  501.166961	  488.250036	  475.310942	  462.349623
   -0.019181	   -0.019469	   -0.019757	   -0.020046	   -0.020335	  514.066571	  501.183693	  488.286383	  475.374618	  462.448373
   -0.019396	   -0.019580	   -0.019763	   -0.019947	   -0.020132	  514.147169	  501.229946	  488.291906	  475.333000	  462.353177
   -0.019400	   -0.019630	   -0.019861	   -0.020091	   -0.020323	  514.138988	  501.249550	  488.335434	  475.396570	  462.432887
   -0.019388	   -0.019574	   -0.019759	   -0.019945	   -0.020132	  514.143726	  501.220993	  488.280016	  475.320757	  462.343177
   -0.019384	   -0.019669	   -0.019954	   -0.020240	   -0.020526	  514.152296	  501.273652	  488.376724	  475.461473	  462.527860
   -0.019392	   -0.019626	   -0.019861	   -0.020096	   -0.020331	  514.155544	  501.255149	  488.335203	  475.395660	  462.436476
   -0.019592	   -0.019826	   -0.020060	   -0.020295	   -0.020530	  514.239312	  501.341247	  488.423631	  475.486420	  462.529569
   -0.019792	   -0.019828	   -0.019864	   -0.019900	   -0.019936	  514.332883	  501.342420	  488.333768	  475.306886	  462.261738
   -0.019392	   -0.019577	   -0.019761	   -0.019946	   -0.020132	  514.145544	  501.226790	  488.288508	  475.330651	  462.353177
   -0.019584	   -0.019723	   -0.019862	   -0.020001	   -0.020140	  514.245639	  501.294975	  488.329952	  475.350546	  462.356734
   -0.019185	   -0.019422	   -0.019660	   -0.019897	   -0.020136	  514.058561	  501.156208	  488.238159	  475.304384	  462.354854
   -0.019584	   -0.019773	   -0.019961	   -0.020150	   -0.020339	  514.245835	  501.315999	  488.371775	  475.413139	  462.440068
   -0.019181	   -0.019470	   -0.019759	   -0.020049	   -0.020339	  514.076763	  501.187347	  488.284773	  475.369020	  462.440068
   -0.019384	   -0.019572	   -0.019760	   -0.019947	   -0.020136	  514.152102	  501.228775	  488.289776	  475.335079	  462.364653
   -0.018785	   -0.019171	   -0.019557	   -0.019944	   -0.020331	  513.891091	  501.055539	  488.202942	  475.333266	  462.446476
   -0.019584	   -0.019819	   -0.020055	   -0.020290	   -0.020526	  514.225835	  501.328765	  488.413438	  475.479816	  462.527860
   -0.019596	   -0.019682	   -0.019768	   -0.019854	   -0.019940	  514.240954	  501.273970	  488.288776	  475.285332	  462.263599
   -0.019384	   -0.019722	   -0.020060	   -0.020399	   -0.020738	  514.162102	  501.300027	  488.423492	  475.532472	  462.626943
   -0.019400	   -0.019532	   -0.019664	   -0.019796	   -0.019928	  514.148988	  501.211428	  488.250489	  475.266107	  462.258218
   -0.018992	   -0.019327	   -0.019663	   -0.019999	   -0.020335	  513.978197	  501.120789	  488.245076	  475.351019	  462.438577
   -0.018396	   -0.018979	   -0.019563	   -0.020148	   -0.020734	  513.718610	  500.972316	  488.206349	  475.420664	  462.615215
   -0.019000	   -0.019333	   -0.019666	   -0.020000	   -0.020335	  513.981380	  501.127030	  488.251813	  475.355679	  462.438577
   -0.018596	   -0.019179	   -0.019763	   -0.020347	   -0.020933	  513.792400	  501.050977	  488.289889	  475.509090	  462.708535
   -0.019200	   -0.019483	   -0.019767	   -0.020051	   -0.020335	  514.055376	  501.182455	  488.288681	  475.374004	  462.438373
   -0.019000	   -0.019432	   -0.019865	   -0.020299	   -0.020734	  513.971380	  501.163725	  488.335180	  475.485694	  462.615215
   -0.019196	   -0.019582	   -0.019968	   -0.020355	   -0.020742	  514.063575	  501.230502	  488.380384	  475.513188	  462.628879
   -0.018992	   -0.019331	   -0.019669	   -0.020008	   -0.020347	  513.968007	  501.113728	  488.244996	  475.361784	  462.464069
   -0.019196	   -0.019530	   -0.019864	   -0.020199	   -0.020534	  514.053575	  501.202568	  488.331983	  475.441774	  462.531896
   -0.019400	   -0.019634	   -0.019869	   -0.020104	   -0.020339	  514.148794	  501.253576	  488.338813	  475.404461	  462.450475
   -0.019200	   -0.019532	   -0.019864	   -0.020197	   -0.020530	  514.065376	  501.214802	  488.342083	  475.447161	  462.529980
   -0.019800	   -0.020083	   -0.020366	   -0.020649	   -0.020933	  514.326596	  501.453402	  488.559361	  475.644422	  462.708535
   -0.019204	   -0.019486	   -0.019768	   -0.020051	   -0.020335	  514.056985	  501.185685	  488.292255	  475.376639	  462.438780
   -0.019592	   -0.019876	   -0.020160	   -0.020445	   -0.020730	  514.249312	  501.369701	  488.470522	  475.551730	  462.613281
   -0.019000	   -0.019432	   -0.019865	   -0.020299	   -0.020734	  513.971380	  501.163725	  488.335180	  475.485694	  462.615215
   -0.018789	   -0.019177	   -0.019565	   -0.019954	   -0.020343	  513.892852	  501.054397	  488.201448	  475.333979	  462.451966
   -0.019392	   -0.019679	   -0.019967	   -0.020254	   -0.020542	  514.165544	  501.281652	  488.382038	  475.466672	  462.535525
   -0.018792	   -0.019177	   -0.019563	   -0.019948	   -0.020335	  513.894238	  501.057845	  488.203130	  475.330054	  462.438577
   -0.019400	   -0.019582	   -0.019765	   -0.019948	   -0.020132	  514.148794	  501.233197	  488.295500	  475.335647	  462.353580
   -0.018804	   -0.019134	   -0.019464	   -0.019796	   -0.020128	  513.879340	  501.032051	  488.160063	  475.263304	  462.341702
   -0.018796	   -0.019230	   -0.019664	   -0.020099	   -0.020534	  513.886001	  501.074447	  488.243275	  475.392440	  462.521896
   -0.018996	   -0.019381	   -0.019766	   -0.020152	   -0.020538	  513.979978	  501.143425	  488.288538	  475.415279	  462.523607
   -0.018785	   -0.019170	   -0.019555	   -0.019941	   -0.020327	  513.891091	  501.054582	  488.199755	  475.326569	  462.434986
   -0.019392	   -0.019578	   -0.019763	   -0.019949	   -0.020136	  514.155544	  501.232831	  488.291872	  475.332626	  462.355056
   -0.018992	   -0.019326	   -0.019661	   -0.019995	   -0.020331	  513.968007	  501.117036	  488.246487	  475.356316	  462.446476
   -0.019192	   -0.019476	   -0.019761	   -0.020046	   -0.020331	  514.061775	  501.184892	  488.288445	  475.372389	  462.436679
   -0.019392	   -0.019476	   -0.019560	   -0.019645	   -0.019729	  514.155544	  501.189127	  488.201921	  475.193874	  462.164936
   -0.019381	   -0.019666	   -0.019953	   -0.020239	   -0.020526	  514.150480	  501.270403	  488.373331	  475.459230	  462.528065
   -0.019400	   -0.019729	   -0.020059	   -0.020390	   -0.020721	  514.148988	  501.298814	  488.423944	  475.524306	  462.599829
   -0.019185	   -0.019421	   -0.019657	   -0.019894	   -0.020132	  514.068369	  501.165074	  488.244799	  475.307511	  462.353177
   -0.018789	   -0.019074	   -0.019360	   -0.019646	   -0.019932	  513.872664	  500.999469	  488.107998	  475.198214	  462.270078
   -0.019588	   -0.019625	   -0.019662	   -0.019700	   -0.019737	  514.237476	  501.248083	  488.241798	  475.218588	  462.178421
   -0.019588	   -0.019624	   -0.019660	   -0.019697	   -0.019733	  514.227476	  501.242109	  488.238562	  475.216798	  462.176777
   -0.019177	   -0.019465	   -0.019753	   -0.020042	   -0.020331	  514.064966	  501.179565	  488.279733	  475.365446	  462.436679
   -0.019392	   -0.019577	   -0.019761	   -0.019946	   -0.020132	  514.155544	  501.234296	  488.293515	  475.333157	  462.353177
   -0.019584	   -0.019720	   -0.019856	   -0.019991	   -0.020128	  514.235639	  501.291921	  488.329984	  475.349790	  462.351299
   -0.019784	   -0.019823	   -0.019862	   -0.019901	   -0.019940	  514.339371	  501.344362	  488.335046	  475.311400	  462.273400
   -0.018985	   -0.019370	   -0.019756	   -0.020143	   -0.020530	  513.974636	  501.139062	  488.286451	  475.416768	  462.529980
   -0.018977	   -0.019268	   -0.019560	   -0.019852	   -0.020144	  513.981268	  501.091496	  488.191138	  475.280182	  462.358614
   -0.019988	   -0.019975	   -0.019962	   -0.019949	   -0.019936	  514.414975	  501.404451	  488.377059	  475.332766	  462.271539
   -0.019584	   -0.019573	   -0.019561	   -0.019549	   -0.019537	  514.245639	  501.231346	  488.201478	  475.156008	  462.094908
   -0.019592	   -0.019728	   -0.019863	   -0.019999	   -0.020136	  514.249312	  501.303083	  488.338623	  475.355893	  462.354854
   -0.019388	   -0.019572	   -0.019755	   -0.019939	   -0.020124	  514.153726	  501.231475	  488.288407	  475.324474	  462.339623
   -0.019396	   -0.019529	   -0.019662	   -0.019795	   -0.019928	  514.147169	  501.208073	  488.246887	  475.263555	  462.258019
   -0.019784	   -0.019821	   -0.019858	   -0.019895	   -0.019932	  514.329173	  501.339763	  488.333466	  475.310249	  462.270078
   -0.019596	   -0.019629	   -0.019662	   -0.019696	   -0.019729	  514.240758	  501.257405	  488.251988	  475.224452	  462.174739
   -0.019388	   -0.019523	   -0.019658	   -0.019793	   -0.019928	  514.153532	  501.211461	  488.249881	  475.268748	  462.268019
   -0.019188	   -0.019327	   -0.019466	   -0.019605	   -0.019745	  514.069784	  501.121828	  488.159513	  475.182816	  462.191711
   -0.019577	   -0.019716	   -0.019856	   -0.019996	   -0.020136	  514.242165	  501.292452	  488.329675	  475.353816	  462.364854
   -0.019185	   -0.019373	   -0.019562	   -0.019751	   -0.019940	  514.058177	  501.133577	  488.194597	  475.241213	  462.273400
   -0.019188	   -0.019472	   -0.019757	   -0.020042	   -0.020327	  514.059976	  501.183016	  488.286493	  475.370363	  462.434580
   -0.019596	   -0.019679	   -0.019762	   -0.019845	   -0.019928	  514.230758	  501.270741	  488.288650	  475.284428	  462.258019
   -0.019996	   -0.020077	   -0.020159	   -0.020241	   -0.020323	  514.418524	  501.457179	  488.472466	  475.464322	  462.432684
   -0.019580	   -0.019668	   -0.019756	   -0.019844	   -0.019932	  514.234000	  501.266374	  488.283130	  475.284242	  462.269679
   -0.019584	   -0.019723	   -0.019862	   -0.020001	   -0.020140	  514.245835	  501.295124	  488.330053	  475.350597	  462.356734
   -0.019188	   -0.019375	   -0.019562	   -0.019749	   -0.019936	  514.059976	  501.138335	  488.199737	  475.244150	  462.271539
   -0.019996	   -0.019979	   -0.019962	   -0.019945	   -0.019928	  514.418324	  501.411383	  488.382390	  475.331287	  462.258019
   -0.019381	   -0.019469	   -0.019557	   -0.019645	   -0.019733	  514.150286	  501.182764	  488.199625	  475.200840	  462.186382
   -0.019584	   -0.019672	   -0.019760	   -0.019848	   -0.019936	  514.245835	  501.275724	  488.289990	  475.288605	  462.271539
   -0.019181	   -0.019369	   -0.019558	   -0.019747	   -0.019936	  514.076763	  501.144612	  488.198074	  475.237124	  462.261738
   -0.019588	   -0.019624	   -0.019660	   -0.019697	   -0.019733	  514.247280	  501.256923	  488.248379	  475.221611	  462.176580
   -0.018977	   -0.019266	   -0.019556	   -0.019846	   -0.020136	  513.981268	  501.096912	  488.199404	  475.288725	  462.364854
   -0.019388	   -0.019473	   -0.019558	   -0.019644	   -0.019729	  514.153726	  501.188264	  488.203309	  475.198815	  462.174739
   -0.018985	   -0.019272	   -0.019559	   -0.019847	   -0.020136	  513.974636	  501.095795	  488.201236	  475.290933	  462.364854
   -0.019584	   -0.019671	   -0.019758	   -0.019845	   -0.019932	  514.235639	  501.269595	  488.286642	  475.286748	  462.269878
   -0.019388	   -0.019474	   -0.019560	   -0.019647	   -0.019733	  514.143726	  501.179280	  488.196632	  475.195745	  462.176580
   -0.019384	   -0.019522	   -0.019660	   -0.019798	   -0.019936	  514.161908	  501.212816	  488.248076	  475.267660	  462.271539
   -0.019384	   -0.019620	   -0.019855	   -0.020091	   -0.020327	  514.162102	  501.257708	  488.335049	  475.394087	  462.434783
   -0.019588	   -0.019673	   -0.019758	   -0.019843	   -0.019928	  514.247476	  501.279402	  488.291831	  475.284718	  462.258019
   -0.019185	   -0.019275	   -0.019365	   -0.019455	   -0.019545	  514.048177	  501.080345	  488.099476	  475.105554	  462.098556
   -0.019580	   -0.019570	   -0.019559	   -0.019548	   -0.019537	  514.243804	  501.228018	  488.197956	  475.153594	  462.094908
   -0.019788	   -0.019824	   -0.019860	   -0.019896	   -0.019932	  514.331225	  501.340658	  488.331904	  475.304923	  462.259679
   -0.019384	   -0.019520	   -0.019656	   -0.019792	   -0.019928	  514.151908	  501.205808	  488.241486	  475.258902	  462.258019
   -0.019188	   -0.019324	   -0.019460	   -0.019597	   -0.019733	  514.059976	  501.116499	  488.154800	  475.174840	  462.176580
   -0.019788	   -0.019922	   -0.020057	   -0.020192	   -0.020327	  514.321225	  501.378873	  488.417011	  475.435594	  462.434580
   -0.019181	   -0.019419	   -0.019658	   -0.019896	   -0.020136	  514.066763	  501.160428	  488.239681	  475.304498	  462.354854
   -0.019600	   -0.019780	   -0.019961	   -0.020142	   -0.020323	  514.232792	  501.319894	  488.382324	  475.420012	  462.432887
   -0.019992	   -0.019976	   -0.019960	   -0.019944	   -0.019928	  514.416649	  501.408175	  488.378945	  475.328910	  462.258019
   -0.018992	   -0.019228	   -0.019464	   -0.019700	   -0.019936	  513.978007	  501.078829	  488.161385	  475.225634	  462.271539
   -0.019588	   -0.019775	   -0.019961	   -0.020148	   -0.020335	  514.237476	  501.315665	  488.376900	  475.421147	  462.448373
   -0.019392	   -0.019579	   -0.019765	   -0.019952	   -0.020140	  514.145350	  501.223666	  488.285024	  475.329391	  462.356734
   -0.019388	   -0.019528	   -0.019668	   -0.019808	   -0.019948	  514.153726	  501.206647	  488.246501	  475.273266	  462.286924
   -0.019588	   -0.019775	   -0.019961	   -0.020148	   -0.020335	  514.237476	  501.315617	  488.376802	  475.420998	  462.448170
   -0.019384	   -0.019574	   -0.019764	   -0.019954	   -0.020144	  514.162102	  501.230853	  488.286501	  475.329028	  462.358412
   -0.019992	   -0.019877	   -0.019761	   -0.019646	   -0.019530	  514.416649	  501.363988	  488.290602	  475.196442	  462.081459
   -0.019988	   -0.019924	   -0.019861	   -0.019797	   -0.019733	  514.414775	  501.382481	  488.332042	  475.263421	  462.176580
   -0.019381	   -0.019669	   -0.019957	   -0.020245	   -0.020534	  514.160480	  501.274915	  488.374910	  475.460442	  462.531485
   -0.019185	   -0.019370	   -0.019556	   -0.019742	   -0.019928	  514.058177	  501.138031	  488.199649	  475.242991	  462.268019
   -0.019396	   -0.019481	   -0.019566	   -0.019651	   -0.019737	  514.147169	  501.184224	  488.201781	  475.199795	  462.178224
   -0.019381	   -0.019471	   -0.019561	   -0.019651	   -0.019741	  514.140092	  501.169706	  488.186285	  475.189811	  462.180263
   -0.019188	   -0.019324	   -0.019460	   -0.019597	   -0.019733	  514.059784	  501.113859	  488.149708	  475.167295	  462.166580
   -0.018996	   -0.019280	   -0.019565	   -0.019850	   -0.020136	  513.969788	  501.095454	  488.201551	  475.288032	  462.354854
   -0.019588	   -0.019625	   -0.019662	   -0.019700	   -0.019737	  514.247476	  501.255539	  488.246706	  475.220946	  462.178224
   -0.019988	   -0.019974	   -0.019960	   -0.019946	   -0.019932	  514.414975	  501.405932	  488.378727	  475.333322	  462.269679
   -0.019185	   -0.019423	   -0.019662	   -0.019900	   -0.020140	  514.068561	  501.164700	  488.246424	  475.313710	  462.366532
   -0.018985	   -0.019171	   -0.019358	   -0.019546	   -0.019733	  513.974636	  501.050543	  488.109492	  475.151450	  462.176382
   -0.019784	   -0.019770	   -0.019757	   -0.019743	   -0.019729	  514.319173	  501.310340	  488.283349	  475.238161	  462.174739
   -0.019185	   -0.019421	   -0.019657	   -0.019894	   -0.020132	  514.068369	  501.165074	  488.244799	  475.307511	  462.353177
   -0.019784	   -0.019923	   -0.020061	   -0.020200	   -0.020339	  514.329568	  501.381253	  488.418581	  475.441527	  462.450068
   -0.019992	   -0.019976	   -0.019960	   -0.019944	   -0.019928	  514.416649	  501.408175	  488.378945	  475.328910	  462.258019
   -0.019988	   -0.019974	   -0.019960	   -0.019946	   -0.019932	  514.414775	  501.403337	  488.373734	  475.325927	  462.259878
   -0.019381	   -0.019520	   -0.019660	   -0.019800	   -0.019940	  514.160092	  501.208039	  488.242919	  475.264712	  462.273400
   -0.019185	   -0.019321	   -0.019458	   -0.019596	   -0.019733	  514.068369	  501.120812	  488.156317	  475.174852	  462.176382
   -0.019388	   -0.019622	   -0.019857	   -0.020092	   -0.020327	  514.143726	  501.248295	  488.333323	  475.398766	  462.444580
   -0.019177	   -0.019369	   -0.019560	   -0.019752	   -0.019944	  514.074966	  501.140834	  488.196181	  475.240994	  462.275261
   -0.019580	   -0.019669	   -0.019758	   -0.019847	   -0.019936	  514.244000	  501.269955	  488.281580	  475.278848	  462.261738
   -0.019384	   -0.019471	   -0.019558	   -0.019646	   -0.019733	  514.141908	  501.176020	  488.193224	  475.193487	  462.176777
   -0.019396	   -0.019530	   -0.019664	   -0.019798	   -0.019932	  514.147169	  501.206601	  488.245231	  475.263007	  462.259878
   -0.019196	   -0.019279	   -0.019363	   -0.019446	   -0.019530	  514.063191	  501.100980	  488.116690	  475.110267	  462.081654
   -0.019580	   -0.019670	   -0.019760	   -0.019850	   -0.019940	  514.243804	  501.270779	  488.284716	  475.285597	  462.273400
   -0.019588	   -0.019674	   -0.019760	   -0.019846	   -0.019932	  514.247476	  501.277927	  488.290171	  475.284167	  462.259878
   -0.019188	   -0.019472	   -0.019757	   -0.020042	   -0.020327	  514.059976	  501.183016	  488.286493	  475.370363	  462.434580
   -0.019188	   -0.019473	   -0.019759	   -0.020045	   -0.020331	  514.059976	  501.181562	  488.284867	  475.369851	  462.436476
   -0.019181	   -0.019320	   -0.019459	   -0.019598	   -0.019737	  514.066571	  501.116044	  488.151160	  475.171894	  462.178224
   -0.018992	   -0.019128	   -0.019265	   -0.019401	   -0.019537	  513.977817	  501.034468	  488.072892	  475.093052	  462.094908
   -0.019792	   -0.019827	   -0.019862	   -0.019897	   -0.019932	  514.332883	  501.343849	  488.335334	  475.307291	  462.259679
   -0.018985	   -0.019270	   -0.019555	   -0.019841	   -0.020128	  513.974636	  501.096262	  488.199608	  475.284633	  462.351299
   -0.019388	   -0.019472	   -0.019556	   -0.019641	   -0.019725	  514.143726	  501.179744	  488.194979	  475.189380	  462.162899
   -0.019584	   -0.019671	   -0.019758	   -0.019845	   -0.019932	  514.235639	  501.269595	  488.286642	  475.286748	  462.269878
   -0.019984	   -0.019871	   -0.019757	   -0.019644	   -0.019530	  514.412902	  501.357263	  488.283501	  475.191579	  462.081459
   -0.019776	   -0.019768	   -0.019761	   -0.019753	   -0.019745	  514.335861	  501.315467	  488.284685	  475.243503	  462.191909
   -0.019384	   -0.019424	   -0.019463	   -0.019502	   -0.019541	  514.161908	  501.167098	  488.157981	  475.134534	  462.096732
   -0.019584	   -0.019671	   -0.019758	   -0.019845	   -0.019932	  514.245444	  501.276951	  488.291549	  475.289202	  462.269878
   -0.019388	   -0.019426	   -0.019463	   -0.019500	   -0.019537	  514.143532	  501.156790	  488.153160	  475.132609	  462.095104
   -0.019580	   -0.019670	   -0.019760	   -0.019850	   -0.019940	  514.244000	  501.273375	  488.289713	  475.292995	  462.283200
   -0.020184	   -0.020070	   -0.019957	   -0.019843	   -0.019729	  514.496631	  501.443375	  488.371999	  475.282467	  462.174739
   -0.019381	   -0.019421	   -0.019461	   -0.019501	   -0.019541	  514.160286	  501.163934	  488.154570	  475.132176	  462.096732
   -0.019181	   -0.019321	   -0.019461	   -0.019601	   -0.019741	  514.066571	  501.114567	  488.149494	  475.171334	  462.180066
   -0.019377	   -0.019468	   -0.019559	   -0.019650	   -0.019741	  514.148470	  501.176450	  488.192687	  475.197166	  462.189868
   -0.019381	   -0.019469	   -0.019557	   -0.019645	   -0.019733	  514.150286	  501.180268	  488.194631	  475.193345	  462.176382
   -0.019588	   -0.019623	   -0.019659	   -0.019694	   -0.019729	  514.237280	  501.250949	  488.245143	  475.219821	  462.174936
   -0.019588	   -0.019673	   -0.019758	   -0.019843	   -0.019928	  514.227476	  501.266886	  488.286809	  475.287202	  462.268019
   -0.019181	   -0.019322	   -0.019463	   -0.019604	   -0.019745	  514.056571	  501.108082	  488.147820	  475.175767	  462.191909
   -0.019580	   -0.019620	   -0.019661	   -0.019701	   -0.019741	  514.244000	  501.247553	  488.238095	  475.215605	  462.180066
   -0.019996	   -0.019931	   -0.019867	   -0.019802	   -0.019737	  514.418324	  501.387514	  488.337256	  475.267507	  462.178224
   -0.019392	   -0.019527	   -0.019662	   -0.019797	   -0.019932	  514.145544	  501.205889	  488.246723	  475.268001	  462.269679
   -0.019792	   -0.019778	   -0.019765	   -0.019751	   -0.019737	  514.322883	  501.314054	  488.287060	  475.241861	  462.178421
   -0.019592	   -0.019829	   -0.020067	   -0.020304	   -0.020542	  514.239312	  501.339385	  488.423763	  475.492417	  462.545319
   -0.019788	   -0.019726	   -0.019663	   -0.019600	   -0.019537	  514.331027	  501.294807	  488.241736	  475.171781	  462.084908
   -0.020196	   -0.019981	   -0.019766	   -0.019550	   -0.019334	  514.501906	  501.407519	  488.292436	  475.156607	  461.999982
   -0.018992	   -0.019277	   -0.019561	   -0.019846	   -0.020132	  513.968007	  501.093689	  488.199808	  475.286319	  462.353177
   -0.019196	   -0.019477	   -0.019758	   -0.020040	   -0.020323	  514.053575	  501.183577	  488.290172	  475.373297	  462.432887
   -0.019185	   -0.019422	   -0.019660	   -0.019897	   -0.020136	  514.058177	  501.158455	  488.243047	  475.311923	  462.365056
   -0.019185	   -0.019322	   -0.019460	   -0.019599	   -0.019737	  514.068177	  501.119236	  488.154649	  475.174386	  462.178421
   -0.019384	   -0.019521	   -0.019658	   -0.019795	   -0.019932	  514.151908	  501.204336	  488.239829	  475.258354	  462.259878
   -0.019384	   -0.019373	   -0.019361	   -0.019350	   -0.019338	  514.151908	  501.140214	  488.112949	  475.070084	  462.011593
   -0.018589	   -0.018924	   -0.019260	   -0.019596	   -0.019932	  513.798913	  500.944146	  488.071078	  475.179668	  462.269878
   -0.018781	   -0.019069	   -0.019358	   -0.019647	   -0.019936	  513.879143	  500.998958	  488.104346	  475.195280	  462.271738
   -0.019381	   -0.019619	   -0.019857	   -0.020096	   -0.020335	  514.150480	  501.246540	  488.328191	  475.395409	  462.448170
   -0.019592	   -0.019627	   -0.019662	   -0.019698	   -0.019733	  514.239116	  501.252695	  488.246794	  475.221372	  462.176382
   -0.019392	   -0.019578	   -0.019763	   -0.019949	   -0.020136	  514.145350	  501.225130	  488.286667	  475.329921	  462.354854
   -0.019181	   -0.019321	   -0.019461	   -0.019601	   -0.019741	  514.066571	  501.117063	  488.154489	  475.178830	  462.190066
   -0.019592	   -0.019727	   -0.019861	   -0.019996	   -0.020132	  514.239116	  501.296944	  488.335260	  475.354019	  462.353177
   -0.018985	   -0.019271	   -0.019557	   -0.019844	   -0.020132	  513.984636	  501.102263	  488.202884	  475.286466	  462.352976
   -0.018785	   -0.019171	   -0.019557	   -0.019944	   -0.020331	  513.890903	  501.055392	  488.202840	  475.333213	  462.446476
   -0.019784	   -0.019773	   -0.019762	   -0.019752	   -0.019741	  514.329173	  501.313339	  488.283225	  475.238809	  462.180066
   -0.019185	   -0.019422	   -0.019660	   -0.019897	   -0.020136	  514.058177	  501.155913	  488.237957	  475.304280	  462.354854
   -0.019580	   -0.019619	   -0.019659	   -0.019698	   -0.019737	  514.243804	  501.248889	  488.239669	  475.216122	  462.178224
   -0.019381	   -0.019569	   -0.019758	   -0.019947	   -0.020136	  514.140286	  501.218017	  488.281371	  475.330325	  462.364854
   -0.019788	   -0.019825	   -0.019862	   -0.019899	   -0.019936	  514.331027	  501.341526	  488.335133	  475.311815	  462.271539
   -0.019588	   -0.019675	   -0.019762	   -0.019849	   -0.019936	  514.237084	  501.271145	  488.288297	  475.288506	  462.271738
   -0.019792	   -0.019878	   -0.019964	   -0.020050	   -0.020136	  514.322883	  501.358271	  488.375454	  475.374396	  462.355056
   -0.020184	   -0.020172	   -0.020160	   -0.020148	   -0.020136	  514.496631	  501.484622	  488.457042	  475.413862	  462.355056
   -0.019988	   -0.019975	   -0.019962	   -0.019949	   -0.019936	  514.414775	  501.404302	  488.376960	  475.332716	  462.271539
   -0.019185	   -0.019372	   -0.019560	   -0.019748	   -0.019936	  514.068177	  501.142551	  488.201255	  475.244261	  462.271539
   -0.018992	   -0.019179	   -0.019366	   -0.019553	   -0.019741	  513.978007	  501.053953	  488.112934	  475.154917	  462.179868
   -0.019788	   -0.019825	   -0.019862	   -0.019899	   -0.019936	  514.331225	  501.339180	  488.330239	  475.304370	  462.261539
   -0.019384	   -0.019424	   -0.019463	   -0.019502	   -0.019541	  514.151908	  501.159594	  488.152976	  475.132029	  462.096732
   -0.019384	   -0.019571	   -0.019758	   -0.019944	   -0.020132	  514.162102	  501.235296	  488.291529	  475.330766	  462.352976
   -0.019584	   -0.019675	   -0.019766	   -0.019857	   -0.019948	  514.235639	  501.266094	  488.284803	  475.291752	  462.286924
   -0.019784	   -0.019823	   -0.019862	   -0.019901	   -0.019940	  514.329173	  501.336709	  488.329941	  475.308846	  462.273400
   -0.019392	   -0.019576	   -0.019759	   -0.019943	   -0.020128	  514.145544	  501.228207	  488.290054	  475.331034	  462.351098
   -0.019580	   -0.019719	   -0.019858	   -0.019997	   -0.020136	  514.244000	  501.295818	  488.333282	  475.356369	  462.365056
   -0.019596	   -0.019680	   -0.019764	   -0.019848	   -0.019932	  514.240758	  501.279266	  488.296989	  475.293877	  462.269878
   -0.019177	   -0.019320	   -0.019463	   -0.019606	   -0.019749	  514.064966	  501.110870	  488.147577	  475.175076	  462.193357
   -0.018992	   -0.019278	   -0.019563	   -0.019849	   -0.020136	  513.967817	  501.092084	  488.198072	  475.285742	  462.355056
   -0.018985	   -0.019221	   -0.019458	   -0.019695	   -0.019932	  513.964826	  501.066539	  488.151275	  475.219000	  462.269679
   -0.019796	   -0.019881	   -0.019966	   -0.020050	   -0.020136	  514.324739	  501.361559	  488.378882	  475.376661	  462.354854
   -0.019577	   -0.019667	   -0.019758	   -0.019849	   -0.019940	  514.242165	  501.267607	  488.281304	  475.283240	  462.273400
   -0.019584	   -0.019572	   -0.019559	   -0.019546	   -0.019534	  514.235835	  501.225478	  488.198256	  475.154136	  462.093086
   -0.019388	   -0.019426	   -0.019463	   -0.019500	   -0.019537	  514.153532	  501.164295	  488.158166	  475.135114	  462.095104
   -0.019784	   -0.019771	   -0.019759	   -0.019746	   -0.019733	  514.329371	  501.316459	  488.286679	  475.239997	  462.176382
   -0.018977	   -0.019216	   -0.019454	   -0.019693	   -0.019932	  513.971268	  501.067551	  488.149429	  475.216880	  462.269878
   -0.019185	   -0.019473	   -0.019761	   -0.020050	   -0.020339	  514.068561	  501.185575	  488.288146	  475.376251	  462.449864
   -0.019388	   -0.019526	   -0.019664	   -0.019802	   -0.019940	  514.153920	  501.207244	  488.244918	  475.266913	  462.273200
   -0.019580	   -0.019668	   -0.019756	   -0.019844	   -0.019932	  514.244000	  501.273927	  488.288234	  475.286894	  462.269878
   -0.019580	   -0.019717	   -0.019854	   -0.019990	   -0.020128	  514.244000	  501.296257	  488.331582	  475.349940	  462.351299
   -0.019588	   -0.019623	   -0.019659	   -0.019694	   -0.019729	  514.247476	  501.258553	  488.250152	  475.222229	  462.174739
   -0.019185	   -0.019370	   -0.019556	   -0.019742	   -0.019928	  514.058561	  501.138325	  488.199848	  475.243093	  462.268019
   -0.019384	   -0.019423	   -0.019461	   -0.019499	   -0.019537	  514.151908	  501.163577	  488.159652	  475.140105	  462.104908
   -0.019984	   -0.019922	   -0.019861	   -0.019799	   -0.019737	  514.423102	  501.385237	  488.331821	  475.262826	  462.178224
   -0.018796	   -0.019029	   -0.019262	   -0.019495	   -0.019729	  513.886001	  500.991419	  488.074720	  475.135846	  462.174739
   -0.019584	   -0.019672	   -0.019760	   -0.019848	   -0.019936	  514.235639	  501.268072	  488.284884	  475.286050	  462.271539
   -0.019388	   -0.019475	   -0.019562	   -0.019650	   -0.019737	  514.153726	  501.185257	  488.199873	  475.197539	  462.178224
   -0.019388	   -0.019623	   -0.019859	   -0.020095	   -0.020331	  514.143726	  501.246838	  488.331694	  475.398252	  462.446476
   -0.019580	   -0.019668	   -0.019756	   -0.019844	   -0.019932	  514.234000	  501.266422	  488.283228	  475.284390	  462.269878
   -0.019592	   -0.019627	   -0.019662	   -0.019698	   -0.019733	  514.239116	  501.252695	  488.246794	  475.221372	  462.176382
   -0.018585	   -0.018921	   -0.019258	   -0.019595	   -0.019932	  513.807356	  500.948559	  488.072736	  475.179854	  462.269878
   -0.019584	   -0.019673	   -0.019762	   -0.019851	   -0.019940	  514.245639	  501.271605	  488.283236	  475.280509	  462.263400
   -0.019784	   -0.019773	   -0.019762	   -0.019752	   -0.019741	  514.339568	  501.321090	  488.288329	  475.241263	  462.179868
   -0.019384	   -0.019472	   -0.019560	   -0.019649	   -0.019737	  514.152102	  501.182096	  488.196466	  475.195185	  462.178224
   -0.019592	   -0.019627	   -0.019662	   -0.019698	   -0.019733	  514.239116	  501.252743	  488.246892	  475.221519	  462.176580
   -0.019596	   -0.019680	   -0.019764	   -0.019848	   -0.019932	  514.230758	  501.269266	  488.286989	  475.283877	  462.259878
   -0.019580	   -0.019619	   -0.019659	   -0.019698	   -0.019737	  514.244000	  501.249036	  488.239768	  475.216172	  462.178224
   -0.018970	   -0.019313	   -0.019656	   -0.019999	   -0.020343	  513.977903	  501.111000	  488.236048	  475.353039	  462.461966
   -0.019788	   -0.019825	   -0.019862	   -0.019899	   -0.019936	  514.331027	  501.344021	  488.340126	  475.319310	  462.281539
   -0.019381	   -0.019470	   -0.019559	   -0.019648	   -0.019737	  514.160286	  501.188788	  488.202961	  475.202781	  462.188224
   -0.019580	   -0.019719	   -0.019858	   -0.019997	   -0.020136	  514.244000	  501.295769	  488.333184	  475.356220	  462.364854
   -0.019185	   -0.019372	   -0.019560	   -0.019748	   -0.019936	  514.058177	  501.135047	  488.196249	  475.241756	  462.271539
   -0.019381	   -0.019472	   -0.019563	   -0.019654	   -0.019745	  514.150092	  501.178130	  488.194423	  475.198955	  462.191711
   -0.019388	   -0.019476	   -0.019564	   -0.019653	   -0.019741	  514.153532	  501.186126	  488.203098	  475.204421	  462.190066
   -0.019980	   -0.019919	   -0.019859	   -0.019798	   -0.019737	  514.411229	  501.376870	  488.328265	  475.265391	  462.188224
   -0.019388	   -0.019425	   -0.019461	   -0.019497	   -0.019534	  514.143532	  501.158277	  488.154842	  475.133190	  462.093281
   -0.019181	   -0.019370	   -0.019560	   -0.019750	   -0.019940	  514.066571	  501.137941	  488.196215	  475.241375	  462.273400
   -0.019196	   -0.019328	   -0.019460	   -0.019592	   -0.019725	  514.053191	  501.115791	  488.155018	  475.170807	  462.163096
   -0.019192	   -0.019376	   -0.019560	   -0.019744	   -0.019928	  514.061775	  501.142114	  488.201634	  475.240286	  462.258019
   -0.018985	   -0.019274	   -0.019564	   -0.019853	   -0.020144	  513.974636	  501.092877	  488.197967	  475.289886	  462.368614
   -0.018992	   -0.019275	   -0.019559	   -0.019843	   -0.020128	  513.968007	  501.095147	  488.201443	  475.286844	  462.351299
   -0.020184	   -0.020073	   -0.019963	   -0.019852	   -0.019741	  514.516631	  501.453858	  488.376855	  475.285599	  462.180066
   -0.019381	   -0.019520	   -0.019660	   -0.019800	   -0.019940	  514.150480	  501.200782	  488.238016	  475.262162	  462.273200
   -0.019381	   -0.019521	   -0.019662	   -0.019803	   -0.019944	  514.150480	  501.199262	  488.236264	  475.261469	  462.274862
   -0.018792	   -0.019126	   -0.019461	   -0.019796	   -0.020132	  513.884238	  501.030891	  488.157961	  475.265405	  462.353177
   -0.019788	   -0.019724	   -0.019659	   -0.019594	   -0.019530	  514.321027	  501.292832	  488.245202	  475.178092	  462.091459
   -0.019392	   -0.019576	   -0.019759	   -0.019943	   -0.020128	  514.145544	  501.228254	  488.290151	  475.331182	  462.351299
   -0.018578	   -0.018967	   -0.019356	   -0.019745	   -0.020136	  513.804059	  500.961598	  488.105924	  475.237016	  462.354854
   -0.019592	   -0.019628	   -0.019664	   -0.019701	   -0.019737	  514.238920	  501.251065	  488.245022	  475.220755	  462.178224
   -0.020192	   -0.020076	   -0.019961	   -0.019845	   -0.019729	  514.500416	  501.450076	  488.379017	  475.287188	  462.174542
   -0.019177	   -0.019319	   -0.019461	   -0.019603	   -0.019745	  514.064966	  501.112395	  488.149337	  475.175780	  462.191711
   -0.019780	   -0.019722	   -0.019663	   -0.019604	   -0.019545	  514.337516	  501.295227	  488.241282	  475.175665	  462.098361
   -0.019384	   -0.019474	   -0.019564	   -0.019655	   -0.019745	  514.161908	  501.188940	  488.202931	  475.203862	  462.191711
   -0.018989	   -0.019225	   -0.019462	   -0.019699	   -0.019936	  513.975467	  501.072339	  488.152232	  475.215110	  462.260941
   -0.017582	   -0.018071	   -0.018561	   -0.019051	   -0.019541	  513.364923	  500.569541	  487.760874	  474.938903	  462.103605
   -0.017173	   -0.017916	   -0.018659	   -0.019403	   -0.020148	  513.191510	  500.500697	  487.802789	  475.097778	  462.385659
   -0.015578	   -0.016469	   -0.017361	   -0.018253	   -0.019146	  512.472588	  499.852904	  487.223476	  474.584292	  461.935341
   -0.014770	   -0.015918	   -0.017066	   -0.018213	   -0.019361	  512.132619	  499.612180	  487.090583	  474.567827	  462.043914
   -0.014177	   -0.015272	   -0.016367	   -0.017463	   -0.018559	  511.863632	  499.326954	  486.785409	  474.238996	  461.687711
   -0.013376	   -0.014770	   -0.016164	   -0.017559	   -0.018955	  511.507824	  499.104142	  486.695373	  474.281513	  461.862560
   -0.013171	   -0.014519	   -0.015867	   -0.017215	   -0.018563	  511.421942	  498.991353	  486.560647	  474.129825	  461.698886
   -0.013174	   -0.014618	   -0.016063	   -0.017509	   -0.018955	  511.422647	  499.038261	  486.649961	  474.257745	  461.861612
   -0.012767	   -0.014167	   -0.015568	   -0.016968	   -0.018367	  511.251632	  498.837320	  486.426550	  474.019319	  461.615626
   -0.012959	   -0.014166	   -0.015373	   -0.016578	   -0.017782	  511.361073	  498.842351	  486.336149	  473.842449	  461.361231
   -0.011959	   -0.013422	   -0.014882	   -0.016340	   -0.017796	  510.911993	  498.503021	  486.112408	  473.740114	  461.386099
   -0.010566	   -0.012223	   -0.013878	   -0.015531	   -0.017183	  510.297829	  497.982425	  485.678937	  473.387348	  461.107640
   -0.008982	   -0.010879	   -0.012776	   -0.014673	   -0.016570	  509.564491	  497.381660	  485.198262	  473.014296	  460.829762
   -0.008190	   -0.010433	   -0.012677	   -0.014923	   -0.017169	  509.222509	  497.199654	  485.171052	  473.136700	  461.096594
   -0.005591	   -0.008291	   -0.010990	   -0.013689	   -0.016387	  508.075272	  496.245139	  484.417231	  472.591548	  460.768090
   -0.004385	   -0.006945	   -0.009500	   -0.012052	   -0.014600	  507.580337	  495.656112	  483.749776	  471.861288	  459.990608
   -0.002590	   -0.005454	   -0.008313	   -0.011165	   -0.014011	  506.800295	  494.999916	  483.225228	  471.476146	  459.752586
   -0.000997	   -0.003907	   -0.006813	   -0.009714	   -0.012610	  506.085766	  494.320549	  482.573970	  470.845987	  459.136553
    0.002988	   -0.000980	   -0.004938	   -0.008886	   -0.012823	  504.334940	  493.022844	  481.740102	  470.486599	  459.262222
    0.005971	    0.001700	   -0.002557	   -0.006800	   -0.011029	  503.063774	  491.859543	  480.693162	  469.564440	  458.473186
    0.007365	    0.003090	   -0.001168	   -0.005410	   -0.009635	  502.435790	  491.232184	  480.072099	  468.955280	  457.881477
    0.008970	    0.004449	   -0.000058	   -0.004551	   -0.009031	  501.709494	  490.633470	  479.591470	  468.583338	  457.608916
    0.012542	    0.007263	    0.002006	   -0.003229	   -0.008441	  500.175537	  489.407961	  478.686906	  468.012068	  457.383151
    0.016919	    0.011240	    0.005588	   -0.000036	   -0.005633	  498.298551	  487.695839	  477.144927	  466.645437	  456.196995
    0.022275	    0.015548	    0.008855	    0.002197	   -0.004426	  495.976412	  485.834753	  475.746004	  465.709753	  455.725590
    0.025264	    0.018284	    0.011344	    0.004444	   -0.002417	  494.680310	  484.647553	  474.672259	  464.753938	  454.892103
    0.028657	    0.021318	    0.014029	    0.006789	   -0.000404	  493.225170	  483.334507	  473.510094	  463.751269	  454.057377
    0.031424	    0.023780	    0.016198	    0.008676	    0.001214	  492.002486	  482.229568	  472.534962	  462.917730	  453.376949
    0.033612	    0.025564	    0.017583	    0.009670	    0.001822	  491.038172	  481.439878	  471.922244	  462.484257	  453.124922
    0.039356	    0.030194	    0.021122	    0.012141	    0.003248	  488.569463	  479.422973	  470.367489	  461.401660	  452.524162
    0.042007	    0.032696	    0.023472	    0.014334	    0.005280	  487.374414	  478.312936	  469.336278	  460.443256	  451.632705
    0.046215	    0.036605	    0.027090	    0.017669	    0.008340	  485.483825	  476.553146	  467.710720	  458.955244	  450.285441
    0.048955	    0.038940	    0.029041	    0.019256	    0.009584	  484.285893	  475.503425	  466.822888	  458.242517	  449.760589
    0.053240	    0.042715	    0.032308	    0.022019	    0.011844	  482.365747	  473.827834	  465.386314	  457.039565	  448.785998
    0.055234	    0.044867	    0.034629	    0.024518	    0.014531	  481.469135	  472.848938	  464.336082	  455.928574	  447.624472
    0.059457	    0.048370	    0.037437	    0.026653	    0.016016	  479.609433	  471.289432	  463.084400	  454.991970	  447.009840
    0.064626	    0.052449	    0.040432	    0.028570	    0.016862	  477.280068	  469.466349	  461.754830	  454.143518	  446.630473
    0.064406	    0.052877	    0.041496	    0.030262	    0.019171	  477.352315	  469.265844	  461.283897	  453.404460	  445.625572
    0.068150	    0.056069	    0.044164	    0.032430	    0.020863	  475.706374	  467.837789	  460.083243	  452.440274	  444.906492
    0.073792	    0.060739	    0.047890	    0.035238	    0.022779	  473.263708	  465.801350	  458.454815	  451.221425	  444.098588
    0.079438	    0.065085	    0.050982	    0.037121	    0.023498	  470.794032	  463.879687	  457.085557	  450.408535	  443.845619
    0.081320	    0.067631	    0.054173	    0.040938	    0.027922	  469.866852	  462.705662	  455.664851	  448.741411	  441.932430
    0.085518	    0.070982	    0.056692	    0.042640	    0.028822	  468.029141	  461.231775	  454.549165	  447.978428	  441.516779
    0.092267	    0.076259	    0.060553	    0.045139	    0.030010	  465.058960	  458.887864	  452.832981	  446.891060	  441.058967
    0.095055	    0.079276	    0.063804	    0.048631	    0.033748	  463.828443	  457.556647	  451.407052	  445.376120	  439.460449
    0.099493	    0.082945	    0.066735	    0.050851	    0.035284	  461.871749	  455.925766	  450.100956	  444.393654	  438.800338
    0.101685	    0.085401	    0.069458	    0.053844	    0.038551	  460.867981	  454.815620	  448.889871	  443.086800	  437.402637
    0.103743	    0.087221	    0.071053	    0.055228	    0.039737	  459.957270	  453.998423	  448.167471	  442.460340	  436.873128
    0.110251	    0.092617	    0.075363	    0.058478	    0.041951	  457.026650	  451.571796	  446.234741	  441.011710	  435.899086
    0.112953	    0.095384	    0.078194	    0.061370	    0.044901	  455.743640	  450.288416	  444.950735	  439.726837	  434.613124
    0.119097	    0.100256	    0.081828	    0.063799	    0.046157	  453.007721	  448.119469	  443.338268	  438.660639	  434.083252
    0.124665	    0.105451	    0.086675	    0.068322	    0.050378	  450.479404	  445.764569	  441.157177	  436.653595	  432.250355
    0.133016	    0.112899	    0.093267	    0.074101	    0.055387	  446.767946	  442.454444	  438.244811	  434.135339	  430.122496
    0.140504	    0.118343	    0.096659	    0.075436	    0.054660	  443.374634	  440.013508	  436.724714	  433.505944	  430.354983
    0.147993	    0.125236	    0.103003	    0.081275	    0.060035	  440.055234	  436.958525	  433.933041	  430.976353	  428.086139
    0.148172	    0.125156	    0.102679	    0.080721	    0.059264	  439.964836	  436.986431	  434.077658	  431.236103	  428.459462
    0.154429	    0.130080	    0.106377	    0.083294	    0.060808	  437.291973	  434.838944	  432.450979	  430.125524	  427.860155
    0.156283	    0.132381	    0.109123	    0.086483	    0.064437	  436.421130	  433.804177	  431.257716	  428.778935	  426.365173
    0.166702	    0.140506	    0.115023	    0.090225	    0.066084	  431.937154	  430.319145	  428.745195	  427.213527	  425.722462
    0.165457	    0.140164	    0.115518	    0.091496	    0.068075	  432.389590	  430.445906	  428.552016	  426.706031	  424.906156
    0.174277	    0.146771	    0.119955	    0.093802	    0.068289	  428.541395	  427.600249	  426.682689	  425.787840	  424.914868
    0.174174	    0.147328	    0.121293	    0.096031	    0.071510	  428.681291	  427.354109	  426.066981	  424.818123	  423.605853
    0.185368	    0.155533	    0.126670	    0.098732	    0.071674	  423.845143	  423.786969	  423.730689	  423.676212	  423.623453
    0.187446	    0.157410	    0.128305	    0.100090	    0.072723	  422.777084	  422.876263	  422.972366	  423.065532	  423.155896
    0.193120	    0.162386	    0.132541	    0.103545	    0.075363	  420.289649	  420.728490	  421.154654	  421.568683	  421.971088
    0.203152	    0.170934	    0.139712	    0.109439	    0.080074	  415.790823	  416.885483	  417.946317	  418.974868	  419.972588
    0.220181	    0.184301	    0.149461	    0.115617	    0.082728	  408.296245	  411.023276	  413.671188	  416.243374	  418.743037
    0.225201	    0.188444	    0.152653	    0.117792	    0.083824	  405.897828	  409.088111	  412.194482	  415.220207	  418.168387
    0.241581	    0.200745	    0.161125	    0.122666	    0.085319	  398.604369	  403.555214	  408.358716	  413.021356	  417.549242
    0.242596	    0.202869	    0.164411	    0.127161	    0.091062	  398.020687	  402.478613	  406.794261	  410.974335	  415.025126
    0.248693	    0.207458	    0.167632	    0.129143	    0.091926	  395.253378	  400.360024	  405.292237	  410.058806	  414.667938
    0.257299	    0.213550	    0.171420	    0.130819	    0.091667	  391.564197	  397.720750	  403.649585	  409.363106	  414.872833
    0.262589	    0.218644	    0.176273	    0.135395	    0.095931	  389.251885	  395.529486	  401.582078	  407.421545	  413.058949
    0.266990	    0.223324	    0.181204	    0.140551	    0.101288	  387.320922	  393.525062	  399.509440	  405.285532	  410.864024
    0.275991	    0.229846	    0.185429	    0.142645	    0.101406	  383.506373	  390.750750	  397.723859	  404.440657	  410.915020
    0.291647	    0.242587	    0.195219	    0.149458	    0.105223	  376.773034	  385.345312	  393.621847	  401.617684	  409.346866
    0.298296	    0.249217	    0.201724	    0.155741	    0.111196	  373.925517	  382.577394	  390.949758	  399.055940	  406.908436
    0.315995	    0.263824	    0.213333	    0.164444	    0.117082	  366.289311	  376.318292	  386.024063	  395.421999	  404.526519
    0.342618	    0.283548	    0.226675	    0.171879	    0.119048	  355.003845	  367.885754	  380.288571	  392.238534	  403.760000
    0.344331	    0.285147	    0.228301	    0.173658	    0.121091	  354.158241	  367.090273	  379.511423	  391.451378	  402.937570
    0.360599	    0.297443	    0.237054	    0.179255	    0.123882	  346.981017	  361.595970	  375.570580	  388.946028	  401.760041
    0.371922	    0.306728	    0.244161	    0.184066	    0.126299	  341.786987	  357.400192	  372.384199	  386.776289	  400.610858
    0.379566	    0.312307	    0.247923	    0.186233	    0.127072	  338.307604	  354.813376	  370.613680	  385.752797	  400.271381
    0.390869	    0.321321	    0.255046	    0.191818	    0.131432	  333.344706	  350.766651	  367.368661	  383.207289	  398.334004
    0.416796	    0.339741	    0.266192	    0.195915	    0.128696	  321.798787	  342.565628	  362.387534	  381.327566	  399.443295
    0.425263	    0.348341	    0.275068	    0.205189	    0.138475	  317.837579	  338.588604	  358.355416	  377.206413	  395.203802
    0.445037	    0.361522	    0.282272	    0.206969	    0.135325	  309.034440	  332.622794	  355.006303	  376.274980	  396.510088
    0.468103	    0.380594	    0.297050	    0.217209	    0.140828	  298.705014	  324.201042	  348.541697	  371.803774	  394.057408
    0.498882	    0.405005	    0.315010	    0.228660	    0.145739	  285.351914	  313.689186	  340.854818	  366.920002	  391.950277
    0.550044	    0.446620	    0.346143	    0.248489	    0.153540	  263.140610	  295.881334	  327.689260	  358.603693	  388.661759
    0.584420	    0.474093	    0.366493	    0.261519	    0.159077	  248.478781	  284.250233	  319.137823	  353.173911	  386.389295
    0.621353	    0.503138	    0.387204	    0.273486	    0.161920	  232.495276	  271.800921	  310.348130	  348.158645	  385.253386
    0.627097	    0.508513	    0.391262	    0.275321	    0.160668	  229.727407	  269.389451	  308.605732	  347.383724	  385.730733
    0.630469	    0.512044	    0.395310	    0.280232	    0.166775	  228.204085	  267.800151	  306.830569	  345.307374	  383.242261
    0.634312	    0.513575	    0.394355	    0.276623	    0.160353	  226.429865	  267.062224	  307.184119	  346.805109	  385.934517
    0.640196	    0.517615	    0.396197	    0.275926	    0.156785	  223.843500	  265.308353	  306.379664	  347.063010	  387.363860
    0.649223	    0.525640	    0.402435	    0.279607	    0.157152	  219.686388	  261.727794	  303.640580	  345.425336	  387.082646
    0.679930	    0.549565	    0.418508	    0.286753	    0.154296	  206.350810	  251.440122	  296.768848	  342.338899	  388.152210
    0.719190	    0.575358	    0.432255	    0.289876	    0.148215	  189.780961	  240.377046	  290.716516	  340.801317	  390.633379
    0.762611	    0.605451	    0.450533	    0.297810	    0.147235	  171.386439	  227.487582	  282.788263	  337.305495	  391.055807
    0.778372	    0.615595	    0.454786	    0.295910	    0.138931	  164.616538	  223.120587	  280.917322	  338.019491	  394.439542
    0.798126	    0.627789	    0.458982	    0.291684	    0.125874	  155.962112	  217.758372	  278.999749	  339.693683	  399.847483
    0.813944	    0.633970	    0.457369	    0.284049	    0.113919	  149.484494	  215.184336	  279.652394	  342.922988	  405.029174
    0.827886	    0.644431	    0.462295	    0.281464	    0.101924	  143.454030	  210.802643	  277.667043	  344.052435	  409.963946
    0.835518	    0.646063	    0.459470	    0.275676	    0.094617	  140.319277	  210.062484	  278.751928	  346.411312	  413.063633
    0.859719	    0.663173	    0.468630	    0.276058	    0.085429	  129.754670	  202.663847	  274.830204	  346.265035	  416.979406
    0.904232	    0.691262	    0.481189	    0.273954	    0.069500	  110.859087	  190.700097	  269.455209	  347.146428	  423.795166
    0.908804	    0.694873	    0.484084	    0.276366	    0.071652	  108.868853	  189.123219	  268.199497	  346.123438	  422.920049
    0.907636	    0.695164	    0.484720	    0.276274	    0.069799	  109.038340	  188.852530	  267.905057	  346.206773	  423.768322
    0.923853	    0.704543	    0.487193	    0.271777	    0.058270	  102.105771	  184.855988	  266.866511	  348.147212	  428.707790
    0.918519	    0.703516	    0.490117	    0.278304	    0.068058	  104.141556	  185.174597	  265.603342	  345.434526	  424.674782
    0.916084	    0.700325	    0.486187	    0.273650	    0.062699	  105.081958	  186.465438	  267.237664	  347.405496	  426.975693
    0.928706	    0.709872	    0.490807	    0.271513	    0.051989	   99.468116	  182.333709	  265.286181	  348.325667	  431.452306
    0.937529	    0.714912	    0.492351	    0.269848	    0.047402	   95.739803	  180.204818	  264.648073	  349.069575	  433.469335
    0.947592	    0.718873	    0.491199	    0.264562	    0.038955	   91.352762	  178.390487	  265.030705	  351.276133	  437.129464
    0.972667	    0.736935	    0.503400	    0.272031	    0.042798	   80.651122	  170.662954	  259.836029	  348.182017	  435.712370
    0.967290	    0.731250	    0.498232	    0.268179	    0.041033	   82.825374	  172.961872	  261.944446	  349.795113	  436.535334
    0.988106	    0.742642	    0.504829	    0.274314	    0.050769	   74.281354	  168.132022	  259.057288	  347.191836	  432.662203
    0.998643	    0.741009	    0.495545	    0.261409	    0.037833	   70.077829	  168.814708	  262.887589	  352.619312	  438.303596
    0.998213	    0.746409	    0.505452	    0.274655	    0.053389	   70.035013	  166.440786	  258.693841	  347.056842	  431.770757
    0.975610	    0.730658	    0.493943	    0.265057	    0.043618	   79.303171	  173.018418	  263.582137	  351.150672	  435.870193
    0.949390	    0.712427	    0.483075	    0.260975	    0.045788	   90.324894	  180.699990	  268.171949	  352.878447	  434.948590
    0.983857	    0.735631	    0.496983	    0.267370	    0.046288	   75.829498	  170.865279	  262.233911	  350.143630	  434.787204
    0.964574	    0.722969	    0.490400	    0.266368	    0.050412	   84.088238	  176.302288	  265.067761	  350.574559	  432.998891
    0.960651	    0.724192	    0.494065	    0.270020	    0.051818	   85.516092	  175.758881	  263.584810	  349.089689	  432.364327
    0.942351	    0.710273	    0.484760	    0.265537	    0.052344	   93.289165	  181.631033	  267.474040	  350.922734	  432.075908
    0.963491	    0.723413	    0.492240	    0.269484	    0.054695	   84.601915	  176.148950	  264.300665	  349.242511	  431.146673
    0.980194	    0.731322	    0.493767	    0.266776	    0.049658	   77.811395	  172.876529	  263.618440	  350.325479	  433.260911
    0.974834	    0.732926	    0.500332	    0.276527	    0.061020	   79.956066	  172.206604	  260.904691	  346.251652	  428.433880
    0.983885	    0.737754	    0.502533	    0.277513	    0.062044	   76.274386	  170.182731	  259.928399	  345.782166	  427.991825
    0.987768	    0.740063	    0.502248	    0.273741	    0.054005	   74.657645	  169.281728	  260.128296	  347.419128	  431.358974
    0.982639	    0.736800	    0.502344	    0.278499	    0.064560	   76.893160	  170.620880	  260.008729	  345.351310	  426.917151
    0.967657	    0.730147	    0.501242	    0.280484	    0.067446	   83.052185	  173.441909	  260.556398	  344.570500	  425.646835
    0.957493	    0.720501	    0.492705	    0.273580	    0.062641	   87.537226	  177.602688	  264.173179	  347.448260	  427.612582
    0.988407	    0.739127	    0.502675	    0.278085	    0.064487	   74.812851	  169.815800	  259.930034	  345.523437	  426.927884
    0.976654	    0.732322	    0.500468	    0.280160	    0.070556	   79.689027	  172.620989	  260.806970	  344.601478	  424.324573
    0.975737	    0.735771	    0.505103	    0.283204	    0.069581	   79.788388	  171.124375	  258.921408	  343.381259	  424.690651
    0.968330	    0.728892	    0.499128	    0.278463	    0.066368	   83.022685	  174.067821	  261.434552	  345.341388	  425.989865
    0.975872	    0.735405	    0.504975	    0.283966	    0.071811	   79.821349	  171.301549	  258.963590	  343.041624	  423.751044
    0.988476	    0.741093	    0.505701	    0.281448	    0.067562	   74.753239	  168.983686	  258.646801	  344.066793	  425.537897
    0.966782	    0.728233	    0.499341	    0.279531	    0.068273	   83.945410	  174.517616	  261.423262	  344.880575	  425.090803
    0.986313	    0.743652	    0.510107	    0.285173	    0.068384	   75.613405	  167.979429	  256.875586	  342.493798	  425.012087
    0.962134	    0.727676	    0.501826	    0.284119	    0.074123	   85.774114	  174.704902	  260.370385	  342.947160	  422.599316
    0.977370	    0.736886	    0.507401	    0.288175	    0.078536	   79.523557	  170.838592	  257.977693	  341.220910	  420.823802
    0.971318	    0.732983	    0.504567	    0.285462	    0.075111	   81.920068	  172.434009	  259.181145	  342.391822	  422.277978
    0.940611	    0.716057	    0.497468	    0.284611	    0.077263	   94.669825	  179.599831	  262.273411	  342.779309	  421.201678
    0.966307	    0.732893	    0.506643	    0.287231	    0.074351	   83.893231	  172.498644	  258.385000	  341.675568	  422.486278
    0.949400	    0.719349	    0.496171	    0.279563	    0.069238	   90.951175	  178.169537	  262.782301	  344.904510	  424.644531
    0.957338	    0.729638	    0.508813	    0.294555	    0.086576	   87.409010	  173.719949	  257.425086	  338.640673	  417.476148
    0.934998	    0.712354	    0.496468	    0.287035	    0.083772	   96.843534	  181.003263	  262.608768	  341.774593	  418.608531
    0.960560	    0.727226	    0.501867	    0.284080	    0.073491	   86.294402	  174.827168	  260.334128	  342.967795	  422.870604
    0.977041	    0.740512	    0.511774	    0.290449	    0.076182	   79.214158	  169.171737	  256.166090	  340.341260	  421.832102
    0.962899	    0.732058	    0.508204	    0.291026	    0.080228	   85.025522	  172.666631	  257.654816	  340.108739	  420.140088
    0.941739	    0.715282	    0.493983	    0.277668	    0.066170	   93.838130	  179.755183	  263.715243	  345.784424	  426.025890
    0.951283	    0.721102	    0.496519	    0.277333	    0.063352	   89.877490	  177.339101	  262.673307	  345.956796	  427.262613
    0.956747	    0.727815	    0.504920	    0.287827	    0.076312	   87.500277	  174.437587	  259.082096	  341.523326	  421.846198
    0.955392	    0.724424	    0.499726	    0.281044	    0.068142	   87.929264	  175.763280	  261.213254	  344.374950	  425.339071
    0.968969	    0.733320	    0.503744	    0.280008	    0.061892	   82.159830	  171.999302	  259.523789	  344.821630	  427.976729
    0.953887	    0.721626	    0.494960	    0.273690	    0.057624	   88.533175	  176.961202	  263.259045	  347.502763	  429.764832
    0.951166	    0.719820	    0.494333	    0.274486	    0.060071	   89.597180	  177.654874	  263.482156	  347.162709	  428.776078
    0.971267	    0.732511	    0.500129	    0.273869	    0.053492	   81.115638	  172.286971	  261.024416	  347.424151	  431.577352
    0.953263	    0.722807	    0.497256	    0.276456	    0.060257	   88.691614	  176.429259	  262.299471	  346.361245	  428.671112
    0.954243	    0.724836	    0.498816	    0.276107	    0.056637	   88.125069	  175.529160	  261.643214	  346.495581	  430.113788
    0.952318	    0.724580	    0.501332	    0.282444	    0.067789	   89.041179	  175.668451	  260.587453	  343.848221	  425.498857
    0.969050	    0.731817	    0.501289	    0.277186	    0.059243	   82.108313	  172.606615	  260.547030	  346.036492	  429.176058
    0.970870	    0.731560	    0.501022	    0.278782	    0.064401	   81.355522	  172.639082	  260.576713	  345.349068	  427.124025
    0.977787	    0.740218	    0.510133	    0.287183	    0.071043	   78.315131	  168.954082	  256.737618	  341.798579	  424.261691
    0.950156	    0.719638	    0.493692	    0.272184	    0.054984	   89.766417	  177.630392	  263.751637	  348.181491	  430.969298
    0.952592	    0.723483	    0.499035	    0.279107	    0.063563	   88.773677	  176.028826	  261.509029	  345.267899	  427.356911
    0.960440	    0.722962	    0.492120	    0.267639	    0.049261	   85.471604	  176.173597	  264.341108	  350.078905	  433.486059
    0.966994	    0.734039	    0.505396	    0.280948	    0.060579	   82.519759	  171.473175	  258.779811	  344.484977	  428.632339
    0.955137	    0.724852	    0.499525	    0.278997	    0.063115	   87.576258	  175.364865	  261.263638	  345.332954	  427.630640
    0.944995	    0.720713	    0.499899	    0.282476	    0.068365	   91.621605	  177.015777	  261.088915	  343.871440	  425.392842
    0.954299	    0.723345	    0.495718	    0.271345	    0.050157	   87.698394	  175.918513	  262.868268	  348.574904	  433.064890
    0.964722	    0.733790	    0.504849	    0.277875	    0.052842	   83.151194	  171.466630	  259.020352	  345.822171	  431.881732
    0.946655	    0.718669	    0.492697	    0.268712	    0.046687	   90.906962	  177.940274	  264.205021	  349.711337	  434.469182
    0.942612	    0.717796	    0.493960	    0.271098	    0.049202	   92.468427	  178.273159	  263.703927	  348.763172	  433.453311
    0.950336	    0.718790	    0.489920	    0.263677	    0.040018	   89.189826	  177.777668	  265.342340	  351.901466	  437.472268
    0.960161	    0.727906	    0.498491	    0.271866	    0.047979	   85.104843	  173.971212	  261.750633	  348.462925	  434.127432
    0.959101	    0.726907	    0.494925	    0.263153	    0.031593	   85.309110	  174.347349	  263.304480	  352.180616	  440.975867
    0.947392	    0.722736	    0.497252	    0.270936	    0.043783	   90.148585	  176.079202	  262.326383	  348.891881	  435.777461
    0.945560	    0.717366	    0.489907	    0.263181	    0.037183	   90.814717	  178.221020	  265.345542	  352.189643	  438.754676
    0.914362	    0.694940	    0.476307	    0.258460	    0.041394	  103.887921	  187.643055	  271.096781	  354.250722	  437.106492
    0.899338	    0.685858	    0.472534	    0.259366	    0.046352	  110.004861	  191.361382	  272.658679	  353.896814	  435.075854
    0.860854	    0.659386	    0.455383	    0.248797	    0.039579	  126.156398	  202.613466	  280.032548	  358.431916	  437.830307
    0.861538	    0.656077	    0.451972	    0.249211	    0.047779	  126.159077	  204.034714	  281.396217	  358.248659	  434.597049
    0.851915	    0.651940	    0.451946	    0.251930	    0.051895	  130.180715	  205.828049	  281.483095	  357.145853	  432.816326
    0.838994	    0.640997	    0.442613	    0.243841	    0.044679	  135.541459	  210.416847	  285.438628	  360.607234	  435.923095
    0.831410	    0.637751	    0.444610	    0.251983	    0.059871	  138.766814	  211.760322	  284.558826	  357.163103	  429.573932
    0.802454	    0.615597	    0.428791	    0.242037	    0.055334	  151.054012	  221.188364	  291.303307	  361.398848	  431.474996
    0.792400	    0.607674	    0.424224	    0.242035	    0.061096	  155.449096	  224.580016	  293.233726	  361.415151	  429.129149
    0.781042	    0.601482	    0.423814	    0.248006	    0.074031	  160.158116	  227.110925	  293.358680	  358.912460	  423.783114
    0.746850	    0.579437	    0.410465	    0.239913	    0.067758	  174.356756	  236.476797	  299.175139	  362.459895	  426.339330
    0.709239	    0.553452	    0.396293	    0.237744	    0.077786	  190.233342	  247.458428	  305.187390	  363.426913	  422.183800
    0.711871	    0.554415	    0.397360	    0.240705	    0.084449	  189.359752	  247.103359	  304.699687	  362.149300	  419.452757
    0.679245	    0.533548	    0.386385	    0.237734	    0.087573	  203.027170	  256.007739	  309.521267	  363.575835	  418.179691
    0.669829	    0.525570	    0.381977	    0.239047	    0.096774	  207.211784	  259.397470	  311.341991	  363.047014	  414.514194
    0.646520	    0.510552	    0.372764	    0.233120	    0.091582	  216.863095	  265.807730	  315.407344	  365.675174	  416.624815
    0.625586	    0.495303	    0.363881	    0.231306	    0.097561	  225.908786	  272.376117	  319.249693	  366.534863	  414.237073
    0.625621	    0.494632	    0.362026	    0.227773	    0.091844	  225.899070	  272.727886	  320.134572	  368.129890	  416.724873
    0.598798	    0.479351	    0.357246	    0.232393	    0.104698	  237.145578	  279.233047	  322.257184	  366.249609	  411.243383
    0.594585	    0.476748	    0.356322	    0.233222	    0.107356	  238.939545	  280.338874	  322.647659	  365.896201	  410.116163
    0.566849	    0.454999	    0.341161	    0.225282	    0.107306	  250.857319	  289.637453	  329.106886	  369.284161	  410.188493
    0.551587	    0.440742	    0.329214	    0.216997	    0.104086	  257.555040	  295.723886	  334.127749	  372.768806	  411.649261
    0.530234	    0.427907	    0.324870	    0.221115	    0.116635	  266.713283	  301.236964	  336.000242	  371.005622	  406.255641
    0.510367	    0.410841	    0.311158	    0.211318	    0.111321	  275.335550	  308.546761	  341.810220	  375.126051	  408.494377
    0.486546	    0.394620	    0.301864	    0.208267	    0.113819	  285.364486	  315.449102	  345.805156	  376.436336	  407.346400
    0.479354	    0.388975	    0.298133	    0.206824	    0.115044	  288.640758	  317.945164	  347.399715	  377.005569	  406.763894
    0.458946	    0.374776	    0.290002	    0.204619	    0.118619	  297.376869	  324.049936	  350.914194	  377.971706	  405.224565
    0.437943	    0.356699	    0.276363	    0.196919	    0.118354	  306.944238	  331.997228	  356.770229	  381.267908	  405.494830
    0.415239	    0.340818	    0.266594	    0.192568	    0.118739	  316.752374	  338.951876	  361.092260	  383.173763	  405.196621
    0.388792	    0.321114	    0.253294	    0.185330	    0.117221	  328.156778	  347.489690	  366.863507	  386.278356	  405.734370
    0.362414	    0.301251	    0.240346	    0.179696	    0.119300	  339.961731	  356.280389	  372.530409	  388.712223	  404.826258
    0.346847	    0.291290	    0.235809	    0.180402	    0.125070	  346.769324	  360.664461	  374.540795	  388.398364	  402.237206
    0.310231	    0.261007	    0.212207	    0.163825	    0.115857	  362.765215	  373.741806	  384.623851	  395.412565	  406.109143
    0.275705	    0.234655	    0.194185	    0.154284	    0.114939	  377.850830	  385.130450	  392.307129	  399.383035	  406.360276
    0.259605	    0.221329	    0.184049	    0.147726	    0.112323	  385.122201	  390.900549	  396.528623	  402.012210	  407.356805
    0.240503	    0.205234	    0.171165	    0.138238	    0.106394	  393.825874	  398.001677	  402.035279	  405.933821	  409.703976
    0.226764	    0.194603	    0.163781	    0.134216	    0.105833	  400.133017	  402.648283	  405.058835	  407.371079	  409.590908
    0.206190	    0.176586	    0.148144	    0.120796	    0.094480	  409.401262	  410.646690	  411.843252	  412.993771	  414.100852
    0.197599	    0.169846	    0.143383	    0.118124	    0.093987	  413.713675	  413.794991	  413.872524	  413.946532	  414.017251
    0.187837	    0.160048	    0.133662	    0.108576	    0.084695	  418.448032	  418.239893	  418.042263	  417.854365	  417.675498
    0.176315	    0.150473	    0.125914	    0.102545	    0.080281	  424.030031	  422.731278	  421.497014	  420.322553	  419.203650
    0.178106	    0.150492	    0.124121	    0.098911	    0.074786	  423.411712	  422.854094	  422.321578	  421.812506	  421.325363
    0.166774	    0.141865	    0.118033	    0.095211	    0.073336	  428.768423	  426.909988	  425.131991	  423.429320	  421.797289
    0.158243	    0.133720	    0.110163	    0.087517	    0.065729	  432.859433	  430.784434	  428.791190	  426.874965	  425.031377
    0.153537	    0.129832	    0.107024	    0.085061	    0.063898	  435.171565	  432.679084	  430.280787	  427.971433	  425.746166
    0.144992	    0.122372	    0.100579	    0.079570	    0.059303	  439.109766	  436.109834	  433.219673	  430.433368	  427.745419
    0.142588	    0.119915	    0.098059	    0.076977	    0.056629	  440.376632	  437.357772	  434.447801	  431.640931	  428.931780
    0.130816	    0.110746	    0.091304	    0.072459	    0.054186	  445.701158	  441.575743	  437.579230	  433.705669	  429.949474
    0.122822	    0.104534	    0.086821	    0.069657	    0.053015	  449.403212	  444.450487	  439.653452	  435.004881	  430.497985
    0.116121	    0.098395	    0.081201	    0.064516	    0.048317	  452.563978	  447.337126	  442.267121	  437.347006	  432.570232
    0.106727	    0.090634	    0.075014	    0.059846	    0.045110	  456.935852	  450.955630	  445.150902	  439.514055	  434.037909
    0.099551	    0.084181	    0.069238	    0.054703	    0.040561	  460.235741	  453.949257	  447.837239	  441.892523	  436.108332
    0.095954	    0.080818	    0.066084	    0.051737	    0.037760	  462.013613	  455.592441	  449.341871	  443.255192	  437.326042
    0.089456	    0.074749	    0.060418	    0.046446	    0.032822	  465.030893	  458.403404	  451.944695	  445.648399	  439.508465
    0.082053	    0.068278	    0.054815	    0.041653	    0.028783	  468.458209	  461.420687	  454.542554	  447.818455	  441.243274
    0.077946	    0.064393	    0.051141	    0.038180	    0.025501	  470.364949	  463.215409	  456.224450	  449.386854	  442.697629
    0.075684	    0.062022	    0.048637	    0.035523	    0.022670	  471.334300	  464.272549	  457.354676	  450.576328	  443.933325
    0.071285	    0.058635	    0.046240	    0.034090	    0.022180	  473.311546	  465.784697	  458.409022	  451.180013	  444.093338
    0.066559	    0.054619	    0.042881	    0.031338	    0.019988	  475.413648	  467.614221	  459.946292	  452.406562	  444.991843
    0.063228	    0.051549	    0.040064	    0.028767	    0.017653	  476.920323	  469.001889	  461.214292	  453.554315	  446.018847
    0.059896	    0.048905	    0.038092	    0.027452	    0.016981	  478.433516	  470.201539	  462.102338	  454.132726	  446.289617
    0.055622	    0.045198	    0.034934	    0.024825	    0.014870	  480.389224	  471.906216	  463.553279	  455.327446	  447.225836
    0.051400	    0.041536	    0.031811	    0.022222	    0.012768	  482.309196	  473.578773	  464.971856	  456.485842	  448.118200
    0.049940	    0.039923	    0.030044	    0.020300	    0.010689	  483.008166	  474.342226	  465.795693	  457.366116	  449.051112
    0.048075	    0.038425	    0.028908	    0.019522	    0.010263	  483.889940	  475.044429	  466.320852	  457.716705	  449.229553
    0.046763	    0.037521	    0.028389	    0.019365	    0.010447	  484.436906	  475.447544	  466.564934	  457.787186	  449.112454
    0.045954	    0.036810	    0.027778	    0.018857	    0.010043	  484.804705	  475.759392	  466.825104	  457.999807	  449.281521
    0.046317	    0.036554	    0.026913	    0.017393	    0.007992	  484.657289	  475.879918	  467.212911	  458.654199	  450.201764
    0.042498	    0.033290	    0.024197	    0.015217	    0.006347	  486.356814	  477.339269	  468.434063	  459.639110	  450.952375
    0.039450	    0.030810	    0.022276	    0.013846	    0.005518	  487.765577	  478.477615	  469.303811	  460.242074	  451.290362
    0.037849	    0.029049	    0.020354	    0.011760	    0.003267	  488.510876	  479.288578	  470.175029	  461.168317	  452.266574
    0.034421	    0.026494	    0.018660	    0.010916	    0.003261	  490.081490	  480.462335	  470.955103	  461.557851	  452.268683
    0.027457	    0.020791	    0.014196	    0.007674	    0.001221	  493.230119	  483.062676	  473.005807	  463.057718	  453.216654
    0.028203	    0.020882	    0.013641	    0.006478	   -0.000609	  492.965456	  483.074695	  473.290707	  463.611771	  454.036204
    0.025065	    0.018353	    0.011702	    0.005111	   -0.001419	  494.362795	  484.231288	  474.192286	  464.244527	  454.386774
    0.020684	    0.014828	    0.009024	    0.003271	   -0.002431	  496.373620	  485.849596	  475.418873	  465.080214	  454.832407
    0.020088	    0.014233	    0.008428	    0.002671	   -0.003036	  496.643158	  486.121631	  475.689213	  465.344778	  455.087217
    0.018898	    0.013097	    0.007340	    0.001627	   -0.004043	  497.150939	  486.625880	  476.181489	  465.816843	  455.531031
    0.017478	    0.011822	    0.006215	    0.000657	   -0.004853	  497.785265	  487.170410	  476.647601	  466.215646	  455.873373
    0.014129	    0.009137	    0.004176	   -0.000752	   -0.005649	  499.209956	  488.342265	  477.545140	  466.817897	  456.159859
    0.011533	    0.006583	    0.001666	   -0.003217	   -0.008068	  500.350491	  489.458263	  478.640008	  467.894974	  457.222420
    0.007564	    0.003320	   -0.000900	   -0.005095	   -0.009267	  502.073810	  490.889897	  479.770129	  468.713956	  457.720834
    0.004583	    0.001006	   -0.002558	   -0.006108	   -0.009644	  503.402051	  491.943150	  480.528605	  469.158161	  457.831561
    0.003190	   -0.000133	   -0.003445	   -0.006747	   -0.010038	  504.000481	  492.440106	  480.916552	  469.429645	  457.979209
    0.002987	   -0.000492	   -0.003957	   -0.007408	   -0.010846	  504.116290	  492.602690	  481.135824	  469.715408	  458.341161
    0.002390	   -0.000986	   -0.004350	   -0.007702	   -0.011042	  504.368606	  492.819146	  481.312086	  469.847192	  458.424234
    0.002788	   -0.000638	   -0.004052	   -0.007453	   -0.010841	  504.200275	  492.667640	  481.178468	  469.732516	  458.329538
    0.003386	   -0.000337	   -0.004048	   -0.007747	   -0.011434	  503.927157	  492.537550	  481.184916	  469.869075	  458.589850
    0.002987	   -0.000438	   -0.003850	   -0.007251	   -0.010638	  504.106039	  492.574716	  481.085711	  469.638790	  458.233723
    0.002589	   -0.000737	   -0.004050	   -0.007350	   -0.010638	  504.294811	  492.711655	  481.172253	  469.676358	  458.223723
    0.002987	   -0.000487	   -0.003949	   -0.007399	   -0.010837	  504.126039	  492.612553	  481.140111	  469.708493	  458.317483
    0.002590	   -0.000783	   -0.004145	   -0.007496	   -0.010835	  504.294349	  492.741662	  481.227898	  469.752858	  458.316348
    0.002390	   -0.000933	   -0.004244	   -0.007545	   -0.010835	  504.388629	  492.814725	  481.279822	  469.783726	  458.326240
    0.001195	   -0.001927	   -0.005040	   -0.008142	   -0.011234	  504.924231	  493.262310	  481.638666	  470.053109	  458.505452
    0.000996	   -0.002283	   -0.005548	   -0.008802	   -0.012043	  505.018604	  493.418332	  481.861710	  470.348494	  458.878438
    0.000797	   -0.002579	   -0.005943	   -0.009296	   -0.012638	  505.102800	  493.551583	  482.039093	  470.565136	  459.129519
    0.000398	   -0.002776	   -0.005940	   -0.009094	   -0.012237	  505.281408	  493.639872	  482.037592	  470.474371	  458.950010
    0.000796	   -0.002429	   -0.005644	   -0.008847	   -0.012039	  505.112883	  493.486764	  481.902104	  470.358681	  458.856276
    0.000597	   -0.002678	   -0.005943	   -0.009196	   -0.012437	  505.207157	  493.604031	  482.041062	  470.518042	  459.034764
    0.001195	   -0.002179	   -0.005541	   -0.008892	   -0.012232	  504.934414	  493.379858	  481.864056	  470.386813	  458.947937
    0.000797	   -0.002427	   -0.005640	   -0.008843	   -0.012036	  505.122666	  493.500778	  481.915697	  470.367247	  458.855256
    0.000796	   -0.002529	   -0.005842	   -0.009144	   -0.012435	  505.122950	  493.540738	  481.998620	  470.496387	  459.033835
    0.000398	   -0.002777	   -0.005942	   -0.009096	   -0.012239	  505.291367	  493.647673	  482.043166	  470.477649	  458.950925
    0.000597	   -0.002576	   -0.005739	   -0.008891	   -0.012034	  505.207106	  493.559442	  481.949846	  470.378132	  458.844116
    0.000597	   -0.002626	   -0.005839	   -0.009042	   -0.012234	  505.197106	  493.578331	  481.997487	  470.454389	  458.948851
    0.001196	   -0.002325	   -0.005837	   -0.009339	   -0.012831	  504.923886	  493.451028	  482.009660	  470.599655	  459.220882
    0.000797	   -0.002575	   -0.005937	   -0.009288	   -0.012630	  505.102741	  493.555009	  482.041461	  470.561944	  459.116307
    0.000796	   -0.002479	   -0.005743	   -0.008995	   -0.012237	  505.112875	  493.512144	  481.951561	  470.430919	  458.950010
    0.001194	   -0.002184	   -0.005550	   -0.008902	   -0.012242	  504.944538	  493.382311	  481.864726	  470.391525	  458.962452
    0.000796	   -0.002381	   -0.005545	   -0.008698	   -0.011838	  505.123100	  493.467800	  481.857627	  470.292322	  458.771623
    0.000398	   -0.002827	   -0.006041	   -0.009243	   -0.012435	  505.291479	  493.666762	  482.082368	  470.538086	  459.033710
    0.000796	   -0.002478	   -0.005742	   -0.008993	   -0.012234	  505.112950	  493.509395	  481.946018	  470.422614	  458.938973
    0.000995	   -0.002278	   -0.005540	   -0.008791	   -0.012031	  505.028698	  493.426453	  481.863235	  470.338848	  458.853096
    0.000597	   -0.002776	   -0.006139	   -0.009490	   -0.012831	  505.207207	  493.651946	  482.134239	  470.653902	  459.210754
    0.000398	   -0.002776	   -0.005939	   -0.009091	   -0.012232	  505.301513	  493.652680	  482.044259	  470.476040	  458.947814
    0.001194	   -0.002077	   -0.005337	   -0.008587	   -0.011826	  504.944550	  493.343345	  481.780038	  470.254442	  458.766374
    0.000398	   -0.002778	   -0.005942	   -0.009095	   -0.012237	  505.301505	  493.649802	  482.040828	  470.474350	  458.950132
    0.000796	   -0.002529	   -0.005843	   -0.009145	   -0.012435	  505.113002	  493.534163	  481.996543	  470.499923	  459.044083
    0.000796	   -0.002529	   -0.005843	   -0.009145	   -0.012435	  505.122994	  493.539186	  481.996556	  470.494887	  459.033959
    0.000996	   -0.002327	   -0.005639	   -0.008941	   -0.012232	  505.028470	  493.451265	  481.910596	  470.406292	  458.938181
    0.000797	   -0.002375	   -0.005537	   -0.008689	   -0.011831	  505.122784	  493.474080	  481.862267	  470.287169	  458.748614
    0.000797	   -0.002525	   -0.005837	   -0.009138	   -0.012430	  505.122784	  493.544589	  482.001790	  470.494223	  459.021728
    0.000597	   -0.002773	   -0.006133	   -0.009484	   -0.012826	  505.207088	  493.655732	  482.137332	  470.651747	  459.198838
    0.000398	   -0.002973	   -0.006335	   -0.009687	   -0.013029	  505.301384	  493.748790	  482.230207	  470.745487	  459.294480
    0.000597	   -0.002674	   -0.005936	   -0.009187	   -0.012427	  505.207195	  493.605733	  482.040941	  470.512646	  459.020675
    0.000796	   -0.002475	   -0.005737	   -0.008988	   -0.012229	  505.122859	  493.519032	  481.951920	  470.421348	  458.927145
    0.000399	   -0.002766	   -0.005924	   -0.009075	   -0.012220	  505.281216	  493.651294	  482.046612	  470.467087	  458.912638
    0.000398	   -0.002725	   -0.005838	   -0.008940	   -0.012031	  505.301501	  493.626394	  481.991804	  470.397521	  458.843337
    0.000797	   -0.002524	   -0.005835	   -0.009136	   -0.012427	  505.112776	  493.536091	  481.993593	  470.485130	  459.010551
    0.001195	   -0.002228	   -0.005640	   -0.009040	   -0.012430	  504.944378	  493.407719	  481.908512	  470.446576	  459.021728
    0.000995	   -0.002378	   -0.005740	   -0.009090	   -0.012430	  505.018742	  493.461595	  481.943173	  470.463281	  459.021728
    0.000996	   -0.002322	   -0.005631	   -0.008931	   -0.012222	  505.028386	  493.453730	  481.909828	  470.396556	  458.913795
    0.000199	   -0.002918	   -0.006027	   -0.009128	   -0.012222	  505.375644	  493.717014	  482.087234	  470.486196	  458.913795
    0.000398	   -0.002970	   -0.006330	   -0.009681	   -0.013023	  505.291355	  493.740768	  482.220829	  470.731415	  459.272404
    0.000796	   -0.002477	   -0.005739	   -0.008990	   -0.012229	  505.143061	  493.529043	  481.955169	  470.421231	  458.927023
    0.000797	   -0.002570	   -0.005929	   -0.009279	   -0.012620	  505.102701	  493.555961	  482.038656	  470.550675	  459.091905
   -0.000199	   -0.003166	   -0.006125	   -0.009076	   -0.012019	  505.564302	  493.830613	  482.128419	  470.457591	  458.818005
    0.000597	   -0.002770	   -0.006129	   -0.009479	   -0.012821	  505.207076	  493.656190	  482.135885	  470.646042	  459.186538
    0.000797	   -0.002668	   -0.006126	   -0.009576	   -0.013018	  505.102551	  493.605881	  482.134947	  470.689662	  459.269940
    0.000598	   -0.002720	   -0.006028	   -0.009328	   -0.012620	  505.217026	  493.641529	  482.095585	  470.579082	  459.091905
   -0.000199	   -0.003316	   -0.006426	   -0.009527	   -0.012620	  505.564321	  493.901318	  482.268346	  470.665289	  459.092031
    0.000797	   -0.002621	   -0.006030	   -0.009431	   -0.012823	  505.112634	  493.584953	  482.086654	  470.617624	  459.177752
    0.000398	   -0.002869	   -0.006129	   -0.009380	   -0.012623	  505.291321	  493.699831	  482.138040	  470.605834	  459.103100
    0.000996	   -0.002526	   -0.006038	   -0.009539	   -0.013029	  505.038554	  493.547861	  482.092122	  470.671178	  459.284871
    0.000398	   -0.002870	   -0.006129	   -0.009380	   -0.012623	  505.301351	  493.705678	  482.140827	  470.606675	  459.103100
    0.000598	   -0.002715	   -0.006021	   -0.009320	   -0.012613	  505.196919	  493.634270	  482.095379	  470.580172	  459.088577
    0.000996	   -0.002473	   -0.005933	   -0.009383	   -0.012823	  505.018460	  493.513599	  482.040280	  470.598374	  459.187752
    0.000398	   -0.003020	   -0.006429	   -0.009829	   -0.013221	  505.301351	  493.773546	  482.275117	  470.805951	  459.365937
    0.000398	   -0.003018	   -0.006427	   -0.009827	   -0.013219	  505.291347	  493.767536	  482.271891	  470.804309	  459.364687
    0.000399	   -0.003017	   -0.006425	   -0.009825	   -0.013219	  505.291246	  493.770032	  482.273609	  470.801898	  459.354819
    0.000797	   -0.002918	   -0.006626	   -0.010327	   -0.014020	  505.102400	  493.720636	  482.361934	  471.026222	  459.713433
