   42.680328	   43.673660	   44.714792	   45.807259	   46.954955	-17376.183770	-18338.623748	-19347.377287	-20405.869785	-21517.872973
   44.110169	   45.081901	   46.098265	   47.162407	   48.277778	-17975.709915	-18946.375573	-19961.623899	-21024.598611	-22138.746111
   45.675439	   46.296713	   46.935477	   47.592482	   48.268519	-18630.608509	-19470.193433	-20333.414935	-21221.285414	-22134.875926
   43.764706	   44.997214	   46.301338	   47.683507	   49.150943	-17830.506471	-18909.836295	-20051.881837	-21262.272915	-22547.333962
   43.400000	   44.425303	   45.500594	   46.629621	   47.816514	-17677.702000	-18662.899930	-19696.130896	-20780.995424	-21921.463119
   42.333333	   43.669800	   45.093732	   46.614005	   48.240741	-17231.233333	-18337.135023	-19515.412527	-20773.411161	-22119.505000
   39.446970	   40.442810	   41.490168	   42.593149	   43.756303	-16021.471364	-16944.465234	-17915.208504	-18937.504904	-20015.573193
   36.180556	   36.298081	   36.416314	   36.535261	   36.654930	-14651.080139	-15154.981139	-15661.917352	-16171.916284	-16685.005775
   33.352564	   32.788729	   32.243198	   31.715093	   31.203593	-13465.065577	-13639.658248	-13808.583188	-13972.111973	-14130.499102
   31.914110	   31.396248	   30.894563	   30.408308	   29.936782	-12861.574294	-13038.156639	-13209.223051	-13375.028009	-13535.810575
   32.729560	   31.687212	   30.708914	   29.788939	   28.922222	-13202.776101	-13163.914990	-13127.441825	-13093.143064	-13060.829889
   36.405594	   35.778221	   35.172130	   34.586257	   34.019608	-14743.919441	-14929.625848	-15109.032351	-15282.454182	-15450.185882
   42.647541	   42.921258	   43.198641	   43.479765	   43.764706	-17362.040246	-18013.453302	-18673.591990	-19342.632811	-20020.757059
   46.891892	   47.980349	   49.120940	   50.317502	   51.574257	-19141.692703	-20197.675609	-21304.236455	-22465.098160	-23684.358218
   48.663551	   49.719266	   50.822304	   51.975920	   53.183673	-19883.521402	-20947.533209	-22059.239735	-23221.921403	-24439.166531
   46.088496	   47.785345	   49.612342	   51.585058	   53.721649	-18805.510531	-20113.969493	-21522.786840	-23043.969206	-24691.518041
   47.336364	   48.792905	   50.343074	   51.996198	   53.762887	-19328.389727	-20548.533696	-21847.109452	-23231.930612	-24711.884330
   47.798165	   49.158862	   50.599801	   52.128296	   53.752577	-19521.391193	-20706.410331	-21961.311979	-23292.465576	-24707.038866
   47.345455	   48.800366	   50.348523	   51.999187	   53.762887	-19331.725455	-20551.593619	-21849.643594	-23233.640258	-24712.411959
   48.203704	   49.479250	   50.825139	   52.247354	   53.752577	-19691.331852	-20844.442517	-22061.143666	-23346.844682	-24707.586392
   46.927928	   48.457811	   50.090878	   51.837933	   53.711340	-19157.241081	-20404.427038	-21735.730179	-23159.957498	-24687.189897
   47.372727	   49.395347	   51.598446	   54.007309	   56.652174	-19343.132727	-20808.368985	-22404.348988	-24149.389433	-26065.396087
   47.354545	   49.147148	   51.081264	   53.174339	   55.446809	-19335.998091	-20701.587029	-22174.979315	-23769.464962	-25500.612128
   47.363636	   48.927847	   50.599474	   52.389976	   54.312500	-19339.797273	-20606.977842	-21961.177461	-23411.678422	-24969.131875
   47.336364	   49.018313	   50.825164	   52.771366	   54.873684	-19327.926364	-20645.617077	-22061.159100	-23585.872352	-25232.892842
   47.788991	   49.378331	   51.077267	   52.897541	   54.852632	-19517.089266	-20800.818998	-22173.070986	-23643.328557	-25222.479789
   47.798165	   49.389708	   51.091301	   52.914766	   54.873684	-19521.869174	-20806.366113	-22179.681550	-23651.357623	-25232.354105
   47.798165	   49.278802	   50.854956	   52.536177	   54.333333	-19521.859174	-20758.352600	-22074.612698	-23478.615401	-24979.436667
   48.231481	   49.735798	   51.337527	   53.046444	   54.873684	-19702.960741	-20955.372189	-22288.882877	-23711.633694	-25232.892842
   47.372727	   48.931594	   50.596616	   52.379018	   54.291667	-19343.112727	-20608.482160	-21960.019960	-23406.838143	-24959.380417
   48.691589	   50.100227	   51.593021	   53.177744	   54.863158	-19895.248785	-21112.171702	-22401.796566	-23770.839070	-25226.868316
   48.222222	   49.728190	   51.331963	   53.043389	   54.873684	-19699.081111	-20951.875412	-22286.032840	-23709.745651	-25232.344105
   48.231481	   49.613564	   51.077412	   52.630501	   54.281250	-19702.478426	-20902.310661	-22173.125674	-23521.414546	-24954.484688
   47.770642	   49.485881	   51.330054	   53.318269	   55.468085	-19509.879083	-20847.152685	-22284.949495	-23835.046692	-25511.135957
   47.807339	   49.276709	   50.839185	   52.503907	   54.281250	-19525.225229	-20757.369244	-22067.588118	-23463.545480	-24953.941875
   46.079646	   47.997901	   50.083491	   52.359311	   54.852632	-18802.283274	-20205.969635	-21732.104049	-23397.439530	-25221.931263
   47.345455	   48.678817	   50.089809	   51.585411	   53.173469	-19332.188909	-20499.859171	-21735.511173	-23045.259763	-24435.975816
   48.700935	   49.991746	   51.353189	   52.791223	   54.312500	-19899.641589	-21065.886015	-22295.945712	-23595.205837	-24969.675000
   48.654206	   49.836641	   51.079031	   52.386053	   53.762887	-19880.092150	-20998.562301	-22173.743274	-23410.060453	-24712.411959
   47.752294	   49.239193	   50.823152	   52.513995	   54.322917	-19502.678532	-20740.936376	-22060.023043	-23468.119859	-24974.550833
   48.212963	   49.482767	   50.821867	   52.236096	   53.731959	-19695.201481	-20846.098228	-22059.802764	-23341.600722	-24697.387938
   46.918919	   48.457847	   50.102037	   51.862672	   53.752577	-19153.935405	-20404.486717	-21740.575712	-23171.289329	-24707.048866
   47.363636	   49.156582	   51.091068	   53.184543	   55.457447	-19339.807273	-20705.657902	-22179.332404	-23774.123304	-25505.601702
   49.141509	   50.217750	   51.342699	   52.519740	   53.752577	-20083.771038	-21162.984417	-22291.041086	-23471.333658	-24707.576392
   49.113208	   49.957041	   50.831121	   51.737104	   52.676768	-20072.403962	-21050.623572	-22063.906676	-23114.172911	-24203.484646
   47.336364	   49.016464	   50.821009	   52.764355	   54.863158	-19328.399727	-20645.152363	-22059.435860	-23582.503015	-25227.406947
   46.900901	   48.667034	   50.572592	   52.634764	   54.873684	-19146.395495	-20494.558810	-21949.151011	-23523.292819	-25232.354105
   47.798165	   49.269180	   50.833687	   52.500892	   54.281250	-19521.391193	-20754.162410	-22065.284090	-23462.470899	-24954.484687
   47.798165	   49.389707	   51.091299	   52.914765	   54.873684	-19521.391193	-20805.992305	-22179.419820	-23651.216803	-25232.344105
   47.354545	   48.805921	   50.349761	   51.995190	   53.752577	-19335.514545	-20554.154282	-21850.430299	-23232.005694	-24707.586392
   46.918919	   48.795972	   50.830351	   53.042702	   55.457447	-19153.476216	-20550.004791	-22063.584422	-23709.574882	-25506.146277
   48.672897	   49.969007	   51.336783	   52.782338	   54.312500	-19887.427196	-21055.441819	-22288.039643	-23590.729481	-24969.665000
   47.345455	   49.139534	   51.075586	   53.171157	   55.446809	-19332.198909	-20698.220541	-22172.340617	-23767.919106	-25500.612128
   46.491071	   48.558896	   50.820191	   53.303441	   56.043011	-18974.678750	-20447.964168	-22059.093462	-23828.361522	-25780.252903
   47.788991	   49.382122	   51.085717	   52.911680	   54.873684	-19517.567156	-20802.647845	-22176.833838	-23649.725590	-25232.354105
   46.918919	   48.457847	   50.102037	   51.862672	   53.752577	-19153.466216	-20404.244196	-21740.575391	-23171.548391	-24707.586392
   47.354545	   49.035291	   50.840525	   52.784612	   54.884211	-19335.998091	-20653.261830	-22068.092319	-23591.746260	-25237.281263
   46.918919	   48.568784	   50.339685	   52.245446	   54.302083	-19153.466216	-20451.963937	-21845.720055	-23345.616004	-24964.256146
   48.250000	   49.868074	   51.598514	   53.453447	   55.446809	-19710.710000	-21012.465936	-22404.621963	-23896.933530	-25500.612128
   47.345455	   49.024029	   50.826612	   52.767473	   54.863158	-19332.198909	-20648.499969	-22062.046024	-23584.026728	-25227.416947
   48.691589	   49.982153	   51.343335	   52.781096	   54.302083	-19895.248785	-21061.253948	-22291.061901	-23590.056800	-24964.246146
   47.345455	   48.682693	   50.098298	   51.599366	   53.193878	-19332.198909	-20501.358665	-21739.034903	-23051.432356	-24445.528265
   48.240741	   49.509272	   50.846788	   52.259073	   53.752577	-19706.830370	-20857.614526	-22070.980011	-23352.174408	-24707.048866
   48.240741	   49.396128	   50.608885	   51.883392	   53.224490	-19706.830370	-20808.731428	-21965.345880	-23180.852552	-24459.866939
   47.345455	   48.680755	   50.094053	   51.592389	   53.183673	-19331.715455	-20500.115806	-21736.764562	-23047.821392	-24440.210204
   47.336364	   48.792903	   50.343071	   51.996196	   53.762887	-19328.389727	-20548.649094	-21847.348902	-23232.303758	-24712.401959
   47.336364	   48.901558	   50.574536	   52.366826	   54.291667	-19327.916364	-20595.321337	-21950.002931	-23401.297738	-24959.923333
   48.240741	   49.860414	   51.592874	   53.450328	   55.446809	-19707.322778	-21009.452396	-22402.256986	-23895.549567	-25500.612128
   48.672897	   49.971019	   51.341165	   52.789501	   54.322917	-19887.903925	-21056.587860	-22290.114602	-23594.034706	-24974.550833
   46.927928	   48.916262	   51.081038	   53.446833	   56.043011	-19157.720360	-20602.335259	-22175.143772	-23894.001807	-25780.242903
   47.779817	   49.378317	   51.088571	   52.922721	   54.894737	-19514.678716	-20801.599242	-22178.489831	-23655.127090	-25242.757368
   47.327273	   49.019967	   50.840297	   52.803263	   54.926316	-19325.537091	-20646.898738	-22067.895743	-23600.238913	-25257.549158
   47.779817	   49.613002	   51.593725	   53.740545	   56.075269	-19514.678716	-20902.624427	-22402.274867	-24027.680792	-25795.352581
   47.309091	   49.001145	   50.820787	   52.783012	   54.905263	-19317.928364	-20638.789186	-22059.247967	-23591.011163	-25247.694632
   46.909910	   48.674572	   50.578209	   52.637909	   54.873684	-19150.649550	-20498.271335	-21952.023364	-23524.956780	-25232.354105
   47.761468	   49.597611	   51.582229	   53.734092	   56.075269	-19507.000275	-20895.815276	-22396.933866	-24024.551788	-25795.362581
   48.203704	   49.714901	   51.325109	   53.044389	   54.884211	-19692.295926	-20946.626976	-22283.139641	-23710.184060	-25237.281263
   49.103774	   50.425917	   51.822133	   53.298825	   54.863158	-20068.962170	-21253.152098	-22503.685436	-23826.298123	-25227.406947
   47.761468	   49.476380	   51.320202	   53.308038	   55.457447	-19507.000275	-20843.805271	-22281.098545	-23830.653223	-25506.156277
   48.663551	   50.440605	   52.353201	   54.417462	   56.652174	-19884.494673	-21259.421764	-22739.219945	-24336.363338	-26065.386087
   46.909910	   48.790158	   50.828715	   53.046454	   55.468085	-19150.639550	-20548.053167	-22063.123469	-23711.362834	-25511.135957
   47.770642	   49.601655	   51.579678	   53.723159	   56.053763	-19510.824495	-20897.818003	-22396.172738	-24019.861361	-25785.296129
   47.770642	   49.719841	   51.835999	   54.141530	   56.663043	-19511.322202	-20949.202851	-22510.246535	-24210.985780	-26071.050652
   47.788991	   49.503025	   51.345576	   53.331658	   55.478723	-19518.025046	-20854.996407	-22292.211621	-23841.383981	-25516.125638
   47.761468	   49.597611	   51.582229	   53.734092	   56.075269	-19507.000275	-20895.815276	-22396.933866	-24024.551788	-25795.362581
   47.770642	   49.023000	   50.343773	   51.738725	   53.214286	-19510.834495	-20648.301728	-21847.907763	-23114.887469	-24455.080714
   48.682243	   50.098544	   51.600541	   53.196254	   54.894737	-19892.306636	-21111.957226	-22405.404920	-23779.556507	-25242.208421
   48.222222	   49.852708	   51.598603	   53.472608	   55.489362	-19699.573333	-21005.714565	-22404.306390	-23905.524622	-25521.095319
   48.222222	   50.205051	   52.358651	   54.706075	   57.274725	-19699.573333	-21157.873611	-22741.769937	-24468.217894	-26357.368901
   46.909910	   49.019319	   51.328821	   53.868301	   56.673913	-19150.659550	-20646.836023	-22284.934924	-24086.155129	-26076.138696
   47.770642	   49.489596	   51.338420	   53.332410	   55.489362	-19510.844495	-20849.325414	-22288.931258	-23841.572237	-25521.105319
   47.345455	   48.916577	   50.596791	   52.397867	   54.333333	-19333.145818	-20602.631746	-21960.264960	-23415.556476	-24979.436667
   47.779817	   49.380206	   51.092785	   52.929781	   54.905263	-19514.200917	-20802.075718	-22180.233305	-23658.512047	-25248.233684
   47.788991	   49.382122	   51.085717	   52.911680	   54.873684	-19518.035046	-20803.008293	-22177.079381	-23649.847959	-25232.344105
   47.327273	   49.010750	   50.819562	   52.768248	   54.873684	-19324.590545	-20642.510633	-22058.550281	-23584.090704	-25232.344105
   47.779817	   49.493521	   51.335719	   53.321424	   55.468085	-19514.200917	-20850.909638	-22287.844336	-23836.716437	-25511.135957
   47.372727	   49.164192	   51.096739	   53.187719	   55.457447	-19343.616455	-20709.149713	-22182.222719	-23776.059807	-25506.146277
   47.779817	   49.259889	   50.835442	   52.516025	   54.312500	-19513.713119	-20749.961752	-22065.962427	-23469.689736	-24970.218125
   47.345455	   49.494530	   51.849455	   54.441294	   57.307692	-19332.672364	-20851.513932	-22515.838382	-24347.599869	-26373.403846
   47.788991	   49.267422	   50.840946	   52.519045	   54.312500	-19517.557156	-20753.174875	-22068.268700	-23470.761398	-24969.665000
   47.761468	   49.357467	   51.064742	   52.895351	   54.863158	-19506.532661	-20792.337531	-22167.790763	-23642.606646	-25227.955579
   48.240741	   49.739526	   51.334505	   53.035247	   54.852632	-19706.840370	-20957.126831	-22287.658716	-23706.417581	-25222.479789
   48.231481	   49.848934	   51.578710	   53.432933	   55.425532	-19702.970741	-21004.348728	-22396.101339	-23887.981359	-25491.197234
   48.682243	   49.978599	   51.346635	   52.792464	   54.322917	-19891.342991	-21059.705765	-22292.670753	-23595.748368	-24975.094062
   47.354545	   49.033441	   50.836368	   52.777599	   54.873684	-19335.998091	-20652.551287	-22066.367928	-23588.639767	-25232.344105
   47.788991	   49.380228	   51.081495	   52.904613	   54.863158	-19517.079266	-20801.541770	-22174.821233	-23646.459724	-25227.416947
   48.700935	   49.987713	   51.344410	   52.776884	   54.291667	-19899.154579	-21063.825225	-22291.780175	-23588.321462	-24959.360417
   48.212963	   49.724446	   51.334960	   53.054566	   54.894737	-19695.211481	-20950.121271	-22287.250903	-23714.954435	-25242.757368
   49.141509	   50.099319	   51.095761	   52.133221	   53.214286	-20083.771038	-21111.787307	-22181.268253	-23294.774205	-24455.080714
   47.798165	   49.267253	   50.829429	   52.493831	   54.270833	-19521.391193	-20753.421977	-22063.520446	-23459.349525	-24949.608958
   48.250000	   49.628667	   51.088371	   52.636471	   54.281250	-19710.227500	-20908.995848	-22178.226190	-23524.319127	-24954.474688
   47.363636	   48.925966	   50.595285	   52.382973	   54.302083	-19339.797273	-20606.253786	-21959.438278	-23408.575409	-24964.246146
   47.363636	   49.158402	   51.095194	   53.191565	   55.468085	-19339.333636	-20706.106325	-22181.036556	-23777.491560	-25511.135957
   46.927928	   48.801783	   50.831983	   53.038946	   55.446809	-19157.251081	-20552.568293	-22064.303383	-23707.660565	-25500.612128
   49.150943	   50.707686	   52.366347	   54.137272	   56.032258	-20087.222264	-21373.999415	-22745.019736	-24208.836091	-25775.199677
   47.363636	   49.269124	   51.334426	   53.580528	   56.032258	-19339.333636	-20753.906155	-22287.119811	-23954.553686	-25774.639355
   47.788991	   49.497434	   51.332999	   53.310422	   55.446809	-19517.079266	-20851.990992	-22286.230485	-23831.312262	-25500.602128
   48.682243	   49.972559	   51.333481	   52.770967	   54.291667	-19891.342991	-21056.993868	-22286.429242	-23585.031821	-24958.807500
   48.682243	   49.853100	   51.081980	   52.373305	   53.731959	-19890.846168	-21005.317075	-22175.016419	-23404.153836	-24697.377938
   48.672897	   49.964981	   51.328015	   52.768008	   54.291667	-19887.437196	-21053.769295	-22284.146095	-23583.991678	-24959.360417
   47.345455	   49.027727	   50.834923	   52.781494	   54.884211	-19331.725455	-20649.549315	-22065.233323	-23590.098297	-25237.281263
   47.354545	   49.261461	   51.328674	   53.577282	   56.032258	-19335.534545	-20750.521348	-22284.453167	-23952.985959	-25774.649355
   46.517857	   48.468810	   50.590842	   52.907488	   55.446809	-18985.407321	-20408.964703	-21957.354227	-23647.748684	-25500.622128
   47.788991	   49.145518	   50.581524	   52.104204	   53.721649	-19517.079266	-20700.473215	-21953.201641	-23281.541844	-24692.552474
   48.240741	   49.507273	   50.842439	   52.251974	   53.742268	-19706.830370	-20856.840727	-22069.170725	-23349.027141	-24702.213402
   47.779817	   49.256042	   50.826938	   52.501914	   54.291667	-19513.723119	-20748.239742	-22061.926381	-23462.651134	-24959.360417
   47.372727	   49.276789	   51.340181	   53.583776	   56.032258	-19343.132727	-20757.297742	-22289.798955	-23956.138383	-25774.649355
   47.788991	   49.145517	   50.581523	   52.104203	   53.721649	-19517.079266	-20700.470088	-21953.195745	-23281.533625	-24692.542474
   47.798165	   49.154952	   50.591233	   52.114204	   53.731959	-19521.391193	-20704.902699	-21957.755483	-23286.227452	-24697.377938
   48.250000	   49.518772	   50.856542	   52.269096	   53.762887	-19710.710000	-20861.831997	-22075.554520	-23357.126830	-24712.401959
   48.250000	   49.868072	   51.598512	   53.453445	   55.446809	-19710.227500	-21012.088564	-22404.357730	-23896.791389	-25500.602128
   48.222222	   49.377170	   50.589466	   51.863491	   53.204082	-19698.598889	-20800.187678	-21956.475259	-23171.639413	-24450.294490
   47.363636	   49.039148	   50.837803	   52.773697	   54.863158	-19339.333636	-20654.822189	-22066.994348	-23586.915585	-25227.406947
   47.770642	   49.134463	   50.579233	   52.112380	   53.742268	-19509.879083	-20695.720225	-21951.946677	-23285.016654	-24702.203402
   48.231481	   49.731921	   51.328947	   53.032196	   54.852632	-19702.478426	-20953.382818	-22284.811025	-23704.796904	-25222.479789
   47.788991	   49.378331	   51.077267	   52.897541	   54.852632	-19517.567156	-20801.189382	-22173.326438	-23643.460852	-25222.479789
   48.240741	   49.625058	   51.091536	   52.647715	   54.302083	-19706.347963	-20907.168201	-22179.259347	-23529.160548	-24964.236146
   47.798165	   49.393494	   51.099743	   52.928899	   54.894737	-19521.391193	-20807.569823	-22183.174758	-23657.868445	-25242.757368
   47.372727	   49.048561	   50.847562	   52.783825	   54.873684	-19343.132727	-20658.876847	-22071.322519	-23591.537174	-25232.344105
   49.132075	   50.323037	   51.573369	   52.887624	   54.270833	-20079.838302	-21208.456936	-22393.338045	-23638.796259	-24949.598958
   48.700935	   49.985693	   51.340016	   52.769711	   54.281250	-19898.677570	-21062.676044	-22289.700428	-23585.012068	-24954.474687
   47.372727	   48.931590	   50.596611	   52.379014	   54.291667	-19343.132727	-20608.492245	-21960.021483	-23406.832820	-24959.370417
   47.798165	   49.389705	   51.091297	   52.914763	   54.873684	-19520.923211	-20805.628497	-22179.168090	-23651.085983	-25232.344105
   47.788991	   49.380226	   51.081491	   52.904609	   54.863158	-19517.567156	-20801.915545	-22175.074365	-23646.585133	-25227.406947
   47.354545	   49.031592	   50.832213	   52.770589	   54.863158	-19335.524545	-20651.479269	-22064.401110	-23585.417683	-25227.426947
   47.788991	   49.035885	   50.350180	   51.737492	   53.204082	-19517.557156	-20653.385429	-21850.610929	-23114.350187	-24450.304490
   46.500000	   48.566514	   50.825982	   53.306752	   56.043011	-18978.410000	-20451.331468	-22061.781972	-23829.966769	-25780.252903
   47.372727	   49.160548	   51.088481	   53.173669	   55.436170	-19343.132727	-20707.260407	-22178.295437	-23769.317936	-25495.632553
   47.345455	   48.910944	   50.584239	   52.376872	   54.302083	-19332.198909	-20599.607897	-21954.295577	-23405.598964	-24964.236146
   48.222222	   49.726253	   51.327676	   53.036268	   54.863158	-19699.081111	-20951.131761	-22284.257824	-23706.597747	-25227.416947
   48.222222	   49.726252	   51.327675	   53.036266	   54.863158	-19699.091111	-20951.014292	-22284.005244	-23706.201710	-25226.868316
   48.672897	   49.843530	   51.072175	   52.363254	   53.721649	-19887.913925	-21001.818181	-22170.923311	-23399.436889	-24692.005258
   47.779817	   49.256044	   50.826941	   52.501916	   54.291667	-19513.713119	-20748.236188	-22061.928455	-23462.657810	-24959.370417
   48.240741	   49.392075	   50.600136	   51.869224	   53.204082	-19706.830370	-20807.038980	-21961.456187	-23174.189569	-24449.772449
   47.381818	   49.166328	   51.090011	   53.169810	   55.425532	-19346.941818	-20709.931009	-22179.219434	-23767.747066	-25490.642979
   48.250000	   49.864250	   51.589984	   53.439166	   55.425532	-19710.227500	-21010.623706	-22400.829066	-23890.480064	-25490.642979
   47.788991	   49.037867	   50.354489	   51.744523	   53.214286	-19517.547156	-20654.145440	-21852.399101	-23117.464794	-24455.090714
   47.779817	   49.372642	   51.075911	   52.901526	   54.863158	-19513.245321	-20798.184026	-22172.219069	-23644.950035	-25227.406947
   47.354545	   49.029736	   50.828047	   52.763570	   54.852632	-19336.008091	-20651.016187	-22062.672629	-23582.038861	-25221.931263
   49.609524	   50.823744	   52.099095	   53.440311	   54.852632	-20279.378286	-21424.121893	-22626.497997	-23890.971274	-25222.479789
   48.240741	   49.862321	   51.597131	   53.457462	   55.457447	-19706.367963	-21009.442212	-22403.506973	-23898.437499	-25505.591702
   46.909910	   48.561293	   50.334139	   52.242362	   54.302083	-19150.180450	-20449.020015	-21843.392874	-23344.241568	-24964.246146
   47.807339	   49.278635	   50.843441	   52.510966	   54.291667	-19525.235229	-20758.239640	-22069.609913	-23467.062289	-24959.360417
   47.363636	   48.920317	   50.582709	   52.361957	   54.270833	-19339.323636	-20603.718307	-21953.975236	-23399.147899	-24949.608958
   47.345455	   48.569366	   49.858814	   51.219207	   52.656566	-19332.188909	-20452.444979	-21632.687089	-22877.865868	-24193.492121
   47.354545	   48.804009	   50.345539	   51.988196	   53.742268	-19335.534545	-20553.306333	-21848.428670	-23228.513030	-24702.203402
   48.240741	   49.856592	   51.584348	   53.436050	   55.425532	-19705.875556	-21006.863293	-22397.949787	-23888.830322	-25490.642979
   47.788991	   49.267422	   50.840946	   52.519045	   54.312500	-19517.557156	-20753.174875	-22068.268700	-23470.761398	-24969.665000
   48.231481	   49.497773	   50.832684	   52.241950	   53.731959	-19702.950741	-20852.743921	-22064.844605	-23344.458525	-24697.387938
   47.372727	   49.160548	   51.088481	   53.173669	   55.436170	-19343.132727	-20707.260407	-22178.295437	-23769.317936	-25495.632553
   48.250000	   49.866163	   51.594251	   53.446308	   55.436170	-19710.227500	-21011.359721	-22402.600011	-23893.644578	-25495.632553
   49.150943	   50.344424	   51.597628	   52.915154	   54.302083	-20087.222264	-21217.190107	-22403.703054	-23651.114415	-24964.236146
   47.363636	   48.811467	   50.350983	   51.991180	   53.742268	-19339.333636	-20556.604896	-21850.961980	-23229.966713	-24702.203402
   47.336364	   49.016467	   50.821013	   52.764358	   54.863158	-19327.916364	-20644.781468	-22059.184265	-23582.378160	-25227.416947
   49.150943	   50.104694	   51.096548	   52.128836	   53.204082	-20087.713774	-21114.279328	-22181.857907	-23292.957415	-24450.294490
   48.700935	   49.989729	   51.348799	   52.784054	   54.302083	-19899.164579	-21064.737796	-22293.867482	-23591.897758	-24964.789167
   48.682243	   50.211256	   51.839670	   53.577504	   55.436170	-19891.352991	-21160.221676	-22511.579713	-23953.741324	-25496.176915
   47.354545	   49.147147	   51.081262	   53.174337	   55.446809	-19336.008091	-20701.593507	-22174.982826	-23769.466239	-25500.612128
   47.798165	   49.741271	   51.849338	   54.144302	   56.652174	-19521.411193	-20957.553516	-22515.617615	-24211.817623	-26065.376087
   49.150943	   50.342362	   51.593173	   52.907930	   54.291667	-20087.222264	-21216.393460	-22401.853667	-23647.919476	-24959.360417
   47.807339	   49.397290	   51.096877	   52.917847	   54.873684	-19525.235229	-20809.352938	-22182.018795	-23652.718805	-25232.344105
   47.345455	   49.027727	   50.834923	   52.781494	   54.884211	-19331.725455	-20649.549315	-22065.233323	-23590.098297	-25237.281263
   47.779817	   49.376427	   51.084354	   52.915658	   54.884211	-19513.723119	-20800.010846	-22175.978678	-23651.344125	-25237.281263
   48.240741	   49.507271	   50.842437	   52.251972	   53.742268	-19706.357963	-20856.473259	-22068.914863	-23348.890193	-24702.203402
   47.788991	   49.380224	   51.081489	   52.904608	   54.863158	-19517.567156	-20801.788838	-22174.812864	-23646.179957	-25226.848316
   47.372727	   49.046709	   50.843401	   52.776810	   54.863158	-19343.132727	-20658.045667	-22069.347868	-23588.041252	-25226.868316
   47.345455	   48.912823	   50.588425	   52.383872	   54.312500	-19331.725455	-20600.086151	-21956.032805	-23408.962160	-24969.665000
   46.936937	   48.695376	   50.590958	   52.640379	   54.863158	-19160.556577	-20506.494755	-21957.404769	-23526.065313	-25227.416947
   48.231481	   49.731921	   51.328947	   53.032196	   54.852632	-19702.478426	-20953.382818	-22284.811025	-23704.796904	-25222.479789
   48.259259	   49.871905	   51.595617	   53.442279	   55.425532	-19713.624444	-21013.642329	-22403.195435	-23891.863394	-25490.642979
   49.628571	   50.592278	   51.594121	   52.636412	   53.721649	-20287.328857	-21324.526759	-22402.770402	-23524.545467	-24692.542474
   48.700935	   49.987711	   51.344407	   52.776882	   54.291667	-19899.164579	-21063.829109	-22291.778590	-23588.315194	-24959.350417
   48.691589	   50.220895	   51.849622	   53.587788	   55.446809	-19894.761869	-21163.861747	-22515.465294	-23957.888104	-25500.602128
   48.682243	   50.209300	   51.835340	   53.570309	   55.425532	-19891.352991	-21159.342438	-22509.522138	-23950.151039	-25490.632979
   48.231481	   49.378538	   50.581672	   51.845099	   53.173469	-19702.468426	-20801.007289	-21953.252269	-23163.240485	-24435.424082
   48.250000	   49.862337	   51.585718	   53.432024	   55.414894	-19709.745000	-21009.516565	-22398.805587	-23887.189707	-25485.663404
   48.700935	   49.868144	   51.092750	   52.379091	   53.731959	-19899.164579	-21012.359089	-22180.293510	-23407.107267	-24697.367938
   48.691589	   49.862668	   51.091782	   52.383353	   53.742268	-19895.258785	-21009.824288	-22179.623650	-23408.866975	-24702.203402
   48.682243	   49.732134	   50.828484	   51.974447	   53.173469	-19890.856168	-20953.216287	-22062.587663	-23222.161395	-24435.424082
   47.798165	   49.154951	   50.591232	   52.114203	   53.731959	-19520.923211	-20704.540866	-21957.506571	-23286.098900	-24697.377938
   48.240741	   49.978052	   51.845247	   53.857457	   56.032258	-19706.357963	-21059.556150	-22513.921310	-24081.239072	-25775.199677
   47.345455	   49.020326	   50.818293	   52.753445	   54.842105	-19331.725455	-20646.713105	-22058.346958	-23577.688136	-25217.552632
   49.132075	   50.203928	   51.323882	   52.495248	   53.721649	-20079.828302	-21157.085414	-22282.685450	-23459.957253	-24692.542474
   48.700935	   49.868145	   51.092751	   52.379092	   53.731959	-19899.164579	-21012.362064	-22180.299182	-23407.115302	-24697.377938
   47.807339	   49.508972	   51.335919	   53.302553	   55.425532	-19525.235229	-20857.570510	-22288.024244	-23827.849541	-25490.088723
   46.918919	   48.565106	   50.331433	   52.231548	   54.281250	-19153.476216	-20450.558250	-21842.301430	-23339.460774	-24954.484688
   48.240741	   49.856592	   51.584348	   53.436050	   55.425532	-19706.840370	-21007.611165	-22398.465664	-23889.097530	-25490.642979
   48.212963	   49.600424	   51.070764	   52.631635	   54.291667	-19695.683611	-20897.117729	-22170.317738	-23521.911846	-24959.370417
   48.259259	   49.754733	   51.345618	   53.041345	   54.852632	-19714.107037	-20963.362928	-22292.320788	-23708.859370	-25221.931263
   48.259259	   50.108152	   52.103435	   54.263211	   56.608696	-19714.107037	-21115.893134	-22628.668598	-24266.158511	-26044.448261
   47.336364	   49.018314	   50.825164	   52.771366	   54.873684	-19328.399727	-20645.862406	-22061.159430	-23585.608754	-25232.344105
   46.491071	   48.447848	   50.577707	   52.904676	   55.457447	-18974.678750	-20400.075145	-21951.552430	-23646.613068	-25506.156277
   48.663551	   50.077331	   51.576384	   53.168668	   54.863158	-19883.521402	-21102.159078	-22394.301098	-23766.804581	-25227.406947
   48.691589	   50.102210	   51.597376	   53.184922	   54.873684	-19895.258785	-21113.064229	-22403.858466	-23774.406052	-25232.334105
   48.240741	   49.743406	   51.343089	   53.049499	   54.873684	-19706.357963	-20958.246797	-22290.962135	-23712.592779	-25232.344105
   48.240741	   49.619142	   51.078565	   52.626369	   54.270833	-19706.357963	-20904.893189	-22173.877245	-23519.709586	-24949.588958
   47.336364	   48.905308	   50.582896	   52.380817	   54.312500	-19328.399727	-20597.127217	-21953.709373	-23407.598894	-24969.655000
   48.663551	   49.959413	   51.326928	   52.772209	   54.302083	-19883.531402	-21051.316577	-22283.673506	-23586.110132	-24964.779167
   47.779817	   49.026474	   50.340519	   51.727568	   53.193878	-19513.713119	-20649.327179	-21846.326605	-23109.826915	-24445.528265
   47.363636	   49.037295	   50.833643	   52.766682	   54.852632	-19339.333636	-20653.991035	-22065.019748	-23583.419741	-25221.931263
   47.779817	   49.372643	   51.075913	   52.901527	   54.863158	-19513.723119	-20798.434377	-22172.225484	-23644.694171	-25226.868316
   48.682243	   49.853099	   51.081978	   52.373303	   53.731959	-19891.342991	-21005.695077	-22175.270561	-23404.278758	-24697.367938
   47.788991	   49.497436	   51.333001	   53.310424	   55.446809	-19517.557156	-20852.365716	-22286.493586	-23831.454209	-25500.612128
   47.354545	   48.807826	   50.353971	   52.002175	   53.762887	-19335.524545	-20554.768615	-21851.921757	-23234.697955	-24711.864330
   47.770642	   49.254270	   50.834177	   52.520049	   54.322917	-19509.879083	-20747.239223	-22064.897069	-23470.931046	-24974.540833
   49.160377	   50.469818	   51.850865	   53.309557	   54.852632	-20091.174906	-21271.448891	-22516.265913	-23831.069084	-25221.931263
   48.222222	   49.609946	   51.080565	   52.641734	   54.302083	-19698.608889	-20900.486769	-22174.157969	-23526.253318	-24964.246146
   48.700935	   49.987712	   51.344409	   52.776883	   54.291667	-19898.677570	-21063.457234	-22291.527625	-23588.191359	-24959.360417
   48.212963	   49.480768	   50.817519	   52.228997	   53.721649	-19694.729352	-20844.960714	-22057.744320	-23338.325396	-24692.552474
   48.240741	   49.739527	   51.334507	   53.035248	   54.852632	-19706.347963	-20956.622667	-22287.141418	-23705.885575	-25221.931263
   49.141509	   50.699923	   52.360662	   54.134145	   56.032258	-20083.279623	-21370.439184	-22742.113176	-24206.907926	-25774.639355
   48.231481	   49.850846	   51.582975	   53.440073	   55.436170	-19702.960741	-21004.952494	-22397.609018	-23890.742160	-25495.632553
   49.150943	   50.582627	   52.100145	   53.711456	   55.425532	-20087.222264	-21320.132170	-22626.959649	-24014.557586	-25490.652979
   48.240741	   49.737585	   51.330213	   53.028121	   54.842105	-19706.347963	-20955.876976	-22285.363128	-23702.734752	-25217.004211
   48.231481	   49.617502	   51.086051	   52.644725	   54.302083	-19702.478426	-20903.826174	-22176.706114	-23527.703184	-24964.236146
   47.354545	   48.804009	   50.345539	   51.988196	   53.742268	-19336.008091	-20553.550512	-21848.428891	-23228.253262	-24701.665979
   47.807339	   49.278636	   50.843443	   52.510967	   54.291667	-19525.235229	-20758.242859	-22069.615944	-23467.070622	-24959.370417
   48.691589	   49.978119	   51.334555	   52.766756	   54.281250	-19895.258785	-21059.700020	-22287.414107	-23583.702207	-24954.474688
   47.363636	   48.813378	   50.355204	   51.998173	   53.752577	-19339.323636	-20557.335005	-21852.710760	-23233.063595	-24707.038866
   49.132075	   50.201836	   51.319398	   52.488038	   53.711340	-20079.818302	-21156.142714	-22280.561548	-23456.372046	-24687.179897
   49.150943	   50.462167	   51.845345	   53.306567	   54.852632	-20087.222264	-21268.056981	-22513.691005	-23829.608693	-25221.931263
   46.500000	   48.229579	   50.093417	   52.107779	   54.291667	-18977.945000	-20305.689820	-21736.501693	-23282.866191	-24959.370417
   48.682243	   49.972560	   51.333483	   52.770969	   54.291667	-19891.332991	-21057.239729	-22286.944000	-23585.829529	-24959.903333
   47.788991	   49.613368	   51.582835	   53.715419	   56.032258	-19517.557156	-20902.357085	-22397.288688	-24016.034009	-25774.639355
   48.682243	   49.498128	   50.342052	   51.215484	   52.120000	-19891.342991	-20852.644769	-21846.981863	-22876.086942	-23941.816000
   48.212963	   49.839332	   51.580198	   53.448093	   55.457447	-19695.221481	-20999.635691	-22395.880940	-23894.008417	-25505.591702
   46.909910	   48.334420	   49.848829	   51.461923	   53.183673	-19149.711351	-20351.083838	-21628.272844	-22988.689183	-24440.742041
   47.354545	   49.029739	   50.828052	   52.763574	   54.852632	-19335.998091	-20651.013008	-22062.675265	-23582.046014	-25221.941263
   49.150943	   50.221113	   51.339102	   52.508189	   53.731959	-20087.222264	-21164.199599	-22289.300402	-23465.823896	-24697.377938
   47.363636	   48.805729	   50.338318	   51.970198	   53.711340	-19339.333636	-20554.397589	-21845.710863	-23220.683304	-24687.717010
   48.691589	   50.218938	   51.845290	   53.580591	   55.436170	-19895.258785	-21163.491450	-22513.930099	-23954.835255	-25495.612553
   47.807339	   49.276708	   50.839183	   52.503905	   54.281250	-19524.757156	-20757.129623	-22067.592061	-23463.809645	-24954.484688
   48.222222	   49.492265	   50.831620	   52.246118	   53.742268	-19698.608889	-20849.951272	-22064.127044	-23346.424103	-24702.740825
   47.345455	   48.571332	   49.863086	   51.226172	   52.666667	-19332.188909	-20453.206276	-21634.464535	-22880.953567	-24198.230000
   47.354545	   48.688161	   50.099421	   51.595309	   53.183673	-19335.998091	-20503.764170	-21739.518513	-23049.376644	-24440.210204
   48.240741	   49.623088	   51.087216	   52.640602	   54.291667	-19706.347963	-20906.534199	-22177.724088	-23526.410616	-24959.903333
   47.798165	   49.273032	   50.842199	   52.515010	   54.302083	-19520.913211	-20755.398473	-22068.814773	-23468.982202	-24964.789167
   47.372727	   49.046707	   50.843399	   52.776808	   54.863158	-19343.132727	-20658.164845	-22069.595727	-23588.428469	-25227.406947
   46.918919	   48.454113	   50.093730	   51.848799	   53.731959	-19153.476216	-20402.814129	-21737.131185	-23165.402982	-24697.915258
   48.231481	   49.611592	   51.073087	   52.623385	   54.270833	-19702.478426	-20901.545853	-22171.322396	-23518.252661	-24949.588958
   48.259259	   49.636219	   51.093850	   52.639456	   54.281250	-19714.097037	-20912.338934	-22180.782022	-23525.781770	-24954.484688
   46.500000	   48.343129	   50.339268	   52.508293	   54.873684	-18978.420000	-20354.967287	-21845.789889	-23465.734048	-25232.334105
   48.231481	   49.613564	   51.077412	   52.630501	   54.281250	-19702.478426	-20902.310661	-22173.125674	-23521.414546	-24954.484688
   47.798165	   49.271105	   50.837942	   52.507950	   54.291667	-19521.401193	-20754.909111	-22067.050880	-23465.593199	-24959.360417
   47.770642	   49.365058	   51.070332	   52.898442	   54.863158	-19509.879083	-20795.196081	-22169.880128	-23643.587344	-25227.416947
   48.231481	   49.613564	   51.077412	   52.630501	   54.281250	-19702.478426	-20902.434651	-22173.381000	-23521.809227	-24955.027500
   47.363636	   49.037295	   50.833643	   52.766682	   54.852632	-19339.333636	-20653.991035	-22065.019748	-23583.419741	-25221.931263
   47.345455	   48.800364	   50.348520	   51.999184	   53.762887	-19332.198909	-20551.953323	-21849.883466	-23233.753739	-24712.391959
   48.700935	   49.989729	   51.348799	   52.784054	   54.302083	-19899.164579	-21064.612865	-22293.610797	-23591.501924	-24964.246146
   47.816514	   49.054197	   50.357599	   51.732098	   53.183673	-19529.069266	-20661.593245	-21854.252573	-23111.967527	-24440.210204
   47.798165	   49.154951	   50.591232	   52.114203	   53.731959	-19521.401193	-20704.909572	-21957.759587	-23286.229232	-24697.377938
   47.798165	   49.503205	   51.334462	   53.306490	   55.436170	-19521.401193	-20855.032583	-22287.387571	-23829.849686	-25495.622553
   47.788991	   49.613368	   51.582835	   53.715419	   56.032258	-19517.567156	-20902.367085	-22397.298688	-24016.044009	-25774.649355
   48.250000	   49.512772	   50.843492	   52.247795	   53.731959	-19710.227500	-20859.020057	-22069.627342	-23347.176528	-24697.377938
   49.590476	   50.324610	   51.081304	   51.861616	   52.666667	-20271.387714	-21208.653173	-22174.721613	-23170.941466	-24198.746667
   48.231481	   49.729980	   51.324655	   53.025070	   54.842105	-19702.468426	-20952.503359	-22282.766985	-23701.239138	-25216.994211
   48.240741	   49.505272	   50.838087	   52.244872	   53.731959	-19706.347963	-20855.692026	-22067.100587	-23345.740366	-24697.367938
   48.231481	   49.497772	   50.832683	   52.241949	   53.731959	-19702.468426	-20852.369576	-22064.584575	-23344.319729	-24697.377938
   48.222222	   49.607978	   51.076247	   52.634624	   54.291667	-19698.608889	-20899.726649	-22172.363074	-23523.101870	-24959.360417
   49.141509	   50.211474	   51.329249	   52.498113	   53.721649	-20083.279623	-21159.922216	-22284.673757	-23460.832502	-24692.005258
   48.682243	   50.090610	   51.583117	   53.167538	   54.852632	-19891.342991	-21108.026391	-22397.398626	-23766.174289	-25221.921263
   48.691589	   49.974083	   51.325772	   52.752413	   54.260417	-19894.761869	-21057.761423	-22283.509546	-23577.225344	-24944.723229
   48.231481	   49.848932	   51.578708	   53.432931	   55.425532	-19702.488426	-21003.846908	-22395.579353	-23887.438555	-25490.632979
   48.682243	   49.855144	   51.086393	   52.380457	   53.742268	-19891.342991	-21006.487977	-22177.108772	-23407.450654	-24702.203402
   47.354545	   49.379906	   51.586765	   54.000664	   56.652174	-19335.544545	-20801.547674	-22398.924024	-24146.161117	-26065.386087
   46.927928	   48.689649	   50.589440	   52.644197	   54.873684	-19157.251081	-20504.211149	-21956.736347	-23527.742983	-25232.344105
   48.663551	   49.840091	   51.075610	   52.374660	   53.742268	-19884.008037	-21000.194702	-22172.336389	-23404.748857	-24702.203402
   46.909910	   48.674571	   50.578206	   52.637906	   54.873684	-19149.711351	-20497.537467	-21951.510777	-23524.684618	-25232.344105
   49.179245	   50.485117	   51.861900	   53.315532	   54.852632	-20099.060189	-21278.217247	-22521.404816	-23833.983925	-25221.931263
   47.788991	   48.916909	   50.099658	   51.341338	   52.646465	-19517.557156	-20602.223316	-21739.618876	-22933.684664	-24188.764242
   47.788991	   48.802438	   49.860073	   50.964853	   52.120000	-19517.557156	-20552.826470	-21633.236393	-22761.805108	-23941.826000
   47.336364	   49.020160	   50.829316	   52.778373	   54.884211	-19328.399727	-20646.568535	-22062.875856	-23588.705158	-25237.271263
   47.798165	   49.499469	   51.326064	   53.292321	   55.414894	-19520.923211	-20853.229816	-22283.653489	-23823.447268	-25485.653404
   46.918919	   48.680304	   50.579734	   52.634097	   54.863158	-19153.476216	-20500.181806	-21952.431939	-23523.140322	-25227.416947
   47.779817	   48.917569	   50.111720	   51.366570	   52.686869	-19513.723119	-20602.190417	-21744.613644	-22945.106703	-24208.212626
   48.240741	   49.858503	   51.588611	   53.443189	   55.436170	-19706.357963	-21007.844785	-22399.713740	-23891.718419	-25495.068191
   46.945946	   48.697474	   50.584268	   52.622628	   54.831579	-19164.311351	-20507.619041	-21954.667121	-23517.955696	-25212.077158
   48.682243	   49.615887	   50.586299	   51.595692	   52.646465	-19891.342991	-20903.459550	-21955.433044	-23049.665099	-24188.754242
   49.169811	   50.234103	   51.345340	   52.506699	   53.721649	-20095.117547	-21169.942597	-22292.177818	-23465.030823	-24692.005258
   48.691589	   49.860622	   51.087365	   52.376198	   53.731959	-19895.248785	-21008.899227	-22177.524907	-23405.299616	-24696.830619
   48.231481	   49.737734	   51.341811	   53.053564	   54.884211	-19701.041481	-20954.008835	-22288.351588	-23712.263339	-25235.075895
   46.482143	   47.563082	   48.696562	   49.886511	   51.137255	-18964.440000	-20011.737403	-21109.941182	-22262.855429	-23474.672941
   48.175926	   48.772579	   49.385076	   50.014056	   50.660194	-19669.114259	-20528.519671	-21410.746329	-22316.715482	-23247.398641
   46.855856	   47.643466	   48.459417	   49.305268	   50.182692	-19112.596847	-20037.408704	-20995.499406	-21988.698145	-23018.970673
   49.514286	   49.568686	   49.623326	   49.678208	   49.733333	-20219.739714	-20861.490418	-21506.072927	-22153.506026	-22803.808667
   48.588785	   48.981023	   49.380490	   49.787387	   50.201923	-19829.934206	-20605.582589	-21395.525175	-22200.160775	-23019.903173
   49.485714	   49.905454	   50.333526	   50.770184	   51.215686	-20203.861429	-21002.120647	-21816.228840	-22646.662750	-23493.918431
   49.485714	   49.432717	   49.379697	   49.326653	   49.273585	-20203.366571	-20798.215788	-21393.329628	-21988.708269	-22584.351887
   49.018868	   49.317391	   49.620416	   49.928045	   50.240385	-20006.525472	-20746.739470	-21498.116404	-22260.910710	-23035.384615
   49.961538	   49.555646	   49.155226	   48.760170	   48.370370	-20397.997692	-20846.882046	-21289.713282	-21726.613016	-22157.699630
   52.000000	   50.675671	   49.414258	   48.211383	   47.063063	-21247.740000	-21327.145789	-21402.779131	-21474.902624	-21543.755045
   53.556701	   51.523949	   49.634729	   47.874358	   46.230088	-21894.180206	-21687.650263	-21495.703387	-21316.847685	-21149.788053
   53.546392	   52.165774	   50.850478	   49.595976	   48.398148	-21882.401856	-21956.323357	-22026.747349	-22093.916316	-22158.050833
   51.890000	   51.855738	   51.821397	   51.786976	   51.752475	-21184.210000	-21815.945475	-22449.147831	-23083.822180	-23719.973663
   49.390476	   49.847704	   50.315502	   50.794243	   51.284314	-20133.492190	-20944.476575	-21774.210875	-22623.352942	-23492.591765
   51.800000	   51.426607	   51.056661	   50.690115	   50.326923	-21130.084000	-21613.056213	-22091.569077	-22565.684068	-23035.461538
   56.347826	   54.025229	   51.876410	   49.882569	   48.027523	-23013.832609	-22717.060825	-22442.493656	-22187.728925	-21950.698899
   58.863636	   55.313327	   52.150583	   49.315228	   46.758929	-24049.834545	-23257.287852	-22551.258741	-21918.313538	-21347.662857
   59.517241	   56.792495	   54.293019	   51.991987	   49.866667	-24308.853448	-23878.778682	-23484.260728	-23121.065093	-22785.604000
   60.764706	   56.298553	   52.416636	   49.011354	   46.000000	-24813.857647	-23651.361955	-22640.937241	-21754.575834	-20970.750000
   65.392405	   58.923293	   53.579465	   49.090804	   45.267241	-26721.231772	-24758.692207	-23137.530871	-21775.802191	-20615.844828
   68.826667	   60.798282	   54.400753	   49.182971	   44.846154	-28131.211200	-25545.017981	-23484.174580	-21803.364110	-20406.340000
   66.128205	   60.035230	   54.930247	   50.590970	   46.857143	-26997.941795	-25206.935184	-23706.345059	-22430.831252	-21333.287143
   72.549296	   62.822505	   55.329663	   49.380439	   44.542373	-29656.979718	-26389.882873	-23873.139210	-21874.875736	-20249.834915
   73.528571	   62.473831	   54.232152	   47.850985	   42.764228	-30053.144286	-26230.513470	-23380.614119	-21174.063337	-19415.107805
   77.787879	   64.814135	   55.448044	   48.368500	   42.829268	-31809.410606	-27218.626715	-23904.417731	-21399.307675	-19439.240244
   86.915254	   69.852713	   58.263433	   49.877882	   43.528926	-35582.912712	-29358.428547	-25130.612408	-22071.529177	-19755.404298
   89.877193	   69.461421	   56.458916	   47.452324	   40.844961	-36801.105263	-29180.918978	-24327.734073	-20966.023645	-18499.825814
  111.217391	   77.667859	   59.470271	   48.049273	   40.213740	-45637.943478	-32673.210051	-25641.014370	-21227.534419	-18199.605649
  121.666667	   81.398915	   60.928615	   48.536613	   40.229008	-49961.136667	-34257.793689	-26274.925978	-21442.377932	-18202.634580
  150.058824	   87.339483	   61.285947	   47.018315	   38.014388	-61723.003529	-36783.377844	-26423.488708	-20750.128454	-17169.820647
  145.628571	   87.929205	   62.667903	   48.492172	   39.417910	-59871.359429	-37024.254936	-27021.586745	-21408.450761	-17815.333134
  175.517241	   95.788187	   65.501737	   49.551676	   39.706767	-72247.256552	-40368.378433	-28258.639458	-21881.164652	-17944.774586
  299.058824	  112.594404	   68.862685	   49.340436	   38.282609	-123407.462941	-47521.552214	-29723.940411	-21778.919874	-17278.687174
  267.000000	  109.494466	   68.374699	   49.442186	   38.554745	-110097.660000	-46183.825922	-29497.923454	-21815.339494	-17397.347810
  507.000000	  126.692138	   71.804179	   49.809495	   37.956835	-209429.150000	-53496.245221	-30991.217533	-21973.010603	-17113.211727
-1264.500000	  174.192822	   80.614354	   52.069335	   38.246377	523906.060002	-73711.326871	-34839.846765	-22982.555677	-17240.648696
        -inf	  161.888815	   80.051827	   52.772831	   39.133333	         inf	-68457.642430	-34583.676366	-23292.354344	-17646.693333
 1681.666667	  149.317135	   77.350985	   51.836219	   38.772059	-695537.823333	-63097.732808	-33395.450450	-22864.849527	-17472.934559
 -457.818182	  216.183761	   86.318695	   53.480121	   38.503650	189903.281818	-91535.338831	-37308.425465	-23596.235122	-17342.606934
 -264.473684	  287.443977	   91.657900	   53.999713	   38.007194	109839.835789	-121780.180224	-39615.797017	-23812.008368	-17100.522950
 -156.406250	  591.041939	  100.142450	   54.065472	   36.722222	65115.031875	-250725.310165	-43291.718324	-23821.514713	-16492.982778
 -142.771429	 1231.038414	  113.370809	   58.727447	   39.305970	59446.624286	-522433.948071	-49043.057042	-25898.725263	-17672.710373
 -155.937500	  706.220494	  105.838830	   56.521972	   38.231884	64854.048125	-299330.496461	-45723.008761	-24891.052506	-17165.128406
 -101.346939	 -833.759644	  129.621329	   59.220427	   37.985612	42298.587551	354211.437909	-56063.948153	-26082.291800	-17039.013525
  -90.218182	 -464.887754	  142.238551	   60.713658	   38.195652	37690.944545	197614.627280	-61530.715078	-26732.690185	-17121.121304
  -86.859649	 -458.409350	  134.751840	   57.781151	   36.379310	36295.125614	194797.464905	-58243.880428	-25408.342688	-16278.361379
  -76.076923	 -279.172353	  159.933638	   61.083567	   37.333333	31844.930769	118801.240986	-69204.155080	-26881.009655	-16712.230000
  -67.698630	 -199.744441	  198.452053	   65.031755	   38.430657	28388.432740	85123.679075	-85966.763252	-28640.950264	-17211.432993
  -66.527027	 -191.011859	  205.716610	   65.481359	   38.445255	27905.587703	81412.897486	-89112.882940	-28835.571116	-17214.643869
  -69.197183	 -213.434902	  185.946596	   63.484922	   37.805755	29005.281690	90901.281548	-80483.272769	-27931.916177	-16912.345971
  -62.730769	 -164.420443	  244.022297	   68.424543	   39.238806	26338.981923	70121.808090	-105734.568074	-30130.372577	-17564.356866
  -64.197368	 -187.019371	  191.603988	   61.964385	   36.458333	26945.368026	79685.011335	-82895.475234	-27228.361068	-16276.088333
  -52.782609	 -121.947123	  343.394536	   69.393222	   38.000000	22235.834783	52110.301787	-148886.323760	-30535.992468	-16976.210000
  -60.412500	 -142.185682	  351.066712	   76.261923	   42.048000	25381.524000	60663.403202	-152155.407662	-33588.059273	-18826.110880
  -64.186667	 -185.475512	  192.672499	   61.771046	   36.193103	26929.208133	78952.267081	-83242.501651	-27096.415241	-16125.556483
  -50.557895	 -104.829454	  909.739028	   82.236968	   42.250000	21302.975789	44804.429352	-394538.649741	-36201.771057	-18886.037500
  -43.509091	  -87.402936	 1755.782375	   76.465308	   38.291971	18390.858000	37411.798489	-761313.354443	-33598.797852	-17056.779927
  -43.381818	  -88.388235	 1125.077168	   73.612066	   37.307143	18324.050000	37796.117501	-487210.800064	-32293.460959	-16586.102857
  -41.622807	  -81.456104	-54502.564827	   78.227723	   38.218978	17589.455877	34838.926587	23601437.577325	-34310.797784	-16985.350657
  -40.470085	  -73.058707	 -453.987474	  102.302451	   44.887931	17101.089060	31268.710457	196874.195529	-44968.035667	-20007.570000
  -43.128440	  -80.289182	 -812.355140	   95.056140	   43.789916	18183.954404	34290.867987	351596.785986	-41710.628496	-19489.848824
  -33.354610	  -58.426653	 -271.014046	   96.773205	   40.007692	14163.412411	25068.578973	117534.157498	-42436.104175	-17745.759692
  -33.589928	  -62.687761	 -680.879224	   72.841348	   33.677419	14257.868633	26851.319691	294402.649047	-31805.254394	-14855.228710
  -32.978723	  -58.096235	 -288.639460	   91.156845	   38.250000	14004.986809	24913.357143	125036.765631	-39906.275381	-16929.180000
  -33.410072	  -55.948121	 -191.769427	  123.572465	   45.252174	14182.140863	24005.337709	83202.982338	-54238.615186	-20102.757652
  -33.664234	  -59.398081	 -302.951997	   91.308020	   38.488889	14287.533431	25451.613185	131112.273601	-39929.007361	-17014.556444
  -35.207692	  -60.431726	 -249.505241	  107.791806	   42.778689	14925.576077	25883.677081	108023.065833	-47197.833272	-18954.122131
  -41.825688	  -75.805036	 -544.387125	   97.901468	   43.425000	17642.977798	32342.158712	235046.839929	-42801.818033	-19235.754750
  -38.152542	  -70.377400	 -701.840442	   81.823390	   37.285714	16139.810847	30056.485497	302761.044099	-35673.172041	-16439.065714
  -33.834586	  -59.686812	 -316.988945	   88.341028	   37.374101	14368.983759	25564.123962	136987.157714	-38538.380432	-16467.480288
  -30.421769	  -51.817052	 -205.856432	   94.897997	   37.057143	12969.222517	22254.041758	89101.848835	-41415.257309	-16314.310571
  -25.813953	  -41.214265	 -113.427643	  129.797496	   39.348485	11073.999302	17789.147535	49277.052832	-56778.782316	-17339.415758
  -27.509317	  -44.720115	 -134.594512	  117.071623	   38.962406	11762.680497	19246.793576	58328.663125	-51108.321827	-17142.539173
  -27.216049	  -43.610926	 -122.037288	  132.273391	   40.912698	11632.006605	18763.105389	52875.355827	-57739.357312	-18001.203889
  -28.461039	  -48.495322	 -196.268746	   86.580087	   33.967105	12135.227273	20791.884864	84643.628593	-37573.145926	-14839.486842
  -28.768212	  -46.187624	 -132.215530	  131.315522	   41.637097	12250.631391	19801.730952	57093.762350	-57143.684331	-18269.197903
  -31.794118	  -51.918324	 -162.249776	  125.854673	   43.126050	13474.048824	22168.117519	69833.561565	-54633.453347	-18892.996303
  -28.460000	  -42.893050	  -94.666773	  309.810346	   54.967742	12099.125800	18371.086629	40869.641468	-134898.106217	-24154.856452
  -25.695122	  -39.065521	  -89.874688	  214.941138	   45.610619	10963.820488	16755.818760	38766.126842	-93278.750800	-19925.513628
  -23.677966	  -35.534307	  -77.854357	  261.760284	   45.362832	10136.037797	15275.576611	33620.657849	-113596.989755	-19792.070885
  -22.263441	  -34.013368	  -80.045430	  166.639324	   38.000000	 9562.204731	14642.470259	34545.154894	-72112.871405	-16493.640000
  -21.829787	  -31.307315	  -59.588437	-7109.851663	   54.913978	 9389.871489	13517.663029	25835.070090	3096468.698178	-24034.694409
  -20.664975	  -29.597010	  -56.194486	-4813.731237	   52.010204	 8916.693604	12806.089064	24387.782803	2096025.478188	-22729.228980
  -19.108491	  -27.502475	  -53.041025	 2377.117202	   45.990991	 8283.623774	11935.269318	23045.336901	-1034149.453731	-20036.685586
  -19.924623	  -28.493339	  -54.413838	 4116.170989	   47.370370	 8621.504724	12348.367533	23622.186329	-1790325.016251	-20647.667407
  -18.766667	  -26.529397	  -48.878507	 -765.506833	   49.745098	 8151.983333	11533.081046	21267.352099	333398.553493	-21688.672745
  -18.461905	  -26.555359	  -51.825970	  799.606344	   40.991935	 8033.276571	11546.652744	22516.649472	-347090.942377	-17775.693065
  -20.637838	  -29.276889	  -55.088364	-8469.378849	   49.116505	 8927.024486	12679.755383	23892.041746	3678988.630173	-21373.671748
  -23.291925	  -33.058220	  -62.742364	 2976.885134	   52.614583	10008.892857	14240.391225	27101.810941	-1289895.051966	-22879.556146
  -32.473214	  -44.240690	  -75.651211	 -424.129281	   96.557692	13760.736875	18870.518066	32509.883088	183829.229062	-42268.247692
  -38.804348	  -52.802602	  -90.451253	 -537.848079	  111.000000	16339.184130	22397.989349	38693.296099	232338.177946	-48500.000000
  -45.671053	  -59.248182	  -90.739125	 -244.328710	  236.523810	19134.147500	25043.518272	38749.777859	105598.799860	-103689.613810
  -66.096154	  -80.392422	 -107.688791	 -180.501527	 -983.600000	27474.832500	33796.889701	45867.816253	78066.868548	433210.912000
  -53.437500	  -65.585981	  -89.328870	 -156.414980	-1627.333333	22306.318750	27660.465001	38124.563904	67691.129398	715962.489999
  -49.188406	  -56.707128	  -69.098443	  -93.369486	 -162.333333	20573.031159	23979.351090	29593.175294	40589.052071	71832.783333
  -60.482143	  -68.274507	  -80.463529	 -102.232569	 -152.187500	25192.930179	28773.561654	34374.479963	44377.465605	67332.013125
  -84.175000	  -84.533196	  -84.958928	  -85.473281	  -86.107143	34890.739500	35513.545117	36253.774992	37148.094475	38250.207143
 -144.347826	 -108.247553	  -83.461902	  -65.392164	  -51.634409	59537.205652	45347.088886	35604.467697	28501.704081	23093.873763
  -82.000000	  -85.520898	  -90.137688	  -96.456323	 -105.630435	34048.400000	35928.030636	38392.703201	41765.905793	46663.503696
  -42.906667	  -47.352474	  -54.076542	  -65.433418	  -88.727273	18051.335600	20105.717144	23212.870331	28460.816657	39224.771818
  -42.078947	  -44.638333	  -48.165776	  -53.338604	  -61.658228	17718.546053	18980.435451	20719.619122	23270.049976	27371.989367
  -51.704918	  -53.762073	  -56.486924	  -60.267522	  -65.864865	21672.759508	22763.850126	24209.079142	26214.263405	29183.028108
  -34.263736	  -37.456311	  -42.233249	  -50.163168	  -65.905405	14522.213297	15999.308036	18209.432808	21878.334289	29161.726486
  -55.625000	  -56.246823	  -57.023887	  -58.022622	  -59.353659	23294.782500	23792.371311	24414.186427	25213.384119	26278.493293
  -35.574713	  -37.326600	  -39.706781	  -43.127101	  -48.460000	15068.877931	15945.677146	17136.929705	18848.759869	21517.813600
  -42.802817	  -43.416475	  -44.191656	  -45.201800	  -46.572816	18043.619718	18470.961880	19010.786846	19714.235908	20668.990583
  -42.956522	  -44.971585	  -47.742694	  -51.793604	  -58.277108	18113.943913	19115.795450	20493.539000	22507.576046	25731.053012
  -38.907895	  -40.569454	  -42.829742	  -46.083500	  -51.170213	16454.818026	17293.245317	18433.792888	20075.648313	22642.417660
  -41.225352	  -41.005607	  -40.736700	  -40.400054	  -39.966387	17410.528592	17476.320078	17556.830702	17657.622143	17787.461849
  -43.104478	  -42.633639	  -42.060882	  -41.349099	  -40.440678	18185.862090	18151.862371	18110.503032	18059.104448	17993.506441
  -49.810345	  -49.180366	  -48.419999	  -47.484091	  -46.303922	20949.138793	20873.532521	20782.277876	20669.955914	20528.319118
  -44.200000	  -43.194149	  -42.006256	  -40.581982	  -38.842975	18643.732000	18390.548135	18091.542002	17733.036252	17295.308760
  -57.959184	  -51.413109	  -45.044433	  -38.846039	  -32.811189	24307.690816	21802.679847	19365.554298	16993.591532	14684.212587
  -76.486486	  -69.040545	  -61.527121	  -53.945291	  -46.294118	31934.817838	29120.811691	26281.301886	23415.940132	20524.371765
  -53.615385	  -50.938261	  -47.925380	  -44.509348	  -40.603448	22530.376923	21610.474919	20575.200962	19401.398404	18059.269138
  -44.819672	  -44.338889	  -43.744980	  -42.992693	  -42.008929	18913.666557	18871.946166	18820.409093	18755.128614	18669.761518
  -43.301587	  -44.411928	  -45.900501	  -48.000244	  -51.184783	18292.827937	18906.762011	19729.829392	20890.827302	22651.634674
  -27.886598	  -31.239008	  -36.835082	  -48.060064	  -82.000000	11949.003402	13440.069458	15929.060122	20921.644809	36017.260000
  -19.230216	  -21.776842	  -26.168073	  -35.546047	  -69.565217	 8386.566331	 9512.469755	11453.901824	15600.050862	30640.459130
  -22.478992	  -25.998212	  -32.425209	  -47.900752	 -136.971429	 9724.800504	11266.955196	14083.323641	20864.847668	59896.430857
  -24.787037	  -27.567656	  -32.134132	  -41.020739	  -65.861111	10677.025556	11921.037662	13964.018369	17939.768406	29053.021667
  -24.733945	  -27.322120	  -31.471987	  -39.207699	  -58.712500	10653.366881	11818.401403	13686.411296	17168.544546	25948.384625
  -22.158333	  -24.815912	  -29.269006	  -38.265511	  -66.000000	 9593.749333	10777.305491	12760.496249	16767.100718	29118.690000
  -22.655462	  -25.395308	  -29.965871	  -39.122605	  -66.718310	 9797.355714	11017.913081	13054.025707	17133.203981	29426.648873
  -27.783505	  -30.201772	  -33.933598	  -40.448286	  -54.709302	11909.424845	13014.725497	14720.405677	17698.029237	24216.214186
  -25.175926	  -27.196318	  -30.247418	  -35.388032	  -45.882353	10834.953056	11766.531014	13173.356121	15543.630171	20382.433529
  -23.136752	  -26.049091	  -30.961433	  -41.011309	  -73.092308	 9994.139744	11288.602940	13472.018418	17938.941810	32198.158308
  -19.985185	  -22.797495	  -27.731102	  -38.639409	  -83.034483	 8695.630370	 9936.772763	12114.096631	16928.204551	36520.857586
  -23.807018	  -27.264804	  -33.378914	  -47.119279	 -106.400000	10268.271053	11791.654286	14485.323785	20538.862915	46655.938000
  -22.815126	  -26.893648	  -34.726516	  -55.918139	 -322.533333	 9859.333866	11636.970598	15050.950514	24287.385599	140492.452667
  -22.705882	  -25.860985	  -31.392863	  -43.610015	  -93.134615	 9812.984706	11206.280176	13649.161090	19044.263235	40914.359615
  -20.074074	  -23.123919	  -28.610638	  -41.397996	 -105.021739	 8728.464815	10069.240926	12481.318512	18102.911485	46073.252826
  -24.818182	  -28.355639	  -34.562297	  -48.289567	 -104.217391	10680.516364	12241.562691	14980.502516	21038.216967	45718.637391
  -22.598361	  -25.655304	  -30.905552	  -42.030128	  -81.406780	 9767.344344	11121.235832	13446.521343	18373.491734	35813.040678
  -19.985401	  -23.708372	  -30.980063	  -51.494620	 -489.800000	 8691.692336	10311.816488	13476.236087	22403.550289	213140.784000
  -18.280000	  -21.133596	  -26.287873	  -38.404324	 -100.937500	 7988.974400	 9242.412261	11506.421415	16828.555115	44296.163750
  -22.941176	  -26.129961	  -31.688526	  -43.820579	  -91.056604	 9905.812941	11315.331970	13772.350568	19135.008455	40014.461509
  -22.581967	  -25.903271	  -31.785275	  -45.047181	 -102.957447	 9759.368689	11223.013422	13815.116755	19659.422779	45179.534894
  -21.888000	  -25.144954	  -30.950444	  -44.218293	 -105.217391	 9472.071520	10906.330750	13462.884999	19305.625916	46167.697826
  -20.132353	  -23.526601	  -29.887773	  -46.126084	 -175.107143	 8749.922647	10234.441909	13016.584113	20118.623277	76530.188214
  -22.650407	  -26.022422	  -32.008843	  -45.575092	 -105.956522	 9785.413984	11270.893105	13908.100053	19884.460303	46484.382174
  -26.352381	  -30.860803	  -39.372780	  -61.479892	 -258.894737	11307.989238	13278.118399	16997.755693	26658.312882	112926.360526
  -24.875000	  -28.601947	  -35.230633	  -50.310128	 -118.414634	10698.893750	12340.350446	15259.817413	21901.268484	51896.485366
  -21.000000	  -24.500365	  -30.989085	  -47.143190	 -157.580645	 9104.970000	10637.634909	13478.776015	20551.989128	68907.972258
  -22.471545	  -26.016918	  -32.457949	  -47.790821	 -131.459459	 9710.372846	11267.162634	14095.449432	20828.184666	57567.472162
  -28.969072	  -31.969424	  -36.729755	  -45.441337	  -66.513889	12383.063299	13739.201375	15890.837840	19828.412538	29353.059306
  -27.254902	  -30.574390	  -36.114835	  -47.225697	  -80.800000	11678.859020	13160.052036	15632.261671	20590.053978	35571.288000
  -29.052083	  -32.977807	  -39.730088	  -54.078839	 -105.326087	12418.260521	14158.858182	17152.702409	23514.689634	46236.830217
  -29.393617	  -33.678382	  -41.238692	  -58.154575	 -129.972973	12558.009362	14449.275869	17786.345835	25252.902918	56953.061622
  -26.769231	  -30.056180	  -35.510864	  -46.332719	  -78.114754	11478.017692	12945.883960	15381.804703	20214.564675	34407.597869
  -27.264706	  -31.571326	  -39.411499	  -58.159299	 -162.600000	11682.927059	13575.074074	17019.715132	25256.707437	71143.544000
  -28.329897	  -32.750051	  -40.801011	  -60.074332	 -168.000000	12121.727938	14063.789975	17601.101426	26069.127633	73487.910000
  -26.708738	  -29.794524	  -34.871397	  -44.784311	  -72.727273	11455.854563	12838.405538	15113.040199	19554.407036	32073.929091
  -33.325301	  -36.606360	  -41.788031	  -51.195088	  -73.553846	14179.305060	15667.730067	18018.351217	22285.783928	32428.646923
  -32.845238	  -36.432617	  -42.255621	  -53.350017	  -82.793103	13983.627381	15596.677438	18214.967051	23203.516501	36442.478276
  -33.156627	  -37.708026	  -45.592581	  -62.587042	 -126.078947	14110.826024	16125.674641	19616.070557	27139.310591	55246.398947
  -32.891566	  -37.586833	  -45.848235	  -64.226146	 -140.647059	14003.090723	16075.876003	19722.977468	27836.141044	61573.129412
  -31.160920	  -34.520603	  -39.986971	  -50.446498	  -78.491803	13293.648506	14804.167918	17261.856916	21964.478452	34573.697049
  -32.488095	  -35.810736	  -41.128233	  -51.007739	  -75.730159	13840.879405	15341.415788	17742.848292	22204.527707	33369.408889
  -28.547368	  -30.972166	  -34.698094	  -41.156418	  -55.093023	12217.329579	13330.599074	15041.240856	18006.376716	24404.929070
  -31.647059	  -35.455726	  -41.863732	  -54.910477	  -96.000000	13494.423529	15192.451845	18049.350528	23866.016387	42185.070000
  -34.923077	  -38.060005	  -42.936297	  -51.553536	  -70.895522	14843.553846	16275.779137	18502.144876	22436.512769	31267.471940
  -43.967742	  -46.544165	  -50.276123	  -56.165737	  -66.845070	18569.478710	19801.319884	21585.646356	24401.592399	29507.602958
  -36.878378	  -40.049430	  -44.926270	  -53.391679	  -71.712121	15648.428243	17102.477978	19338.698176	23220.415835	31621.047879
  -31.811765	  -36.270230	  -44.105583	  -61.492891	 -133.166667	13563.218235	15532.118349	18992.284036	26670.682205	58322.495000
  -24.372727	  -27.821677	  -33.891801	  -47.402593	 -103.695652	10500.108182	12022.641825	14702.288659	20666.607195	45517.092609
  -31.279070	  -36.678661	  -46.932427	  -73.930863	 -341.214286	13344.270233	15701.783421	20178.676183	31966.451969	148664.957143
  -37.555556	  -40.916672	  -46.140324	  -55.368024	  -76.064516	15931.401111	17465.240243	19849.043740	24060.087471	33504.892258
  -39.882353	  -44.359461	  -51.687585	  -65.862151	 -104.888889	16888.270000	18894.675779	22178.757961	28531.057300	46020.801111
  -31.069767	  -35.093408	  -41.996055	  -56.588990	 -107.886364	13259.816047	15044.485922	18106.127691	24578.766936	47331.515000
  -37.180556	  -39.789811	  -43.683106	  -50.117603	  -62.786667	15777.565972	16996.743049	18815.888736	21822.413545	27742.045333
  -31.232558	  -33.356316	  -36.493711	  -41.597894	  -51.362637	13329.272093	14325.997189	15798.443647	18193.945956	22776.748571
  -37.845070	  -39.494299	  -41.793539	  -45.221388	  -50.879121	16051.794225	16875.813155	18024.602848	19737.289742	22564.113187
  -40.454545	  -41.998938	  -44.138250	  -47.298239	  -52.438202	17129.508182	17917.172252	19008.253908	20619.896324	23241.356404
  -51.134615	  -50.991099	  -50.809301	  -50.571549	  -50.247312	21528.280385	21652.349227	21809.511622	22015.046058	22295.346559
  -51.615385	  -51.756433	  -51.936708	  -52.175219	  -52.505618	21725.442308	21970.830941	22284.465487	22699.414531	23274.226629
  -70.631579	  -68.135818	  -65.208577	  -61.727372	  -57.518519	29561.710000	28780.364148	27863.935019	26774.077032	25456.414444
  -53.060000	  -55.497037	  -58.948472	  -64.214116	  -73.234375	22328.485600	23532.247516	25237.066202	27838.004165	32293.514531
  -49.203704	  -51.295187	  -54.233800	  -58.664927	  -66.112676	20741.581111	21788.151108	23258.621884	25475.940328	29202.764930
  -94.392857	  -85.720390	  -76.677005	  -67.238388	  -57.378049	39367.455357	36098.777128	32690.299196	29132.856833	25416.466341
 -111.333333	  -90.385250	  -72.873271	  -58.016044	  -45.252427	46358.790000	38049.440329	31103.069293	25209.742954	20146.876214
  -79.969697	  -75.954533	  -71.367781	  -66.078033	  -59.910256	33435.992121	32054.321638	30475.960158	28655.688410	26533.275513
  -66.200000	  -62.802993	  -58.955350	  -54.561033	  -49.494624	27759.032000	26589.078986	25263.924121	23750.490689	22005.584086
  -75.314286	  -68.208164	  -60.901247	  -53.384904	  -45.650000	31511.542000	28836.246810	26085.357143	23255.623032	20343.605500
-1337.000000	 -227.157045	 -110.690415	  -66.239317	  -42.783019	551405.100001	94933.164734	47031.119069	28748.641659	19101.203113
  -52.019608	  -51.125196	  -50.037112	  -48.684813	  -46.958763	21895.211765	21724.780078	21517.443869	21259.761084	20930.859381
  -66.700000	  -59.614581	  -52.554276	  -45.518951	  -38.508475	27938.602000	25254.292290	22579.496957	19914.165505	17258.247797
  -85.806452	  -73.496363	  -62.190870	  -51.771820	  -42.138889	35804.871935	31026.136289	26637.381358	22592.740635	18853.268889
  -74.333333	  -70.406503	  -66.010219	  -61.054945	  -55.426829	31078.830000	29745.899253	28253.616419	26571.588925	24661.170610
  -71.184211	  -64.282740	  -57.306339	  -50.253780	  -43.123810	29778.605526	27202.317406	24598.058039	21965.369404	19303.783429
  -51.301887	  -51.166835	  -50.998816	  -50.784081	  -50.500000	21590.164340	21750.559710	21950.108434	22205.139863	22542.530000
  -53.392157	  -57.221151	  -62.835774	  -71.864912	  -88.784314	22449.179020	24271.962559	26944.790437	31243.090486	39297.531569
 -552.200000	 -201.524647	 -112.562308	  -71.951083	  -48.695652	227833.634000	84328.231378	47922.547001	31303.385982	21786.663478
 -175.000000	 -109.034685	  -74.463129	  -53.182069	  -38.763158	72527.970000	45863.044310	31888.306437	23285.938846	17457.433421
  -90.774194	  -88.413951	  -85.675573	  -82.460274	  -78.631579	37846.853548	37285.878080	36635.028531	35870.825982	34960.833158
 -237.250000	 -124.975123	  -79.165237	  -54.280433	  -38.649123	98175.152500	52532.913545	33910.174281	23793.946935	17439.471053
  -69.634146	  -70.525352	  -71.639515	  -73.072267	  -74.983051	29147.140000	29859.495453	30750.064967	31895.287368	33422.608475
  721.500000	 -323.448756	 -117.163248	  -65.383167	  -41.819048	-296753.145000	135321.436378	50024.694298	28614.211998	18870.713048
 -182.250000	 -110.317127	  -74.728181	  -53.494093	  -39.387387	75556.020000	46484.509187	32101.316006	23519.606421	17818.412613
  486.000000	 -475.160579	 -139.876432	  -74.681742	  -46.925532	-199806.590000	198723.656206	59703.313068	32671.351274	21162.671702
   87.294118	  222.050652	 -259.652110	  -71.017608	  -37.179487	-35511.669412	-92235.564688	110530.536082	31127.457017	16883.769231
   64.891304	  113.165982	 1061.907310	 -114.719059	  -48.065934	-26282.814130	-46794.771641	-449915.888051	50033.804647	21712.826703
  158.947368	 3899.198068	 -144.227984	  -63.917920	  -37.852174	-65063.685263	-1628914.204050	61698.120383	28119.372658	17220.923739
 -608.200000	 -244.007564	 -142.705737	  -95.135289	  -67.507692	251251.922000	102478.015084	61095.858292	41663.160813	30377.189231
-3100.000000	 -332.918026	 -162.572996	 -101.032941	  -69.285714	1278739.349994	139721.499669	69602.135343	44270.315789	31202.160000
 -136.304348	 -117.469771	 -101.148645	  -86.869314	  -74.271186	56686.778696	49632.715935	43520.008700	38172.009659	33453.667288
 -794.000000	 -203.912670	 -109.472848	  -70.896785	  -49.931034	328003.120000	85861.088418	47107.756462	31278.088839	22674.803793
 -267.750000	 -165.607067	 -114.891788	  -84.575648	  -64.411765	110925.202500	69844.248721	49447.027315	37254.153104	29144.423529
-1083.666667	 -257.950600	 -137.523778	  -89.176535	  -63.101449	447423.303333	108551.746905	59128.917088	39287.344209	28586.202029
  -56.033898	  -69.324339	  -94.913856	 -164.577275	-1098.500000	23575.037119	29525.209444	40981.717214	72170.250013	490290.405000
  -73.217391	  -74.674963	  -76.392318	  -78.445705	  -80.944444	30658.550435	31778.823375	33098.763479	34676.973411	36597.476111
 -202.117647	 -163.706595	 -134.971627	 -112.665510	  -94.847826	83813.461176	69146.462656	58174.211139	49656.772518	42853.211304
  -69.098039	  -74.410193	  -81.329029	  -90.713341	 -104.166667	28958.363137	31700.577995	35272.186879	40116.512569	47061.325000
 -179.650000	 -190.358166	 -203.695264	 -220.764899	 -243.388889	74546.869500	80415.559887	87725.056479	97080.198053	109479.445000
  -76.604167	 -101.096667	 -154.822036	 -367.572955	  731.666667	32086.108542	42993.843701	66920.437589	161669.061656	-327877.316667
  -54.753623	  -78.574333	 -146.997236	-2223.701417	  156.714286	23095.608261	33585.929849	63718.459680	978271.158735	-70032.025714
  -29.813953	  -43.290732	  -83.298434	-5146.281559	   80.618182	12807.907907	18752.649761	36400.447037	2269732.915246	-35904.810909
  -25.275641	  -39.168590	  -93.327076	  201.999007	   46.422680	10948.578910	17051.108065	40840.422609	-88882.648583	-20545.173299
  -21.625668	  -34.823609	  -96.801980	  111.346304	   34.141791	 9452.503155	15249.632652	42473.322014	-48954.770660	-15043.074552
  -20.126214	  -30.180893	  -63.216567	  432.500739	   46.909091	 8846.332330	13312.731917	27987.542313	-192215.550712	-20931.489091
  -17.794979	  -27.537121	  -64.071198	  167.283444	   35.088889	 7890.889456	12217.874678	28444.533087	-74311.936177	-15597.550222
  -16.984375	  -26.883444	  -68.392115	  112.268558	   29.895062	 7565.007344	11964.227033	30410.988080	-49875.954157	-13268.561790
  -17.231660	  -27.287123	  -69.251916	  115.774731	   30.639752	 7676.888919	12157.098537	30854.504452	-51584.084949	-13652.210000
  -21.245283	  -36.209409	 -136.315970	   72.313950	   27.827778	 9362.749245	15995.010295	60363.311979	-32103.706378	-12386.957722
  -20.728507	  -33.925899	 -100.129042	   97.404739	   31.917722	 9150.458733	15028.921099	44517.526739	-43469.167964	-14299.543481
  -25.184783	  -44.399647	 -214.070852	   72.008737	   30.124260	11015.853370	19527.935412	94691.370541	-32040.355222	-13485.756450
  -24.994652	  -42.538392	 -156.663805	   87.697416	   33.457516	10937.306791	18735.749684	69466.126328	-39155.927791	-15045.517320
  -27.682353	  -49.951119	 -300.489072	   71.512353	   31.298780	12063.982941	21925.706776	132876.445817	-31864.395393	-14055.813598
  -29.550000	  -55.839047	 -719.397436	   63.501323	   29.815029	12850.097000	24465.830357	317657.036900	-28264.340153	-13380.156012
  -33.363636	  -62.246169	 -589.551614	   76.000926	   35.061224	14448.391818	27229.719215	260577.104682	-33948.481387	-15831.520000
  -32.439189	  -59.726546	 -447.644317	   78.617562	   35.537931	14062.277432	26155.256671	198069.361683	-35154.910721	-16063.245724
  -35.240876	  -67.368062	-1098.617144	   74.389481	   35.417808	15237.092263	29450.672974	485691.757131	-33265.130804	-16023.439452
  -38.579365	  -79.628254	  857.997689	   65.505596	   33.603896	16635.846270	34734.590453	-378671.291090	-29255.945989	-15190.261948
  -44.733945	 -103.668621	  294.605803	   59.593793	   32.759494	19214.983853	45086.109435	-129748.273514	-26582.774183	-14803.061772
  -52.127660	 -143.181584	  180.776572	   54.417994	   31.682927	22311.851489	62095.950308	-79450.757869	-24241.032595	-14307.422927
  -56.540230	 -168.154088	  164.161962	   54.228600	   32.141975	24159.457586	72853.047701	-72125.916429	-24165.473495	-14529.778889
  -70.700000	 -272.625459	  141.619878	   55.393753	   34.111111	30092.871000	117848.602605	-62180.219940	-24706.804290	-15457.481111
  -81.327869	 -501.128550	  116.944090	   51.672119	   32.874214	34554.165410	216306.182884	-51287.354664	-23027.961649	-14889.439308
 -115.348837	 1189.525035	   94.496471	   48.627678	   32.472050	48824.974884	-512020.056784	-41368.185549	-21653.418371	-14709.602484
 -110.644444	 2810.002967	  100.383496	   50.538023	   33.512821	46878.702444	-1211022.468798	-44009.465968	-22541.390642	-15208.762051
 -199.800000	  342.989760	   90.852100	   51.881576	   36.068966	84303.446000	-147473.564144	-39808.097294	-23167.268479	-16415.115172
 -217.478261	  314.492637	   89.909410	   51.988910	   36.333333	91755.153478	-135241.809221	-39410.043411	-23229.011141	-16548.630000
 -208.958333	  354.597910	   94.538213	   54.077830	   37.640288	88197.113750	-152597.821181	-41480.149445	-24192.335709	-17168.942734
 -457.000000	  197.052884	   80.154448	   49.952047	   36.089655	192356.910000	-84609.921133	-35107.823853	-22318.241561	-16448.039103
 -560.111111	  203.194134	   85.110095	   53.469591	   38.785185	235672.141111	-87277.548074	-37316.927630	-23930.027791	-17717.147111
-1681.333333	  168.039131	   79.255536	   51.525510	   37.985507	706563.099999	-72105.076338	-34723.228448	-23047.652552	-17346.708406
-1263.500000	  173.647820	   80.480620	   52.052475	   38.284672	531136.175000	-74538.909621	-35274.297773	-23293.470980	-17491.134088
  843.000000	  146.036356	   79.328489	   54.161350	   40.945312	-353606.500000	-62618.359588	-34767.268158	-24259.777287	-18741.971406
  843.500000	  142.172702	   77.037623	   52.551435	   39.712121	-353850.240000	-60954.864500	-33752.496216	-23526.327332	-18164.243788
889460926405674.000000	  167.250278	   82.876708	   54.752184	   40.689922	-373760375884927680.000000	-71811.957548	-36357.339544	-24539.133543	-18630.030543
 1012.000000	  144.314059	   77.089457	   52.305103	   39.413534	-424869.740000	-61915.752332	-33795.627252	-23428.304522	-18035.746992
 2537.000000	  159.911014	   81.922070	   54.775978	   40.976563	-1066025.079998	-68677.372244	-35955.797926	-24566.197976	-18776.420781
  317.437500	  113.770748	   68.864473	   49.146035	   38.065217	-133009.782500	-48739.218438	-30158.487335	-21999.650219	-17414.774348
  339.466667	  117.452573	   70.599024	   50.254010	   38.881481	-142285.304000	-50341.609832	-30937.939026	-22512.367045	-17802.610815
  232.045455	  104.930403	   67.495546	   49.584183	   39.082090	-97105.140455	-44927.249508	-29561.076395	-22208.861593	-17897.986791
  196.346154	   97.247935	   64.333092	   47.897687	   38.043478	-82096.033462	-41604.620036	-28155.654561	-21440.167886	-17413.750000
  154.909091	   92.096923	   65.289253	   50.424956	   40.976562	-64680.835455	-39384.420012	-28588.136752	-22601.821481	-18796.659297
  138.567568	   87.016506	   63.232727	   49.541619	   40.643411	-57820.780541	-37197.164109	-27682.180160	-22204.889373	-18645.055194
  138.621622	   88.495231	   64.803280	   50.998411	   41.960000	-57854.602703	-37844.933543	-28387.478218	-22876.790854	-19268.798800
  125.073171	   85.438384	   64.707852	   51.961022	   43.330579	-52170.706585	-36533.823402	-28355.126755	-23326.193580	-19921.274628
  142.555556	   89.284474	   64.807849	   50.746603	   41.619048	-59564.910000	-38223.025605	-28417.005392	-22783.677288	-19126.923333
  102.780000	   77.617162	   62.235891	   51.860769	   44.389831	-42849.489600	-33196.252181	-27295.524093	-23315.308812	-20449.227288
  104.897959	   77.941398	   61.887742	   51.234957	   43.650000	-43784.796327	-33369.078699	-27166.123562	-23050.005225	-20119.261500
   95.296296	   75.271149	   62.113169	   52.806976	   45.877193	-39764.085926	-32235.863467	-27289.272857	-23790.717205	-21185.545614
   80.593750	   69.898993	   61.660572	   55.119414	   49.800000	-33570.503438	-29916.470752	-27101.684037	-24866.793759	-23049.332000
   75.897059	   67.818604	   61.256878	   55.821389	   51.245098	-31598.346912	-29023.359653	-26931.825718	-25199.277133	-23740.595686
   74.811594	   65.113348	   57.596929	   51.600509	   46.705357	-31146.657391	-27852.720170	-25299.823991	-23263.184507	-21600.582589
   74.811594	   65.915032	   58.868996	   53.150501	   48.416667	-31147.405507	-28202.449159	-25870.057536	-23977.110986	-22410.108333
   75.926471	   66.572795	   59.228279	   53.308356	   48.435185	-31619.109706	-28488.965551	-26031.173003	-24050.111047	-22419.337500
   72.676056	   65.080942	   58.883289	   53.729901	   49.377358	-30244.606197	-27839.024531	-25876.057194	-24243.837567	-22865.267547
   75.926471	   66.783160	   59.563238	   53.717556	   48.887850	-31618.360441	-28579.927799	-26180.660030	-24238.069091	-22633.099626
   77.104478	   67.467309	   59.929095	   53.871454	   48.897196	-32115.972388	-28877.609494	-26344.554939	-24309.015286	-22637.522991
   74.855072	   66.170244	   59.250127	   53.606458	   48.915888	-31165.042609	-28312.856251	-26040.219244	-24186.780720	-22646.349720
   72.746479	   64.908404	   58.558211	   53.308966	   48.897196	-30272.917746	-27763.381804	-25730.225085	-24049.561217	-22637.034019
   71.736111	   64.100359	   57.898241	   52.760653	   48.435185	-29845.431250	-27411.570456	-25434.673958	-23797.091792	-22418.368796
   70.780822	   63.512344	   57.565499	   52.609858	   48.416667	-29446.182603	-27160.365882	-25290.180822	-23731.712948	-22413.023333
   69.797297	   61.815564	   55.436204	   50.220707	   45.877193	-29036.266081	-26426.770561	-24341.144594	-22636.024448	-21215.984561
   67.077922	   60.370878	   54.850846	   50.228326	   46.300885	-27886.632078	-25798.187860	-24079.356059	-22639.992622	-21417.063009
   68.893333	   61.816064	   56.025570	   51.200158	   47.117117	-28653.653333	-26427.061313	-24605.304044	-23087.172876	-21802.600270
   68.906667	   61.472840	   55.453339	   50.479600	   46.300885	-28659.296667	-26277.559716	-24348.961171	-22755.416112	-21416.590000
   68.000000	   60.932331	   55.162844	   50.363952	   46.309735	-28276.220000	-26042.558572	-24219.173864	-22702.535244	-21421.243097
   67.973684	   61.094317	   55.446425	   50.726505	   46.723214	-28265.101579	-26113.080019	-24346.292026	-22869.794448	-21617.474732
   67.129870	   60.750942	   55.449336	   50.973384	   47.144144	-27908.600130	-25963.797147	-24347.447363	-22982.822477	-21815.366486
   69.837838	   62.404073	   56.365987	   51.364256	   47.153153	-29053.404865	-26683.208568	-24758.013212	-23163.251308	-21820.574955
   66.256410	   59.691965	   54.281188	   49.744516	   45.885965	-27538.890769	-25502.654506	-23824.276178	-22417.038348	-21220.147807
   67.142857	   60.583867	   55.162380	   50.606099	   46.723214	-27913.425714	-25890.807247	-24218.964826	-22813.928840	-21616.550268
   67.103896	   60.553453	   55.137768	   50.585478	   46.705357	-27896.945065	-25877.452999	-24207.805314	-22804.341125	-21608.105446
   65.354430	   59.990715	   55.412203	   51.458232	   48.009174	-27157.793291	-25632.393336	-24330.299026	-23205.819645	-22224.933670
   67.973684	   61.808918	   56.638868	   52.240756	   48.453704	-28265.101579	-26423.978605	-24879.930470	-23566.423111	-22435.410556
   67.986842	   60.920587	   55.152247	   50.354304	   46.300885	-28270.660789	-26037.448600	-24214.428380	-22698.091403	-21417.053009
   72.760563	   63.939130	   56.985453	   51.363131	   46.723214	-30289.730845	-27351.415679	-25035.228074	-23162.498795	-21616.997500
   71.791667	   63.175693	   56.369344	   50.856684	   46.300885	-29878.927083	-27018.780581	-24759.354537	-22929.379706	-21417.043009
   69.837838	   62.394359	   56.351117	   51.346970	   47.135135	-29052.706486	-26678.580428	-24751.065185	-23154.973182	-21811.592432
   68.906667	   61.657037	   55.754274	   50.854939	   46.723214	-28659.296667	-26357.855271	-24483.985189	-22928.660143	-21617.017500
   68.906667	   61.837449	   56.050964	   51.227119	   47.144144	-28658.607600	-26435.839953	-24616.400974	-23099.643987	-21815.837928
   66.243590	   59.867623	   54.580211	   50.124509	   46.318584	-27532.801795	-25578.602726	-23958.039786	-22592.391499	-21425.896372
   68.920000	   61.659351	   55.750301	   50.847579	   46.714286	-28664.230800	-26358.606282	-24482.183171	-22925.320164	-21612.790000
   69.837838	   62.769878	   56.968167	   52.120401	   48.009174	-29052.018108	-26841.607627	-25027.199602	-23511.125136	-22225.393761
   68.920000	   61.301448	   55.166081	   50.119198	   45.894737	-28665.609200	-26203.896581	-24221.431961	-22590.679229	-21225.667895
   69.810811	   62.196440	   56.044527	   50.970656	   46.714286	-29043.371892	-26594.149286	-24615.337521	-22983.286592	-21614.191429
   68.000000	   60.761871	   54.882683	   50.012572	   45.912281	-28277.580000	-25969.693618	-24095.107167	-22542.266204	-21234.883158
   66.256410	   60.044707	   54.867886	   50.487213	   46.732143	-27540.888462	-25657.979326	-24088.766550	-22760.884610	-21622.636964
   66.294872	   60.066000	   54.878389	   50.491081	   46.732143	-27556.496282	-25666.976804	-24093.322061	-22762.438372	-21622.169643
   66.269231	   60.227355	   55.165720	   50.863673	   47.162162	-27545.642692	-25736.957337	-24221.715104	-22933.861559	-21825.783784
   65.417722	   59.865801	   55.154589	   51.106567	   47.590909	-27185.207342	-25579.315425	-24216.598235	-23045.708749	-22028.805455
   63.024390	   57.703498	   53.184281	   49.298253	   45.921053	-26173.384634	-24638.299612	-23334.498773	-22213.374109	-21239.046842
   67.129870	   60.755492	   55.456473	   50.981861	   47.153153	-27909.271429	-25966.881626	-24352.173421	-22988.677102	-21821.999550
   68.026316	   61.487670	   56.064890	   51.494787	   47.590909	-28288.718947	-26285.753090	-24624.607355	-23224.660077	-22028.795455
   63.048780	   58.998533	   55.416905	   52.227014	   49.367925	-26183.729268	-25202.325720	-24334.471970	-23561.538912	-22868.761226
   68.039474	   60.953394	   55.172857	   50.367494	   46.309735	-28293.598026	-26052.972565	-24225.160695	-22705.700126	-21422.632389
   64.612500	   59.024325	   54.298251	   50.249068	   46.741071	-26845.021250	-25213.371254	-23833.439888	-22651.148688	-21626.874732
   66.256410	   59.883610	   54.597678	   50.142417	   46.336283	-27540.225897	-25587.263391	-23967.374635	-22602.047133	-21435.646814
   67.103896	   60.394124	   54.871886	   50.247549	   46.318584	-27898.297143	-25809.369474	-24090.152595	-22650.475587	-21427.285929
   64.625000	   59.534293	   55.161375	   51.364431	   48.036697	-26850.312500	-25435.437255	-24220.059093	-23164.763190	-22239.876147
   64.637500	   59.866549	   55.728540	   52.105354	   48.906542	-26855.593750	-25580.346021	-24474.280201	-23505.823591	-22650.799533
   64.612500	   59.527020	   55.157608	   51.362972	   48.036697	-26845.011250	-25432.155242	-24218.238575	-23164.006947	-22239.896147
   67.168831	   60.270817	   54.625690	   49.920524	   45.938596	-27925.742857	-25755.976094	-23980.304181	-22500.296864	-21247.783596
   63.024390	   58.340289	   54.279986	   50.726649	   47.590909	-26173.414634	-24915.662679	-23825.409707	-22871.284998	-22029.291364
   65.493671	   60.242403	   55.747124	   51.855544	   48.453704	-27216.681013	-25743.670728	-24482.719614	-23391.109535	-22436.874167
   63.036585	   58.190985	   54.012214	   50.371486	   47.171171	-26178.556951	-24850.730954	-23705.634456	-22707.976144	-21831.002973
   60.788235	   56.887131	   53.435078	   50.358760	   47.600000	-25228.043647	-24283.120183	-23446.965569	-22701.821520	-22033.596000
   63.060976	   58.369997	   54.304643	   50.747580	   47.609091	-26188.871585	-24928.688054	-23836.572207	-22881.003757	-22037.880636
   65.468354	   60.404155	   56.043062	   52.248151	   48.915888	-27206.619747	-25814.277711	-24615.246319	-23571.880435	-22655.713738
   63.814815	   59.019697	   54.869658	   51.242731	   48.045872	-26507.999259	-25211.445876	-24089.315729	-23108.629812	-22244.230183
   64.612500	   59.686767	   55.434203	   51.725638	   48.462963	-26845.011250	-25501.829744	-24342.212442	-23330.936343	-22441.248333
   66.256410	   60.233462	   55.183182	   50.887554	   47.189189	-27540.878462	-25739.933319	-24229.829487	-22945.377265	-21839.514865
   63.827160	   58.854549	   54.575974	   50.855611	   47.590909	-26513.205309	-25139.931970	-23958.328789	-22930.885822	-22029.281364
   61.535714	   57.843893	   54.550316	   51.593841	   48.925234	-25543.848571	-24699.759312	-23946.723570	-23270.762151	-22660.618131
   63.790123	   58.673758	   54.290313	   50.492828	   47.171171	-26497.557160	-25060.896506	-23830.037732	-22763.714790	-21831.002973
   63.814815	   59.019710	   54.869674	   51.242741	   48.045872	-26507.979259	-25211.581754	-24089.583909	-23109.011635	-22244.710642
   62.265060	   57.852850	   54.001107	   50.609416	   47.600000	-25852.585301	-24703.726622	-23700.803072	-22817.668877	-22034.072000
   63.036585	   59.006570	   55.439017	   52.258643	   49.405660	-26179.187317	-25206.023530	-24344.534734	-23576.541209	-22887.606132
   61.488095	   57.829143	   54.559318	   51.619679	   48.962617	-25525.545119	-24693.954362	-23950.802697	-23282.694290	-22678.808692
