frame   ulx     uly     urx     ury     lrx     lry     llx     lly     
frame00001.jpg	23.00	393.00	100.00	386.00	110.00	548.00	36.00	553.00	
frame00002.jpg	23.00	393.00	100.00	386.00	110.00	548.00	36.00	553.00	
frame00003.jpg	23.00	393.00	100.00	386.00	110.00	548.00	36.00	553.00	
frame00004.jpg	23.00	393.00	100.00	386.00	110.00	548.00	36.00	553.00	
frame00005.jpg	23.00	393.00	100.00	386.00	110.00	548.00	36.00	553.00	
frame00006.jpg	23.00	393.00	100.00	386.00	110.00	548.00	36.00	553.00	
frame00007.jpg	23.00	393.00	100.00	386.00	110.00	548.00	36.00	553.00	
frame00008.jpg	23.00	393.00	100.00	386.00	110.00	548.00	36.00	553.00	
frame00009.jpg	23.00	393.00	100.00	386.00	110.00	548.00	36.00	553.00	
frame00010.jpg	23.00	393.00	100.00	386.00	110.00	548.00	36.00	553.00	
frame00011.jpg	23.00	393.00	100.00	386.00	110.00	548.00	36.00	553.00	
frame00012.jpg	23.00	393.00	100.00	386.00	110.00	548.00	36.00	553.00	
frame00013.jpg	23.00	393.00	100.00	386.00	110.00	548.00	36.00	553.00	
frame00014.jpg	23.00	393.00	100.00	386.00	110.00	548.00	36.00	553.00	
frame00015.jpg	23.00	393.00	100.00	386.00	110.00	548.00	36.00	553.00	
frame00016.jpg	23.00	393.00	100.00	386.00	110.00	548.00	36.00	553.00	
frame00017.jpg	23.00	393.00	100.00	386.00	110.00	548.00	36.00	553.00	
frame00018.jpg	23.00	393.00	100.00	386.00	110.00	548.00	36.00	553.00	
frame00019.jpg	23.00	393.00	100.00	386.00	110.00	548.00	36.00	553.00	
frame00020.jpg	23.00	393.00	100.00	386.00	110.00	548.00	36.00	553.00	
frame00021.jpg	23.00	393.00	100.00	386.00	110.00	548.00	36.00	553.00	
frame00022.jpg	23.00	393.00	100.00	386.00	110.00	548.00	36.00	553.00	
frame00023.jpg	23.00	393.00	100.00	386.00	110.00	548.00	36.00	553.00	
frame00024.jpg	23.00	393.00	100.00	386.00	110.00	548.00	36.00	553.00	
frame00025.jpg	23.00	393.00	100.00	386.00	110.00	548.00	36.00	553.00	
frame00026.jpg	23.00	393.00	100.00	386.00	110.00	548.00	36.00	553.00	
frame00027.jpg	23.00	393.00	100.00	386.00	110.00	548.00	36.00	553.00	
frame00028.jpg	23.00	393.00	100.00	386.00	110.00	548.00	36.00	553.00	
frame00029.jpg	23.00	393.00	100.00	386.00	110.00	548.00	36.00	553.00	
frame00030.jpg	23.00	393.00	100.00	386.00	110.00	548.00	36.00	553.00	
frame00031.jpg	23.00	393.00	100.00	386.00	110.00	548.00	36.00	553.00	
frame00032.jpg	23.00	393.00	100.00	386.00	110.00	548.00	36.00	553.00	
frame00033.jpg	23.00	393.00	100.00	386.00	110.00	548.00	36.00	553.00	
frame00034.jpg	23.00	393.00	100.00	386.00	110.00	548.00	36.00	553.00	
frame00035.jpg	23.00	393.00	100.00	386.00	110.00	548.00	36.00	553.00	
frame00036.jpg	23.00	393.00	100.00	386.00	110.00	548.00	36.00	553.00	
frame00037.jpg	23.00	393.00	100.00	386.00	110.00	548.00	36.00	553.00	
frame00038.jpg	23.00	393.00	100.00	386.00	110.00	548.00	36.00	553.00	
frame00039.jpg	23.00	393.00	100.00	386.00	110.00	548.00	36.00	553.00	
frame00040.jpg	23.00	393.00	100.00	386.00	110.00	548.00	36.00	553.00	
frame00041.jpg	23.00	393.00	100.00	386.00	110.00	548.00	36.00	553.00	
frame00042.jpg	23.00	393.00	100.00	386.00	110.00	548.00	36.00	553.00	
frame00043.jpg	23.00	393.00	100.00	386.00	110.00	548.00	36.00	553.00	
frame00044.jpg	23.00	393.00	100.00	386.00	110.00	548.00	36.00	553.00	
frame00045.jpg	23.00	393.00	100.00	386.00	110.00	548.00	36.00	553.00	
frame00046.jpg	23.00	393.00	100.00	386.00	110.00	548.00	36.00	553.00	
frame00047.jpg	23.00	393.00	100.00	386.00	110.00	548.00	36.00	553.00	
frame00048.jpg	23.00	393.00	100.00	386.00	110.00	548.00	36.00	553.00	
frame00049.jpg	23.00	393.00	100.00	386.00	110.00	548.00	36.00	553.00	
frame00050.jpg	23.00	393.00	100.00	386.00	110.00	548.00	36.00	553.00	
frame00051.jpg	23.00	393.00	100.00	386.00	110.00	548.00	36.00	553.00	
frame00052.jpg	23.00	393.00	100.00	386.00	110.00	548.00	36.00	553.00	
frame00053.jpg	23.00	393.00	100.00	386.00	110.00	548.00	36.00	553.00	
frame00054.jpg	23.00	393.00	100.00	386.00	110.00	548.00	36.00	553.00	
frame00055.jpg	23.00	393.00	100.00	386.00	110.00	548.00	36.00	553.00	
frame00056.jpg	23.00	393.00	100.00	386.00	110.00	548.00	36.00	553.00	
frame00057.jpg	23.00	393.00	100.00	386.00	110.00	548.00	36.00	553.00	
frame00058.jpg	23.00	393.00	100.00	386.00	110.00	548.00	36.00	553.00	
frame00059.jpg	23.00	393.00	100.00	386.00	110.00	548.00	36.00	553.00	
frame00060.jpg	23.00	393.00	100.00	386.00	110.00	548.00	36.00	553.00	
frame00061.jpg	23.00	393.00	100.00	386.00	110.00	548.00	36.00	553.00	
frame00062.jpg	23.00	393.00	100.00	386.00	110.00	548.00	36.00	553.00	
frame00063.jpg	23.00	393.00	100.00	386.00	110.00	548.00	36.00	553.00	
frame00064.jpg	23.00	393.00	100.00	386.00	110.00	548.00	36.00	553.00	
frame00065.jpg	23.00	393.00	100.00	386.00	110.00	548.00	36.00	553.00	
frame00066.jpg	23.00	393.00	100.00	386.00	110.00	548.00	36.00	553.00	
frame00067.jpg	23.00	393.00	100.00	386.00	110.00	548.00	36.00	553.00	
frame00068.jpg	23.00	393.00	100.00	386.00	110.00	548.00	36.00	553.00	
frame00069.jpg	23.00	393.00	100.00	386.00	110.00	548.00	36.00	553.00	
frame00070.jpg	23.00	393.00	100.00	386.00	110.00	548.00	36.00	553.00	
frame00071.jpg	23.00	393.00	100.00	386.00	110.00	548.00	36.00	553.00	
frame00072.jpg	23.00	393.00	100.00	386.00	110.00	548.00	36.00	553.00	
frame00073.jpg	23.00	393.00	100.00	386.00	110.00	548.00	36.00	553.00	
frame00074.jpg	23.00	393.00	100.00	386.00	110.00	548.00	36.00	553.00	
frame00075.jpg	23.00	393.00	100.00	386.00	110.00	548.00	36.00	553.00	
frame00076.jpg	23.00	393.00	100.00	386.00	110.00	548.00	36.00	553.00	
frame00077.jpg	23.00	393.00	100.00	386.00	110.00	548.00	36.00	553.00	
frame00078.jpg	23.00	393.00	100.00	386.00	110.00	548.00	36.00	553.00	
frame00079.jpg	23.00	393.00	100.00	386.00	110.00	548.00	36.00	553.00	
frame00080.jpg	23.00	393.00	100.00	386.00	110.00	548.00	36.00	553.00	
frame00081.jpg	23.00	393.00	100.00	386.00	110.00	548.00	36.00	553.00	
frame00082.jpg	23.00	393.00	100.00	386.00	110.00	548.00	36.00	553.00	
frame00083.jpg	23.00	393.00	100.00	386.00	110.00	548.00	36.00	553.00	
frame00084.jpg	23.00	393.00	100.00	386.00	110.00	548.00	36.00	553.00	
frame00085.jpg	23.00	393.00	100.00	386.00	110.00	548.00	36.00	553.00	
frame00086.jpg	23.00	393.00	100.00	386.00	110.00	548.00	36.00	553.00	
frame00087.jpg	23.00	393.00	100.00	386.00	110.00	548.00	36.00	553.00	
frame00088.jpg	23.00	393.00	100.00	386.00	110.00	548.00	36.00	553.00	
frame00089.jpg	23.00	393.00	100.00	386.00	110.00	548.00	36.00	553.00	
frame00090.jpg	23.00	393.00	100.00	386.00	110.00	548.00	36.00	553.00	
frame00091.jpg	23.00	393.00	100.00	386.00	110.00	548.00	36.00	553.00	
frame00092.jpg	23.00	393.00	100.00	386.00	110.00	548.00	36.00	553.00	
frame00093.jpg	23.00	393.00	100.00	386.00	110.00	548.00	36.00	553.00	
frame00094.jpg	23.00	393.00	100.00	386.00	110.00	548.00	36.00	553.00	
frame00095.jpg	23.00	393.00	100.00	386.00	110.00	548.00	36.00	553.00	
frame00096.jpg	23.00	393.00	100.00	386.00	110.00	548.00	36.00	553.00	
frame00097.jpg	23.00	393.00	100.00	386.00	110.00	548.00	36.00	553.00	
frame00098.jpg	23.00	393.00	100.00	386.00	110.00	548.00	36.00	553.00	
frame00099.jpg	23.00	393.00	100.00	386.00	110.00	548.00	36.00	553.00	
frame00100.jpg	23.00	393.00	100.00	386.00	110.00	548.00	36.00	553.00	
frame00101.jpg	23.00	393.00	100.00	386.00	110.00	548.00	36.00	553.00	
frame00102.jpg	23.00	393.00	100.00	386.00	110.00	548.00	36.00	553.00	
frame00103.jpg	23.00	393.00	100.00	386.00	110.00	548.00	36.00	553.00	
frame00104.jpg	23.00	393.00	100.00	386.00	110.00	548.00	36.00	553.00	
frame00105.jpg	23.00	393.00	100.00	386.00	110.00	548.00	36.00	553.00	
frame00106.jpg	23.00	393.00	100.00	386.00	110.00	548.00	36.00	553.00	
frame00107.jpg	23.00	393.00	100.00	386.00	110.00	548.00	36.00	553.00	
frame00108.jpg	23.00	393.00	100.00	386.00	110.00	548.00	36.00	553.00	
frame00109.jpg	23.00	393.00	100.00	386.00	110.00	548.00	36.00	553.00	
frame00110.jpg	22.88	393.01	99.88	386.01	109.88	548.01	35.88	553.01	
frame00111.jpg	23.00	393.00	100.00	386.00	110.00	548.00	36.00	553.00	
frame00112.jpg	23.60	392.95	100.62	385.94	110.59	547.96	36.58	552.96	
frame00113.jpg	24.21	392.89	101.23	385.89	111.18	547.92	37.16	552.92	
frame00114.jpg	24.57	392.86	101.60	385.85	111.54	547.90	37.51	552.90	
frame00115.jpg	24.69	392.85	101.73	385.84	111.66	547.89	37.62	552.89	
frame00116.jpg	24.81	392.84	101.85	385.83	111.78	547.88	37.74	552.88	
frame00117.jpg	24.93	392.82	101.97	385.82	111.89	547.87	37.85	552.87	
frame00118.jpg	25.05	392.81	102.09	385.81	112.01	547.86	37.97	552.87	
frame00119.jpg	25.17	392.80	102.22	385.80	112.13	547.86	38.09	552.86	
frame00120.jpg	25.17	392.80	102.22	385.80	112.13	547.86	38.09	552.86	
frame00121.jpg	25.29	392.79	102.34	385.79	112.25	547.85	38.20	552.85	
frame00122.jpg	25.63	392.49	102.70	385.49	112.59	547.58	38.53	552.58	
frame00123.jpg	25.75	392.48	102.82	385.47	112.71	547.57	38.65	552.58	
frame00124.jpg	25.75	392.48	102.82	385.47	112.71	547.57	38.65	552.58	
frame00125.jpg	25.75	392.48	102.82	385.47	112.71	547.57	38.65	552.58	
frame00126.jpg	26.11	392.45	103.19	385.44	113.06	547.55	38.99	552.55	
frame00127.jpg	26.94	392.11	104.04	385.10	113.88	547.24	39.79	552.26	
frame00128.jpg	28.24	391.73	105.38	384.70	115.17	546.91	41.04	551.93	
frame00129.jpg	29.31	391.36	106.47	384.34	116.22	546.59	42.07	551.61	
frame00130.jpg	30.37	391.00	107.57	383.97	117.27	546.27	43.09	551.30	
frame00131.jpg	31.68	390.61	108.91	383.57	118.56	545.94	44.35	550.97	
frame00132.jpg	32.95	389.70	110.22	382.65	119.82	545.11	45.57	550.15	
frame00133.jpg	34.42	388.23	111.75	381.16	121.30	543.77	46.99	548.83	
frame00134.jpg	36.57	386.17	113.99	379.07	123.45	541.89	49.07	546.97	
frame00135.jpg	39.38	382.97	116.92	375.82	126.27	538.96	51.77	544.08	
frame00136.jpg	42.35	378.67	120.04	371.47	129.28	535.02	54.64	540.19	
frame00137.jpg	45.54	373.81	123.40	366.54	132.51	530.56	57.72	535.78	
frame00138.jpg	49.67	368.30	127.73	360.96	136.68	525.51	61.71	530.80	
frame00139.jpg	54.56	362.71	132.83	355.28	141.59	520.39	66.42	525.75	
frame00140.jpg	60.44	356.99	138.96	349.48	147.48	515.19	72.09	520.61	
frame00141.jpg	66.85	351.20	145.61	343.61	153.88	509.92	78.25	515.41	
frame00142.jpg	73.32	345.93	152.33	338.27	160.34	505.14	84.48	510.69	
frame00143.jpg	79.57	340.66	158.82	332.92	166.57	500.36	90.50	505.97	
frame00144.jpg	85.35	335.42	164.83	327.60	172.35	495.59	96.06	501.27	
frame00145.jpg	91.87	329.54	171.60	321.63	178.85	490.24	102.33	495.99	
frame00146.jpg	99.13	323.00	179.15	315.00	186.11	484.30	109.32	490.12	
frame00147.jpg	107.22	316.90	187.54	308.81	194.16	478.78	117.10	484.68	
frame00148.jpg	114.84	310.83	195.45	302.65	201.75	473.28	124.43	479.25	
frame00149.jpg	122.95	303.55	203.88	295.27	209.84	466.67	132.22	472.74	
frame00150.jpg	131.27	294.53	212.56	286.11	218.17	458.45	140.22	464.62	
frame00151.jpg	139.87	284.85	221.54	276.29	226.79	449.62	148.49	455.91	
frame00152.jpg	148.32	276.28	230.35	267.59	235.25	441.81	156.61	448.21	
frame00153.jpg	156.34	268.27	238.71	259.46	243.26	434.53	164.32	441.02	
frame00154.jpg	164.13	259.67	246.84	250.73	251.06	426.69	171.80	433.29	
frame00155.jpg	171.67	250.47	254.74	241.39	258.63	418.29	179.05	425.01	
frame00156.jpg	179.29	241.79	262.70	232.59	266.26	410.38	186.36	417.20	
frame00157.jpg	186.69	233.09	270.45	223.75	273.68	402.45	193.47	409.38	
frame00158.jpg	193.61	224.39	277.70	214.92	280.63	394.51	200.11	401.55	
frame00159.jpg	199.80	216.32	284.19	206.73	286.85	387.14	206.05	394.28	
frame00160.jpg	206.29	208.18	290.99	198.47	293.36	379.71	212.28	386.96	
frame00161.jpg	212.31	200.65	297.29	190.82	299.39	372.84	218.05	380.18	
frame00162.jpg	217.07	195.02	302.28	185.11	304.16	367.72	222.61	375.13	
frame00163.jpg	221.60	190.00	307.02	180.01	308.69	363.15	226.96	370.62	
frame00164.jpg	226.44	185.53	312.05	175.47	313.51	359.10	231.59	366.63	
frame00165.jpg	230.50	181.75	316.28	171.62	317.55	355.66	235.48	363.25	
frame00166.jpg	234.59	178.55	320.52	168.38	321.61	352.78	239.40	360.40	
frame00167.jpg	238.16	176.01	324.23	165.80	325.16	350.49	242.82	358.15	
frame00168.jpg	241.47	173.50	327.67	163.25	328.44	348.23	246.00	355.92	
frame00169.jpg	245.06	170.95	331.39	160.66	332.00	345.94	249.43	353.66	
frame00170.jpg	248.66	168.40	335.12	158.06	335.57	343.64	252.88	351.40	
frame00171.jpg	251.99	165.87	338.58	155.49	338.88	341.36	256.07	349.15	
frame00172.jpg	255.33	163.34	342.05	152.92	342.19	339.08	259.27	346.91	
frame00173.jpg	258.41	160.84	345.24	150.38	345.24	336.82	262.21	344.68	
frame00174.jpg	260.95	158.40	347.89	147.90	347.77	334.61	264.64	342.50	
frame00175.jpg	263.23	156.59	350.26	146.06	350.04	332.98	266.83	340.89	
frame00176.jpg	265.24	154.82	352.35	144.26	352.04	331.37	268.75	339.31	
frame00177.jpg	266.98	153.08	354.17	142.49	353.77	329.79	270.42	337.75	
frame00178.jpg	268.73	151.33	355.99	140.72	355.51	328.21	272.09	336.19	
frame00179.jpg	270.20	149.62	357.53	138.98	356.98	326.65	273.50	334.66	
frame00180.jpg	271.69	148.52	359.07	137.86	358.46	325.66	274.92	333.68	
frame00181.jpg	272.91	148.06	360.33	137.40	359.66	325.26	276.09	333.29	
frame00182.jpg	274.41	147.88	361.87	137.21	361.13	325.12	277.53	333.15	
frame00183.jpg	275.92	147.70	363.41	137.02	362.61	324.98	278.97	333.01	
frame00184.jpg	277.15	147.55	364.68	136.87	363.81	324.86	280.15	332.90	
frame00185.jpg	278.38	147.40	365.94	136.71	365.02	324.75	281.32	332.78	
frame00186.jpg	279.33	146.97	366.92	136.28	365.96	324.37	282.24	332.42	
frame00187.jpg	280.02	146.89	367.62	136.19	366.63	324.31	282.89	332.35	
frame00188.jpg	280.43	146.84	368.04	136.14	367.03	324.27	283.28	332.31	
frame00189.jpg	280.84	147.09	368.46	136.40	367.43	324.51	283.68	332.56	
frame00190.jpg	280.84	147.09	368.46	136.40	367.43	324.51	283.68	332.56	
frame00191.jpg	280.71	147.11	368.32	136.42	367.30	324.53	283.55	332.57	
frame00192.jpg	280.57	147.13	368.18	136.44	367.16	324.54	283.42	332.58	
frame00193.jpg	280.71	147.42	368.32	136.73	367.29	324.81	283.55	332.85	
frame00194.jpg	280.71	147.42	368.32	136.73	367.29	324.81	283.55	332.85	
frame00195.jpg	280.85	147.40	368.46	136.72	367.43	324.80	283.69	332.84	
frame00196.jpg	280.71	147.11	368.32	136.42	367.30	324.53	283.55	332.57	
frame00197.jpg	280.57	146.82	368.18	136.13	367.16	324.26	283.42	332.30	
frame00198.jpg	280.15	146.56	367.76	135.87	366.76	324.01	283.02	332.06	
frame00199.jpg	279.46	146.34	367.06	135.64	366.09	323.79	282.36	331.84	
frame00200.jpg	278.77	146.12	366.36	135.41	365.42	323.57	281.70	331.62	
frame00201.jpg	278.08	145.89	365.66	135.19	364.76	323.35	281.04	331.41	
frame00202.jpg	277.39	145.67	364.96	134.96	364.09	323.13	280.38	331.19	
frame00203.jpg	276.43	145.48	363.98	134.77	363.15	322.94	279.46	331.00	
frame00204.jpg	275.19	145.32	362.72	134.61	361.95	322.77	278.28	330.83	
frame00205.jpg	273.96	145.48	361.46	134.77	360.74	322.88	277.10	330.94	
frame00206.jpg	272.45	145.35	359.92	134.65	359.27	322.74	275.66	330.80	
frame00207.jpg	270.67	145.26	358.10	134.56	357.53	322.62	273.95	330.68	
frame00208.jpg	268.89	145.17	356.28	134.47	355.79	322.51	272.25	330.57	
frame00209.jpg	267.11	145.08	354.46	134.38	354.06	322.39	270.54	330.45	
frame00210.jpg	265.33	145.00	352.65	134.29	352.32	322.27	268.84	330.33	
frame00211.jpg	263.28	145.25	350.55	134.55	350.31	322.47	266.88	330.52	
frame00212.jpg	261.23	145.50	348.45	134.81	348.31	322.66	264.93	330.71	
frame00213.jpg	258.92	145.78	346.08	135.10	346.04	322.88	262.71	330.93	
frame00214.jpg	256.61	146.37	343.71	135.70	343.78	323.38	260.50	331.42	
frame00215.jpg	254.30	146.96	341.34	136.30	341.51	323.89	258.29	331.91	
frame00216.jpg	252.00	147.55	338.97	136.90	339.25	324.39	256.09	332.41	
frame00217.jpg	249.96	148.11	336.88	137.47	337.25	324.86	254.15	332.87	
frame00218.jpg	248.20	148.63	335.07	138.00	335.52	325.31	252.46	333.32	
frame00219.jpg	246.45	149.15	333.26	138.53	333.80	325.76	250.78	333.76	
frame00220.jpg	244.69	149.67	331.46	139.06	332.07	326.21	249.10	334.20	
frame00221.jpg	242.93	150.19	329.65	139.59	330.35	326.66	247.42	334.64	
frame00222.jpg	241.17	150.41	327.85	139.81	328.62	326.83	245.73	334.80	
frame00223.jpg	239.41	150.62	326.04	140.03	326.90	326.99	244.05	334.97	
frame00224.jpg	237.92	150.80	324.52	140.22	325.44	327.13	242.62	335.10	
frame00225.jpg	236.43	150.99	322.99	140.40	323.98	327.27	241.20	335.24	
frame00226.jpg	235.22	151.13	321.75	140.56	322.79	327.39	240.03	335.35	
frame00227.jpg	234.00	151.28	320.50	140.71	321.60	327.50	238.87	335.47	
frame00228.jpg	233.05	151.40	319.53	140.83	320.67	327.59	237.96	335.55	
frame00229.jpg	232.11	151.82	318.56	141.26	319.74	327.96	237.07	335.92	
frame00230.jpg	230.90	151.97	317.32	141.41	318.55	328.08	235.90	336.03	
frame00231.jpg	229.95	152.08	316.35	141.53	317.63	328.17	235.00	336.12	
frame00232.jpg	229.01	152.20	315.38	141.64	316.70	328.26	234.09	336.20	
frame00233.jpg	228.07	152.62	314.41	142.07	315.78	328.63	233.20	336.57	
frame00234.jpg	227.13	152.73	313.44	142.19	314.85	328.72	232.29	336.66	
frame00235.jpg	226.45	152.82	312.75	142.27	314.19	328.78	231.65	336.72	
frame00236.jpg	226.05	152.87	312.34	142.33	313.80	328.82	231.26	336.76	
frame00237.jpg	225.64	152.92	311.92	142.38	313.40	328.86	230.87	336.79	
frame00238.jpg	225.52	153.24	311.79	142.70	313.27	329.15	230.75	337.08	
frame00239.jpg	225.53	153.54	311.79	143.01	313.27	329.43	230.76	337.36	
frame00240.jpg	225.66	153.52	311.93	142.99	313.40	329.42	230.89	337.35	
frame00241.jpg	225.80	153.81	312.07	143.28	313.54	329.69	231.03	337.62	
frame00242.jpg	226.22	154.07	312.49	143.54	313.94	329.93	231.42	337.86	
frame00243.jpg	226.36	154.35	312.63	143.83	314.07	330.20	231.56	338.12	
frame00244.jpg	226.76	154.30	313.04	143.78	314.47	330.17	231.94	338.08	
frame00245.jpg	227.17	154.25	313.46	143.73	314.86	330.13	232.33	338.05	
frame00246.jpg	227.84	153.87	314.14	143.34	315.52	329.78	232.97	337.71	
frame00247.jpg	228.77	153.45	315.11	142.91	316.44	329.41	233.87	337.34	
frame00248.jpg	229.98	153.00	316.35	142.45	317.63	329.01	235.02	336.95	
frame00249.jpg	231.46	152.51	317.87	141.96	319.09	328.59	236.43	336.54	
frame00250.jpg	233.20	151.99	319.67	141.43	320.80	328.14	238.11	336.10	
frame00251.jpg	235.22	151.44	321.75	140.87	322.79	327.67	240.04	335.63	
frame00252.jpg	237.25	150.89	323.82	140.30	324.77	327.20	241.98	335.17	
frame00253.jpg	239.54	150.30	326.18	139.71	327.03	326.70	244.17	334.68	
frame00254.jpg	242.09	149.07	328.81	138.45	329.54	325.61	246.61	333.60	
frame00255.jpg	244.92	147.80	331.73	137.17	332.33	324.49	249.32	332.50	
frame00256.jpg	248.29	146.47	335.21	135.81	335.65	323.32	252.55	331.35	
frame00257.jpg	252.21	145.07	339.24	134.38	339.51	322.09	256.30	330.14	
frame00258.jpg	256.14	143.66	343.29	132.95	343.38	320.87	260.06	328.94	
frame00259.jpg	260.09	142.87	347.34	132.14	347.25	320.21	263.83	328.29	
frame00260.jpg	263.77	142.11	351.11	131.37	350.85	319.57	267.35	327.67	
frame00261.jpg	268.29	142.48	355.73	131.73	355.26	320.00	271.68	328.09	
frame00262.jpg	272.82	142.85	360.35	132.10	359.68	320.43	276.01	328.52	
frame00263.jpg	277.64	143.79	365.25	133.06	364.36	321.40	280.62	329.48	
frame00264.jpg	282.18	144.78	369.88	134.05	368.78	322.39	284.96	330.47	
frame00265.jpg	286.18	145.83	373.94	135.11	372.67	323.44	288.79	331.51	
frame00266.jpg	289.91	146.91	377.73	136.21	376.28	324.52	292.35	332.57	
frame00267.jpg	293.91	147.96	381.80	137.27	380.17	325.57	296.17	333.61	
frame00268.jpg	298.19	148.98	386.15	138.30	384.33	326.59	300.26	334.62	
frame00269.jpg	302.47	150.62	390.50	139.95	388.48	328.19	304.36	336.20	
frame00270.jpg	306.48	151.67	394.57	141.01	392.37	329.24	308.19	337.24	
frame00271.jpg	310.22	153.37	398.35	142.74	395.98	330.88	311.76	338.87	
frame00272.jpg	313.40	154.52	401.58	143.90	399.07	332.01	314.81	339.98	
frame00273.jpg	316.58	155.68	404.81	145.07	402.15	333.14	317.85	341.10	
frame00274.jpg	319.76	156.22	408.04	145.61	405.24	333.70	320.89	341.65	
frame00275.jpg	322.94	156.75	411.28	146.16	408.34	334.26	323.93	342.21	
frame00276.jpg	325.57	157.98	413.95	147.39	410.88	335.44	326.44	343.37	
frame00277.jpg	327.37	158.07	415.78	147.48	412.64	335.56	328.16	343.49	
frame00278.jpg	328.06	158.29	416.49	147.71	413.31	335.78	328.82	343.71	
frame00279.jpg	328.76	159.13	417.18	148.56	413.97	336.57	329.49	344.49	
frame00280.jpg	329.18	160.00	417.59	149.44	414.36	337.38	329.89	345.29	
frame00281.jpg	329.87	160.84	418.28	150.29	415.02	338.17	330.55	346.07	
frame00282.jpg	330.56	161.67	418.97	151.14	415.68	338.96	331.21	346.85	
frame00283.jpg	330.98	161.93	419.39	151.40	416.08	339.21	331.61	347.10	
frame00284.jpg	331.40	162.80	419.80	152.28	416.47	340.02	332.01	347.90	
frame00285.jpg	331.54	163.70	419.92	153.20	416.59	340.86	332.14	348.73	
frame00286.jpg	331.41	165.25	419.75	154.77	416.43	342.29	332.02	350.14	
frame00287.jpg	331.00	166.83	419.30	156.37	416.00	343.74	331.63	351.57	
frame00288.jpg	330.31	168.44	418.57	158.01	415.30	345.22	330.97	353.03	
frame00289.jpg	329.35	170.08	417.55	159.67	414.33	346.72	330.05	354.51	
frame00290.jpg	328.12	172.36	416.24	161.99	413.09	348.81	328.87	356.57	
frame00291.jpg	326.62	175.28	414.65	164.95	411.56	351.49	327.44	359.21	
frame00292.jpg	324.57	178.26	412.49	167.98	409.50	354.21	325.48	361.89	
frame00293.jpg	322.25	181.27	410.05	171.03	407.18	356.95	323.26	364.59	
frame00294.jpg	319.66	184.90	407.33	174.73	404.58	360.27	320.78	367.87	
frame00295.jpg	316.26	188.63	403.78	178.51	401.18	363.66	317.53	371.21	
frame00296.jpg	311.50	191.90	398.84	181.83	396.47	366.60	312.97	374.10	
frame00297.jpg	305.92	194.65	393.08	184.63	390.97	369.04	307.64	376.51	
frame00298.jpg	299.81	196.85	386.79	186.87	384.96	370.97	301.80	378.41	
frame00299.jpg	293.17	198.52	379.96	188.57	378.44	372.39	295.44	379.80	
frame00300.jpg	285.72	200.27	372.32	190.36	371.13	373.88	288.32	381.26	
frame00301.jpg	278.30	202.02	364.70	192.14	363.84	375.36	281.21	382.72	
frame00302.jpg	269.83	204.48	355.99	194.65	355.52	377.48	273.10	384.81	
frame00303.jpg	260.86	207.60	346.75	197.82	346.69	380.20	264.51	387.48	
frame00304.jpg	251.92	210.70	337.55	200.97	337.89	382.91	255.95	390.14	
frame00305.jpg	243.01	213.79	328.39	204.12	329.12	385.60	247.42	392.80	
frame00306.jpg	234.13	216.87	319.25	207.25	320.39	388.29	238.92	395.45	
frame00307.jpg	225.29	219.94	310.15	210.37	311.68	390.97	230.45	398.08	
frame00308.jpg	216.47	223.00	301.08	213.49	303.00	393.65	222.00	400.71	
frame00309.jpg	207.69	226.05	292.04	216.59	294.35	396.31	213.59	403.33	
frame00310.jpg	198.93	229.08	283.03	219.68	285.73	398.96	205.20	405.95	
frame00311.jpg	190.21	232.11	274.06	222.76	277.14	401.60	196.84	408.55	
frame00312.jpg	181.52	235.13	265.12	225.82	268.58	404.24	188.50	411.14	
frame00313.jpg	172.85	238.13	256.20	228.88	260.04	406.87	180.20	413.73	
frame00314.jpg	164.22	241.13	247.32	231.93	251.54	409.48	171.92	416.31	
frame00315.jpg	155.62	244.11	238.47	234.97	243.06	412.09	163.67	418.87	
frame00316.jpg	146.84	248.27	229.42	239.19	234.39	415.78	155.25	422.51	
frame00317.jpg	138.87	252.32	221.20	243.31	226.51	419.40	147.60	426.07	
frame00318.jpg	131.19	256.33	213.27	247.38	218.91	422.98	140.23	429.60	
frame00319.jpg	124.28	259.67	206.14	250.78	212.07	425.95	133.60	432.53	
frame00320.jpg	117.64	262.97	199.29	254.13	205.51	428.89	127.22	435.43	
frame00321.jpg	111.54	266.21	192.99	257.42	199.47	431.78	121.36	438.28	
frame00322.jpg	105.45	269.44	186.71	260.70	193.44	434.66	115.51	441.12	
frame00323.jpg	99.38	272.65	180.44	263.96	187.43	437.54	109.69	443.95	
frame00324.jpg	93.08	275.89	173.94	267.25	181.19	440.42	103.63	446.79	
frame00325.jpg	86.29	279.16	166.94	270.58	174.48	443.34	97.11	449.67	
frame00326.jpg	79.74	281.84	160.20	273.30	168.01	445.71	90.82	452.00	
frame00327.jpg	73.92	283.87	154.22	275.37	162.27	447.48	85.23	453.75	
frame00328.jpg	68.12	285.90	148.25	277.42	156.54	449.26	79.66	455.50	
frame00329.jpg	63.08	287.84	143.06	279.40	151.57	450.97	74.81	457.18	
frame00330.jpg	58.26	289.19	138.12	280.77	146.82	452.14	70.19	458.33	
frame00331.jpg	53.70	290.52	133.44	282.12	142.33	453.28	65.81	459.46	
frame00332.jpg	49.65	291.79	129.27	283.41	138.33	454.38	61.91	460.55	
frame00333.jpg	46.31	292.42	125.85	284.05	135.05	454.91	58.70	461.06	
frame00334.jpg	43.22	293.02	122.68	284.67	132.01	455.41	55.74	461.56	
frame00335.jpg	40.13	293.63	119.52	285.29	128.97	455.92	52.77	462.06	
frame00336.jpg	37.30	294.21	116.61	285.88	126.19	456.40	50.05	462.53	
frame00337.jpg	34.76	295.31	114.00	287.00	123.67	457.38	47.61	463.50	
frame00338.jpg	32.96	296.34	112.14	288.04	121.89	458.30	45.88	464.41	
frame00339.jpg	31.42	297.34	110.55	289.06	120.36	459.21	44.40	465.30	
frame00340.jpg	29.87	298.34	108.95	290.07	118.82	460.11	42.91	466.18	
frame00341.jpg	28.33	299.34	107.35	291.09	117.29	461.01	41.42	467.07	
frame00342.jpg	27.04	300.31	106.01	292.07	116.00	461.88	40.18	467.94	
frame00343.jpg	25.70	300.73	104.64	292.50	114.68	462.25	38.89	468.30	
frame00344.jpg	24.59	300.84	103.50	292.62	113.59	462.34	37.83	468.38	
frame00345.jpg	24.47	300.86	103.38	292.63	113.47	462.35	37.71	468.39	
frame00346.jpg	24.57	300.57	103.49	292.34	113.58	462.08	37.81	468.13	
frame00347.jpg	24.92	300.25	103.85	292.02	113.92	461.79	38.14	467.84	
frame00348.jpg	25.26	299.94	104.21	291.70	114.27	461.51	38.48	467.56	
frame00349.jpg	25.39	299.92	104.34	291.68	114.39	461.50	38.60	467.55	
frame00350.jpg	25.26	299.94	104.21	291.70	114.27	461.51	38.48	467.56	
frame00351.jpg	24.89	299.98	103.83	291.74	113.91	461.53	38.12	467.59	
frame00352.jpg	24.77	299.99	103.70	291.75	113.79	461.54	38.00	467.60	
frame00353.jpg	25.12	299.67	104.07	291.43	114.14	461.26	38.34	467.32	
frame00354.jpg	25.71	299.33	104.68	291.08	114.73	460.95	38.91	467.02	
frame00355.jpg	26.06	299.02	105.04	290.76	115.08	460.66	39.25	466.73	
frame00356.jpg	26.06	299.02	105.04	290.76	115.08	460.66	39.25	466.73	
frame00357.jpg	26.09	299.29	105.06	291.04	115.09	460.92	39.27	466.99	
frame00358.jpg	26.23	299.56	105.20	291.31	115.23	461.17	39.41	467.23	
frame00359.jpg	26.62	299.80	105.60	291.55	115.61	461.40	39.78	467.46	
frame00360.jpg	27.02	300.03	106.00	291.79	115.99	461.63	40.16	467.68	
frame00361.jpg	27.16	300.30	106.14	292.06	116.12	461.87	40.30	467.93	
frame00362.jpg	27.16	300.30	106.14	292.06	116.12	461.87	40.30	467.93	
frame00363.jpg	27.06	300.59	106.03	292.35	116.02	462.14	40.20	468.19	
frame00364.jpg	26.96	300.88	105.92	292.65	115.91	462.41	40.10	468.46	
frame00365.jpg	26.85	301.17	105.81	292.94	115.80	462.68	40.00	468.72	
frame00366.jpg	26.75	301.46	105.70	293.23	115.70	462.94	39.90	468.98	
frame00367.jpg	26.88	301.44	105.83	293.22	115.82	462.93	40.02	468.97	
frame00368.jpg	27.00	301.43	105.95	293.21	115.94	462.92	40.14	468.96	
frame00369.jpg	26.88	301.44	105.83	293.22	115.82	462.93	40.02	468.97	
frame00370.jpg	26.75	301.46	105.70	293.23	115.70	462.94	39.90	468.98	
frame00371.jpg	26.75	301.46	105.70	293.23	115.70	462.94	39.90	468.98	
frame00372.jpg	26.65	301.74	105.59	293.53	115.59	463.21	39.80	469.25	
frame00373.jpg	26.55	302.03	105.48	293.82	115.49	463.48	39.71	469.51	
frame00374.jpg	26.45	302.32	105.37	294.11	115.38	463.74	39.61	469.77	
frame00375.jpg	26.35	302.61	105.26	294.41	115.27	464.01	39.51	470.04	
frame00376.jpg	26.22	302.63	105.13	294.42	115.15	464.02	39.39	470.05	
frame00377.jpg	26.10	302.64	105.01	294.43	115.03	464.03	39.27	470.06	
frame00378.jpg	26.10	302.64	105.01	294.43	115.03	464.03	39.27	470.06	
frame00379.jpg	26.10	302.64	105.01	294.43	115.03	464.03	39.27	470.06	
frame00380.jpg	26.10	302.64	105.01	294.43	115.03	464.03	39.27	470.06	
frame00381.jpg	26.10	302.64	105.01	294.43	115.03	464.03	39.27	470.06	
frame00382.jpg	26.10	302.64	105.01	294.43	115.03	464.03	39.27	470.06	
frame00383.jpg	26.10	302.64	105.01	294.43	115.03	464.03	39.27	470.06	
frame00384.jpg	26.10	302.64	105.01	294.43	115.03	464.03	39.27	470.06	
frame00385.jpg	26.10	302.64	105.01	294.43	115.03	464.03	39.27	470.06	
frame00386.jpg	26.10	302.64	105.01	294.43	115.03	464.03	39.27	470.06	
frame00387.jpg	26.10	302.64	105.01	294.43	115.03	464.03	39.27	470.06	
frame00388.jpg	26.10	302.64	105.01	294.43	115.03	464.03	39.27	470.06	
frame00389.jpg	26.10	302.64	105.01	294.43	115.03	464.03	39.27	470.06	
frame00390.jpg	26.10	302.64	105.01	294.43	115.03	464.03	39.27	470.06	
frame00391.jpg	26.10	302.64	105.01	294.43	115.03	464.03	39.27	470.06	
frame00392.jpg	26.10	302.64	105.01	294.43	115.03	464.03	39.27	470.06	
frame00393.jpg	26.10	302.64	105.01	294.43	115.03	464.03	39.27	470.06	
frame00394.jpg	26.10	302.64	105.01	294.43	115.03	464.03	39.27	470.06	
frame00395.jpg	26.10	302.64	105.01	294.43	115.03	464.03	39.27	470.06	
frame00396.jpg	26.10	302.64	105.01	294.43	115.03	464.03	39.27	470.06	
frame00397.jpg	26.10	302.64	105.01	294.43	115.03	464.03	39.27	470.06	
frame00398.jpg	26.10	302.64	105.01	294.43	115.03	464.03	39.27	470.06	
frame00399.jpg	26.10	302.64	105.01	294.43	115.03	464.03	39.27	470.06	
frame00400.jpg	26.10	302.64	105.01	294.43	115.03	464.03	39.27	470.06	
frame00401.jpg	26.10	302.64	105.01	294.43	115.03	464.03	39.27	470.06	
frame00402.jpg	26.10	302.64	105.01	294.43	115.03	464.03	39.27	470.06	
frame00403.jpg	26.10	302.64	105.01	294.43	115.03	464.03	39.27	470.06	
frame00404.jpg	26.10	302.64	105.01	294.43	115.03	464.03	39.27	470.06	
frame00405.jpg	26.10	302.64	105.01	294.43	115.03	464.03	39.27	470.06	
frame00406.jpg	26.10	302.64	105.01	294.43	115.03	464.03	39.27	470.06	
frame00407.jpg	26.10	302.64	105.01	294.43	115.03	464.03	39.27	470.06	
frame00408.jpg	26.10	302.64	105.01	294.43	115.03	464.03	39.27	470.06	
frame00409.jpg	26.10	302.64	105.01	294.43	115.03	464.03	39.27	470.06	
frame00410.jpg	26.10	302.64	105.01	294.43	115.03	464.03	39.27	470.06	
frame00411.jpg	26.10	302.64	105.01	294.43	115.03	464.03	39.27	470.06	
frame00412.jpg	26.10	302.64	105.01	294.43	115.03	464.03	39.27	470.06	
frame00413.jpg	26.10	302.64	105.01	294.43	115.03	464.03	39.27	470.06	
frame00414.jpg	26.10	302.64	105.01	294.43	115.03	464.03	39.27	470.06	
frame00415.jpg	26.10	302.64	105.01	294.43	115.03	464.03	39.27	470.06	
frame00416.jpg	26.10	302.64	105.01	294.43	115.03	464.03	39.27	470.06	
frame00417.jpg	26.10	302.64	105.01	294.43	115.03	464.03	39.27	470.06	
frame00418.jpg	26.10	302.64	105.01	294.43	115.03	464.03	39.27	470.06	
frame00419.jpg	26.10	302.64	105.01	294.43	115.03	464.03	39.27	470.06	
frame00420.jpg	26.10	302.64	105.01	294.43	115.03	464.03	39.27	470.06	
frame00421.jpg	26.10	302.64	105.01	294.43	115.03	464.03	39.27	470.06	
frame00422.jpg	26.10	302.64	105.01	294.43	115.03	464.03	39.27	470.06	
frame00423.jpg	26.10	302.64	105.01	294.43	115.03	464.03	39.27	470.06	
frame00424.jpg	26.10	302.64	105.01	294.43	115.03	464.03	39.27	470.06	
frame00425.jpg	26.10	302.64	105.01	294.43	115.03	464.03	39.27	470.06	
frame00426.jpg	26.10	302.64	105.01	294.43	115.03	464.03	39.27	470.06	
frame00427.jpg	26.10	302.64	105.01	294.43	115.03	464.03	39.27	470.06	
frame00428.jpg	26.10	302.64	105.01	294.43	115.03	464.03	39.27	470.06	
frame00429.jpg	26.10	302.64	105.01	294.43	115.03	464.03	39.27	470.06	
frame00430.jpg	26.10	302.64	105.01	294.43	115.03	464.03	39.27	470.06	
frame00431.jpg	26.10	302.64	105.01	294.43	115.03	464.03	39.27	470.06	
frame00432.jpg	26.10	302.64	105.01	294.43	115.03	464.03	39.27	470.06	
frame00433.jpg	26.10	302.64	105.01	294.43	115.03	464.03	39.27	470.06	
frame00434.jpg	26.10	302.64	105.01	294.43	115.03	464.03	39.27	470.06	
frame00435.jpg	26.10	302.64	105.01	294.43	115.03	464.03	39.27	470.06	
frame00436.jpg	26.10	302.64	105.01	294.43	115.03	464.03	39.27	470.06	
frame00437.jpg	26.10	302.64	105.01	294.43	115.03	464.03	39.27	470.06	
frame00438.jpg	26.10	302.64	105.01	294.43	115.03	464.03	39.27	470.06	
frame00439.jpg	26.10	302.64	105.01	294.43	115.03	464.03	39.27	470.06	
frame00440.jpg	26.10	302.64	105.01	294.43	115.03	464.03	39.27	470.06	
frame00441.jpg	26.10	302.64	105.01	294.43	115.03	464.03	39.27	470.06	
frame00442.jpg	25.98	302.65	104.88	294.45	114.91	464.04	39.15	470.07	
frame00443.jpg	25.98	302.65	104.88	294.45	114.91	464.04	39.15	470.07	
frame00444.jpg	25.85	302.66	104.75	294.46	114.79	464.05	39.03	470.07	
frame00445.jpg	25.85	302.66	104.75	294.46	114.79	464.05	39.03	470.07	
frame00446.jpg	25.73	302.68	104.63	294.47	114.67	464.06	38.92	470.08	
frame00447.jpg	25.73	302.68	104.63	294.47	114.67	464.06	38.92	470.08	
frame00448.jpg	25.73	302.68	104.63	294.47	114.67	464.06	38.92	470.08	
frame00449.jpg	25.73	302.68	104.63	294.47	114.67	464.06	38.92	470.08	
frame00450.jpg	25.73	302.68	104.63	294.47	114.67	464.06	38.92	470.08	
frame00451.jpg	25.73	302.68	104.63	294.47	114.67	464.06	38.92	470.08	
frame00452.jpg	25.73	302.68	104.63	294.47	114.67	464.06	38.92	470.08	
frame00453.jpg	25.73	302.68	104.63	294.47	114.67	464.06	38.92	470.08	
frame00454.jpg	25.73	302.68	104.63	294.47	114.67	464.06	38.92	470.08	
frame00455.jpg	25.73	302.68	104.63	294.47	114.67	464.06	38.92	470.08	
frame00456.jpg	25.73	302.68	104.63	294.47	114.67	464.06	38.92	470.08	
frame00457.jpg	25.61	302.69	104.50	294.49	114.55	464.07	38.80	470.09	
frame00458.jpg	25.61	302.69	104.50	294.49	114.55	464.07	38.80	470.09	
frame00459.jpg	25.61	302.69	104.50	294.49	114.55	464.07	38.80	470.09	
frame00460.jpg	25.61	302.69	104.50	294.49	114.55	464.07	38.80	470.09	
frame00461.jpg	25.61	302.69	104.50	294.49	114.55	464.07	38.80	470.09	
frame00462.jpg	25.61	302.69	104.50	294.49	114.55	464.07	38.80	470.09	
frame00463.jpg	25.61	302.69	104.50	294.49	114.55	464.07	38.80	470.09	
frame00464.jpg	25.61	302.69	104.50	294.49	114.55	464.07	38.80	470.09	
frame00465.jpg	25.61	302.69	104.50	294.49	114.55	464.07	38.80	470.09	
frame00466.jpg	25.61	302.69	104.50	294.49	114.55	464.07	38.80	470.09	
frame00467.jpg	25.61	302.69	104.50	294.49	114.55	464.07	38.80	470.09	
frame00468.jpg	25.61	302.69	104.50	294.49	114.55	464.07	38.80	470.09	
frame00469.jpg	25.61	302.69	104.50	294.49	114.55	464.07	38.80	470.09	
frame00470.jpg	25.61	302.69	104.50	294.49	114.55	464.07	38.80	470.09	
frame00471.jpg	25.61	302.69	104.50	294.49	114.55	464.07	38.80	470.09	
frame00472.jpg	25.61	302.69	104.50	294.49	114.55	464.07	38.80	470.09	
frame00473.jpg	25.61	302.69	104.50	294.49	114.55	464.07	38.80	470.09	
frame00474.jpg	25.61	302.69	104.50	294.49	114.55	464.07	38.80	470.09	
frame00475.jpg	25.61	302.69	104.50	294.49	114.55	464.07	38.80	470.09	
frame00476.jpg	25.61	302.69	104.50	294.49	114.55	464.07	38.80	470.09	
frame00477.jpg	25.61	302.69	104.50	294.49	114.55	464.07	38.80	470.09	
frame00478.jpg	25.61	302.69	104.50	294.49	114.55	464.07	38.80	470.09	
frame00479.jpg	25.61	302.69	104.50	294.49	114.55	464.07	38.80	470.09	
frame00480.jpg	25.61	302.69	104.50	294.49	114.55	464.07	38.80	470.09	
frame00481.jpg	25.61	302.69	104.50	294.49	114.55	464.07	38.80	470.09	
frame00482.jpg	25.61	302.69	104.50	294.49	114.55	464.07	38.80	470.09	
frame00483.jpg	25.61	302.69	104.50	294.49	114.55	464.07	38.80	470.09	
frame00484.jpg	25.61	302.69	104.50	294.49	114.55	464.07	38.80	470.09	
frame00485.jpg	25.61	302.69	104.50	294.49	114.55	464.07	38.80	470.09	
frame00486.jpg	25.61	302.69	104.50	294.49	114.55	464.07	38.80	470.09	
frame00487.jpg	25.61	302.69	104.50	294.49	114.55	464.07	38.80	470.09	
frame00488.jpg	25.61	302.69	104.50	294.49	114.55	464.07	38.80	470.09	
