  2.00000000	  0.00067013	  0.00077788	  0.00003813	  0.00028114	 -0.00057985	 -0.00002131	  0.00072173	  0.00070850
  3.00000000	  0.00040314	  0.00069599	  0.00005461	  0.00037506	 -0.00078643	 -0.00039222	  0.00043194	  0.00063606
  4.00000000	  0.00034881	  0.00007403	  0.00017224	  0.00013491	 -0.00028527	 -0.00061085	  0.00038063	  0.00006385
  5.00000000	  0.00025742	  0.00112881	  0.00016448	  0.00010524	 -0.00018909	  0.00027487	  0.00026767	  0.00103634
  6.00000000	 -0.00003265	 -0.00041663	  0.00000678	  0.00000467	 -0.00002733	  0.00000203	 -0.00003063	 -0.00038318
  7.00000000	  0.00005978	  0.00082274	  0.00019131	  0.00009641	 -0.00017529	 -0.00037241	  0.00005553	  0.00075668
  8.00000000	 -0.00017587	 -0.00008452	  0.00019967	  0.00002199	 -0.00005862	  0.00063885	 -0.00019146	 -0.00007568
  9.00000000	 -0.00015666	 -0.00091421	  0.00010027	 -0.00001477	 -0.00000790	  0.00018153	 -0.00015993	 -0.00083952
 10.00000000	  0.00041736	  0.00088988	  0.00000964	  0.00005496	 -0.00008307	 -0.00023923	  0.00044579	  0.00081377
 11.00000000	 -0.00002856	 -0.00030489	  0.00019715	 -0.00003581	  0.00007122	 -0.00047313	 -0.00002757	 -0.00028027
 12.00000000	  0.00004762	  0.00072267	  0.00038879	  0.00004528	 -0.00007015	 -0.00012243	  0.00004328	  0.00066458
 13.00000000	 -0.00026392	 -0.00132935	  0.00058149	  0.00003426	 -0.00013454	  0.00031499	 -0.00027352	 -0.00122014
 14.00000000	  0.00046913	  0.00047674	  0.00008252	  0.00000182	  0.00001657	 -0.00015493	  0.00050787	  0.00043309
 15.00000000	 -0.00023965	  0.00023468	  0.00007960	 -0.00022227	  0.00049160	  0.00041931	 -0.00026519	  0.00021890
 16.00000000	  0.00002730	  0.00041163	  0.00017643	  0.00025927	 -0.00054783	 -0.00035749	  0.00002486	  0.00037855
 17.00000000	  0.00014499	 -0.00042740	  0.00019623	 -0.00008692	  0.00017305	  0.00002454	  0.00016380	 -0.00039510
 18.00000000	 -0.00043511	  0.00013588	  0.00051816	  0.00001992	 -0.00003625	 -0.00025643	 -0.00047800	  0.00013009
 19.00000000	  0.00041067	  0.00080589	  0.00002388	 -0.00009790	  0.00024678	 -0.00016608	  0.00044013	  0.00073688
 20.00000000	 -0.00013205	 -0.00072048	  0.00048859	  0.00007016	 -0.00019090	  0.00076926	 -0.00013591	 -0.00066156
 21.00000000	 -0.00036739	 -0.00007729	  0.00059602	  0.00022704	 -0.00049748	 -0.00032998	 -0.00040130	 -0.00006675
 22.00000000	 -0.00002792	 -0.00041696	  0.00017587	 -0.00014833	  0.00031388	 -0.00053869	 -0.00002581	 -0.00038330
 23.00000000	  0.00030231	  0.00050321	  0.00012445	 -0.00002573	  0.00007217	  0.00038728	  0.00032501	  0.00045955
 24.00000000	 -0.00022452	 -0.00071187	  0.00017104	 -0.00011558	  0.00022463	 -0.00009600	 -0.00023747	 -0.00065247
 25.00000000	  0.00033673	 -0.00013802	  0.00001099	  0.00003645	 -0.00008857	  0.00030496	  0.00037024	 -0.00013102
 26.00000000	 -0.00021997	  0.00055240	  0.00009655	 -0.00008835	  0.00021933	 -0.00040353	 -0.00024728	  0.00051114
 27.00000000	 -0.00001211	 -0.00021710	  0.00018328	  0.00000863	 -0.00002981	  0.00020106	 -0.00001070	 -0.00019971
 28.00000000	  0.00001998	  0.00031687	  0.00017617	  0.00010902	 -0.00022900	  0.00026255	  0.00001794	  0.00029143
 29.00000000	 -0.00004848	  0.00051956	  0.00009096	  0.00018091	 -0.00037241	 -0.00036212	 -0.00005929	  0.00047869
 30.00000000	  0.00016080	 -0.00022232	  0.00019573	 -0.00009804	  0.00020011	  0.00056636	  0.00017881	 -0.00020650
 31.00000000	 -0.00010507	 -0.00020274	  0.00010484	  0.00005033	 -0.00011739	 -0.00010052	 -0.00011252	 -0.00018526
 32.00000000	  0.00017967	  0.00019591	  0.00038284	  0.00001125	 -0.00000897	 -0.00074495	  0.00019440	  0.00017811
 33.00000000	 -0.00052412	 -0.00015796	  0.00035743	 -0.00025686	  0.00055203	  0.00033129	 -0.00057193	 -0.00013912
 34.00000000	  0.00032835	 -0.00024326	  0.00001804	  0.00017396	 -0.00038901	 -0.00013623	  0.00036228	 -0.00022783
 35.00000000	 -0.00001518	 -0.00019444	  0.00000707	 -0.00026816	  0.00057808	  0.00015622	 -0.00001429	 -0.00017880
 36.00000000	  0.00026843	  0.00006975	  0.00011033	  0.00016700	 -0.00036709	  0.00040850	  0.00029291	  0.00006099
 37.00000000	  0.00017233	 -0.00001580	  0.00001260	  0.00009006	 -0.00019424	 -0.00034013	  0.00018884	 -0.00001667
 38.00000000	 -0.00049784	  0.00035426	  0.00021388	  0.00004367	 -0.00008486	  0.00021571	 -0.00054948	  0.00033186
 39.00000000	  0.00020124	 -0.00084705	  0.00029449	 -0.00013431	  0.00025783	  0.00012744	  0.00023053	 -0.00078208
 40.00000000	  0.00005978	  0.00082275	  0.00019148	  0.00009225	 -0.00016789	 -0.00019174	  0.00005530	  0.00075650
 41.00000000	 -0.00022045	 -0.00059480	  0.00001198	 -0.00017612	  0.00036151	 -0.00002994	 -0.00023408	 -0.00054480
 42.00000000	  0.00043004	 -0.00014630	  0.00031374	  0.00008224	 -0.00018683	  0.00006998	  0.00047240	 -0.00014000
 43.00000000	 -0.00065867	  0.00058200	  0.00040980	  0.00004296	 -0.00007258	  0.00000156	 -0.00072833	  0.00054343
 44.00000000	  0.00013339	  0.00050237	  0.00029506	  0.00000092	  0.00001531	  0.00021401	  0.00013990	  0.00046069
 45.00000000	 -0.00002758	 -0.00041147	  0.00019782	 -0.00000361	 -0.00000883	  0.00001706	 -0.00002516	 -0.00037835
 46.00000000	  0.00015077	 -0.00011482	  0.00059446	 -0.00011206	  0.00024826	 -0.00068113	  0.00016643	 -0.00010748
 47.00000000	  0.00013381	  0.00050758	  0.00030199	 -0.00001502	  0.00004657	  0.00057374	  0.00014032	  0.00046566
 48.00000000	 -0.00007715	 -0.00103943	  0.00019878	  0.00016322	 -0.00040506	  0.00039752	 -0.00007141	 -0.00095579
 49.00000000	 -0.00025232	  0.00013577	  0.00011779	 -0.00025254	  0.00056098	 -0.00023535	 -0.00027786	  0.00012817
 50.00000000	 -0.00002855	  0.00083085	  0.00028131	  0.00021892	 -0.00044419	 -0.00028583	 -0.00004164	  0.00076521
 51.00000000	  0.00066678	 -0.00047618	  0.00041693	 -0.00000785	 -0.00000322	  0.00009133	  0.00073558	 -0.00044666
 52.00000000	 -0.00066903	  0.00026928	  0.00017617	 -0.00000516	  0.00001702	  0.00032171	 -0.00073573	  0.00025614
 53.00000000	 -0.00006835	  0.00032512	  0.00030255	 -0.00016457	  0.00037750	 -0.00041088	 -0.00007887	  0.00030013
 54.00000000	  0.00057657	 -0.00037234	  0.00007636	  0.00018443	 -0.00041355	 -0.00048443	  0.00063542	 -0.00034973
 55.00000000	 -0.00015165	  0.00022074	  0.00018478	 -0.00009808	  0.00021575	  0.00071885	 -0.00016870	  0.00020497
 56.00000000	 -0.00004981	 -0.00051572	  0.00040177	 -0.00003314	  0.00005492	 -0.00030741	 -0.00004806	 -0.00047415
 57.00000000	  0.00007705	 -0.00021402	  0.00031023	  0.00012293	 -0.00027735	 -0.00004664	  0.00008685	 -0.00019795
 58.00000000	 -0.00007197	  0.00021914	  0.00010532	 -0.00013549	  0.00030291	  0.00024305	 -0.00008149	  0.00020257
 59.00000000	 -0.00013146	 -0.00072090	  0.00048113	 -0.00000844	 -0.00001815	  0.00058085	 -0.00013490	 -0.00066200
 60.00000000	 -0.00003748	  0.00084291	  0.00069114	 -0.00011222	  0.00028845	 -0.00089505	 -0.00005169	  0.00077655
 61.00000000	  0.00010140	  0.00009692	  0.00030972	  0.00007788	 -0.00016697	  0.00003883	  0.00010981	  0.00008799
 62.00000000	  0.00001815	 -0.00084144	  0.00009160	  0.00020497	 -0.00048893	  0.00047282	  0.00003049	 -0.00077476
 63.00000000	  0.00003765	  0.00041621	  0.00018982	 -0.00017513	  0.00039844	  0.00018121	  0.00003600	  0.00038263
 64.00000000	 -0.00014011	  0.00042710	  0.00001291	 -0.00007935	  0.00019068	 -0.00002180	 -0.00015874	  0.00039501
 65.00000000	  0.00015133	 -0.00022661	  0.00019202	  0.00010133	 -0.00022507	 -0.00053626	  0.00016838	 -0.00021053
 66.00000000	  0.00016167	 -0.00021615	  0.00020320	 -0.00008888	  0.00018763	 -0.00015820	  0.00017944	 -0.00020099
 67.00000000	 -0.00046242	  0.00087101	  0.00040436	  0.00009086	 -0.00016561	 -0.00006948	 -0.00051672	  0.00080725
 68.00000000	  0.00036556	  0.00017268	  0.00021502	  0.00007302	 -0.00015745	  0.00041361	  0.00039800	  0.00015452
 69.00000000	 -0.00018951	 -0.00133632	  0.00007934	 -0.00008576	  0.00012959	  0.00017849	 -0.00019078	 -0.00122777
 70.00000000	 -0.00015090	  0.00023261	  0.00019918	 -0.00009219	  0.00021308	 -0.00018920	 -0.00016793	  0.00021608
 71.00000000	  0.00029971	  0.00058715	  0.00028534	  0.00013303	 -0.00026912	  0.00009840	  0.00032052	  0.00053695
 72.00000000	 -0.00038845	 -0.00058453	  0.00018722	  0.00000468	 -0.00003096	 -0.00037340	 -0.00041823	 -0.00053318
 73.00000000	 -0.00049872	  0.00004606	  0.00076687	 -0.00010537	  0.00022112	  0.00092158	 -0.00054634	  0.00004877
 74.00000000	 -0.00042670	 -0.00006122	  0.00050499	  0.00022533	 -0.00050599	  0.00074965	 -0.00046624	 -0.00005061
 75.00000000	 -0.00010559	 -0.00039842	  0.00049383	 -0.00006843	  0.00012529	  0.00066130	 -0.00011005	 -0.00036519
 76.00000000	 -0.00044179	 -0.00007167	  0.00010932	  0.00018107	 -0.00039930	 -0.00020972	 -0.00048270	 -0.00005963
 77.00000000	  0.00000473	  0.00000452	  0.00018375	 -0.00024771	  0.00054746	 -0.00036745	  0.00000512	  0.00000409
 78.00000000	  0.00069139	  0.00014379	  0.00055663	  0.00017533	 -0.00037250	 -0.00033951	  0.00075487	  0.00012318
 79.00000000	  0.00076176	  0.00003000	  0.00086092	  0.00011219	 -0.00023184	 -0.00108747	  0.00083379	  0.00001800
 80.00000000	  0.00106938	 -0.00061315	  0.00046751	 -0.00015195	  0.00031656	 -0.00104486	  0.00117807	 -0.00057681
 81.00000000	  0.00087421	  0.00033255	  0.00075687	  0.00009856	 -0.00019772	 -0.00071201	  0.00095347	  0.00029693
 82.00000000	 -0.00052971	  0.00098459	  0.00009469	  0.00017798	 -0.00034732	 -0.00039373	 -0.00058988	  0.00091128
 83.00000000	 -0.00025352	 -0.00018826	  0.00088525	  0.00012619	 -0.00028561	  0.00015884	 -0.00027604	 -0.00017038
 84.00000000	  0.00013153	 -0.00000452	  0.00186839	 -0.00023942	  0.00051536	  0.00096305	  0.00014414	 -0.00000570
 85.00000000	 -0.00265359	 -0.00090351	  0.00397286	 -0.00017032	  0.00029499	  0.00227803	 -0.00289778	 -0.00079264
 86.00000000	 -0.00311702	  0.00097224	  0.00414426	  0.00081728	 -0.00178379	 -0.00065994	 -0.00342404	  0.00094638
 87.00000000	 -0.00089607	 -0.00191607	  0.00602883	  0.00078298	 -0.00185541	  0.00372373	 -0.00096644	 -0.00174298
 88.00000000	 -0.00220663	 -0.00243252	  0.00528591	 -0.00148995	  0.00308247	  0.00338831	 -0.00236198	 -0.00221181
 89.00000000	 -0.00196598	 -0.00320924	  0.01193481	 -0.00216496	  0.00444148	  0.00588818	 -0.00202074	 -0.00294224
 90.00000000	 -0.00381589	 -0.00127043	  0.01505404	 -0.00187340	  0.00380119	  0.00458961	 -0.00408216	 -0.00112105
 91.00000000	 -0.00327406	 -0.00298656	  0.00700281	 -0.00198830	  0.00388202	  0.00509482	 -0.00339071	 -0.00268417
 92.00000000	 -0.00270844	 -0.00226870	  0.00292059	 -0.00074410	  0.00119888	  0.00490053	 -0.00281512	 -0.00199498
 93.00000000	  0.00013246	 -0.00478585	  0.00061811	 -0.00069169	  0.00118473	 -0.00062583	  0.00037787	 -0.00448794
 94.00000000	 -0.00004541	 -0.00355097	  0.00260103	 -0.00037160	  0.00050594	  0.00094414	  0.00013769	 -0.00332732
 95.00000000	  0.00109223	  0.00085499	  0.00245441	 -0.00059695	  0.00140034	 -0.00040379	  0.00112751	  0.00075063
 96.00000000	 -0.00201577	 -0.00515570	  0.00467876	 -0.00169679	  0.00316653	 -0.00067386	 -0.00192871	 -0.00474088
 97.00000000	  0.00384450	 -0.00085438	  0.00648993	 -0.00006364	  0.00031093	 -0.00397316	  0.00413940	 -0.00101492
 98.00000000	  0.00160965	  0.00055230	  0.00861480	  0.00600635	 -0.01267062	 -0.00275292	  0.00171520	  0.00043401
 99.00000000	  0.00438650	  0.00362863	  0.00368045	 -0.00057587	  0.00171167	 -0.00511051	  0.00464770	  0.00319143
100.00000000	  0.00387197	  0.00084849	  0.00697789	 -0.00224017	  0.00506184	 -0.00491170	  0.00416491	  0.00064557
101.00000000	  0.00393014	  0.00347199	  0.00374281	  0.00472341	 -0.00982606	 -0.00822535	  0.00418984	  0.00314393
102.00000000	  0.00722179	 -0.00572633	  0.00362989	 -0.00074768	  0.00104624	  0.00167267	  0.00797121	 -0.00537593
103.00000000	 -0.00088877	 -0.00454546	  0.01089874	 -0.00163775	  0.00328576	 -0.01150379	 -0.00089420	 -0.00420807
104.00000000	  0.00509836	  0.00156588	  0.00345210	  0.00344501	 -0.00741957	 -0.00516042	  0.00554783	  0.00140838
105.00000000	 -0.00094497	  0.00431509	  0.00935209	  0.00323708	 -0.00677129	  0.00431562	 -0.00100350	  0.00397065
106.00000000	  0.00549695	  0.00615826	  0.00612517	 -0.00349257	  0.00791843	 -0.00477553	  0.00600789	  0.00568307
107.00000000	  0.01131084	 -0.01411484	  0.00400599	 -0.00380765	  0.00629133	 -0.00826447	  0.01216255	 -0.01294858
108.00000000	  0.00432558	 -0.00427360	  0.00633856	 -0.00007490	 -0.00052913	 -0.00336922	  0.00457241	 -0.00391679
109.00000000	  0.00871635	 -0.00257367	  0.00063788	 -0.00560191	  0.01112062	 -0.00850009	  0.00931088	 -0.00219392
110.00000000	  0.01760993	 -0.01024905	  0.00644587	 -0.01865890	  0.03665624	 -0.01762189	  0.01802970	 -0.00902709
111.00000000	  0.01230809	  0.01126087	  0.00312470	 -0.00707121	  0.01367196	 -0.01201041	  0.01341415	  0.01172176
112.00000000	 -0.02613354	  0.03339388	  0.01047744	 -0.00522170	  0.01300793	  0.00306579	 -0.02416372	  0.03161072
113.00000000	  0.02312508	 -0.05339854	  0.01135710	 -0.00651823	 -0.00063159	 -0.05049005	  0.01788231	 -0.05161381
114.00000000	  0.05329537	  0.00932508	  0.01627472	  0.00106821	 -0.01440050	 -0.00310780	  0.05592922	  0.01538804
115.00000000	 -0.02846343	  0.05726822	  0.03920086	 -0.00678373	  0.02004542	  0.06633636	 -0.02343565	  0.05422863
116.00000000	 -0.00311075	  0.06260559	  0.04960002	 -0.00119203	 -0.00691056	 -0.07062013	  0.00024259	  0.06159032
117.00000000	 -0.00868587	 -0.07524929	  0.02787006	  0.01278753	 -0.03367842	 -0.01221159	 -0.01570154	 -0.07398459
118.00000000	 -0.01527809	 -0.02367923	  0.00589165	  0.00428197	 -0.00990932	  0.00040590	 -0.01944062	 -0.02457002
119.00000000	 -0.03629331	 -0.00926984	  0.01269497	 -0.00368193	  0.01026318	  0.04374170	 -0.03970039	 -0.01385477
120.00000000	  0.03093173	 -0.00871876	  0.00351822	 -0.00607539	  0.00785713	 -0.00106925	  0.03222518	 -0.00565425
121.00000000	  0.07991990	 -0.03770009	  0.00333593	 -0.01632913	  0.00255871	 -0.01586139	  0.08063342	 -0.02776427
122.00000000	  0.01470936	 -0.04144078	  0.00302525	  0.00133025	 -0.01657166	  0.01181507	  0.01021619	 -0.03665243
123.00000000	  0.00829628	 -0.03198455	  0.04268084	 -0.00318945	 -0.00510094	  0.00288367	  0.00539488	 -0.02786981
124.00000000	  0.06465703	 -0.04256667	  0.00932505	 -0.01647660	 -0.01233159	 -0.02766602	  0.06392601	 -0.02663001
125.00000000	  0.03034885	  0.03406156	  0.02332463	 -0.00960767	  0.00782501	 -0.03794520	  0.04566605	  0.03964952
126.00000000	  0.01426208	  0.03532937	  0.01506682	 -0.01963159	  0.03703698	 -0.04171973	  0.02791244	  0.03658325
127.00000000	 -0.04349853	 -0.01222367	  0.08540931	 -0.01479932	  0.05694140	  0.08239842	 -0.05191489	 -0.02085748
128.00000000	 -0.10737035	 -0.02082765	  0.06179292	  0.00957791	 -0.01675498	 -0.01847694	 -0.11419391	 -0.04934535
129.00000000	 -0.00948840	  0.05242874	  0.09187306	 -0.05633390	  0.10910062	 -0.14347002	  0.00321732	  0.05387134
130.00000000	 -0.03074253	  0.04309543	  0.13294504	  0.01622580	 -0.01000318	  0.07374365	 -0.01388650	  0.04405405
131.00000000	 -0.05642149	  0.10572421	  0.00237018	 -0.01234093	  0.01098686	 -0.05368827	 -0.02795776	  0.11097209
132.00000000	  0.02392910	 -0.03681561	  0.01438859	 -0.01321850	  0.02024964	  0.00533158	  0.01461034	 -0.03733446
133.00000000	 -0.00999210	  0.00295179	  0.00004831	  0.01792897	 -0.02883350	  0.02107720	 -0.00875002	  0.00110732
134.00000000	 -0.07014894	 -0.12260839	  0.01925489	 -0.03828578	  0.03059963	  0.04099573	 -0.08427279	 -0.15608553
135.00000000	  0.09192251	  0.00168834	  0.00096120	 -0.01557467	 -0.00082561	 -0.10520932	  0.08496485	  0.01921950
136.00000000	 -0.02482435	  0.03167277	  0.00238805	 -0.02983756	  0.06212099	  0.00229564	 -0.01302584	  0.03262979
137.00000000	 -0.02832409	 -0.01142864	  0.00370427	  0.00008525	  0.00114790	  0.02101624	 -0.02809947	 -0.02272905
138.00000000	 -0.00089015	  0.01050225	  0.01525111	 -0.01837669	  0.03378731	  0.00483763	  0.00182313	  0.01348811
139.00000000	 -0.01984381	 -0.00814209	  0.00684643	 -0.01853496	  0.02861950	 -0.01149838	 -0.01911094	 -0.01630659
140.00000000	  0.02172015	 -0.01594828	  0.01610350	  0.00431509	 -0.01412272	 -0.01911099	  0.01348658	 -0.01648596
141.00000000	 -0.01453168	 -0.02383540	  0.00569609	 -0.01802779	  0.02352221	  0.00121097	 -0.01913415	 -0.03771002
142.00000000	 -0.01261015	  0.01636874	  0.02421952	 -0.02644278	  0.04636794	 -0.00716205	 -0.00581930	  0.02020355
143.00000000	 -0.01158720	 -0.01062905	  0.00531641	 -0.02508606	  0.03550657	 -0.01258182	 -0.01260168	 -0.01976010
144.00000000	  0.00742743	 -0.00453065	  0.00066945	 -0.01133191	  0.01261644	 -0.02934614	  0.00429899	 -0.00509297
145.00000000	 -0.00421464	 -0.01294579	  0.00153983	 -0.01961813	  0.02438134	 -0.01353578	 -0.00772674	 -0.02318443
146.00000000	  0.00269218	 -0.01331875	  0.01073505	 -0.01762681	  0.01817577	 -0.03237533	 -0.00274289	 -0.02247971
147.00000000	 -0.00415723	 -0.02537122	  0.01171610	 -0.02050942	  0.01899102	 -0.00997485	 -0.01308619	 -0.04808797
148.00000000	  0.02314593	 -0.01540341	  0.01072078	 -0.01333096	  0.00977549	 -0.01100129	  0.01074537	 -0.02138414
149.00000000	 -0.00390326	  0.00248265	  0.01614381	 -0.02540960	  0.03559375	 -0.02230961	 -0.00183495	  0.00339598
150.00000000	  0.00924848	 -0.03202750	  0.00325947	 -0.02214977	  0.01388317	 -0.00152415	 -0.00709242	 -0.06351948
151.00000000	  0.01438791	 -0.00718549	  0.00466827	 -0.01704156	  0.01292818	 -0.05196711	  0.00675753	 -0.00961030
152.00000000	 -0.00534813	 -0.00640325	  0.00516266	 -0.01578545	  0.01961904	  0.00812179	 -0.00676054	 -0.01728867
153.00000000	 -0.01778262	  0.00982662	  0.00492144	 -0.00217623	  0.00912999	  0.00026906	 -0.00760648	  0.01473190
154.00000000	  0.03490106	 -0.01039124	  0.01430534	 -0.04127934	  0.04847508	  0.00262472	  0.01904669	 -0.00772989
155.00000000	 -0.01951266	 -0.01069627	  0.01046648	 -0.01127760	  0.00686095	 -0.02430010	 -0.01901591	 -0.03698869
156.00000000	 -0.04437607	 -0.00321244	  0.02333392	 -0.02340384	  0.03484886	  0.05200430	 -0.03062255	 -0.03156409
157.00000000	  0.04212543	  0.01655306	  0.00782320	 -0.00729379	  0.01108994	 -0.03213699	  0.03649285	  0.06374955
158.00000000	 -0.06848585	 -0.01553294	  0.02583056	 -0.03143369	  0.03474063	  0.06031186	 -0.05174628	 -0.07952898
159.00000000	  0.04747350	 -0.00082025	  0.01458273	 -0.03657287	  0.04337095	 -0.02130529	  0.03065293	  0.02229466
160.00000000	 -0.10987666	  0.01981851	  0.03010242	 -0.07116061	  0.10936627	  0.11589423	 -0.06208796	 -0.00330919
161.00000000	  0.05638941	  0.01330224	  0.00949122	 -0.00184237	  0.00231756	 -0.05815943	  0.04355490	  0.07035146
162.00000000	  0.00054889	  0.00917260	  0.01374758	 -0.00808617	  0.01313435	 -0.01386714	  0.00580919	  0.03113188
163.00000000	 -0.03194219	 -0.00980086	  0.02612206	 -0.05295670	  0.06265285	  0.04130848	 -0.02546786	 -0.05421759
164.00000000	  0.01244215	  0.00850142	  0.01833405	 -0.00005761	 -0.00131894	 -0.05311948	  0.01329824	  0.03814548
165.00000000	 -0.02331413	 -0.00223054	  0.00005624	 -0.00644860	  0.00157604	 -0.03554343	 -0.01601856	 -0.02164404
166.00000000	 -0.06651468	 -0.00757817	  0.02842969	 -0.06500994	  0.07715459	  0.08649307	 -0.04458066	 -0.07174078
167.00000000	 -0.06029049	  0.00076327	  0.01609907	 -0.04210399	  0.04873634	  0.04931977	 -0.03543468	 -0.03047217
168.00000000	  0.05349508	  0.01301171	  0.02798316	  0.05378893	 -0.06081122	 -0.09175200	  0.03950289	  0.07800200
169.00000000	  0.03196657	 -0.00646156	  0.01489082	  0.01172022	 -0.02450667	 -0.07449316	  0.01555183	 -0.01084034
170.00000000	 -0.04023528	 -0.00216433	  0.00875559	 -0.02578544	  0.03150349	  0.05555610	 -0.02522171	 -0.03175238
171.00000000	  0.01153625	 -0.00157116	  0.01591726	  0.00276091	 -0.00446433	 -0.00702066	  0.00591816	 -0.00150434
172.00000000	 -0.02633667	 -0.00126178	  0.01892712	 -0.01656227	  0.01784525	  0.00668886	 -0.01545723	 -0.01503227
173.00000000	 -0.07308641	 -0.00233600	  0.01487973	 -0.03020596	  0.02759585	  0.01079423	 -0.04070172	 -0.03714691
174.00000000	 -0.04771208	 -0.01141501	  0.00488545	 -0.00610489	 -0.00241574	  0.06952127	 -0.02794812	 -0.06395950
175.00000000	 -0.02393598	  0.00453283	  0.02161508	  0.00713762	 -0.00831946	 -0.03137522	 -0.01149535	  0.01746346
176.00000000	  0.04015385	  0.00864845	  0.01710503	  0.00755557	 -0.00388596	 -0.04925266	  0.02251738	  0.03994886
177.00000000	  0.02658228	 -0.00186944	  0.00920475	 -0.02644794	  0.03174292	  0.04253453	  0.01369944	 -0.00319995
178.00000000	 -0.02394090	 -0.00077447	  0.01601387	 -0.01196502	  0.01054829	 -0.03885734	 -0.01259624	 -0.00589807
179.00000000	 -0.00832483	 -0.00358792	  0.01124923	  0.00893420	 -0.01331156	 -0.01526257	 -0.00467411	 -0.01785203
180.00000000	  0.04656296	  0.01517301	  0.01382523	 -0.00999945	  0.02187028	  0.01287177	  0.02721860	  0.07640808
181.00000000	 -0.02305678	 -0.01278479	  0.00614035	 -0.00155143	 -0.00817655	  0.00994581	 -0.01375751	 -0.06300291
182.00000000	 -0.00912921	 -0.00148917	  0.00826336	 -0.00898403	  0.00824986	 -0.03429517	 -0.00483056	 -0.00809153
183.00000000	 -0.01640835	  0.00973134	  0.00304489	 -0.01050074	  0.01928042	  0.04662632	 -0.00750410	  0.04492086
184.00000000	  0.01187836	 -0.00165271	  0.00238579	 -0.00048316	 -0.00037155	 -0.00218665	  0.00599553	 -0.00677778
185.00000000	 -0.04069655	 -0.01301146	  0.00053743	 -0.01043948	 -0.00028180	  0.02749394	 -0.02153171	 -0.06590683
186.00000000	  0.03490123	  0.01185601	  0.00438687	  0.01971576	 -0.01316540	 -0.01576998	  0.01853280	  0.05918150
187.00000000	 -0.03911700	 -0.01417540	  0.00143504	 -0.00681779	 -0.00528347	  0.03598752	 -0.02076636	 -0.06970634
188.00000000	  0.04779831	  0.01358062	  0.00714460	  0.00933753	 -0.00242485	 -0.07779495	  0.02593312	  0.06502766
189.00000000	 -0.00232800	  0.00139058	  0.00296637	  0.00336994	 -0.00316860	 -0.01203296	 -0.00103963	  0.00628932
190.00000000	  0.06986833	 -0.00757291	  0.02244535	  0.02753995	 -0.03997904	 -0.07716332	  0.03462647	 -0.03214190
191.00000000	  0.07684569	  0.00615759	  0.00151131	  0.02131834	 -0.02601214	 -0.07438578	  0.04119959	  0.04194140
192.00000000	 -0.00617743	 -0.00478244	  0.05364834	 -0.04745126	  0.05476208	  0.11478139	 -0.00414697	 -0.02595902
193.00000000	  0.01013169	  0.00888711	  0.04757337	 -0.05906672	  0.08366680	  0.08548786	  0.00939418	  0.05337270
194.00000000	  0.07267643	  0.00250641	  0.06222888	  0.10036927	 -0.11893119	 -0.14045354	  0.04425645	  0.04552577
195.00000000	 -0.04512501	  0.00279280	  0.02674050	  0.00072371	  0.00393766	  0.07117628	 -0.02491160	 -0.01706465
196.00000000	  0.02401258	 -0.00083043	  0.00433266	  0.03839145	 -0.03959287	  0.03320983	  0.01388631	  0.01124129
197.00000000	  0.05082607	  0.00162800	  0.02446525	  0.04959853	 -0.06092912	 -0.05667205	  0.03199733	  0.03445647
198.00000000	 -0.02218336	  0.00065684	  0.02407358	  0.00032819	  0.00704300	  0.08916638	 -0.01333821	 -0.01242062
199.00000000	  0.03371621	 -0.00936454	  0.01699822	  0.06074047	 -0.07635438	 -0.02859214	  0.01539715	 -0.01673414
200.00000000	 -0.01743327	 -0.02523492	  0.00872844	  0.03222218	 -0.05228127	  0.03154559	 -0.02375569	 -0.09703092
201.00000000	  0.11175874	  0.00679841	  0.03166807	  0.07211947	 -0.09865764	 -0.06854359	  0.07389382	  0.07395182
202.00000000	  0.01562251	 -0.00827876	  0.01505700	  0.04046675	 -0.05223882	  0.03116604	  0.00558517	 -0.01606619
203.00000000	 -0.00866551	  0.00547774	  0.00631527	  0.04085847	 -0.04062108	  0.05716041	 -0.00306686	  0.01050269
204.00000000	  0.01400609	  0.02985405	  0.00473573	  0.03981031	 -0.03318026	  0.03448439	  0.02169768	  0.07999132
205.00000000	 -0.04670069	  0.02830984	  0.00389558	  0.03587584	 -0.02785443	  0.04445510	 -0.02136394	  0.04343838
206.00000000	 -0.00325918	  0.01927763	  0.00578339	  0.02856490	 -0.02598011	  0.04462055	  0.00396729	  0.03847184
207.00000000	 -0.01120453	  0.00809209	  0.00509278	  0.03358167	 -0.04044807	  0.01420130	 -0.00550691	  0.01213395
208.00000000	  0.03219975	  0.01371764	  0.00600137	  0.03804132	 -0.05019240	  0.00078342	  0.02722979	  0.03367855
209.00000000	  0.00371628	 -0.00467255	  0.00932349	  0.01339110	 -0.01689218	  0.04827697	  0.00161150	 -0.00669400
210.00000000	  0.00615675	  0.00882068	  0.00400418	  0.00887593	 -0.01045007	  0.00039752	  0.00697619	  0.01596347
211.00000000	  0.00509194	  0.00433436	  0.01171295	  0.01361216	 -0.01817165	  0.00929379	  0.00499341	  0.00815646
212.00000000	 -0.01402178	  0.00584845	  0.01196483	  0.01090692	 -0.01359993	  0.00130099	 -0.00921589	  0.00597075
213.00000000	  0.01654230	  0.05732663	  0.00456324	  0.03070612	 -0.03807643	 -0.00211123	  0.02531972	  0.08897583
214.00000000	  0.02380484	  0.03553324	  0.01574175	  0.03967083	 -0.05854039	  0.01338777	  0.02636453	  0.05409922
215.00000000	  0.00039516	 -0.00153308	  0.00073821	  0.02886968	 -0.05032898	 -0.03421385	 -0.00000952	 -0.00185018
216.00000000	 -0.00542819	  0.09782427	  0.02776694	  0.01263973	 -0.02528125	  0.03754876	  0.01508308	  0.11602866
217.00000000	 -0.05121342	 -0.07609261	  0.04505435	 -0.00537097	 -0.00392222	 -0.01503521	 -0.05704019	 -0.09960065
218.00000000	  0.04716567	 -0.06720605	  0.04908258	  0.04328616	 -0.09420701	  0.04521650	  0.03128168	 -0.06639360
219.00000000	  0.02307865	 -0.09091050	  0.18866098	 -0.06950889	  0.09786933	  0.01677477	  0.02024027	 -0.08696210
220.00000000	  0.01846818	  0.04427630	  0.09509986	  0.04290217	 -0.06435452	  0.05515510	  0.03108896	  0.04940234
221.00000000	 -0.00449818	  0.02067671	  0.04165967	  0.02730098	 -0.04489025	  0.03591877	 -0.00093961	  0.01963205
222.00000000	 -0.00811513	 -0.03834913	  0.02994567	  0.01530154	 -0.04025626	  0.03411607	 -0.01408205	 -0.03705786
223.00000000	  0.02979175	  0.07663766	  0.00946305	 -0.01636420	  0.03618511	 -0.01140310	  0.04089450	  0.07456637
224.00000000	 -0.03830722	 -0.00670584	  0.01602499	 -0.00740052	  0.01883060	 -0.02095209	 -0.04145753	 -0.00946992
225.00000000	 -0.01478733	  0.03317118	  0.01374349	 -0.01276335	  0.03061057	 -0.03087145	 -0.01003515	  0.03149064
226.00000000	 -0.04116867	  0.01650718	  0.01520616	 -0.01953721	  0.04122406	 -0.03652037	 -0.03758306	  0.01296592
227.00000000	  0.02021616	  0.10835408	  0.00448990	  0.00440256	 -0.02214416	  0.04724295	  0.02936003	  0.11590215
228.00000000	  0.00877525	 -0.02221766	  0.01032858	  0.03073663	 -0.06035882	  0.00621459	  0.00780134	 -0.02119165
229.00000000	  0.04681517	  0.04104549	  0.02555950	  0.02224768	 -0.06375060	  0.00528481	  0.05400188	  0.03923438
230.00000000	 -0.01368750	  0.01565493	  0.01473539	 -0.00247621	  0.00685425	 -0.00668117	 -0.01495378	  0.01332675
231.00000000	 -0.03250636	  0.00715097	  0.02557242	 -0.00929873	  0.02468977	  0.00705692	 -0.03562491	  0.00443260
232.00000000	 -0.00158854	 -0.06486504	  0.00699346	  0.01565996	 -0.03602753	  0.01929378	 -0.00375563	 -0.05885383
233.00000000	  0.01728147	  0.03194845	  0.00283252	  0.00013985	 -0.00708057	 -0.00231809	  0.02085094	  0.02870339
234.00000000	 -0.01464543	 -0.03271031	  0.01140869	 -0.00245786	  0.00767546	  0.02382163	 -0.01730571	 -0.02920886
235.00000000	 -0.00818325	  0.01386676	  0.00523165	  0.00151006	 -0.00274632	 -0.01454399	 -0.00900468	  0.01215583
236.00000000	 -0.01387089	 -0.01462969	  0.00931848	  0.00059797	  0.00054408	  0.00652398	 -0.01627451	 -0.01328393
237.00000000	 -0.00180710	 -0.02637590	  0.02215874	 -0.00347708	  0.00709008	  0.00858075	 -0.00326776	 -0.02355183
238.00000000	 -0.00185756	 -0.01269920	  0.00099650	 -0.00111626	  0.00199361	 -0.00881315	 -0.00260960	 -0.01144769
239.00000000	 -0.01241968	  0.00727160	  0.00312340	  0.00150483	 -0.00167261	  0.01741040	 -0.01386409	  0.00597240
240.00000000	 -0.00777173	 -0.00816591	  0.00837255	 -0.00108024	  0.00281146	  0.01097852	 -0.00888878	 -0.00744181
241.00000000	 -0.00561134	 -0.00878163	  0.01044254	  0.00031495	 -0.00080785	 -0.00722919	 -0.00636837	 -0.00802296
242.00000000	 -0.00059758	 -0.00964680	  0.00235427	 -0.00142254	  0.00256848	  0.00442611	 -0.00082638	 -0.00870609
243.00000000	  0.00219821	  0.02228486	  0.00828842	 -0.00429725	  0.00972218	 -0.00324292	  0.00261477	  0.02023455
244.00000000	 -0.00581253	  0.00108100	  0.00312016	  0.00482879	 -0.01023436	  0.00422050	 -0.00647688	  0.00088788
245.00000000	 -0.00219206	 -0.00547303	  0.00945254	 -0.00211512	  0.00464650	 -0.00340465	 -0.00245490	 -0.00497931
246.00000000	 -0.00256880	  0.00386660	  0.00442413	 -0.00090291	  0.00228279	  0.00463821	 -0.00286493	  0.00347048
247.00000000	  0.00444277	 -0.00718108	  0.00875976	 -0.00132491	  0.00224128	  0.00122342	  0.00485162	 -0.00654096
248.00000000	 -0.00078129	  0.00854577	  0.00104879	  0.00108832	 -0.00214386	 -0.00789232	 -0.00074996	  0.00775721
249.00000000	  0.00275214	 -0.00028719	  0.01257734	 -0.00013837	  0.00007915	  0.00010758	  0.00305436	 -0.00025802
250.00000000	 -0.00303755	  0.00409148	  0.00505367	  0.00010134	  0.00008344	  0.00232637	 -0.00330702	  0.00368305
251.00000000	 -0.00023282	 -0.00373215	  0.00554988	 -0.00163438	  0.00349907	 -0.00482094	 -0.00034926	 -0.00339545
252.00000000	 -0.00250553	  0.00129957	  0.00188389	 -0.00089195	  0.00217065	  0.00008894	 -0.00274377	  0.00114119
253.00000000	 -0.00436317	  0.00110619	  0.00331562	 -0.00181637	  0.00427622	  0.00026239	 -0.00479164	  0.00091524
254.00000000	 -0.00140977	 -0.00009211	  0.00141815	  0.00006320	 -0.00003369	  0.00584954	 -0.00155110	 -0.00010808
255.00000000	 -0.00259776	 -0.00153506	  0.00020469	 -0.00067269	  0.00155845	  0.00153568	 -0.00286837	 -0.00143962
256.00000000	 -0.00163522	 -0.00132957	  0.00086050	 -0.00073667	  0.00164838	  0.00083448	 -0.00180603	 -0.00123707
257.00000000	 -0.00312039	  0.00416204	  0.00020449	 -0.00076473	  0.00187926	  0.00062330	 -0.00337785	  0.00380361
258.00000000	 -0.00080034	 -0.00179182	  0.00308115	  0.00014794	 -0.00034781	 -0.00128537	 -0.00089803	 -0.00165508
259.00000000	 -0.00074895	 -0.00002800	  0.00305101	  0.00123741	 -0.00267605	  0.00027909	 -0.00082024	 -0.00003128
260.00000000	 -0.00061550	 -0.00151301	  0.00150461	 -0.00015967	  0.00031358	 -0.00260608	 -0.00069715	 -0.00139645
261.00000000	 -0.00207105	  0.00078250	  0.00255934	 -0.00012740	  0.00037666	  0.00292127	 -0.00225854	  0.00069668
262.00000000	 -0.00010877	 -0.00019928	  0.00246765	 -0.00069990	  0.00151937	 -0.00229099	 -0.00012110	 -0.00018484
263.00000000	  0.00070291	 -0.00150943	  0.00539217	  0.00083509	 -0.00188211	  0.00320597	  0.00074645	 -0.00138376
264.00000000	 -0.00314265	  0.00021688	  0.00200014	  0.00055625	 -0.00113245	  0.00071685	 -0.00344222	  0.00017321
265.00000000	  0.00034584	 -0.00454672	  0.00324530	 -0.00090143	  0.00178955	  0.00072389	  0.00032200	 -0.00417893
266.00000000	 -0.00096807	  0.00262084	  0.00306077	  0.00104212	 -0.00217569	  0.00039333	 -0.00102800	  0.00240344
267.00000000	  0.00035081	  0.00288552	  0.00263641	 -0.00100577	  0.00224579	 -0.00445039	  0.00041750	  0.00265755
268.00000000	  0.00137269	 -0.00303232	  0.00569574	  0.00066522	 -0.00159464	  0.00131544	  0.00144674	 -0.00277733
269.00000000	  0.00048373	  0.00067580	  0.00519344	  0.00120817	 -0.00263086	  0.00163111	  0.00054288	  0.00062483
270.00000000	 -0.00066725	  0.00104647	  0.00425463	 -0.00057698	  0.00127381	 -0.00500500	 -0.00071880	  0.00094918
271.00000000	  0.00054098	 -0.00074990	  0.00457331	 -0.00063503	  0.00137319	  0.00207820	  0.00058590	 -0.00067717
272.00000000	  0.00076662	  0.00164732	  0.00249779	 -0.00070412	  0.00157834	  0.00189820	  0.00085573	  0.00152784
273.00000000	 -0.00133476	 -0.00079300	  0.00125625	  0.00028988	 -0.00062547	 -0.00057953	 -0.00147044	 -0.00074697
274.00000000	 -0.00046737	 -0.00132297	  0.00084540	  0.00017369	 -0.00041594	 -0.00075530	 -0.00052815	 -0.00122277
275.00000000	  0.00056699	  0.00024841	  0.00224777	 -0.00001354	  0.00001979	 -0.00016853	  0.00062401	  0.00023694
276.00000000	  0.00072787	 -0.00346389	  0.00201460	 -0.00010972	  0.00009142	  0.00191950	  0.00076771	 -0.00317412
277.00000000	 -0.00106961	  0.00067924	  0.00318029	 -0.00030811	  0.00073468	  0.00168191	 -0.00116793	  0.00061032
278.00000000	 -0.00073753	  0.00117850	  0.00513685	 -0.00026626	  0.00064164	  0.00018154	 -0.00080464	  0.00107511
279.00000000	 -0.00056964	  0.00069393	  0.00512696	 -0.00073285	  0.00163982	 -0.00060863	 -0.00062147	  0.00063265
280.00000000	  0.00001542	  0.00012794	  0.00440600	 -0.00023074	  0.00050817	  0.00025203	  0.00001702	  0.00011812
281.00000000	 -0.00107395	  0.00134039	  0.00250286	 -0.00001401	  0.00009326	  0.00182942	 -0.00117155	  0.00122779
282.00000000	 -0.00061441	 -0.00154640	  0.00335776	  0.00067116	 -0.00150632	  0.00015749	 -0.00066990	 -0.00142890
283.00000000	  0.00009063	 -0.00131193	  0.00339654	  0.00011041	 -0.00029356	  0.00077124	  0.00010214	 -0.00120764
284.00000000	 -0.00070949	 -0.00018039	  0.00354692	  0.00069324	 -0.00150864	 -0.00000137	 -0.00077605	 -0.00016889
285.00000000	  0.00012194	  0.00050670	  0.00071653	 -0.00041690	  0.00093062	 -0.00047146	  0.00013347	  0.00046622
286.00000000	  0.00023699	 -0.00022504	  0.00012361	  0.00012331	 -0.00028191	 -0.00022059	  0.00025919	 -0.00020697
287.00000000	  0.00002577	  0.00224343	  0.00036700	  0.00032063	 -0.00063726	  0.00069534	  0.00002919	  0.00206343
288.00000000	 -0.00014988	 -0.00059755	  0.00110179	 -0.00034581	  0.00074518	 -0.00109990	 -0.00016417	 -0.00054977
289.00000000	  0.00008213	 -0.00000590	  0.00012355	  0.00030342	 -0.00066444	 -0.00040029	  0.00008993	 -0.00000535
290.00000000	 -0.00039439	  0.00044888	  0.00010371	  0.00003173	 -0.00004895	  0.00040209	 -0.00043164	  0.00041213
291.00000000	  0.00035669	 -0.00105134	  0.00089916	 -0.00013864	  0.00025878	  0.00021279	  0.00038880	 -0.00096675
292.00000000	 -0.00032129	  0.00023391	  0.00019080	  0.00007555	 -0.00015352	  0.00053183	 -0.00035176	  0.00021485
293.00000000	 -0.00000705	 -0.00021100	  0.00037647	 -0.00018747	  0.00039948	  0.00091492	 -0.00000769	 -0.00019407
294.00000000	 -0.00036210	  0.00106164	  0.00107460	  0.00012625	 -0.00023427	 -0.00040573	 -0.00039787	  0.00097639
295.00000000	  0.00041723	 -0.00013604	  0.00054305	  0.00051582	 -0.00113892	 -0.00076353	  0.00045710	 -0.00012539
296.00000000	 -0.00062190	 -0.00014929	  0.00071590	 -0.00020197	  0.00044871	  0.00015370	 -0.00068175	 -0.00013800
297.00000000	 -0.00042351	 -0.00106712	  0.00036788	 -0.00045820	  0.00097467	 -0.00009626	 -0.00046481	 -0.00098133
298.00000000	 -0.00008762	  0.00123457	  0.00118200	  0.00019308	 -0.00037816	 -0.00102175	 -0.00009558	  0.00113551
299.00000000	  0.00005790	 -0.00052510	  0.00066204	 -0.00027355	  0.00057568	  0.00112163	  0.00006294	 -0.00048302
300.00000000	  0.00036466	 -0.00003904	  0.00138334	  0.00014180	 -0.00032356	  0.00105016	  0.00039921	 -0.00003628
301.00000000	  0.00009981	 -0.00073033	  0.00036925	  0.00014134	 -0.00033411	 -0.00061090	  0.00010954	 -0.00067176
302.00000000	  0.00016225	 -0.00010926	  0.00020715	 -0.00028908	  0.00062847	 -0.00048001	  0.00017763	 -0.00010047
303.00000000	  0.00027923	  0.00016806	  0.00071771	  0.00035057	 -0.00077122	  0.00091445	  0.00030584	  0.00015456
304.00000000	 -0.00063563	  0.00170462	  0.00094812	 -0.00027811	  0.00067411	 -0.00029729	 -0.00069800	  0.00156755
305.00000000	 -0.00085492	 -0.00072693	  0.00109764	 -0.00017706	  0.00038110	 -0.00094442	 -0.00093542	 -0.00066954
306.00000000	  0.00075356	 -0.00029516	  0.00074038	  0.00033396	 -0.00076011	  0.00114041	  0.00082494	 -0.00027167
307.00000000	 -0.00037909	  0.00044810	  0.00046328	  0.00005110	 -0.00009230	  0.00027305	 -0.00041537	  0.00041249
308.00000000	  0.00037918	  0.00037690	  0.00001018	 -0.00016481	  0.00036784	 -0.00036590	  0.00041511	  0.00034639
309.00000000	 -0.00015018	 -0.00058874	  0.00067609	 -0.00000926	  0.00000918	 -0.00138964	 -0.00016468	 -0.00054167
310.00000000	  0.00040076	 -0.00046105	  0.00070779	  0.00009417	 -0.00023424	  0.00109571	  0.00043855	 -0.00042394
311.00000000	  0.00000244	  0.00112411	  0.00050125	  0.00008891	 -0.00015862	 -0.00025146	  0.00000235	  0.00103386
312.00000000	 -0.00007415	  0.00022584	  0.00007121	  0.00022010	 -0.00047015	 -0.00079948	 -0.00008103	  0.00020763
313.00000000	 -0.00025653	 -0.00110361	  0.00059657	  0.00003628	 -0.00011495	  0.00052327	 -0.00028236	 -0.00101455
314.00000000	  0.00095901	  0.00010884	  0.00010220	 -0.00032341	  0.00069141	  0.00030088	  0.00105079	  0.00010055
315.00000000	 -0.00040162	 -0.00057058	  0.00038423	  0.00001101	 -0.00003459	 -0.00039344	 -0.00044007	 -0.00052505
316.00000000	  0.00039561	  0.00056422	  0.00019863	  0.00005984	 -0.00012385	  0.00074306	  0.00043338	  0.00051909
317.00000000	 -0.00010795	  0.00082844	  0.00002335	  0.00050828	 -0.00108442	 -0.00016107	 -0.00011825	  0.00076145
318.00000000	 -0.00127966	  0.00003693	  0.00058712	 -0.00062540	  0.00139631	 -0.00055228	 -0.00140242	  0.00003327
319.00000000	  0.00071933	 -0.00090166	  0.00150502	  0.00007088	 -0.00020810	  0.00173195	  0.00078759	 -0.00082998
320.00000000	 -0.00020298	 -0.00018043	  0.00099337	 -0.00023284	  0.00051167	 -0.00082954	 -0.00022203	 -0.00016594
321.00000000	  0.00013548	 -0.00042830	  0.00000429	  0.00000164	 -0.00002098	  0.00002397	  0.00014847	 -0.00039414
322.00000000	  0.00022662	  0.00059633	  0.00040854	  0.00025026	 -0.00053202	 -0.00012541	  0.00024829	  0.00054839
323.00000000	 -0.00068334	  0.00119793	  0.00113000	 -0.00022950	  0.00055351	 -0.00055883	 -0.00074931	  0.00110140
324.00000000	 -0.00068736	 -0.00196849	  0.00021439	 -0.00008853	  0.00013357	  0.00003013	 -0.00075310	 -0.00181137
