   -0.153322	   -0.134758	   -0.116237	   -0.097760	   -0.079324	  547.021415	  491.670769	  436.448578	  381.354396	  326.387778
   -0.153252	   -0.134720	   -0.116231	   -0.097784	   -0.079381	  547.017243	  491.668540	  436.447960	  381.355059	  326.389395
   -0.153322	   -0.134789	   -0.116298	   -0.097849	   -0.079442	  547.021415	  491.677444	  436.459842	  381.368175	  326.402014
   -0.153190	   -0.134705	   -0.116262	   -0.097861	   -0.079502	  547.003625	  491.663757	  436.451060	  381.365095	  326.405427
   -0.153200	   -0.134681	   -0.116205	   -0.097770	   -0.079376	  547.004179	  491.664345	  436.448847	  381.357267	  326.389187
   -0.153426	   -0.134834	   -0.116287	   -0.097784	   -0.079324	  547.044473	  491.685111	  436.457856	  381.362235	  326.397778
   -0.153374	   -0.134811	   -0.116292	   -0.097815	   -0.079381	  547.032945	  491.679845	  436.455184	  381.358515	  326.389395
   -0.153365	   -0.134788	   -0.116255	   -0.097766	   -0.079320	  547.032390	  491.678240	  436.454562	  381.360893	  326.396777
   -0.153313	   -0.134781	   -0.116290	   -0.097843	   -0.079437	  547.020861	  491.676988	  436.459476	  381.367892	  326.401806
   -0.153374	   -0.134781	   -0.116230	   -0.097723	   -0.079259	  547.032945	  491.677763	  436.451538	  381.353819	  326.384158
   -0.153313	   -0.134765	   -0.116260	   -0.097797	   -0.079376	  547.019328	  491.672601	  436.452290	  381.357962	  326.389187
   -0.153303	   -0.134742	   -0.116225	   -0.097750	   -0.079320	  547.028773	  491.673428	  436.448285	  381.352887	  326.386777
   -0.153374	   -0.134796	   -0.116261	   -0.097769	   -0.079320	  547.032945	  491.678804	  436.453361	  381.356167	  326.386777
   -0.153384	   -0.134788	   -0.116236	   -0.097726	   -0.079259	  547.033500	  491.680815	  436.455321	  381.356581	  326.384158
   -0.153242	   -0.134712	   -0.116226	   -0.097784	   -0.079385	  547.015156	  491.665011	  436.446146	  381.358096	  326.400397
   -0.153303	   -0.134743	   -0.116226	   -0.097753	   -0.079324	  547.018773	  491.663808	  436.440633	  381.348779	  326.387778
   -0.153322	   -0.134773	   -0.116267	   -0.097803	   -0.079381	  547.021415	  491.676404	  436.458019	  381.365827	  326.399395
   -0.153252	   -0.134735	   -0.116262	   -0.097830	   -0.079442	  547.015710	  491.671695	  436.455166	  381.365683	  326.402808
   -0.153374	   -0.134765	   -0.116199	   -0.097677	   -0.079198	  547.032945	  491.674235	  436.444732	  381.343983	  326.371539
   -0.153261	   -0.134743	   -0.116269	   -0.097836	   -0.079446	  547.016265	  491.672151	  436.455532	  381.365966	  326.403016
   -0.153303	   -0.134758	   -0.116257	   -0.097799	   -0.079385	  547.018773	  491.667336	  436.447440	  381.358615	  326.400397
   -0.153252	   -0.134735	   -0.116261	   -0.097830	   -0.079442	  547.017243	  491.672068	  436.454766	  381.364895	  326.402014
   -0.153252	   -0.134735	   -0.116263	   -0.097833	   -0.079446	  547.017243	  491.669961	  436.452132	  381.363300	  326.403016
   -0.153190	   -0.134674	   -0.116199	   -0.097766	   -0.079376	  547.002093	  491.660436	  436.444685	  381.354411	  326.389187
   -0.153261	   -0.134727	   -0.116236	   -0.097787	   -0.079381	  547.019330	  491.672450	  436.452123	  381.357915	  326.389395
   -0.153261	   -0.134728	   -0.116236	   -0.097787	   -0.079381	  547.017797	  491.671590	  436.451742	  381.357820	  326.389395
   -0.153313	   -0.134750	   -0.116229	   -0.097751	   -0.079315	  547.019328	  491.671560	  436.450467	  381.355614	  326.386569
   -0.153374	   -0.134811	   -0.116292	   -0.097815	   -0.079381	  547.032945	  491.679845	  436.455184	  381.358515	  326.389395
   -0.153313	   -0.134751	   -0.116232	   -0.097756	   -0.079324	  547.019328	  491.666858	  436.444415	  381.351540	  326.387778
   -0.153313	   -0.134765	   -0.116261	   -0.097799	   -0.079381	  547.020861	  491.673353	  436.454237	  381.363066	  326.399395
   -0.153322	   -0.134743	   -0.116205	   -0.097711	   -0.079259	  547.021415	  491.669348	  436.444407	  381.346156	  326.374158
   -0.153454	   -0.134873	   -0.116334	   -0.097836	   -0.079381	  547.039207	  491.689134	  436.464424	  381.364652	  326.389395
   -0.153374	   -0.134781	   -0.116231	   -0.097726	   -0.079263	  547.032945	  491.675656	  436.448902	  381.352223	  326.385158
   -0.153365	   -0.134803	   -0.116286	   -0.097811	   -0.079381	  547.032390	  491.679281	  436.456385	  381.363242	  326.399395
   -0.153303	   -0.134758	   -0.116255	   -0.097796	   -0.079381	  547.028773	  491.676956	  436.455091	  381.362723	  326.399395
   -0.153261	   -0.134728	   -0.116237	   -0.097788	   -0.079381	  547.017797	  491.672078	  436.452523	  381.358704	  326.390189
   -0.153322	   -0.134743	   -0.116205	   -0.097711	   -0.079259	  547.021415	  491.671835	  436.449390	  381.353643	  326.384158
   -0.153242	   -0.134696	   -0.116194	   -0.097735	   -0.079320	  547.015156	  491.666077	  436.446958	  381.357343	  326.396777
   -0.153313	   -0.134735	   -0.116200	   -0.097708	   -0.079259	  547.029328	  491.675438	  436.450244	  381.353300	  326.384158
   -0.153313	   -0.134735	   -0.116200	   -0.097708	   -0.079259	  547.019328	  491.667925	  436.445228	  381.350787	  326.384158
   -0.153384	   -0.134835	   -0.116328	   -0.097864	   -0.079442	  547.035033	  491.687284	  436.466153	  381.371207	  326.402014
   -0.153374	   -0.134811	   -0.116290	   -0.097812	   -0.079376	  547.032945	  491.682439	  436.458601	  381.360994	  326.389187
   -0.153242	   -0.134727	   -0.116256	   -0.097827	   -0.079442	  547.013624	  491.667786	  436.451004	  381.362828	  326.402808
   -0.153313	   -0.134766	   -0.116262	   -0.097802	   -0.079385	  547.030861	  491.678759	  436.456619	  381.363983	  326.400397
   -0.153393	   -0.134827	   -0.116303	   -0.097821	   -0.079381	  547.037122	  491.687667	  436.463511	  381.364228	  326.389395
   -0.153374	   -0.134827	   -0.116322	   -0.097860	   -0.079442	  547.044479	  491.691746	  436.467387	  381.370958	  326.402014
   -0.153313	   -0.134781	   -0.116292	   -0.097845	   -0.079442	  547.029328	  491.681047	  436.460696	  381.367832	  326.402014
   -0.153313	   -0.134796	   -0.116322	   -0.097891	   -0.079502	  547.020861	  491.677922	  436.462866	  381.375250	  326.414632
   -0.153384	   -0.134835	   -0.116329	   -0.097867	   -0.079446	  547.035033	  491.685177	  436.463518	  381.369612	  326.403016
   -0.153252	   -0.134735	   -0.116260	   -0.097827	   -0.079437	  547.017243	  491.674662	  436.458182	  381.367373	  326.401806
   -0.153303	   -0.134773	   -0.116287	   -0.097845	   -0.079446	  547.028773	  491.675889	  436.454279	  381.363476	  326.403016
   -0.153322	   -0.134758	   -0.116235	   -0.097754	   -0.079315	  547.021415	  491.675471	  436.454630	  381.358470	  326.386569
   -0.153303	   -0.134742	   -0.116225	   -0.097750	   -0.079320	  547.027240	  491.672568	  436.447905	  381.352793	  326.386777
   -0.153374	   -0.134826	   -0.116320	   -0.097855	   -0.079432	  547.034479	  491.686447	  436.463439	  381.365031	  326.390803
   -0.153365	   -0.134803	   -0.116285	   -0.097809	   -0.079376	  547.030856	  491.678529	  436.454438	  381.358138	  326.389187
   -0.153303	   -0.134773	   -0.116286	   -0.097842	   -0.079442	  547.018773	  491.670484	  436.451897	  381.362559	  326.402014
   -0.153303	   -0.134773	   -0.116286	   -0.097842	   -0.079442	  547.018773	  491.670484	  436.451897	  381.362559	  326.402014
   -0.153303	   -0.134758	   -0.116255	   -0.097796	   -0.079381	  547.018773	  491.669443	  436.450075	  381.360210	  326.399395
   -0.153313	   -0.134750	   -0.116230	   -0.097754	   -0.079320	  547.029328	  491.676478	  436.452067	  381.355648	  326.386777
   -0.153252	   -0.134689	   -0.116169	   -0.097692	   -0.079259	  547.017243	  491.666458	  436.444314	  381.350363	  326.384158
   -0.153200	   -0.134697	   -0.116235	   -0.097815	   -0.079437	  547.004179	  491.665386	  436.450670	  381.359615	  326.391806
   -0.153402	   -0.134835	   -0.116308	   -0.097821	   -0.079376	  547.037677	  491.690827	  436.465729	  381.361982	  326.379187
   -0.153313	   -0.134766	   -0.116261	   -0.097800	   -0.079381	  547.029328	  491.677519	  436.453890	  381.357996	  326.389395
   -0.153252	   -0.134751	   -0.116293	   -0.097879	   -0.079507	  547.015710	  491.672629	  436.458557	  381.373041	  326.415636
   -0.153313	   -0.134750	   -0.116232	   -0.097756	   -0.079324	  547.029328	  491.676370	  436.453633	  381.360657	  326.396984
   -0.153374	   -0.134796	   -0.116261	   -0.097769	   -0.079320	  547.032945	  491.678804	  436.453361	  381.356167	  326.386777
   -0.153313	   -0.134766	   -0.116261	   -0.097800	   -0.079381	  547.019328	  491.670006	  436.448873	  381.355484	  326.389395
   -0.153313	   -0.134750	   -0.116230	   -0.097754	   -0.079320	  547.029328	  491.676478	  436.452067	  381.355648	  326.386777
   -0.153280	   -0.134743	   -0.116248	   -0.097794	   -0.079381	  547.020439	  491.678551	  436.459688	  381.363438	  326.389395
   -0.153374	   -0.134827	   -0.116322	   -0.097861	   -0.079442	  547.032945	  491.685860	  436.466973	  381.375838	  326.412014
   -0.153181	   -0.134666	   -0.116194	   -0.097766	   -0.079381	  547.001539	  491.657280	  436.442471	  381.356660	  326.399395
   -0.153294	   -0.134734	   -0.116219	   -0.097747	   -0.079320	  547.016686	  491.664493	  436.444090	  381.355007	  326.396777
   -0.153233	   -0.134704	   -0.116219	   -0.097778	   -0.079381	  547.003070	  491.658183	  436.444586	  381.361812	  326.409395
   -0.153303	   -0.134757	   -0.116254	   -0.097793	   -0.079376	  547.028773	  491.679063	  436.457726	  381.364318	  326.398394
   -0.153303	   -0.134742	   -0.116224	   -0.097750	   -0.079320	  547.018773	  491.665427	  436.442487	  381.349492	  326.385983
   -0.153426	   -0.134850	   -0.116317	   -0.097829	   -0.079385	  547.044473	  491.685664	  436.458896	  381.363699	  326.399603
   -0.153313	   -0.134781	   -0.116292	   -0.097845	   -0.079442	  547.029328	  491.678559	  436.455713	  381.360344	  326.392014
   -0.153270	   -0.134735	   -0.116241	   -0.097788	   -0.079376	  547.018352	  491.677235	  436.458941	  381.363060	  326.389187
   -0.153270	   -0.134735	   -0.116242	   -0.097791	   -0.079381	  547.018352	  491.674641	  436.455524	  381.360582	  326.389395
   -0.153332	   -0.134797	   -0.116303	   -0.097852	   -0.079442	  547.021970	  491.680495	  436.463624	  381.370936	  326.402014
   -0.153270	   -0.134736	   -0.116243	   -0.097793	   -0.079385	  547.009885	  491.667880	  436.452454	  381.363172	  326.399603
   -0.153218	   -0.134667	   -0.116159	   -0.097692	   -0.079268	  546.996820	  491.654415	  436.438660	  381.349121	  326.385366
   -0.153332	   -0.134797	   -0.116306	   -0.097857	   -0.079451	  547.023503	  491.676654	  436.457954	  381.366958	  326.403224
   -0.153332	   -0.134781	   -0.116273	   -0.097806	   -0.079381	  547.023503	  491.675340	  436.452217	  381.353709	  326.379395
   -0.153261	   -0.134728	   -0.116237	   -0.097788	   -0.079381	  547.007797	  491.664565	  436.447506	  381.356191	  326.390189
   -0.153322	   -0.134774	   -0.116268	   -0.097805	   -0.079385	  547.021415	  491.671810	  436.450401	  381.356744	  326.390397
   -0.153322	   -0.134789	   -0.116299	   -0.097851	   -0.079446	  547.021415	  491.672850	  436.452224	  381.359093	  326.393016
   -0.153393	   -0.134812	   -0.116272	   -0.097775	   -0.079320	  547.037122	  491.686626	  436.461688	  381.361879	  326.386777
   -0.153384	   -0.134819	   -0.116297	   -0.097818	   -0.079381	  547.035033	  491.683756	  436.459347	  381.361371	  326.389395
   -0.153252	   -0.134735	   -0.116263	   -0.097833	   -0.079446	  547.017243	  491.669961	  436.452132	  381.363300	  326.403016
   -0.153374	   -0.134811	   -0.116290	   -0.097812	   -0.079376	  547.032945	  491.682439	  436.458601	  381.360994	  326.389187
   -0.153322	   -0.134773	   -0.116267	   -0.097803	   -0.079381	  547.021415	  491.673917	  436.453036	  381.358340	  326.389395
   -0.153270	   -0.134751	   -0.116273	   -0.097837	   -0.079442	  547.019885	  491.676541	  436.457728	  381.363025	  326.392014
   -0.153270	   -0.134751	   -0.116273	   -0.097837	   -0.079442	  547.008352	  491.668168	  436.452329	  381.360417	  326.392014
   -0.153322	   -0.134789	   -0.116298	   -0.097849	   -0.079442	  547.021415	  491.677444	  436.459842	  381.368175	  326.402014
   -0.153252	   -0.134704	   -0.116200	   -0.097738	   -0.079320	  547.007243	  491.659987	  436.441120	  381.350199	  326.386777
   -0.153322	   -0.134789	   -0.116298	   -0.097849	   -0.079442	  547.021415	  491.674957	  436.454859	  381.360688	  326.392014
   -0.153384	   -0.134819	   -0.116297	   -0.097818	   -0.079381	  547.035033	  491.683756	  436.459347	  381.361371	  326.389395
   -0.153303	   -0.134789	   -0.116318	   -0.097891	   -0.079507	  547.028773	  491.676930	  436.456102	  381.365825	  326.405636
   -0.153322	   -0.134789	   -0.116298	   -0.097849	   -0.079442	  547.021415	  491.677444	  436.459842	  381.368175	  326.402014
   -0.153322	   -0.134773	   -0.116267	   -0.097803	   -0.079381	  547.021415	  491.673917	  436.453036	  381.358340	  326.389395
   -0.153384	   -0.134819	   -0.116297	   -0.097818	   -0.079381	  547.035033	  491.683756	  436.459347	  381.361371	  326.389395
   -0.153374	   -0.134827	   -0.116322	   -0.097861	   -0.079442	  547.022945	  491.675860	  436.456973	  381.365838	  326.402014
   -0.153252	   -0.134736	   -0.116263	   -0.097833	   -0.079446	  547.005710	  491.661589	  436.446734	  381.360693	  326.403016
   -0.153322	   -0.134758	   -0.116237	   -0.097759	   -0.079324	  547.021415	  491.667794	  436.442813	  381.346025	  326.376984
   -0.153252	   -0.134720	   -0.116233	   -0.097790	   -0.079390	  547.015710	  491.662978	  436.441527	  381.350891	  326.390605
   -0.153303	   -0.134758	   -0.116255	   -0.097796	   -0.079381	  547.018773	  491.669443	  436.450075	  381.360210	  326.399395
   -0.153384	   -0.134835	   -0.116329	   -0.097866	   -0.079446	  547.035033	  491.682202	  436.457753	  381.361241	  326.392222
   -0.153384	   -0.134819	   -0.116297	   -0.097818	   -0.079381	  547.023500	  491.675383	  436.453949	  381.358764	  326.389395
   -0.153322	   -0.134773	   -0.116267	   -0.097803	   -0.079381	  547.011415	  491.666404	  436.448019	  381.355827	  326.389395
   -0.153242	   -0.134728	   -0.116257	   -0.097830	   -0.079446	  547.015156	  491.666051	  436.447969	  381.360445	  326.403016
   -0.153303	   -0.134758	   -0.116255	   -0.097796	   -0.079381	  547.017240	  491.668583	  436.449694	  381.360116	  326.399395
   -0.153209	   -0.134690	   -0.116214	   -0.097781	   -0.079390	  547.006266	  491.660959	  436.443542	  381.353571	  326.390605
   -0.153322	   -0.134773	   -0.116267	   -0.097803	   -0.079381	  547.021415	  491.673917	  436.453036	  381.358340	  326.389395
   -0.153322	   -0.134789	   -0.116298	   -0.097849	   -0.079442	  547.021415	  491.675445	  436.455641	  381.361571	  326.392808
   -0.153374	   -0.134827	   -0.116322	   -0.097860	   -0.079442	  547.024479	  491.676720	  436.457354	  381.365933	  326.402014
   -0.153242	   -0.134711	   -0.116224	   -0.097778	   -0.079376	  547.015156	  491.667225	  436.447214	  381.354682	  326.389187
   -0.153374	   -0.134827	   -0.116323	   -0.097863	   -0.079446	  547.034479	  491.681638	  436.458954	  381.365967	  326.402222
   -0.153313	   -0.134765	   -0.116261	   -0.097799	   -0.079381	  547.020861	  491.670866	  436.449254	  381.355578	  326.389395
   -0.153303	   -0.134758	   -0.116255	   -0.097796	   -0.079381	  547.018773	  491.669443	  436.450075	  381.360210	  326.399395
   -0.153374	   -0.134796	   -0.116259	   -0.097766	   -0.079315	  547.032945	  491.680911	  436.455996	  381.357763	  326.385776
   -0.153233	   -0.134719	   -0.116250	   -0.097824	   -0.079442	  547.013070	  491.664249	  436.446442	  381.359185	  326.402014
   -0.153365	   -0.134788	   -0.116256	   -0.097768	   -0.079324	  547.030856	  491.672298	  436.445780	  381.350832	  326.386984
   -0.153303	   -0.134742	   -0.116225	   -0.097750	   -0.079320	  547.017240	  491.665055	  436.442888	  381.350280	  326.386777
   -0.153261	   -0.134743	   -0.116267	   -0.097833	   -0.079442	  547.007797	  491.665118	  436.448548	  381.357656	  326.392014
   -0.153270	   -0.134751	   -0.116273	   -0.097837	   -0.079442	  547.008352	  491.668168	  436.452329	  381.360417	  326.392014
   -0.153393	   -0.134843	   -0.116334	   -0.097867	   -0.079442	  547.025588	  491.680335	  436.459935	  381.363968	  326.392014
   -0.153322	   -0.134788	   -0.116296	   -0.097846	   -0.079437	  547.009882	  491.668691	  436.452095	  381.359675	  326.391011
   -0.153261	   -0.134727	   -0.116235	   -0.097785	   -0.079376	  547.006265	  491.662837	  436.443996	  381.349321	  326.378394
   -0.153209	   -0.134689	   -0.116209	   -0.097770	   -0.079371	  546.993202	  491.658155	  436.444102	  381.350646	  326.377392
   -0.153261	   -0.134758	   -0.116298	   -0.097879	   -0.079502	  547.006265	  491.664811	  436.449208	  381.359025	  326.393837
   -0.153270	   -0.134751	   -0.116273	   -0.097837	   -0.079442	  547.006819	  491.664334	  436.446184	  381.351951	  326.381219
   -0.153322	   -0.134788	   -0.116296	   -0.097846	   -0.079437	  547.009882	  491.665716	  436.446331	  381.351304	  326.380217
   -0.153261	   -0.134743	   -0.116267	   -0.097833	   -0.079442	  547.006265	  491.663771	  436.447385	  381.356678	  326.391219
   -0.153322	   -0.134758	   -0.116236	   -0.097757	   -0.079320	  547.008349	  491.660669	  436.439670	  381.344919	  326.375983
   -0.153261	   -0.134712	   -0.116204	   -0.097739	   -0.079315	  547.006265	  491.661797	  436.442174	  381.346974	  326.375776
   -0.153313	   -0.134765	   -0.116258	   -0.097794	   -0.079371	  547.009328	  491.663732	  436.443361	  381.347791	  326.376598
   -0.153261	   -0.134742	   -0.116266	   -0.097830	   -0.079437	  546.997797	  491.659224	  436.445384	  381.355855	  326.390217
   -0.153252	   -0.134720	   -0.116231	   -0.097784	   -0.079381	  546.995710	  491.652167	  436.436764	  381.349056	  326.388601
   -0.153303	   -0.134727	   -0.116194	   -0.097704	   -0.079259	  547.008773	  491.654386	  436.430664	  381.337143	  326.373365
   -0.153313	   -0.134766	   -0.116262	   -0.097802	   -0.079385	  547.009328	  491.659899	  436.440439	  381.350493	  326.389603
   -0.153355	   -0.134764	   -0.116217	   -0.097714	   -0.079254	  547.018768	  491.659562	  436.430865	  381.332217	  326.363158
   -0.153303	   -0.134742	   -0.116223	   -0.097748	   -0.079315	  547.007240	  491.657162	  436.435523	  381.341876	  326.375776
   -0.153242	   -0.134727	   -0.116256	   -0.097827	   -0.079442	  547.003624	  491.654811	  436.435240	  381.344457	  326.382014
   -0.153322	   -0.134788	   -0.116296	   -0.097846	   -0.079437	  547.009882	  491.668691	  436.452095	  381.359675	  326.391011
   -0.153393	   -0.134842	   -0.116333	   -0.097864	   -0.079437	  547.025588	  491.682441	  436.462570	  381.365563	  326.391011
   -0.153332	   -0.134765	   -0.116241	   -0.097757	   -0.079315	  547.010437	  491.664199	  436.441486	  381.341884	  326.364983
   -0.153252	   -0.134720	   -0.116232	   -0.097787	   -0.079385	  547.015710	  491.665086	  436.444163	  381.352486	  326.389603
   -0.153384	   -0.134804	   -0.116266	   -0.097772	   -0.079320	  547.025033	  491.672227	  436.446742	  381.348140	  326.375983
   -0.153374	   -0.134796	   -0.116259	   -0.097766	   -0.079315	  547.022945	  491.670911	  436.445996	  381.347763	  326.375776
   -0.153313	   -0.134781	   -0.116290	   -0.097843	   -0.079437	  547.009328	  491.665641	  436.448313	  381.356914	  326.391011
   -0.153190	   -0.134673	   -0.116199	   -0.097766	   -0.079376	  546.992093	  491.649949	  436.433904	  381.343528	  326.378394
   -0.153313	   -0.134765	   -0.116260	   -0.097797	   -0.079376	  547.009328	  491.659626	  436.436525	  381.339592	  326.368394
   -0.153303	   -0.134773	   -0.116286	   -0.097842	   -0.079442	  547.017240	  491.664161	  436.440768	  381.346605	  326.381219
   -0.153322	   -0.134788	   -0.116296	   -0.097846	   -0.079437	  547.011415	  491.667064	  436.447494	  381.352283	  326.381011
   -0.153252	   -0.134688	   -0.116167	   -0.097687	   -0.079249	  547.004178	  491.653980	  436.428859	  381.328393	  326.352158
   -0.153181	   -0.134681	   -0.116225	   -0.097812	   -0.079442	  546.991539	  491.645833	  436.429311	  381.341521	  326.382014
   -0.153242	   -0.134711	   -0.116223	   -0.097778	   -0.079376	  546.995156	  491.646737	  436.426433	  381.333799	  326.368394
   -0.153303	   -0.134742	   -0.116223	   -0.097748	   -0.079315	  547.008773	  491.655535	  436.430921	  381.334483	  326.365776
   -0.153181	   -0.134666	   -0.116193	   -0.097763	   -0.079376	  546.991539	  491.644412	  436.425140	  381.333281	  326.368394
   -0.153322	   -0.134772	   -0.116264	   -0.097797	   -0.079371	  547.012949	  491.666503	  436.443704	  381.344138	  326.367392
   -0.153322	   -0.134773	   -0.116264	   -0.097797	   -0.079371	  547.001415	  491.658618	  436.439088	  381.342413	  326.368186
   -0.153313	   -0.134765	   -0.116260	   -0.097797	   -0.079376	  547.009328	  491.662113	  436.441508	  381.347079	  326.378394
   -0.153402	   -0.134834	   -0.116306	   -0.097819	   -0.079371	  547.016143	  491.674072	  436.452183	  381.350086	  326.367392
   -0.153200	   -0.134712	   -0.116265	   -0.097859	   -0.079493	  546.992647	  491.660159	  436.449727	  381.360948	  326.393421
   -0.153252	   -0.134735	   -0.116261	   -0.097830	   -0.079442	  546.995710	  491.653695	  436.439368	  381.352287	  326.392014
   -0.153303	   -0.134757	   -0.116254	   -0.097794	   -0.079376	  547.007240	  491.658203	  436.437345	  381.344223	  326.378394
   -0.153200	   -0.134697	   -0.116235	   -0.097815	   -0.079437	  546.994179	  491.654898	  436.439889	  381.348732	  326.381011
   -0.153233	   -0.134719	   -0.116250	   -0.097824	   -0.079442	  547.003070	  491.654249	  436.436442	  381.349185	  326.392014
   -0.153313	   -0.134796	   -0.116321	   -0.097889	   -0.079498	  547.007794	  491.665821	  436.449754	  381.359166	  326.393629
   -0.153322	   -0.134773	   -0.116266	   -0.097800	   -0.079376	  547.009882	  491.662676	  436.440307	  381.342353	  326.368394
   -0.153200	   -0.134697	   -0.116235	   -0.097815	   -0.079437	  546.994179	  491.654898	  436.439889	  381.348732	  326.381011
   -0.153261	   -0.134758	   -0.116296	   -0.097876	   -0.079498	  546.997797	  491.660752	  436.447988	  381.359085	  326.393629
   -0.153332	   -0.134766	   -0.116242	   -0.097760	   -0.079320	  547.013503	  491.666299	  436.444595	  381.347964	  326.375983
   -0.153384	   -0.134850	   -0.116358	   -0.097909	   -0.079502	  547.026567	  491.681184	  436.462558	  381.370253	  326.403837
   -0.153200	   -0.134712	   -0.116266	   -0.097861	   -0.079498	  546.995711	  491.659773	  436.447856	  381.359545	  326.394424
   -0.153384	   -0.134819	   -0.116297	   -0.097818	   -0.079381	  547.025033	  491.671269	  436.444364	  381.343884	  326.369395
   -0.153138	   -0.134652	   -0.116208	   -0.097806	   -0.079446	  546.972093	  491.632679	  436.420251	  381.334371	  326.374605
   -0.153252	   -0.134690	   -0.116172	   -0.097698	   -0.079268	  546.987243	  491.629756	  436.404059	  381.309683	  326.346159
   -0.153365	   -0.134804	   -0.116287	   -0.097814	   -0.079385	  547.022390	  491.662199	  436.433783	  381.336671	  326.370397
   -0.153374	   -0.134826	   -0.116321	   -0.097858	   -0.079437	  547.042945	  491.692992	  436.469641	  381.372458	  326.401011
   -0.153322	   -0.134788	   -0.116295	   -0.097843	   -0.079432	  547.031415	  491.689170	  436.470128	  381.373877	  326.400009
   -0.153200	   -0.134683	   -0.116209	   -0.097778	   -0.079390	  546.985711	  491.636884	  436.417120	  381.325971	  326.362987
   -0.153016	   -0.134502	   -0.116034	   -0.097612	   -0.079236	  546.904856	  491.540612	  436.314315	  381.225448	  326.273500
   -0.152454	   -0.134008	   -0.115612	   -0.097266	   -0.078970	  546.761736	  491.381472	  436.151752	  381.071964	  326.141498
   -0.152430	   -0.134011	   -0.115641	   -0.097321	   -0.079050	  546.734897	  491.354007	  436.122987	  381.041229	  326.108130
   -0.152742	   -0.134309	   -0.115921	   -0.097579	   -0.079283	  546.898723	  491.549474	  436.337464	  381.262183	  326.323124
   -0.152647	   -0.134249	   -0.115884	   -0.097554	   -0.079257	  546.986197	  491.702948	  436.521568	  381.441774	  326.463286
   -0.152430	   -0.133999	   -0.115602	   -0.097239	   -0.078910	  546.926421	  491.640734	  436.457474	  381.376356	  326.397096
   -0.152397	   -0.134010	   -0.115658	   -0.097342	   -0.079061	  546.867503	  491.573234	  436.385355	  381.303559	  326.327540
   -0.151976	   -0.133651	   -0.115363	   -0.097110	   -0.078893	  546.804208	  491.515359	  436.335433	  381.264110	  326.301069
   -0.150819	   -0.132678	   -0.114568	   -0.096489	   -0.078442	  546.645890	  491.431004	  436.311905	  381.288344	  326.360071
   -0.148796	   -0.131044	   -0.113310	   -0.095595	   -0.077898	  546.370889	  491.294613	  436.275069	  381.312170	  326.405827
   -0.148596	   -0.130816	   -0.113043	   -0.095276	   -0.077517	  546.380558	  491.370388	  436.382326	  381.416360	  326.472477
   -0.147789	   -0.129967	   -0.112153	   -0.094345	   -0.076544	  546.217268	  491.218170	  436.240178	  381.283280	  326.347465
   -0.145165	   -0.127657	   -0.110154	   -0.092656	   -0.075163	  545.717976	  490.796612	  435.891053	  381.001294	  326.127327
   -0.142365	   -0.125208	   -0.108052	   -0.090899	   -0.073747	  545.128030	  490.309977	  435.498447	  380.693441	  325.894958
   -0.139501	   -0.122696	   -0.105893	   -0.089091	   -0.072291	  544.472618	  489.748664	  435.029431	  380.314919	  325.605125
   -0.133559	   -0.117098	   -0.100639	   -0.084181	   -0.067725	  543.111391	  488.461798	  433.817662	  379.178983	  324.545761
   -0.125462	   -0.109188	   -0.092930	   -0.076687	   -0.060459	  541.054948	  486.395408	  431.787726	  377.231827	  322.727639
   -0.113589	   -0.097611	   -0.081662	   -0.065740	   -0.049846	  538.135347	  483.493596	  428.947592	  374.497083	  320.141819
   -0.100179	   -0.084367	   -0.068599	   -0.052877	   -0.037199	  534.739676	  480.029130	  425.473980	  371.073565	  316.827228
   -0.085452	   -0.069560	   -0.053724	   -0.037946	   -0.022224	  530.984222	  476.228340	  421.669058	  367.305322	  313.136080
   -0.070571	   -0.054276	   -0.038046	   -0.021879	   -0.005776	  527.140467	  472.328121	  417.731828	  363.350312	  309.182308
   -0.052820	   -0.036454	   -0.020159	   -0.003933	    0.012224	  522.569684	  467.731753	  413.128078	  358.757162	  304.617520
   -0.032481	   -0.015763	    0.000885	    0.017463	    0.033973	  517.309327	  462.401779	  407.724246	  353.275286	  299.053469
   -0.009673	    0.007607	    0.024845	    0.042040	    0.059194	  511.408553	  456.511233	  401.748315	  347.119306	  292.623715
    0.016971	    0.034654	    0.052301	    0.069915	    0.087494	  504.501971	  449.507364	  394.620059	  339.839744	  285.166105
    0.048656	    0.066576	    0.084454	    0.102290	    0.120084	  495.707517	  440.425820	  385.274335	  330.252601	  275.360161
    0.083417	    0.101281	    0.119126	    0.136952	    0.154759	  484.750729	  429.274316	  373.856903	  318.498396	  263.198700
    0.123073	    0.140457	    0.157809	    0.175127	    0.192413	  471.243106	  415.376017	  359.614456	  303.958122	  248.406718
    0.168260	    0.186062	    0.203789	    0.221440	    0.239018	  454.608164	  397.737628	  341.107948	  284.717598	  228.565064
    0.208612	    0.226094	    0.243507	    0.260852	    0.278130	  436.739799	  379.180793	  321.846434	  264.735410	  207.846417
    0.245185	    0.263901	    0.282551	    0.301134	    0.319651	  418.502983	  360.057058	  301.819338	  243.788714	  185.964082
    0.298276	    0.314945	    0.331548	    0.348086	    0.364559	  395.794310	  336.989704	  278.417375	  220.075949	  161.964065
    0.360625	    0.376299	    0.391862	    0.407317	    0.422663	  370.264323	  310.168922	  250.496646	  191.243042	  132.403719
    0.422983	    0.439784	    0.456517	    0.473184	    0.489784	  344.394109	  282.639297	  221.131979	  159.870670	   98.853899
    0.498960	    0.516573	    0.534064	    0.551435	    0.568687	  315.093748	  250.850709	  187.051304	  123.690954	   60.765141
    0.587915	    0.605470	    0.622889	    0.640173	    0.657323	  281.749060	  214.836728	  148.445341	   82.568840	   17.201257
    0.679417	    0.696180	    0.712827	    0.729361	    0.745783	  246.443036	  177.075595	  108.183312	   39.761320	  -28.195179
    0.777950	    0.797218	    0.816351	    0.835350	    0.854217	  207.907546	  134.250181	   61.110000	  -11.518425	  -83.640445
    0.874719	    0.899423	    0.924149	    0.948896	    0.973664	  167.987146	   89.397483	   10.739726	  -67.986214	 -146.780427
    0.963643	    0.988008	    1.012389	    1.036784	    1.061196	  128.865180	   47.246955	  -34.423053	 -116.144893	 -197.918614
    1.056270	    1.081622	    1.106967	    1.132306	    1.157639	   88.508300	    2.614135	  -83.258247	 -169.108855	 -254.937695
    1.161756	    1.187434	    1.213032	    1.238552	    1.263992	   42.902227	  -47.544747	 -137.711251	 -227.598587	 -317.208051
    1.269679	    1.300327	    1.330894	    1.361379	    1.391782	   -3.662374	 -100.491300	 -197.061396	 -293.373697	 -389.429236
    1.409321	    1.448508	    1.487816	    1.527245	    1.566795	  -59.324732	 -165.166533	 -271.333571	 -377.827348	 -484.649374
    1.616168	    1.664286	    1.712732	    1.761510	    1.810622	 -136.302336	 -254.508203	 -373.519864	 -493.345588	 -613.993755
    1.900751	    1.958814	    2.017379	    2.076451	    2.136037	 -240.209877	 -375.090510	 -511.135441	 -648.359811	 -786.779025
    2.292691	    2.358153	    2.423910	    2.489963	    2.556314	 -382.284598	 -538.770597	 -695.960589	 -853.859334	-1012.471638
    2.789913	    2.883322	    2.977892	    3.073644	    3.170601	 -563.696886	 -755.060656	 -948.802336	-1144.966526	-1343.598949
    3.496483	    3.610938	    3.726557	    3.843356	    3.961354	 -820.939546	-1056.023987	-1293.497324	-1533.396156	-1775.757834
    4.497702	    4.640546	    4.784747	    4.930326	    5.077302	-1186.843494	-1483.579850	-1783.136620	-2085.554207	-2390.873789
    6.130703	    6.354382	    6.582318	    6.814633	    7.051455	-1782.129704	-2194.849543	-2615.423948	-3044.079296	-3481.050748
    9.875163	   10.239663	   10.610871	   10.988974	   11.374167	-3139.542582	-3802.516220	-4477.691248	-5165.407624	-5866.018058
   24.778502	   26.398135	   28.136170	   30.006083	   32.023474	-8531.311303	-10480.110673	-12571.374758	-14821.318316	-17248.713803
  -54.202847	  -50.622339	  -47.649277	  -45.141165	  -42.996845	20035.724804	21340.461526	22423.844865	23337.800271	24119.190032
  -14.345283	  -14.057565	  -13.796653	  -13.558966	  -13.341535	 5625.556698	 6240.953498	 6799.017296	 7307.403565	 7772.462913
   -8.742363	   -8.619788	   -8.507475	   -8.404187	   -8.308878	 3604.854594	 4001.238250	 4364.436234	 4698.448611	 5006.657411
   -6.408337	   -6.354440	   -6.304496	   -6.258087	   -6.214849	 2761.946389	 3067.918472	 3351.445662	 3614.910282	 3860.369026
   -4.992008	   -4.974589	   -4.958346	   -4.943164	   -4.928943	 2245.333197	 2495.642857	 2729.045212	 2947.197319	 3151.546544
   -4.100717	   -4.090923	   -4.081791	   -4.073254	   -4.065258	 1918.049478	 2126.588244	 2321.046958	 2502.805030	 2673.067383
   -3.416221	   -3.414813	   -3.413497	   -3.412266	   -3.411111	 1661.870950	 1839.960603	 2006.282157	 2161.964753	 2307.997556
   -2.938057	   -2.946834	   -2.955072	   -2.962818	   -2.970114	 1481.616733	 1640.692243	 1789.980465	 1930.357701	 2062.598671
   -2.701711	   -2.706390	   -2.710773	   -2.714887	   -2.718757	 1397.547775	 1542.679937	 1678.635092	 1806.256985	 1926.289005
   -2.512066	   -2.517193	   -2.521992	   -2.526493	   -2.530724	 1330.470606	 1466.888025	 1594.581483	 1714.361903	 1826.942724
   -2.350208	   -2.346759	   -2.343551	   -2.340559	   -2.337763	 1271.417076	 1396.165383	 1512.187051	 1620.366829	 1721.473774
   -2.218998	   -2.209952	   -2.201582	   -2.193816	   -2.186590	 1223.771400	 1339.681390	 1446.924224	 1546.436996	 1639.026407
   -2.142791	   -2.132607	   -2.123203	   -2.114492	   -2.106402	 1198.461654	 1310.336591	 1413.644024	 1509.331820	 1598.212998
   -2.060912	   -2.058387	   -2.056044	   -2.053865	   -2.051833	 1169.680529	 1281.590126	 1385.408820	 1481.983439	 1572.046619
   -1.954034	   -1.956881	   -1.959535	   -1.962016	   -1.964339	 1128.948854	 1238.432095	 1340.502448	 1435.888128	 1525.224991
   -1.814979	   -1.823199	   -1.830904	   -1.838141	   -1.844952	 1071.595530	 1177.520907	 1276.811304	 1370.071197	 1457.833795
   -1.710678	   -1.714022	   -1.717140	   -1.720053	   -1.722783	 1027.211919	 1126.679183	 1219.419711	 1306.093553	 1387.277140
   -1.682983	   -1.686454	   -1.689697	   -1.692734	   -1.695582	 1016.642470	 1115.185248	 1207.235870	 1293.415445	 1374.268305
   -1.725261	   -1.732513	   -1.739307	   -1.745684	   -1.751681	 1039.001499	 1141.444632	 1237.401768	 1327.469980	 1412.175235
   -1.730744	   -1.741511	   -1.751636	   -1.761175	   -1.770179	 1045.550804	 1149.721962	 1247.689276	 1339.990921	 1427.104571
   -1.654086	   -1.663172	   -1.671704	   -1.679733	   -1.687300	 1012.324401	 1112.404978	 1206.392434	 1294.826773	 1378.186022
   -1.577670	   -1.584097	   -1.590119	   -1.595772	   -1.601091	  976.642467	 1072.399105	 1162.119879	 1246.358044	 1325.601242
   -1.583606	   -1.587807	   -1.591737	   -1.595422	   -1.598883	  978.565222	 1073.362858	 1162.043444	 1245.180550	 1323.278212
   -1.659687	   -1.668502	   -1.676790	   -1.684596	   -1.691961	 1014.734350	 1114.911350	 1209.092498	 1297.800453	 1381.498844
   -1.661970	   -1.676596	   -1.690422	   -1.703512	   -1.715924	 1017.639985	 1120.543918	 1217.822743	 1309.925423	 1397.254380
   -1.553364	   -1.561927	   -1.569957	   -1.577504	   -1.584609	  967.150439	 1062.419622	 1151.768624	 1235.732650	 1314.784279
   -1.460824	   -1.472132	   -1.482773	   -1.492805	   -1.502279	  922.815925	 1015.467765	 1102.657387	 1184.853992	 1262.474536
   -1.507047	   -1.514659	   -1.521791	   -1.528485	   -1.534782	  941.115796	 1034.135767	 1121.279501	 1203.086768	 1280.033193
   -1.634089	   -1.644776	   -1.654843	   -1.664343	   -1.673322	  999.230944	 1099.025280	 1193.033001	 1281.743235	 1365.591493
   -1.650050	   -1.666026	   -1.681130	   -1.695432	   -1.708995	 1007.327390	 1110.370684	 1207.792361	 1300.040244	 1387.515820
   -1.525145	   -1.535745	   -1.545700	   -1.555069	   -1.563900	  949.422130	 1044.448712	 1133.700356	 1217.687968	 1296.863913
   -1.422895	   -1.437020	   -1.450358	   -1.462974	   -1.474924	  902.096566	  994.414332	 1081.590414	 1164.042727	 1242.145089
   -1.435874	   -1.445584	   -1.454701	   -1.463277	   -1.471360	  906.596344	  997.452295	 1082.759826	 1163.012128	 1238.645621
   -1.565448	   -1.573589	   -1.581223	   -1.588394	   -1.595145	  964.683525	 1060.296344	 1149.943402	 1234.166159	 1313.442471
   -1.663343	   -1.681848	   -1.699424	   -1.716137	   -1.732050	 1010.995097	 1115.599613	 1214.944750	 1309.417433	 1399.367543
   -1.617876	   -1.632365	   -1.646024	   -1.658921	   -1.671120	  990.064145	 1091.072526	 1186.290148	 1276.201108	 1361.237003
   -1.497839	   -1.512384	   -1.526110	   -1.539083	   -1.551365	  933.625615	 1029.427233	 1119.830623	 1205.279550	 1286.170439
   -1.465004	   -1.478722	   -1.491630	   -1.503800	   -1.515291	  914.024803	 1008.407288	 1097.223006	 1180.950348	 1260.014417
   -1.580151	   -1.596966	   -1.612838	   -1.627846	   -1.642057	  962.642613	 1063.602393	 1158.905070	 1249.013163	 1334.340112
   -1.716699	   -1.736980	   -1.756250	   -1.774583	   -1.792046	 1025.824407	 1134.526431	 1237.811018	 1336.073312	 1429.670935
   -1.664727	   -1.683767	   -1.701787	   -1.718867	   -1.735079	 1002.835683	 1109.178741	 1209.825991	 1305.223104	 1395.770440
   -1.496611	   -1.511039	   -1.524699	   -1.537653	   -1.549952	  925.692860	 1022.161211	 1113.502866	 1200.115925	 1282.358311
   -1.418659	   -1.434863	   -1.450207	   -1.464758	   -1.478576	  887.284995	  981.619699	 1070.951457	 1155.667978	 1236.117917
   -1.503275	   -1.515760	   -1.527548	   -1.538697	   -1.549257	  922.342323	 1018.526521	 1109.346091	 1195.237673	 1276.591769
   -1.667254	   -1.684649	   -1.701184	   -1.716920	   -1.731915	  996.887342	 1102.842172	 1203.554472	 1299.403938	 1390.734468
   -1.688796	   -1.710147	   -1.730522	   -1.749986	   -1.768600	 1007.185057	 1116.174512	 1220.181909	 1319.541220	 1414.557219
   -1.574047	   -1.594236	   -1.613475	   -1.631828	   -1.649356	  953.669436	 1057.133398	 1155.725164	 1249.780970	 1339.606808
   -1.501806	   -1.523057	   -1.543305	   -1.562621	   -1.581066	  917.777028	 1018.746752	 1114.954283	 1206.728770	 1294.369711
   -1.566462	   -1.585454	   -1.603522	   -1.620733	   -1.637146	  944.764826	 1047.210588	 1144.675375	 1237.513835	 1326.047724
   -1.697345	   -1.720787	   -1.743194	   -1.764634	   -1.785167	 1004.832370	 1115.100013	 1220.501994	 1321.353413	 1417.942740
   -1.709035	   -1.729751	   -1.749493	   -1.768328	   -1.786317	 1011.227394	 1120.705337	 1225.034335	 1324.569288	 1419.633213
   -1.590859	   -1.602344	   -1.613204	   -1.623491	   -1.633249	  956.825002	 1056.338819	 1150.450717	 1239.588922	 1324.137563
   -1.499591	   -1.510080	   -1.519980	   -1.529339	   -1.538201	  912.006628	 1007.260062	 1097.168490	 1182.169524	 1262.654273
   -1.556677	   -1.565211	   -1.573261	   -1.580867	   -1.588064	  934.981874	 1031.613228	 1122.765709	 1208.892438	 1290.397912
   -1.688965	   -1.703229	   -1.716768	   -1.729637	   -1.741883	  994.159966	 1099.499627	 1199.488987	 1294.525571	 1384.968474
   -1.697544	   -1.713538	   -1.728745	   -1.743221	   -1.757018	  998.506428	 1105.079813	 1206.405263	 1302.861095	 1394.790116
   -1.589525	   -1.606695	   -1.623015	   -1.638548	   -1.653348	  949.075164	 1051.451588	 1148.764379	 1241.380147	 1329.630948
   -1.568152	   -1.583982	   -1.599020	   -1.613325	   -1.626950	  936.894454	 1037.580874	 1133.233810	 1224.221506	 1310.877141
   -1.726097	   -1.744193	   -1.761385	   -1.777738	   -1.793312	 1007.075781	 1115.756845	 1219.003208	 1317.212578	 1410.744781
   -1.911378	   -1.938483	   -1.964467	   -1.989398	   -2.013338	 1088.751280	 1210.022547	 1326.276667	 1437.818679	 1544.929386
   -1.989767	   -1.999399	   -2.008505	   -2.017127	   -2.025302	 1117.390705	 1234.431136	 1345.075066	 1449.832921	 1549.162224
   -1.970017	   -1.968560	   -1.967191	   -1.965902	   -1.964687	 1099.632841	 1210.863530	 1315.351932	 1413.693044	 1506.413852
   -1.993520	   -1.995019	   -1.996432	   -1.997765	   -1.999025	 1101.294012	 1215.631288	 1323.350543	 1425.010206	 1521.107601
   -2.181229	   -2.184114	   -2.186833	   -2.189398	   -2.191824	 1175.843671	 1299.808699	 1416.607301	 1526.843455	 1631.055126
   -2.501814	   -2.512196	   -2.522006	   -2.531291	   -2.540091	 1306.752201	 1449.652580	 1584.687018	 1712.487587	 1833.620408
   -2.868811	   -2.879592	   -2.889780	   -2.899423	   -2.908564	 1455.598571	 1615.879270	 1767.349930	 1910.717505	 2046.615281
   -3.231389	   -3.224138	   -3.217356	   -3.210999	   -3.205028	 1597.815457	 1767.422529	 1926.066231	 2074.776288	 2214.457383
   -3.651950	   -3.616781	   -3.584260	   -3.554099	   -3.526049	 1758.956071	 1936.587785	 2100.847199	 2253.189557	 2394.866340
   -4.242743	   -4.165074	   -4.094293	   -4.029525	   -3.970033	 1987.474124	 2174.942800	 2345.782909	 2502.112938	 2645.706173
   -5.201253	   -5.031519	   -4.881024	   -4.746674	   -4.626002	 2359.269039	 2553.523682	 2725.758785	 2879.517536	 3017.621635
   -6.398625	   -6.080622	   -5.808015	   -5.571731	   -5.364964	 2819.374948	 3008.038423	 3169.769357	 3309.950641	 3432.620292
   -8.204432	   -7.548831	   -7.018732	   -6.581245	   -6.214050	 3502.220914	 3635.045126	 3742.442784	 3831.077219	 3905.470533
  -11.031555	   -9.604391	   -8.555629	   -7.752389	   -7.117488	 4559.367190	 4503.036409	 4461.641305	 4429.937068	 4404.877250
  -16.622577	  -13.379886	  -11.289265	   -9.829361	   -8.752165	 6651.913911	 6101.989816	 5747.443676	 5499.860325	 5317.179960
  -45.320872	  -26.988263	  -19.501122	  -15.432225	  -12.875734	17446.559626	11904.051730	 9640.460312	 8410.308353	 7637.402906
   53.305147	  344.489330	  -82.365187	  -37.831828	  -24.982922	-19667.986544	-146589.545136	39468.090652	20056.859851	14456.270057
   18.369427	   26.227033	   44.133499	  125.551577	 -166.405063	-6510.410701	-10786.581471	-20531.420655	-64839.776793	94045.315063
   11.891937	   14.800475	   19.271474	   27.026322	   43.782609	-4059.098071	-5897.667038	-8723.911080	-13625.967985	-24218.087391
    9.127249	   10.855201	   13.230781	   16.702049	   22.254266	-3008.413895	-4203.626786	-5846.800710	-8247.854933	-12088.288276
    7.580021	    8.790334	   10.356667	   12.463200	   15.447619	-2418.452513	-3315.430346	-4476.260125	-6037.438184	-8249.229143
    6.422813	    7.327296	    8.452842	    9.891778	   11.796161	-1980.046670	-2688.732994	-3570.628051	-4698.072623	-6190.207048
    5.522376	    6.214462	    7.047428	    8.069164	    9.352041	-1637.646428	-2211.743737	-2902.703403	-3750.251159	-4814.419337
    4.748707	    5.287920	    5.922192	    6.679088	    7.597975	-1345.985884	-1816.350920	-2369.636857	-3029.890569	-3831.451965
    4.066825	    4.454960	    4.894040	    5.394803	    5.971226	-1092.002165	-1466.031252	-1889.155162	-2371.719082	-2927.194335
    3.481615	    3.770547	    4.088879	    4.441336	    4.833718	 -876.771342	-1180.357875	-1514.834226	-1885.167645	-2297.450716
    3.006960	    3.223493	    3.456097	    3.706631	    3.977251	 -700.986969	 -951.703398	-1221.028616	-1511.114256	-1824.456959
    2.652975	    2.824031	    3.004249	    3.194386	    3.395284	 -566.933005	 -782.356049	-1009.318094	-1248.771771	-1501.777545
    2.376205	    2.514530	    2.658261	    2.807722	    2.963262	 -460.282250	 -648.967920	 -845.028370	-1048.904580	-1261.073409
    2.120977	    2.232929	    2.347885	    2.465967	    2.587305	 -362.031495	 -527.914341	 -698.248187	 -873.214614	-1053.005217
    1.878354	    1.968637	    2.060260	    2.153256	    2.247654	 -269.420268	 -415.515989	 -563.782383	 -714.268189	 -867.023616
    1.656571	    1.729946	    1.803753	    1.877997	    1.952681	 -184.501704	 -314.092477	 -444.447204	 -575.572661	 -707.475704
    1.447745	    1.512015	    1.576575	    1.641425	    1.706567	 -104.699739	 -221.521686	 -338.867968	 -456.742122	 -575.147719
    1.281328	    1.335257	    1.389089	    1.442822	    1.496459	  -40.091938	 -146.057796	 -251.831343	 -357.413103	 -462.803595
    1.133643	    1.181826	    1.229820	    1.277625	    1.325243	   17.119249	  -80.746772	 -178.228004	 -275.326713	 -372.045146
    1.024643	    1.065114	    1.105195	    1.144892	    1.184211	   60.167795	  -30.356770	 -120.009296	 -208.802325	 -296.748158
    0.916265	    0.954618	    0.992566	    1.030117	    1.067277	  102.243524	   16.465337	  -68.409684	 -152.395729	 -235.506692
    0.813274	    0.848993	    0.884289	    0.919170	    0.953642	  140.927865	   59.826208	  -20.314660	  -99.511712	 -177.781523
    0.720962	    0.754670	    0.787988	    0.820924	    0.853484	  175.168014	   98.035629	   21.794219	  -53.571566	 -128.076723
    0.627559	    0.659513	    0.691067	    0.722227	    0.753002	  208.712379	  135.144390	   62.498248	   -9.243267	  -80.096948
    0.547663	    0.578111	    0.608195	    0.637922	    0.667299	  238.001470	  167.475469	   97.791745	   28.935297	  -39.108518
    0.482793	    0.515681	    0.548293	    0.580632	    0.612703	  263.392099	  193.914684	  125.020398	   56.701930	  -11.047908
    0.434450	    0.465579	    0.496485	    0.527171	    0.557638	  283.357504	  215.934249	  148.993369	   82.529707	   16.538178
    0.395542	    0.426266	    0.456793	    0.487125	    0.517264	  300.827373	  234.590615	  168.778276	  103.386290	   38.410642
    0.363130	    0.392795	    0.422312	    0.451680	    0.480903	  316.076067	  251.135139	  186.519465	  122.226606	   58.254150
    0.330454	    0.359478	    0.388339	    0.417039	    0.445579	  330.949590	  266.930434	  203.270721	  139.967433	   77.017583
    0.300028	    0.326561	    0.352922	    0.379112	    0.405134	  344.468157	  281.861535	  219.660797	  157.862010	   96.461288
    0.264288	    0.289316	    0.314182	    0.338886	    0.363430	  358.706358	  297.223320	  236.140324	  175.453479	  115.158945
    0.231443	    0.254496	    0.277366	    0.300056	    0.322569	  371.367146	  311.001323	  251.112556	  191.695211	  132.743746
    0.194790	    0.216822	    0.238668	    0.260332	    0.281816	  384.484633	  324.984064	  265.983206	  207.475789	  149.455650
    0.162415	    0.183328	    0.204090	    0.224705	    0.245173	  395.996894	  337.378948	  279.180593	  221.397339	  164.024761
    0.130153	    0.151040	    0.171818	    0.192488	    0.213050	  407.264798	  349.169076	  291.377021	  233.886259	  176.694439
    0.105406	    0.125192	    0.144878	    0.164464	    0.183952	  416.262315	  358.757113	  301.543314	  244.618710	  187.981113
    0.081977	    0.102803	    0.123525	    0.144142	    0.164657	  424.866801	  367.338217	  310.098653	  253.145936	  196.477915
    0.066450	    0.085653	    0.104729	    0.123678	    0.142501	  431.725980	  374.657010	  317.968775	  261.657479	  205.719374
    0.048120	    0.067611	    0.086973	    0.106208	    0.125317	  439.310196	  382.277724	  325.620685	  269.335383	  213.418173
    0.032762	    0.051772	    0.070686	    0.089504	    0.108228	  446.325622	  389.634300	  333.229968	  277.110454	  221.273603
    0.018813	    0.038201	    0.057494	    0.076694	    0.095799	  453.302672	  396.620788	  340.216699	  284.088369	  228.233781
    0.006923	    0.025837	    0.044692	    0.063490	    0.082232	  459.870030	  403.583874	  347.469121	  291.524989	  235.750702
   -0.007773	    0.011713	    0.031187	    0.050650	    0.070101	  467.530269	  411.499211	  355.501307	  299.536528	  243.604846
   -0.023569	   -0.004137	    0.015382	    0.034988	    0.054682	  475.660047	  420.295431	  364.684124	  308.824475	  252.714816
   -0.035589	   -0.015591	    0.004560	    0.024867	    0.045332	  482.690746	  427.723466	  372.332274	  316.512246	  260.258384
   -0.046302	   -0.025759	   -0.005038	    0.015864	    0.036949	  489.193953	  434.322760	  378.973938	  323.141221	  266.818237
   -0.059606	   -0.038745	   -0.017663	    0.003644	    0.025181	  495.801119	  441.205357	  386.029185	  330.263298	  273.898192
   -0.076075	   -0.054775	   -0.033225	   -0.011421	    0.010644	  502.625575	  448.168829	  393.071661	  337.322706	  280.910330
   -0.090915	   -0.069032	   -0.046885	   -0.024469	   -0.001778	  508.505073	  454.043341	  398.922896	  343.131713	  286.657477
   -0.108999	   -0.086470	   -0.063679	   -0.040620	   -0.017290	  514.475432	  459.877244	  404.642892	  348.761192	  292.220697
   -0.124593	   -0.102081	   -0.079290	   -0.056217	   -0.032857	  519.490821	  464.983181	  409.803878	  353.940421	  297.380006
   -0.134426	   -0.111652	   -0.088600	   -0.065267	   -0.041646	  522.989822	  468.363729	  413.073514	  357.106990	  300.451673
   -0.139049	   -0.115836	   -0.092362	   -0.068622	   -0.044614	  525.104696	  470.305518	  414.890602	  358.849511	  302.171573
   -0.143438	   -0.119863	   -0.096033	   -0.071943	   -0.047590	  526.844804	  472.028055	  416.617790	  360.604316	  303.977730
   -0.145754	   -0.121933	   -0.097842	   -0.073474	   -0.048826	  527.816158	  473.120450	  417.802381	  361.851268	  305.256182
   -0.145500	   -0.121421	   -0.097082	   -0.072479	   -0.047607	  528.122480	  473.390068	  418.066978	  362.143595	  305.610096
   -0.144989	   -0.121031	   -0.096829	   -0.072379	   -0.047677	  528.105522	  473.375301	  418.087717	  362.234213	  305.806054
   -0.146960	   -0.123173	   -0.099156	   -0.074906	   -0.050420	  528.453395	  473.755879	  418.529548	  362.766694	  306.459461
   -0.150546	   -0.126637	   -0.102515	   -0.078177	   -0.053620	  529.163734	  474.458199	  419.264798	  363.576974	  307.388054
   -0.154835	   -0.130983	   -0.106912	   -0.082620	   -0.058102	  530.133893	  475.493612	  420.351697	  364.701210	  308.535082
   -0.159626	   -0.135975	   -0.112124	   -0.088070	   -0.063812	  531.446325	  476.838054	  421.768175	  366.230809	  310.219979
   -0.164051	   -0.140391	   -0.116526	   -0.092451	   -0.068164	  533.086824	  478.545076	  423.527451	  368.027692	  312.039434
   -0.166407	   -0.143046	   -0.119479	   -0.095704	   -0.071718	  534.940311	  480.500512	  425.581805	  370.177841	  314.282161
   -0.165435	   -0.142369	   -0.119094	   -0.095605	   -0.071902	  536.723659	  482.390616	  427.564075	  372.237281	  316.403357
   -0.161654	   -0.138736	   -0.115615	   -0.092288	   -0.068752	  538.524970	  484.254787	  429.503406	  374.264399	  318.531220
   -0.154734	   -0.132298	   -0.109648	   -0.086780	   -0.063692	  540.154546	  486.053895	  431.436651	  376.295377	  320.622497
   -0.145449	   -0.123335	   -0.101017	   -0.078491	   -0.055755	  541.615111	  487.554086	  432.993109	  377.925213	  322.343299
   -0.140488	   -0.119092	   -0.097481	   -0.075650	   -0.053597	  543.032396	  489.075900	  434.575223	  379.522091	  323.908060
   -0.146804	   -0.125151	   -0.103286	   -0.081207	   -0.058911	  544.730289	  490.670208	  436.083090	  380.961190	  325.296609
   -0.153978	   -0.132081	   -0.109968	   -0.087638	   -0.065085	  546.440415	  492.305116	  437.638026	  382.431270	  326.676816
   -0.162278	   -0.140125	   -0.117760	   -0.095180	   -0.072381	  548.364676	  494.149954	  439.416124	  384.155694	  328.361029
   -0.172335	   -0.149907	   -0.127270	   -0.104422	   -0.081361	  550.506250	  496.158920	  441.307883	  385.946102	  330.066413
   -0.179234	   -0.156484	   -0.133547	   -0.110421	   -0.087104	  551.564862	  496.971378	  441.929652	  386.434140	  330.479208
   -0.180702	   -0.157205	   -0.133572	   -0.109803	   -0.085895	  551.645500	  496.635696	  441.308770	  385.661971	  329.692518
   -0.184844	   -0.160760	   -0.136569	   -0.112270	   -0.087861	  552.084671	  496.814679	  441.297968	  385.532881	  329.517749
   -0.185492	   -0.161299	   -0.137015	   -0.112640	   -0.088173	  552.056232	  496.689991	  441.116141	  385.333510	  329.340920
   -0.185665	   -0.161421	   -0.137112	   -0.112738	   -0.088299	  551.994762	  496.499455	  440.855975	  385.063726	  329.122113
   -0.186191	   -0.161856	   -0.137484	   -0.113077	   -0.088633	  551.908205	  496.251278	  440.511468	  384.688592	  328.782462
   -0.186371	   -0.162009	   -0.137645	   -0.113279	   -0.088912	  551.677164	  495.849987	  440.018564	  384.182893	  328.342975
   -0.186221	   -0.161974	   -0.137752	   -0.113557	   -0.089386	  551.378151	  495.433552	  439.548319	  383.722358	  327.955574
   -0.185579	   -0.161245	   -0.136953	   -0.112703	   -0.088494	  551.131445	  495.096754	  439.158352	  383.315991	  327.569423
   -0.185388	   -0.161055	   -0.136783	   -0.112571	   -0.088420	  550.954387	  494.841917	  438.868802	  383.034525	  327.338571
   -0.184908	   -0.160732	   -0.136621	   -0.112574	   -0.088590	  550.805545	  494.694813	  438.733025	  382.919588	  327.253914
   -0.184673	   -0.160528	   -0.136449	   -0.112437	   -0.088490	  550.767004	  494.650618	  438.688113	  382.878857	  327.222220
   -0.184896	   -0.160662	   -0.136496	   -0.112398	   -0.088368	  550.804863	  494.665470	  438.684650	  382.861732	  327.196048
   -0.184718	   -0.160597	   -0.136538	   -0.112541	   -0.088606	  550.763427	  494.662178	  438.705962	  382.894219	  327.226389
   -0.184980	   -0.160786	   -0.136653	   -0.112581	   -0.088568	  550.863618	  494.767412	  438.812109	  382.997178	  327.322093
   -0.185058	   -0.160775	   -0.136548	   -0.112377	   -0.088260	  550.959017	  494.877698	  438.924808	  383.099907	  327.402555
   -0.185176	   -0.160974	   -0.136819	   -0.112711	   -0.088648	  551.057231	  495.017614	  439.085899	  383.261774	  327.544929
   -0.185360	   -0.161005	   -0.136700	   -0.112444	   -0.088239	  551.056456	  494.987099	  439.032970	  383.193714	  327.468978
   -0.185030	   -0.160760	   -0.136544	   -0.112383	   -0.088276	  550.962927	  494.881770	  438.927756	  383.100454	  327.399432
   -0.184835	   -0.160536	   -0.136291	   -0.112102	   -0.087967	  550.909324	  494.827139	  438.871582	  383.042226	  327.338643
   -0.185349	   -0.160905	   -0.136513	   -0.112173	   -0.087885	  551.013918	  494.927920	  438.961072	  383.112997	  327.383317
   -0.185092	   -0.160726	   -0.136402	   -0.112120	   -0.087881	  551.046618	  495.006543	  439.064301	  383.219636	  327.472294
   -0.185276	   -0.160847	   -0.136459	   -0.112111	   -0.087805	  551.087690	  495.047480	  439.100965	  383.247912	  327.488085
   -0.185080	   -0.160656	   -0.136278	   -0.111948	   -0.087665	  550.997785	  494.929892	  438.970722	  383.119958	  327.377287
   -0.185019	   -0.160566	   -0.136167	   -0.111822	   -0.087530	  550.912244	  494.811212	  438.833694	  382.979283	  327.247573
   -0.184935	   -0.160441	   -0.136009	   -0.111639	   -0.087330	  550.885339	  494.755156	  438.766470	  382.918748	  327.211458
   -0.185046	   -0.160568	   -0.136147	   -0.111783	   -0.087475	  550.950185	  494.843139	  438.866924	  383.021082	  327.305158
   -0.185080	   -0.160655	   -0.136275	   -0.111940	   -0.087649	  551.004084	  494.950226	  438.999401	  383.151325	  327.405716
   -0.185276	   -0.160878	   -0.136520	   -0.112203	   -0.087926	  551.081396	  495.045292	  439.102365	  383.252383	  327.495114
   -0.185219	   -0.160770	   -0.136368	   -0.112015	   -0.087710	  551.072420	  494.995582	  439.029510	  383.173877	  327.428355
   -0.185035	   -0.160573	   -0.136164	   -0.111810	   -0.087509	  550.977652	  494.879007	  438.904126	  383.052600	  327.324022
   -0.184935	   -0.160502	   -0.136125	   -0.111805	   -0.087541	  550.915339	  494.812239	  438.838913	  382.994912	  327.279787
   -0.185265	   -0.160703	   -0.136197	   -0.111748	   -0.087353	  550.978859	  494.859652	  438.868418	  383.004718	  327.268119
   -0.185080	   -0.160656	   -0.136282	   -0.111957	   -0.087681	  550.987785	  494.913115	  438.952113	  383.104434	  327.369735
   -0.185030	   -0.160649	   -0.136311	   -0.112017	   -0.087765	  551.026628	  494.975783	  439.024555	  383.172677	  327.419885
   -0.184969	   -0.160619	   -0.136310	   -0.112044	   -0.087821	  551.002936	  494.964568	  439.023507	  383.179499	  327.432292
   -0.185131	   -0.160677	   -0.136271	   -0.111914	   -0.087604	  550.998942	  494.925101	  438.961802	  383.108717	  327.365523
   -0.185119	   -0.160622	   -0.136178	   -0.111787	   -0.087448	  550.956408	  494.861236	  438.887268	  383.034113	  327.301378
   -0.185192	   -0.160693	   -0.136248	   -0.111855	   -0.087514	  550.962632	  494.864349	  438.887265	  383.030988	  327.295128
   -0.185169	   -0.160673	   -0.136232	   -0.111844	   -0.087509	  550.993117	  494.895920	  438.922276	  383.071778	  327.344022
   -0.185042	   -0.160644	   -0.136293	   -0.111987	   -0.087726	  550.989161	  494.932594	  438.980874	  383.133709	  327.390804
   -0.185092	   -0.160649	   -0.136251	   -0.111897	   -0.087588	  551.020320	  494.957959	  438.997818	  383.139617	  327.383077
   -0.185080	   -0.160687	   -0.136340	   -0.112040	   -0.087786	  550.999636	  494.934224	  438.976742	  383.126879	  327.384323
   -0.184935	   -0.160515	   -0.136149	   -0.111836	   -0.087575	  550.950887	  494.864642	  438.900641	  383.058483	  327.337772
   -0.185058	   -0.160577	   -0.136150	   -0.111778	   -0.087459	  550.944569	  494.848232	  438.876231	  383.028154	  327.303590
   -0.184924	   -0.160491	   -0.136113	   -0.111789	   -0.087520	  550.948355	  494.852341	  438.881930	  383.036701	  327.316235
   -0.185192	   -0.160708	   -0.136277	   -0.111898	   -0.087570	  551.002632	  494.912426	  438.941617	  383.089823	  327.356665
   -0.185119	   -0.160652	   -0.136235	   -0.111867	   -0.087549	  550.998259	  494.923718	  438.963391	  383.116930	  327.383988
   -0.185231	   -0.160734	   -0.136288	   -0.111893	   -0.087549	  551.013103	  494.929267	  438.961710	  383.110070	  327.373988
   -0.185242	   -0.160775	   -0.136362	   -0.112000	   -0.087692	  551.005639	  494.916170	  438.947659	  383.099716	  327.371952
   -0.185108	   -0.160644	   -0.136234	   -0.111878	   -0.087575	  550.985725	  494.888076	  438.914475	  383.064510	  327.337772
   -0.185181	   -0.160730	   -0.136333	   -0.111988	   -0.087697	  550.990097	  494.898266	  438.928414	  383.080144	  327.353061
   -0.185119	   -0.160668	   -0.136267	   -0.111916	   -0.087615	  550.996408	  494.917367	  438.953290	  383.103823	  327.368614
   -0.185153	   -0.160712	   -0.136317	   -0.111968	   -0.087665	  551.000308	  494.935690	  438.977473	  383.125357	  327.379040
   -0.185165	   -0.160737	   -0.136354	   -0.112017	   -0.087726	  551.004695	  494.939498	  438.979126	  383.123284	  327.371682
   -0.185142	   -0.160688	   -0.136286	   -0.111935	   -0.087636	  551.001477	  494.915767	  438.948938	  383.100613	  327.370417
   -0.185119	   -0.160638	   -0.136210	   -0.111836	   -0.087514	  550.988259	  494.891239	  438.916978	  383.065075	  327.335128
   -0.185242	   -0.160761	   -0.136333	   -0.111958	   -0.087636	  551.003787	  494.907090	  438.932897	  383.080805	  327.350417
   -0.185253	   -0.160785	   -0.136369	   -0.112005	   -0.087692	  551.016323	  494.927520	  438.957588	  383.106150	  327.372829
   -0.185203	   -0.160748	   -0.136341	   -0.111981	   -0.087670	  551.015168	  494.938216	  438.971800	  383.115594	  327.369272
   -0.185192	   -0.160708	   -0.136272	   -0.111886	   -0.087549	  551.002632	  494.926827	  438.963678	  383.112844	  327.373988
   -0.185203	   -0.160734	   -0.136316	   -0.111950	   -0.087636	  551.005168	  494.918133	  438.950249	  383.101136	  327.370417
   -0.185069	   -0.160648	   -0.136278	   -0.111959	   -0.087692	  550.965252	  494.890943	  438.934496	  383.095541	  327.373706
   -0.184962	   -0.160517	   -0.136126	   -0.111788	   -0.087504	  550.955132	  494.867608	  438.903627	  383.062781	  327.344665
   -0.185131	   -0.160693	   -0.136308	   -0.111974	   -0.087692	  550.992645	  494.909144	  438.944781	  383.099176	  327.371952
   -0.185253	   -0.160723	   -0.136245	   -0.111818	   -0.087443	  551.016323	  494.924728	  438.951772	  383.097078	  327.360272
   -0.185181	   -0.160714	   -0.136297	   -0.111931	   -0.087615	  551.010097	  494.927254	  438.959629	  383.106867	  327.368614
   -0.185074	   -0.160599	   -0.136179	   -0.111814	   -0.087504	  551.001826	  494.904155	  438.932354	  383.085997	  327.364665
   -0.185203	   -0.160718	   -0.136283	   -0.111899	   -0.087565	  550.995168	  494.911794	  438.944453	  383.092786	  327.356434
   -0.185142	   -0.160687	   -0.136282	   -0.111926	   -0.087620	  550.993328	  494.911675	  438.943941	  383.089780	  327.348845
   -0.184958	   -0.160580	   -0.136251	   -0.111970	   -0.087736	  550.960403	  494.895793	  438.941723	  383.097867	  327.363900
   -0.185092	   -0.160619	   -0.136195	   -0.111818	   -0.087488	  551.000320	  494.927004	  438.962949	  383.107836	  327.361347
   -0.185142	   -0.160702	   -0.136310	   -0.111967	   -0.087670	  551.001477	  494.928933	  438.966413	  383.113592	  327.370148
   -0.185131	   -0.160678	   -0.136275	   -0.111923	   -0.087620	  550.998942	  494.918928	  438.954144	  383.104234	  327.368845
   -0.185181	   -0.160699	   -0.136272	   -0.111900	   -0.087581	  551.011949	  494.917565	  438.947534	  383.101442	  327.378880
   -0.185215	   -0.160728	   -0.136292	   -0.111908	   -0.087575	  551.019556	  494.932298	  438.963163	  383.111778	  327.377772
   -0.185376	   -0.160831	   -0.136337	   -0.111895	   -0.087504	  551.041849	  494.948253	  438.972771	  383.115032	  327.374665
   -0.185242	   -0.160745	   -0.136300	   -0.111909	   -0.087570	  551.035639	  494.941568	  438.968978	  383.117475	  327.386665
   -0.185092	   -0.160605	   -0.136167	   -0.111778	   -0.087438	  550.996618	  494.922305	  438.960140	  383.109789	  327.370916
   -0.185119	   -0.160638	   -0.136207	   -0.111827	   -0.087498	  550.996408	  494.915667	  438.952002	  383.105046	  327.374434
   -0.185181	   -0.160683	   -0.136238	   -0.111845	   -0.087504	  551.011949	  494.920200	  438.948368	  383.096067	  327.362915
   -0.185085	   -0.160640	   -0.136250	   -0.111915	   -0.087636	  551.014359	  494.920131	  438.953354	  383.113593	  327.400417
   -0.185069	   -0.160647	   -0.136276	   -0.111953	   -0.087681	  551.005252	  494.930706	  438.970610	  383.124612	  327.392365
   -0.185153	   -0.160743	   -0.136381	   -0.112068	   -0.087803	  551.004012	  494.941078	  438.989260	  383.148228	  327.417653
   -0.185080	   -0.160611	   -0.136189	   -0.111817	   -0.087493	  550.985935	  494.917762	  438.961493	  383.116793	  327.383328
   -0.185103	   -0.160691	   -0.136327	   -0.112011	   -0.087742	  550.992854	  494.928790	  438.974530	  383.129751	  327.394132
   -0.185058	   -0.160592	   -0.136179	   -0.111818	   -0.087509	  550.994569	  494.907101	  438.940071	  383.093089	  327.365772
   -0.185042	   -0.160615	   -0.136237	   -0.111907	   -0.087625	  550.979161	  494.909765	  438.951987	  383.105493	  327.369953
   -0.185192	   -0.160724	   -0.136307	   -0.111941	   -0.087625	  551.022632	  494.939236	  438.972901	  383.123262	  327.389953
   -0.185242	   -0.160745	   -0.136302	   -0.111912	   -0.087575	  551.033787	  494.938508	  438.966015	  383.115903	  327.387772
   -0.185024	   -0.160610	   -0.136251	   -0.111947	   -0.087697	  550.996970	  494.910516	  438.949954	  383.114861	  327.404815
   -0.185119	   -0.160668	   -0.136269	   -0.111922	   -0.087625	  551.008259	  494.923647	  438.957643	  383.109870	  327.379953
   -0.185074	   -0.160599	   -0.136180	   -0.111817	   -0.087509	  551.013676	  494.913097	  438.940210	  383.094579	  327.375772
   -0.185019	   -0.160565	   -0.136163	   -0.111813	   -0.087514	  550.995944	  494.910517	  438.943970	  383.095924	  327.366003
   -0.185169	   -0.160735	   -0.136353	   -0.112022	   -0.087742	  551.031266	  494.945097	  438.977247	  383.127342	  327.395009
   -0.185208	   -0.160747	   -0.136340	   -0.111989	   -0.087692	  551.031737	  494.935500	  438.965407	  383.121032	  327.401952
   -0.185085	   -0.160655	   -0.136280	   -0.111958	   -0.087692	  551.024359	  494.928898	  438.958769	  383.113552	  327.392829
   -0.185203	   -0.160718	   -0.136284	   -0.111901	   -0.087570	  551.025168	  494.934172	  438.961004	  383.105291	  327.366665
   -0.184996	   -0.160561	   -0.136179	   -0.111848	   -0.087570	  551.000879	  494.914587	  438.948712	  383.102866	  327.376665
   -0.185069	   -0.160616	   -0.136214	   -0.111862	   -0.087559	  550.995252	  494.920459	  438.960923	  383.116288	  327.386202
   -0.185304	   -0.160790	   -0.136329	   -0.111918	   -0.087559	  551.037476	  494.948261	  438.976890	  383.122994	  327.386202
   -0.185304	   -0.160775	   -0.136299	   -0.111875	   -0.087504	  551.037476	  494.942057	  438.966558	  383.110597	  327.373790
   -0.185192	   -0.160693	   -0.136243	   -0.111843	   -0.087493	  551.012632	  494.929358	  438.960281	  383.105053	  327.363328
   -0.185192	   -0.160723	   -0.136304	   -0.111935	   -0.087615	  551.012632	  494.933957	  438.968959	  383.117293	  327.378614
   -0.185142	   -0.160703	   -0.136314	   -0.111973	   -0.087681	  550.997774	  494.925293	  438.965458	  383.117927	  327.382365
   -0.185304	   -0.160806	   -0.136361	   -0.111967	   -0.087625	  551.027476	  494.942221	  438.976135	  383.128838	  327.399953
   -0.185238	   -0.160746	   -0.136301	   -0.111902	   -0.087549	  551.019071	  494.949852	  438.986276	  383.128045	  327.374864
   -0.185030	   -0.160605	   -0.136228	   -0.111900	   -0.087620	  550.996628	  494.927599	  438.970181	  383.124041	  327.388845
   -0.185265	   -0.160749	   -0.136285	   -0.111874	   -0.087514	  551.038859	  494.943418	  438.967906	  383.111936	  327.375128
   -0.185080	   -0.160657	   -0.136283	   -0.111957	   -0.087681	  550.995935	  494.923928	  438.964557	  383.117482	  327.382365
   -0.185165	   -0.160676	   -0.136236	   -0.111843	   -0.087498	  551.010992	  494.932126	  438.963293	  383.104169	  327.354434
   -0.185019	   -0.160627	   -0.136283	   -0.111988	   -0.087742	  550.994094	  494.923624	  438.965511	  383.119418	  327.385009
   -0.184996	   -0.160592	   -0.136239	   -0.111937	   -0.087686	  551.000879	  494.919977	  438.956876	  383.111206	  327.382597
   -0.185165	   -0.160707	   -0.136300	   -0.111943	   -0.087636	  551.016547	  494.934216	  438.967656	  383.116508	  327.380417
   -0.185069	   -0.160647	   -0.136274	   -0.111950	   -0.087676	  551.007102	  494.931287	  438.968602	  383.118705	  327.381257
   -0.185242	   -0.160775	   -0.136361	   -0.111998	   -0.087686	  551.023787	  494.937832	  438.970754	  383.122175	  327.391720
   -0.185119	   -0.160653	   -0.136240	   -0.111879	   -0.087570	  551.006408	  494.915837	  438.945949	  383.096354	  327.366665
   -0.185142	   -0.160718	   -0.136345	   -0.112021	   -0.087747	  551.007774	  494.927523	  438.961958	  383.110730	  327.373486
   -0.185080	   -0.160641	   -0.136250	   -0.111906	   -0.087609	  550.994084	  494.920420	  438.956505	  383.102015	  327.356630
   -0.185008	   -0.160601	   -0.136246	   -0.111941	   -0.087686	  550.991561	  494.911989	  438.948920	  383.101992	  327.370843
   -0.185080	   -0.160673	   -0.136314	   -0.112003	   -0.087742	  550.994084	  494.920903	  438.960076	  383.111264	  327.374132
   -0.185119	   -0.160684	   -0.136300	   -0.111967	   -0.087686	  550.996408	  494.912496	  438.947182	  383.100089	  327.370843
   -0.185208	   -0.160731	   -0.136309	   -0.111940	   -0.087625	  551.006180	  494.910407	  438.938949	  383.091391	  327.367324
   -0.185096	   -0.160679	   -0.136314	   -0.112000	   -0.087736	  550.979489	  494.898224	  438.935014	  383.089485	  327.361268
   -0.185181	   -0.160698	   -0.136265	   -0.111882	   -0.087549	  550.984542	  494.897263	  438.924393	  383.065584	  327.320486
   -0.185269	   -0.160761	   -0.136305	   -0.111901	   -0.087549	  550.984309	  494.888710	  438.912982	  383.056744	  327.319611
   -0.185231	   -0.160719	   -0.136260	   -0.111853	   -0.087498	  550.971989	  494.876405	  438.900706	  383.044510	  327.307434
   -0.185169	   -0.160689	   -0.136260	   -0.111881	   -0.087554	  550.946452	  494.859850	  438.890271	  383.037348	  327.300717
