  2.00000000	 -0.00000000	  0.00000000	  0.00026821	  0.00049962	 -0.00145744	  0.00092166	 -0.00000000	  0.00000000
  3.00000000	  0.00000000	  0.00000000	  0.00241964	 -0.00016211	  0.00041450	  0.00079091	  0.00000000	  0.00000000
  4.00000000	  0.00000233	  0.00005082	  0.00215015	 -0.00034476	  0.00110609	 -0.00244031	  0.00000000	  0.00003941
  5.00000000	 -0.00000232	 -0.00005080	  0.00089420	  0.00073757	 -0.00216572	  0.00165604	  0.00000004	 -0.00003938
  6.00000000	 -0.00000000	  0.00000000	  0.00152368	  0.00020785	 -0.00050486	 -0.00148141	 -0.00000000	  0.00000000
  7.00000000	  0.00000000	  0.00000000	  0.00277779	 -0.00000557	 -0.00010513	  0.00225967	 -0.00000000	 -0.00000000
  8.00000000	 -0.00000000	  0.00000000	  0.00036100	  0.00005825	 -0.00022243	  0.00103755	  0.00000000	  0.00000000
  9.00000000	  0.00000235	  0.00005086	  0.00000083	 -0.00013864	  0.00041955	 -0.00049359	 -0.00000014	  0.00003938
 10.00000000	 -0.00000232	 -0.00005085	  0.00421444	 -0.00120584	  0.00368213	 -0.00492977	 -0.00000002	 -0.00003943
 11.00000000	  0.00000000	 -0.00000000	  0.00304082	  0.00095343	 -0.00288116	  0.00379020	  0.00000000	 -0.00000000
 12.00000000	 -0.00000233	 -0.00005077	  0.00089358	 -0.00026206	  0.00068218	  0.00104016	  0.00000012	 -0.00003935
 13.00000000	  0.00000234	  0.00005076	  0.00026572	  0.00063376	 -0.00171367	 -0.00132231	 -0.00000011	  0.00003933
 14.00000000	  0.00000000	  0.00000000	  0.00062759	 -0.00057284	  0.00160138	  0.00031358	 -0.00000000	  0.00000000
 15.00000000	 -0.00000000	 -0.00000000	  0.00035843	 -0.00056200	  0.00159847	 -0.00024807	  0.00000000	 -0.00000000
 16.00000000	 -0.00000000	 -0.00000000	  0.00276160	  0.00118555	 -0.00344642	  0.00202466	 -0.00000000	  0.00000000
 17.00000000	  0.00000000	  0.00000000	  0.00214341	 -0.00144506	  0.00417905	 -0.00167556	 -0.00000000	  0.00000000
 18.00000000	 -0.00002783	  0.00000235	  0.00058065	  0.00064237	 -0.00177763	 -0.00050853	 -0.00003939	  0.00000369
 19.00000000	  0.00002780	 -0.00000237	  0.00210584	 -0.00037510	  0.00116057	 -0.00186698	  0.00003935	 -0.00000370
 20.00000000	 -0.00000000	  0.00000000	  0.00331115	  0.00022368	 -0.00078083	  0.00283128	  0.00000000	  0.00000000
 21.00000000	 -0.00002780	  0.00000238	  0.00058274	  0.00011771	 -0.00036412	  0.00058195	 -0.00003939	  0.00000376
 22.00000000	  0.00002780	 -0.00000240	  0.00004517	  0.00017809	 -0.00049924	 -0.00004515	  0.00003940	 -0.00000376
 23.00000000	  0.00000000	 -0.00000000	  0.00276747	  0.00028908	 -0.00090032	  0.00154391	  0.00000000	  0.00000000
 24.00000000	 -0.00000000	  0.00000000	  0.00456184	 -0.00084441	  0.00261764	 -0.00409671	 -0.00000000	 -0.00000000
 25.00000000	 -0.00000000	  0.00000000	  0.00187760	  0.00029145	 -0.00071770	 -0.00184680	  0.00000000	  0.00000000
 26.00000000	  0.00000000	 -0.00000000	  0.00277379	  0.00046062	 -0.00139846	  0.00191226	 -0.00000000	 -0.00000000
 27.00000000	 -0.00000000	  0.00000000	  0.00089610	 -0.00030287	  0.00085476	 -0.00000900	 -0.00000000	  0.00000000
 28.00000000	 -0.00002780	  0.00000243	  0.00183461	 -0.00049261	  0.00126796	  0.00220011	 -0.00003936	  0.00000374
 29.00000000	  0.00002782	 -0.00000238	  0.00219110	  0.00028486	 -0.00063315	 -0.00300503	  0.00003937	 -0.00000370
 30.00000000	 -0.00000239	 -0.00005077	  0.00062792	  0.00014356	 -0.00042244	  0.00033923	 -0.00000005	 -0.00003939
 31.00000000	  0.00000237	  0.00005078	  0.00035740	  0.00055843	 -0.00161270	  0.00073248	  0.00000004	  0.00003936
 32.00000000	  0.00002780	 -0.00000240	  0.00085186	 -0.00077533	  0.00212444	  0.00117608	  0.00003940	 -0.00000371
 33.00000000	  0.00000003	  0.00000001	  0.00152176	 -0.00014242	  0.00049486	 -0.00169233	  0.00000004	  0.00000000
 34.00000000	 -0.00005571	  0.00000476	  0.00125269	  0.00113128	 -0.00318974	  0.00013838	 -0.00007897	  0.00000725
 35.00000000	  0.00002778	 -0.00000232	  0.00246172	 -0.00007318	  0.00000181	  0.00378335	  0.00003947	 -0.00000365
 36.00000000	  0.00000236	  0.00005082	  0.00187903	 -0.00084554	  0.00251148	 -0.00217275	 -0.00000007	  0.00003939
 37.00000000	 -0.00000476	 -0.00010158	  0.00214758	 -0.00000939	  0.00019372	 -0.00303573	 -0.00000011	 -0.00007880
 38.00000000	  0.00000237	  0.00005080	  0.00000092	 -0.00006698	  0.00014965	  0.00072354	  0.00000010	  0.00003942
 39.00000000	  0.00002780	 -0.00000238	  0.00549572	  0.00082446	 -0.00258519	  0.00500523	  0.00003942	 -0.00000363
 40.00000000	 -0.00002775	  0.00000222	  0.00272949	 -0.00048697	  0.00145346	 -0.00136968	 -0.00003937	  0.00000368
 41.00000000	 -0.00000000	 -0.00000000	  0.00062427	  0.00003983	 -0.00006750	 -0.00080955	 -0.00000000	  0.00000000
 42.00000000	  0.00000000	  0.00000000	  0.00035679	 -0.00039979	  0.00107101	  0.00100595	 -0.00000000	 -0.00000000
 43.00000000	  0.00000000	 -0.00000000	  0.00089239	 -0.00047331	  0.00142017	 -0.00156999	  0.00000000	  0.00000000
 44.00000000	 -0.00000000	  0.00000000	  0.00151835	  0.00025428	 -0.00069785	 -0.00029361	 -0.00000000	 -0.00000000
 45.00000000	  0.00000000	  0.00000000	  0.00062561	  0.00085661	 -0.00238349	 -0.00045437	 -0.00000000	  0.00000000
 46.00000000	  0.00002776	 -0.00000240	  0.00031305	 -0.00040278	  0.00113499	  0.00002044	  0.00003934	 -0.00000372
 47.00000000	  0.00000004	  0.00000004	  0.00152033	  0.00083971	 -0.00240314	  0.00069494	  0.00000005	  0.00000003
 48.00000000	 -0.00002777	  0.00000233	  0.00031200	 -0.00131250	  0.00362320	  0.00154675	 -0.00003937	  0.00000371
 49.00000000	  0.00002781	 -0.00000234	  0.00031175	  0.00079896	 -0.00219558	 -0.00091242	  0.00003939	 -0.00000370
 50.00000000	 -0.00002777	  0.00000235	  0.00004238	 -0.00010004	  0.00025953	  0.00040477	 -0.00003939	  0.00000372
 51.00000000	  0.00002778	 -0.00000233	  0.00004237	  0.00010898	 -0.00025893	 -0.00086863	  0.00003939	 -0.00000367
 52.00000000	 -0.00002778	  0.00000233	  0.00245922	  0.00053296	 -0.00164094	  0.00251346	 -0.00003945	  0.00000367
 53.00000000	 -0.00000000	 -0.00000000	  0.00152673	  0.00020457	 -0.00047387	 -0.00184882	 -0.00000000	 -0.00000000
 54.00000000	  0.00000000	  0.00000000	  0.00394355	 -0.00089646	  0.00275442	 -0.00391297	  0.00000000	  0.00000000
 55.00000000	  0.00002779	 -0.00000243	  0.00237235	 -0.00035058	  0.00082786	  0.00299155	  0.00003935	 -0.00000370
 56.00000000	 -0.00002780	  0.00000237	  0.00218722	  0.00085152	 -0.00247025	  0.00134254	 -0.00003942	  0.00000366
 57.00000000	 -0.00000000	  0.00000000	  0.00152025	 -0.00058365	  0.00174889	 -0.00181706	 -0.00000000	  0.00000000
 58.00000000	 -0.00002778	  0.00000237	  0.00058010	  0.00076026	 -0.00225818	  0.00210632	 -0.00003942	  0.00000372
 59.00000000	  0.00005779	  0.00004607	  0.00026684	 -0.00085696	  0.00244363	 -0.00038766	  0.00007853	  0.00003195
 60.00000000	 -0.00005787	 -0.00004606	  0.00267957	  0.00015653	 -0.00030782	 -0.00236104	 -0.00007865	 -0.00003193
 61.00000000	  0.00002780	 -0.00000240	  0.00362044	 -0.00011462	  0.00008810	  0.00430758	  0.00003940	 -0.00000373
 62.00000000	 -0.00002781	  0.00000228	  0.00424669	  0.00009518	  0.00004081	 -0.00538548	 -0.00003939	  0.00000367
 63.00000000	  0.00002781	 -0.00000240	  0.00361967	  0.00032475	 -0.00110666	  0.00358656	  0.00003944	 -0.00000367
 64.00000000	  0.00000239	  0.00005079	  0.00331058	 -0.00072025	  0.00218006	 -0.00261882	  0.00000007	  0.00003939
 65.00000000	 -0.00000243	 -0.00005075	  0.00482410	  0.00057670	 -0.00183041	  0.00388155	  0.00000012	 -0.00003937
 66.00000000	 -0.00000000	  0.00000000	  0.00061892	  0.00055938	 -0.00162721	  0.00088265	 -0.00000000	  0.00000000
 67.00000000	  0.00000000	 -0.00000000	  0.00393573	 -0.00061904	  0.00198976	 -0.00420884	 -0.00000000	 -0.00000000
 68.00000000	 -0.00000000	  0.00000000	  0.00000012	 -0.00040652	  0.00109334	  0.00095362	  0.00000000	  0.00000000
 69.00000000	  0.00000000	 -0.00000000	  0.00000000	  0.00055276	 -0.00151935	 -0.00065774	 -0.00000000	 -0.00000000
 70.00000000	 -0.00000000	 -0.00000000	  0.00062673	 -0.00023237	  0.00066662	 -0.00020464	 -0.00000000	  0.00000000
 71.00000000	  0.00002543	 -0.00005316	  0.00120709	 -0.00020868	  0.00049647	  0.00166068	  0.00003946	 -0.00004310
 72.00000000	 -0.00005557	  0.00000465	  0.00062515	  0.00041058	 -0.00112714	 -0.00052595	 -0.00007875	  0.00000730
 73.00000000	  0.00003007	  0.00004851	  0.00246055	  0.00006984	 -0.00010116	 -0.00170775	  0.00003933	  0.00003571
 74.00000000	 -0.00000000	  0.00000000	  0.00026908	 -0.00078871	  0.00224377	 -0.00035397	 -0.00000000	 -0.00000000
 75.00000000	  0.00000000	  0.00000000	  0.00000042	 -0.00019055	  0.00043085	  0.00188226	  0.00000000	 -0.00000000
 76.00000000	  0.00000000	 -0.00000000	  0.00089440	 -0.00010086	  0.00041497	 -0.00234215	  0.00000000	  0.00000000
 77.00000000	 -0.00000000	 -0.00000000	  0.00481705	  0.00100790	 -0.00306597	  0.00436840	 -0.00000000	 -0.00000000
 78.00000000	  0.00000000	  0.00000000	  0.00026621	  0.00039288	 -0.00107184	 -0.00064582	  0.00000000	  0.00000000
 79.00000000	  0.00000242	  0.00005076	  0.00493027	 -0.00150204	  0.00451558	 -0.00483077	  0.00000017	  0.00003937
 80.00000000	 -0.00000243	 -0.00005067	  0.00517408	  0.00059882	 -0.00196526	  0.00536449	  0.00000003	 -0.00003935
 81.00000000	  0.00000000	  0.00000000	  0.00151766	  0.00042899	 -0.00112509	 -0.00145724	 -0.00000000	 -0.00000000
 82.00000000	  0.00000000	 -0.00000000	  0.00178428	  0.00090473	 -0.00262728	  0.00138766	  0.00000000	 -0.00000000
 83.00000000	 -0.00000229	 -0.00005081	  0.00089367	 -0.00086800	  0.00252350	 -0.00121304	  0.00000019	 -0.00003935
 84.00000000	  0.00000228	  0.00005076	  0.00277249	 -0.00007906	  0.00007270	  0.00275404	 -0.00000030	  0.00003936
 85.00000000	  0.00000000	 -0.00000000	  0.00277290	 -0.00036796	  0.00111804	 -0.00140210	 -0.00000000	 -0.00000000
 86.00000000	  0.00000000	 -0.00000000	  0.00115834	 -0.00014380	  0.00050909	 -0.00184562	  0.00000000	  0.00000000
 87.00000000	 -0.00000000	  0.00000000	  0.00115727	  0.00008108	 -0.00035596	  0.00228965	 -0.00000000	  0.00000000
 88.00000000	  0.00000000	 -0.00000000	  0.00115917	 -0.00009752	  0.00040786	 -0.00235161	 -0.00000000	 -0.00000000
 89.00000000	 -0.00002783	  0.00000231	  0.00058250	  0.00034131	 -0.00095821	 -0.00003430	 -0.00003939	  0.00000365
 90.00000000	  0.00000004	  0.00000006	  0.00000219	  0.00040058	 -0.00119446	  0.00119009	  0.00000005	  0.00000004
 91.00000000	  0.00002775	 -0.00000236	  0.00245660	 -0.00014020	  0.00031328	  0.00148820	  0.00003937	 -0.00000370
 92.00000000	 -0.00002549	  0.00005291	  0.00031472	 -0.00056773	  0.00158522	  0.00028199	 -0.00003960	  0.00004299
 93.00000000	 -0.00000228	 -0.00005056	  0.00213904	  0.00041923	 -0.00111562	 -0.00110754	  0.00000021	 -0.00003923
 94.00000000	  0.00003011	  0.00004843	  0.00093772	  0.00077744	 -0.00210339	 -0.00157367	  0.00003916	  0.00003570
 95.00000000	 -0.00000224	 -0.00005086	  0.00367113	 -0.00115383	  0.00334788	 -0.00155697	  0.00000007	 -0.00003943
 96.00000000	  0.00000000	 -0.00000000	  0.00178744	  0.00060484	 -0.00173540	  0.00062085	  0.00000000	  0.00000000
 97.00000000	  0.00000000	 -0.00000000	  0.00026890	 -0.00060903	  0.00167213	  0.00081078	  0.00000000	 -0.00000000
 98.00000000	  0.00000000	  0.00000000	  0.00214128	 -0.00013359	  0.00025868	  0.00211204	 -0.00000000	  0.00000000
 99.00000000	  0.00002778	 -0.00000232	  0.00004524	  0.00053569	 -0.00148136	 -0.00044910	  0.00003934	 -0.00000371
100.00000000	 -0.00005549	  0.00000462	  0.00124779	  0.00009160	 -0.00031223	  0.00096588	 -0.00007868	  0.00000739
101.00000000	  0.00002773	 -0.00000227	  0.00397319	 -0.00035268	  0.00126820	 -0.00481926	  0.00003928	 -0.00000366
102.00000000	 -0.00000000	 -0.00000000	  0.00089327	 -0.00005156	  0.00010085	  0.00082331	 -0.00000000	 -0.00000000
103.00000000	  0.00000000	  0.00000000	  0.00089455	 -0.00029952	  0.00076919	  0.00135956	 -0.00000000	 -0.00000000
104.00000000	 -0.00000000	  0.00000000	  0.00116129	 -0.00003142	  0.00010226	 -0.00024963	 -0.00000000	  0.00000000
105.00000000	  0.00000000	  0.00000000	  0.00187605	 -0.00032792	  0.00110289	 -0.00328463	  0.00000000	  0.00000000
106.00000000	 -0.00000227	 -0.00005058	  0.00338716	  0.00035188	 -0.00130971	  0.00595541	  0.00000017	 -0.00003930
107.00000000	  0.00000240	  0.00005061	  0.00062305	  0.00050090	 -0.00136556	 -0.00075546	 -0.00000019	  0.00003928
108.00000000	  0.00000227	  0.00005070	  0.00151464	  0.00031477	 -0.00097052	  0.00149483	 -0.00000034	  0.00003933
109.00000000	 -0.00000465	 -0.00010148	  0.00366006	 -0.00004160	  0.00037753	 -0.00454662	  0.00000024	 -0.00007868
110.00000000	  0.00000233	  0.00005075	  0.00089476	  0.00027758	 -0.00086253	  0.00146352	 -0.00000008	  0.00003934
111.00000000	  0.00000000	 -0.00000000	  0.00241754	 -0.00126783	  0.00365425	 -0.00136220	 -0.00000000	  0.00000000
112.00000000	  0.00003031	  0.00004844	  0.00058012	  0.00112380	 -0.00308896	 -0.00121843	  0.00003945	  0.00003579
113.00000000	 -0.00003017	 -0.00004851	  0.00209889	 -0.00054655	  0.00134688	  0.00357649	 -0.00003934	 -0.00003575
114.00000000	  0.00000000	  0.00000000	  0.00053312	 -0.00037648	  0.00107397	 -0.00025173	 -0.00000000	 -0.00000000
115.00000000	 -0.00000241	 -0.00005063	  0.00062297	 -0.00051641	  0.00151306	 -0.00109388	  0.00000005	 -0.00003934
116.00000000	  0.00000239	  0.00005061	  0.00000120	  0.00134390	 -0.00374675	 -0.00041123	 -0.00000005	  0.00003929
117.00000000	 -0.00000000	  0.00000000	  0.00240904	  0.00060502	 -0.00181268	  0.00195423	 -0.00000000	  0.00000000
118.00000000	  0.00002769	 -0.00000225	  0.00120644	 -0.00036291	  0.00098759	  0.00069072	  0.00003933	 -0.00000361
119.00000000	 -0.00002537	  0.00005305	  0.00424256	 -0.00064981	  0.00203119	 -0.00346960	 -0.00003926	  0.00004306
120.00000000	 -0.00000238	 -0.00005079	  0.00152453	  0.00164101	 -0.00447624	 -0.00272723	  0.00000006	 -0.00003935
121.00000000	 -0.00000000	 -0.00000000	  0.00126670	  0.00141796	 -0.00386958	 -0.00302310	 -0.00000000	  0.00000000
122.00000000	  0.00000000	  0.00000000	  0.00333868	  0.00000313	 -0.00010127	  0.00205872	  0.00000000	  0.00000000
123.00000000	 -0.00000180	 -0.00005145	  0.00308121	  0.00050921	 -0.00136901	 -0.00168488	  0.00000024	 -0.00003965
124.00000000	  0.00002956	  0.00004941	  0.00401956	 -0.00135689	  0.00388694	 -0.00037239	  0.00003945	  0.00003640
125.00000000	 -0.00002775	  0.00000217	  0.00085769	 -0.00022094	  0.00066715	 -0.00081682	 -0.00003951	  0.00000331
126.00000000	  0.00000000	  0.00000000	  0.00243011	 -0.00112374	  0.00291791	  0.00533578	 -0.00000000	  0.00000000
127.00000000	  0.00000000	 -0.00000000	  0.00240757	 -0.00068283	  0.00171000	  0.00408323	  0.00000000	 -0.00000000
128.00000000	 -0.00002537	  0.00005293	  0.00423526	 -0.00033920	  0.00119439	 -0.00421721	 -0.00003920	  0.00004297
129.00000000	 -0.00000445	 -0.00010143	  0.00906866	  0.00137750	 -0.00419096	  0.00620655	  0.00000104	 -0.00007865
130.00000000	  0.00003161	  0.00009960	  0.00031867	  0.00048104	 -0.00136907	  0.00014782	  0.00003804	  0.00007519
131.00000000	 -0.00000000	  0.00000000	  0.00000163	 -0.00008190	  0.00019213	  0.00072801	 -0.00000000	  0.00000000
132.00000000	 -0.00000202	 -0.00005087	  0.00213673	 -0.00040443	  0.00123726	 -0.00162948	  0.00000056	 -0.00003937
133.00000000	  0.00000000	 -0.00000000	  0.00276952	 -0.00008602	  0.00043526	 -0.00347096	 -0.00000000	 -0.00000000
134.00000000	 -0.00002771	  0.00000218	  0.00156336	 -0.00057749	  0.00151562	  0.00219890	 -0.00003934	  0.00000352
135.00000000	  0.00002773	 -0.00000214	  0.00119749	  0.00111324	 -0.00314532	  0.00008425	  0.00003942	 -0.00000348
136.00000000	  0.00000000	  0.00000000	  0.00241285	  0.00021628	 -0.00071701	  0.00196433	 -0.00000000	  0.00000000
137.00000000	 -0.00000201	 -0.00005085	  0.00214293	 -0.00079428	  0.00239961	 -0.00271140	  0.00000050	 -0.00003934
138.00000000	  0.00000199	  0.00005081	  0.00000294	  0.00126391	 -0.00350787	 -0.00124952	 -0.00000050	  0.00003929
139.00000000	  0.00002762	 -0.00000191	  0.00245815	 -0.00020199	  0.00046596	  0.00213224	  0.00003940	 -0.00000322
140.00000000	  0.00000003	 -0.00000000	  0.00061758	 -0.00030430	  0.00089537	 -0.00060713	  0.00000005	 -0.00000000
141.00000000	 -0.00002768	  0.00000186	  0.00270810	  0.00022210	 -0.00078883	  0.00310569	 -0.00003946	  0.00000324
142.00000000	 -0.00000000	  0.00000000	  0.00153998	  0.00107858	 -0.00302837	 -0.00065522	  0.00000000	  0.00000000
143.00000000	 -0.00000154	 -0.00005117	  0.00398870	  0.00070946	 -0.00219828	  0.00350466	  0.00000130	 -0.00003944
144.00000000	  0.00000003	 -0.00000000	  0.00116326	  0.00005009	 -0.00022806	  0.00162395	  0.00000005	 -0.00000000
145.00000000	  0.00000150	  0.00005122	  0.00113190	 -0.00072047	  0.00207013	 -0.00017560	 -0.00000135	  0.00003947
146.00000000	 -0.00000000	  0.00000000	  0.00101074	  0.00119084	 -0.00325863	 -0.00258324	 -0.00000000	  0.00000000
147.00000000	 -0.00000138	 -0.00005132	  0.00554621	  0.00032682	 -0.00110315	  0.00338966	  0.00000167	 -0.00003948
148.00000000	  0.00000127	  0.00005134	  0.00274569	 -0.00010468	  0.00040445	 -0.00198782	 -0.00000156	  0.00003948
149.00000000	 -0.00002750	  0.00000140	  0.00119251	 -0.00046072	  0.00136903	 -0.00092999	 -0.00003956	  0.00000293
150.00000000	  0.00002752	 -0.00000143	  0.00487068	 -0.00014985	  0.00070442	 -0.00531357	  0.00003953	 -0.00000292
151.00000000	  0.00000000	 -0.00000000	  0.00459188	  0.00001692	  0.00019942	 -0.00500092	 -0.00000000	 -0.00000000
152.00000000	 -0.00000163	 -0.00005171	  0.00128146	  0.00035702	 -0.00105149	  0.00068242	  0.00000071	 -0.00003980
153.00000000	  0.00000160	  0.00005173	  0.00333328	  0.00014050	 -0.00060760	  0.00444890	 -0.00000085	  0.00003979
154.00000000	  0.00002762	 -0.00000160	  0.00736460	  0.00042093	 -0.00159152	  0.00810557	  0.00003979	 -0.00000298
155.00000000	 -0.00002759	  0.00000139	  0.00396838	 -0.00063802	  0.00189894	 -0.00123120	 -0.00003972	  0.00000309
156.00000000	  0.00000000	 -0.00000000	  0.00356234	 -0.00145336	  0.00395419	  0.00346175	  0.00000000	  0.00000000
157.00000000	  0.00000000	  0.00000000	  0.00742479	 -0.00019706	  0.00030907	  0.00438777	 -0.00000000	 -0.00000000
158.00000000	 -0.00002642	  0.00005383	  0.00712384	  0.00148552	 -0.00453831	  0.00532011	 -0.00004239	  0.00004365
159.00000000	  0.00002644	 -0.00005372	  0.00294102	  0.00041382	 -0.00144578	  0.00425442	  0.00004256	 -0.00004369
160.00000000	 -0.00002772	  0.00000154	  0.00773984	 -0.00089639	  0.00297230	 -0.00602026	 -0.00003996	  0.00000364
161.00000000	  0.00002777	 -0.00000175	  0.00006663	 -0.00043791	  0.00118623	  0.00103326	  0.00003993	 -0.00000368
162.00000000	 -0.00002769	  0.00000193	  0.00001210	 -0.00029119	  0.00066809	  0.00248971	 -0.00003978	  0.00000392
163.00000000	  0.00002968	  0.00004955	  0.00213007	 -0.00005445	  0.00022305	 -0.00099682	  0.00003820	  0.00003580
164.00000000	 -0.00000205	 -0.00005148	  0.00557945	  0.00064787	 -0.00139437	 -0.00659686	  0.00000134	 -0.00003973
165.00000000	  0.00000000	  0.00000000	  0.00032786	  0.00137356	 -0.00389804	 -0.00032771	  0.00000000	  0.00000000
166.00000000	 -0.00000000	  0.00000000	  0.00035269	  0.00053755	 -0.00144991	 -0.00144206	 -0.00000000	  0.00000000
167.00000000	  0.00002567	 -0.00005383	  0.00710186	  0.00154954	 -0.00451413	  0.00101334	  0.00004166	 -0.00004323
168.00000000	 -0.00002592	  0.00005373	  0.00248720	  0.00011259	 -0.00018010	 -0.00246934	 -0.00004156	  0.00004323
169.00000000	 -0.00002905	 -0.00005059	  0.00157908	 -0.00013652	  0.00034797	  0.00083270	 -0.00003832	 -0.00003673
170.00000000	  0.00002902	  0.00005063	  0.00128887	 -0.00071612	  0.00213277	 -0.00111145	  0.00003822	  0.00003685
171.00000000	 -0.00002603	  0.00005343	  0.00832838	 -0.00304635	  0.00895591	 -0.00293731	 -0.00004086	  0.00004329
172.00000000	  0.00002589	 -0.00005348	  0.01060075	  0.00510781	 -0.01467791	  0.00228437	  0.00004172	 -0.00004273
173.00000000	  0.00000000	 -0.00000000	  0.00034314	 -0.00012438	  0.00038378	 -0.00042932	  0.00000000	 -0.00000000
174.00000000	  0.00000000	 -0.00000000	  0.00176159	 -0.00542912	  0.01586079	 -0.00156529	 -0.00000000	 -0.00000000
175.00000000	 -0.00000085	 -0.00005176	  0.01205608	  0.00101738	 -0.00325795	  0.00805563	  0.00000276	 -0.00003995
176.00000000	 -0.00002698	  0.00005208	  0.00711044	  0.00138278	 -0.00395017	 -0.00018433	 -0.00004282	  0.00004174
177.00000000	  0.00002755	 -0.00000006	  0.00499222	  0.00355501	 -0.01019194	 -0.00104614	  0.00004004	 -0.00000162
178.00000000	 -0.00002750	 -0.00000068	  0.00014642	 -0.00555636	  0.01641773	 -0.00578096	 -0.00003976	  0.00000095
179.00000000	  0.00002779	  0.00000067	  0.01042182	  0.00136559	 -0.00410104	  0.00752299	  0.00003988	 -0.00000084
180.00000000	  0.00002751	  0.00000191	  0.00086743	  0.00424763	 -0.01189756	 -0.01448385	  0.00003984	  0.00000051
181.00000000	 -0.00005469	 -0.00000440	  0.01356761	 -0.00434433	  0.01268288	  0.00394895	 -0.00007921	 -0.00000219
182.00000000	  0.00000024	 -0.00000047	  0.00712334	  0.00573805	 -0.01648795	 -0.00236472	  0.00000037	 -0.00000036
183.00000000	  0.00002329	  0.00005599	  0.00970340	 -0.00443996	  0.01302279	 -0.00108190	  0.00003232	  0.00004237
184.00000000	  0.00000437	 -0.00005221	  0.02195763	  0.00359358	 -0.01003685	  0.01176525	  0.00000802	 -0.00003970
185.00000000	  0.00000000	  0.00000000	  0.00680522	  0.00348019	 -0.01044982	 -0.01254277	 -0.00000000	  0.00000000
186.00000000	  0.00000000	 -0.00000000	  0.02123766	  0.00407553	 -0.01156971	  0.01045666	  0.00000000	  0.00000000
187.00000000	 -0.00000000	  0.00000000	  0.00040983	 -0.00603352	  0.01828043	  0.00490825	 -0.00000000	 -0.00000000
188.00000000	  0.00000620	 -0.00005252	  0.00958976	  0.00023061	 -0.00118000	 -0.01593278	  0.00000934	 -0.00003968
189.00000000	 -0.00000653	  0.00005259	  0.01416941	  0.00708259	 -0.02058132	  0.00357398	 -0.00001003	  0.00003930
190.00000000	 -0.00000000	 -0.00000000	  0.01976838	 -0.00618983	  0.01795850	 -0.01698472	  0.00000000	 -0.00000000
191.00000000	 -0.00000000	  0.00000000	  0.00480622	  0.00163264	 -0.00399482	  0.01730932	  0.00000000	 -0.00000000
192.00000000	  0.00000593	 -0.00005362	  0.01415040	  0.00022898	 -0.00099639	 -0.01066042	  0.00000835	 -0.00004034
193.00000000	 -0.00000038	 -0.00000025	  0.01462957	  0.00066156	 -0.00221746	 -0.00873670	 -0.00000057	 -0.00000019
194.00000000	 -0.00000504	  0.00005407	  0.00162513	  0.00522303	 -0.01585870	 -0.00694572	 -0.00000722	  0.00004029
195.00000000	 -0.00002667	 -0.00000498	  0.01132244	  0.00059034	 -0.00200246	 -0.00551304	 -0.00004097	 -0.00000388
196.00000000	  0.00000004	 -0.00000025	  0.00388546	  0.00359932	 -0.01104665	 -0.00071595	  0.00000006	 -0.00000019
197.00000000	  0.00002640	  0.00000505	  0.00178464	  0.00298461	 -0.00953809	 -0.00505021	  0.00004147	  0.00000450
198.00000000	  0.00000538	 -0.00005629	  0.00274903	 -0.00037425	  0.00132736	  0.00286855	  0.00000675	 -0.00004113
199.00000000	 -0.00000507	  0.00005628	  0.01516356	 -0.00196858	  0.00583936	 -0.00901925	 -0.00000610	  0.00004126
200.00000000	  0.00000424	 -0.00005642	  0.00432323	  0.00088025	 -0.00272318	  0.00062050	  0.00000514	 -0.00004139
201.00000000	 -0.00000395	  0.00005649	  0.01557878	 -0.00028019	  0.00055527	 -0.01079482	 -0.00000449	  0.00004143
202.00000000	 -0.00000000	 -0.00000000	  0.01409162	 -0.00388998	  0.01186747	 -0.01126565	  0.00000000	 -0.00000000
203.00000000	 -0.00002648	 -0.00000259	  0.00755209	  0.00025016	 -0.00039877	  0.00970398	 -0.00004096	 -0.00000258
204.00000000	  0.00002649	  0.00000279	  0.00851693	 -0.00135715	  0.00405478	 -0.00526291	  0.00004087	  0.00000244
205.00000000	  0.00000000	 -0.00000000	  0.00378933	 -0.00075162	  0.00210575	 -0.00676245	  0.00000000	  0.00000000
206.00000000	 -0.00000000	  0.00000000	  0.01062796	 -0.00311705	  0.00928857	 -0.00903634	 -0.00000000	  0.00000000
207.00000000	 -0.00000000	  0.00000000	  0.00263633	 -0.00171750	  0.00519369	 -0.00019750	 -0.00000000	 -0.00000000
208.00000000	  0.00000000	 -0.00000000	  0.00883593	 -0.00302841	  0.00865832	 -0.01387823	 -0.00000000	 -0.00000000
209.00000000	 -0.00000180	  0.00005295	  0.00195353	 -0.00604791	  0.01795690	 -0.00078838	 -0.00000020	  0.00004014
210.00000000	  0.00000176	 -0.00005263	  0.00530167	 -0.00025674	  0.00100282	  0.00642914	  0.00000041	 -0.00004015
211.00000000	  0.00000000	 -0.00000000	  0.00706435	  0.00010032	 -0.00013491	  0.00390709	 -0.00000000	 -0.00000000
212.00000000	  0.00000000	  0.00000000	  0.00795009	 -0.00295941	  0.00823244	 -0.00977913	 -0.00000000	 -0.00000000
213.00000000	 -0.00002768	 -0.00000203	  0.00740648	  0.00089011	 -0.00220116	  0.00809889	 -0.00003987	 -0.00000283
214.00000000	 -0.00000006	 -0.00000019	  0.00151915	 -0.00071839	  0.00185947	 -0.00514531	 -0.00000009	 -0.00000015
215.00000000	  0.00002773	  0.00000239	  0.00098322	  0.00153641	 -0.00434168	  0.00159687	  0.00004004	  0.00000302
216.00000000	  0.00000000	  0.00000000	  0.01050307	  0.00224455	 -0.00723359	 -0.01761602	  0.00000000	  0.00000000
217.00000000	  0.00002531	  0.00005521	  0.00153035	  0.00027684	 -0.00036591	  0.00882790	  0.00004031	  0.00004346
218.00000000	 -0.00002571	 -0.00005526	  0.00694909	  0.00290632	 -0.00886795	 -0.00886607	 -0.00004086	 -0.00004342
219.00000000	  0.00000000	  0.00000000	  0.00443540	  0.00067376	 -0.00170995	  0.00672697	 -0.00000000	 -0.00000000
220.00000000	 -0.00000000	 -0.00000000	  0.00950548	  0.00215910	 -0.00687929	 -0.01317420	  0.00000000	  0.00000000
221.00000000	 -0.00000000	  0.00000000	  0.00669485	 -0.00226406	  0.00684734	  0.00210798	  0.00000000	 -0.00000000
222.00000000	  0.00000000	 -0.00000000	  0.00074090	 -0.00049022	  0.00160905	  0.00464125	  0.00000000	  0.00000000
223.00000000	  0.00000000	  0.00000000	  0.01692263	 -0.00463624	  0.01342809	 -0.01274692	 -0.00000000	 -0.00000000
224.00000000	 -0.00000000	  0.00000000	  0.00224360	  0.00238847	 -0.00669288	  0.00919317	 -0.00000000	  0.00000000
225.00000000	 -0.00000000	 -0.00000000	  0.00489919	 -0.00215678	  0.00642526	  0.00919666	  0.00000000	 -0.00000000
226.00000000	 -0.00002879	 -0.00004986	  0.00077030	 -0.00279335	  0.00812980	  0.00055518	 -0.00004279	 -0.00003864
227.00000000	  0.00002745	 -0.00000159	  0.00372016	  0.00011749	 -0.00032051	  0.00370489	  0.00003953	 -0.00000067
228.00000000	  0.00000351	  0.00010245	  0.01452818	 -0.00582058	  0.01679355	 -0.01266843	  0.00000787	  0.00007896
229.00000000	 -0.00000208	 -0.00005082	  0.02396528	  0.00207492	 -0.00570888	  0.03624623	 -0.00000328	 -0.00003931
230.00000000	 -0.00000237	 -0.00005118	  0.01175138	  0.00280044	 -0.00761389	 -0.02413751	 -0.00000328	 -0.00003942
231.00000000	  0.00000172	  0.00005129	  0.00481721	 -0.00444995	  0.01267849	  0.01614012	  0.00000307	  0.00003956
232.00000000	  0.00003037	  0.00004892	  0.01113553	 -0.00002582	  0.00029160	 -0.01870566	  0.00004303	  0.00003812
233.00000000	 -0.00000252	 -0.00005084	  0.01419024	  0.00389322	 -0.01095597	  0.01825080	 -0.00000380	 -0.00003928
234.00000000	 -0.00002729	  0.00000189	  0.00088596	 -0.00442512	  0.01265416	 -0.00123097	 -0.00003867	  0.00000148
235.00000000	 -0.00000000	 -0.00000000	  0.01552046	 -0.00379819	  0.01088019	 -0.02044501	 -0.00000000	  0.00000000
236.00000000	 -0.00000000	 -0.00000000	  0.01694107	  0.00678828	 -0.01868465	  0.01317936	  0.00000000	 -0.00000000
237.00000000	  0.00000000	  0.00000000	  0.00011006	  0.00280541	 -0.00795374	 -0.00056803	  0.00000000	  0.00000000
238.00000000	 -0.00000000	 -0.00000000	  0.00348561	 -0.00271191	  0.00777702	 -0.00354976	  0.00000000	 -0.00000000
239.00000000	  0.00000000	  0.00000000	  0.00625265	  0.00100204	 -0.00283948	  0.00958195	  0.00000000	  0.00000000
240.00000000	  0.00002599	 -0.00005266	  0.00872851	 -0.00178865	  0.00514610	 -0.00570583	  0.00003633	 -0.00004065
241.00000000	  0.00000156	  0.00005060	  0.00799236	  0.00155747	 -0.00451084	  0.01395155	  0.00000223	  0.00003906
242.00000000	 -0.00002738	  0.00000197	  0.00622473	 -0.00189364	  0.00543965	 -0.00268041	 -0.00003884	  0.00000189
243.00000000	 -0.00002473	  0.00005174	  0.00563786	 -0.00360303	  0.01016008	  0.00080874	 -0.00003493	  0.00004063
244.00000000	  0.00002455	 -0.00005169	  0.00737420	 -0.00206124	  0.00545139	  0.01248948	  0.00003511	 -0.00004089
245.00000000	  0.00000272	  0.00004831	  0.00222363	  0.00006954	 -0.00014678	 -0.00162868	  0.00000242	  0.00003777
246.00000000	  0.00002480	 -0.00005075	  0.00394888	 -0.00267177	  0.00756633	 -0.00620613	  0.00003517	 -0.00004031
247.00000000	 -0.00002747	  0.00000253	  0.00600316	 -0.00255345	  0.00719556	 -0.00862419	 -0.00003754	  0.00000235
248.00000000	 -0.00000275	 -0.00004757	  0.00625863	 -0.00233848	  0.00650374	 -0.00899093	 -0.00000358	 -0.00003770
249.00000000	  0.00000263	  0.00004744	  0.00985983	  0.00032232	 -0.00100694	  0.01217447	  0.00000321	  0.00003768
250.00000000	  0.00000000	  0.00000000	  0.00596111	 -0.00100766	  0.00289390	 -0.01084209	 -0.00000000	 -0.00000000
251.00000000	 -0.00000000	  0.00000000	  0.01125211	  0.00272532	 -0.00746462	  0.01391739	  0.00000000	  0.00000000
252.00000000	 -0.00000246	 -0.00004757	  0.00893659	 -0.00257707	  0.00712542	 -0.00643368	 -0.00000310	 -0.00003773
253.00000000	  0.00000259	  0.00004743	  0.01071750	  0.00209992	 -0.00584335	  0.01219912	  0.00000270	  0.00003765
254.00000000	 -0.00000000	  0.00000000	  0.00761766	  0.00263127	 -0.00720471	  0.00382717	 -0.00000000	  0.00000000
255.00000000	  0.00002717	 -0.00000159	  0.00985418	  0.00335777	 -0.00922470	  0.00250022	  0.00003744	 -0.00000151
256.00000000	 -0.00002851	 -0.00004682	  0.00558075	  0.00012482	 -0.00016426	 -0.01144079	 -0.00003885	 -0.00003638
257.00000000	 -0.00000002	 -0.00000015	  0.00043834	 -0.00232741	  0.00648614	 -0.00854817	 -0.00000002	 -0.00000012
258.00000000	  0.00002847	  0.00004743	  0.00866021	 -0.00187273	  0.00516091	  0.00677017	  0.00003894	  0.00003763
259.00000000	 -0.00002773	  0.00000050	  0.01900047	  0.00265582	 -0.00718304	  0.01749628	 -0.00003800	  0.00000028
260.00000000	  0.00002742	 -0.00004778	  0.00115832	  0.00199774	 -0.00548404	 -0.00321303	  0.00003843	 -0.00003758
261.00000000	 -0.00002753	  0.00004784	  0.01452907	 -0.00162986	  0.00445697	 -0.02729621	 -0.00003777	  0.00003717
262.00000000	  0.00000000	  0.00000000	  0.00880497	  0.00081452	 -0.00200465	  0.01535675	  0.00000000	 -0.00000000
263.00000000	 -0.00000000	 -0.00000000	  0.00141849	  0.00171442	 -0.00470483	  0.00583315	 -0.00000000	  0.00000000
264.00000000	 -0.00000000	  0.00000000	  0.01842628	 -0.00097781	  0.00256241	 -0.03132328	  0.00000000	  0.00000000
265.00000000	  0.00000000	  0.00000000	  0.01512341	  0.00293547	 -0.00759788	  0.02870924	  0.00000000	  0.00000000
266.00000000	  0.00002759	  0.00000047	  0.01216425	  0.00079457	 -0.00226288	 -0.01827901	  0.00003858	  0.00000063
267.00000000	 -0.00005550	 -0.00000017	  0.01248285	 -0.00681647	  0.01900576	 -0.01056848	 -0.00007680	 -0.00000104
268.00000000	  0.00002830	 -0.00000031	  0.02334923	  0.00823268	 -0.02203062	  0.02030890	  0.00003921	  0.00000058
269.00000000	 -0.00000000	 -0.00000000	  0.02786024	 -0.00412137	  0.01133677	 -0.03470220	  0.00000000	 -0.00000000
270.00000000	  0.00002751	 -0.00000037	  0.02283580	  0.00515479	 -0.01341161	  0.03058759	  0.00003838	  0.00000054
271.00000000	 -0.00002749	 -0.00005024	  0.01662978	  0.00311661	 -0.00895234	 -0.02190176	 -0.00004017	 -0.00003943
272.00000000	  0.00000011	  0.00000038	  0.00424481	 -0.00216362	  0.00639385	  0.01414346	  0.00000017	  0.00000030
273.00000000	  0.00000030	  0.00004964	  0.00486552	  0.00569501	 -0.01600222	  0.00615455	  0.00000103	  0.00003824
274.00000000	 -0.00000000	 -0.00000000	  0.02513040	 -0.00528563	  0.01528429	 -0.02317932	 -0.00000000	 -0.00000000
275.00000000	 -0.00000100	 -0.00004929	  0.00061381	 -0.00181595	  0.00518034	  0.01317573	 -0.00000266	 -0.00003824
276.00000000	  0.00000163	  0.00004920	  0.01017889	  0.00491908	 -0.01386501	  0.01566165	  0.00000230	  0.00003804
277.00000000	  0.00000209	  0.00005000	  0.01692121	  0.00151573	 -0.00397921	 -0.02301573	  0.00000323	  0.00003842
278.00000000	  0.00000014	 -0.00000014	  0.00559551	 -0.00463066	  0.01328200	  0.00013928	  0.00000020	 -0.00000011
279.00000000	 -0.00000223	 -0.00004965	  0.00240222	  0.00111150	 -0.00318994	  0.00719813	 -0.00000354	 -0.00003841
280.00000000	 -0.00002672	  0.00000262	  0.00251196	  0.00325446	 -0.00932924	  0.00774987	 -0.00003809	  0.00000219
281.00000000	  0.00002654	 -0.00000256	  0.00205656	  0.00299240	 -0.00862742	  0.00254157	  0.00003831	 -0.00000220
282.00000000	  0.00000000	 -0.00000000	  0.01333523	 -0.00079091	  0.00248863	 -0.00666474	 -0.00000000	 -0.00000000
283.00000000	  0.00000000	  0.00000000	  0.01860798	 -0.00426022	  0.01266381	 -0.01094636	 -0.00000000	  0.00000000
284.00000000	 -0.00000000	 -0.00000000	  0.01287934	  0.00833884	 -0.02395497	  0.01206874	  0.00000000	 -0.00000000
285.00000000	 -0.00002656	  0.00000422	  0.02304552	 -0.00598199	  0.01816903	 -0.01540050	 -0.00003848	  0.00000398
286.00000000	  0.00002685	 -0.00000480	  0.00876779	  0.00726695	 -0.02111913	  0.01083322	  0.00003906	 -0.00000404
287.00000000	 -0.00002642	  0.00000506	  0.02899772	 -0.00557573	  0.01753246	 -0.02273369	 -0.00003840	  0.00000467
288.00000000	  0.00002671	 -0.00000579	  0.00428633	  0.00175040	 -0.00550237	  0.01179125	  0.00003857	 -0.00000495
289.00000000	  0.00000583	  0.00005047	  0.00821050	  0.00264195	 -0.00818463	  0.01121959	  0.00000701	  0.00003832
290.00000000	 -0.00000596	 -0.00005065	  0.01967815	 -0.00135341	  0.00493722	 -0.01532292	 -0.00000774	 -0.00003834
291.00000000	  0.00000700	  0.00005031	  0.01057594	 -0.00186367	  0.00529097	  0.00139595	  0.00000927	  0.00003818
292.00000000	 -0.00000763	 -0.00005014	  0.00643350	  0.00322991	 -0.00997539	  0.01050459	 -0.00000909	 -0.00003802
293.00000000	 -0.00000000	 -0.00000000	  0.00687681	  0.00004123	  0.00056967	 -0.00918395	  0.00000000	 -0.00000000
294.00000000	 -0.00000000	 -0.00000000	  0.00348490	  0.00013986	 -0.00053141	  0.00186261	 -0.00000000	 -0.00000000
295.00000000	  0.00000000	  0.00000000	  0.00754567	 -0.00111385	  0.00393423	 -0.01026851	  0.00000000	  0.00000000
296.00000000	 -0.00000000	 -0.00000000	  0.00493651	  0.00151608	 -0.00473489	  0.00580522	 -0.00000000	 -0.00000000
297.00000000	  0.00000000	  0.00000000	  0.01163427	  0.00254825	 -0.00758444	  0.00291706	 -0.00000000	  0.00000000
298.00000000	 -0.00000000	 -0.00000000	  0.01070321	  0.00074115	 -0.00248038	  0.00555591	  0.00000000	 -0.00000000
299.00000000	 -0.00000000	 -0.00000000	  0.00275634	  0.00032874	 -0.00085064	 -0.00203602	 -0.00000000	  0.00000000
300.00000000	 -0.00000000	  0.00000000	  0.00190038	 -0.00218991	  0.00661351	 -0.00259025	  0.00000000	 -0.00000000
301.00000000	  0.00000000	 -0.00000000	  0.00046604	 -0.00141732	  0.00415227	  0.00004432	  0.00000000	 -0.00000000
302.00000000	  0.00002670	 -0.00000588	  0.00714250	 -0.00032575	  0.00154108	 -0.01204897	  0.00003911	 -0.00000489
303.00000000	 -0.00002677	  0.00000607	  0.00784526	 -0.00017787	  0.00026264	  0.00661497	 -0.00003914	  0.00000484
304.00000000	 -0.00003260	 -0.00004609	  0.00052211	  0.00010674	 -0.00012039	 -0.00485451	 -0.00004688	 -0.00003484
305.00000000	  0.00002689	 -0.00000536	  0.00079154	 -0.00253814	  0.00743950	 -0.00174081	  0.00003907	 -0.00000417
306.00000000	 -0.00002164	  0.00005630	  0.01997043	  0.00198027	 -0.00599282	  0.01250306	 -0.00003246	  0.00004279
307.00000000	  0.00002693	 -0.00000442	  0.00778932	 -0.00040832	  0.00153082	 -0.01120698	  0.00003918	 -0.00000346
308.00000000	  0.00000391	  0.00005173	  0.02082265	  0.00362307	 -0.01079975	  0.01772169	  0.00000502	  0.00003930
309.00000000	 -0.00000373	 -0.00005198	  0.00737717	 -0.00275339	  0.00837815	 -0.00978527	 -0.00000528	 -0.00003943
310.00000000	  0.00000000	 -0.00000000	  0.00320497	 -0.00054543	  0.00168315	 -0.00438558	  0.00000000	 -0.00000000
311.00000000	 -0.00002693	  0.00000361	  0.00635175	  0.00184149	 -0.00537647	  0.00218018	 -0.00003929	  0.00000248
312.00000000	  0.00005055	 -0.00005783	  0.00363572	 -0.00398259	  0.01169944	 -0.00639605	  0.00007330	 -0.00004307
313.00000000	 -0.00002443	  0.00005408	  0.01170095	  0.00040978	 -0.00116744	  0.00511619	 -0.00003481	  0.00004073
314.00000000	 -0.00000169	 -0.00005180	  0.01841858	  0.00348476	 -0.00996397	  0.00724900	 -0.00000263	 -0.00003955
315.00000000	  0.00000111	  0.00005200	  0.00453909	 -0.00055361	  0.00148799	 -0.00822022	  0.00000245	  0.00003960
316.00000000	 -0.00000000	  0.00000000	  0.00665340	  0.00064701	 -0.00195627	 -0.00250366	 -0.00000000	  0.00000000
317.00000000	  0.00002742	  0.00000017	  0.00551721	 -0.00298514	  0.00897749	  0.00881090	  0.00003984	  0.00000118
318.00000000	 -0.00002758	 -0.00000032	  0.00510811	  0.00247727	 -0.00694322	  0.00888955	 -0.00004001	 -0.00000102
319.00000000	  0.00000000	 -0.00000000	  0.00867515	 -0.00263934	  0.00761624	 -0.00561308	  0.00000000	 -0.00000000
320.00000000	 -0.00000000	  0.00000000	  0.00507669	 -0.00333310	  0.00953006	 -0.00557960	 -0.00000000	  0.00000000
321.00000000	  0.00000000	 -0.00000000	  0.00492485	 -0.00067688	  0.00189266	 -0.00226355	  0.00000000	 -0.00000000
322.00000000	  0.00000000	  0.00000000	  0.01595726	  0.00318763	 -0.00889281	  0.00578101	 -0.00000000	  0.00000000
323.00000000	 -0.00000000	 -0.00000000	  0.00428774	 -0.00231853	  0.00659623	 -0.00226211	  0.00000000	 -0.00000000
324.00000000	 -0.00000000	 -0.00000000	  0.00728113	 -0.00100526	  0.00278616	 -0.00202641	 -0.00000000	 -0.00000000
325.00000000	  0.00000000	  0.00000000	  0.00852749	 -0.00046973	  0.00153910	  0.00486414	 -0.00000000	  0.00000000
326.00000000	 -0.00000000	 -0.00000000	  0.00731008	 -0.00633457	  0.01828386	  0.00911334	 -0.00000000	 -0.00000000
327.00000000	 -0.00002801	 -0.00000304	  0.02721752	  0.00539705	 -0.01445979	  0.00795271	 -0.00003906	 -0.00000414
328.00000000	  0.00002369	  0.00005474	  0.00505358	  0.00682993	 -0.01953343	 -0.00671514	  0.00003584	  0.00004372
329.00000000	  0.00000455	 -0.00005125	  0.00757231	 -0.00453793	  0.01332162	  0.00472819	  0.00000338	 -0.00003936
330.00000000	 -0.00000362	  0.00004986	  0.00150196	  0.00026901	 -0.00058534	  0.00398467	 -0.00000290	  0.00003847
331.00000000	  0.00002704	  0.00000284	  0.00092312	 -0.00254530	  0.00736147	  0.00360739	  0.00003828	  0.00000310
332.00000000	 -0.00002396	 -0.00005261	  0.00039458	  0.00069132	 -0.00186862	  0.00198885	 -0.00003541	 -0.00004156
333.00000000	  0.00000345	 -0.00004978	  0.01217198	  0.00524437	 -0.01457417	  0.00376302	  0.00000391	 -0.00003831
334.00000000	 -0.00003048	  0.00004664	  0.00028271	 -0.00390528	  0.01154922	  0.00991632	 -0.00004193	  0.00003543
335.00000000	  0.00002689	  0.00000335	  0.00707603	  0.00010415	  0.00003710	  0.01162222	  0.00003801	  0.00000290
336.00000000	 -0.00000000	  0.00000000	  0.00096524	  0.00295942	 -0.00832132	  0.00106430	 -0.00000000	  0.00000000
337.00000000	 -0.00002649	 -0.00000358	  0.00713754	  0.00297772	 -0.00878524	 -0.01243839	 -0.00003807	 -0.00000308
338.00000000	  0.00002632	  0.00000340	  0.00423814	 -0.00233932	  0.00685507	  0.00408561	  0.00003792	  0.00000277
339.00000000	  0.00002642	  0.00000270	  0.00637999	 -0.00269374	  0.00791452	  0.00972171	  0.00003763	  0.00000221
340.00000000	 -0.00005303	 -0.00000561	  0.00766703	  0.00058538	 -0.00149914	  0.00956155	 -0.00007515	 -0.00000419
341.00000000	  0.00002645	  0.00000296	  0.00601674	 -0.00032061	  0.00085809	 -0.00560956	  0.00003750	  0.00000204
342.00000000	 -0.00000000	  0.00000000	  0.00178141	  0.00116651	 -0.00325683	  0.00389931	 -0.00000000	 -0.00000000
343.00000000	  0.00000000	 -0.00000000	  0.00309666	  0.00151842	 -0.00429750	  0.00162154	 -0.00000000	  0.00000000
344.00000000	 -0.00000000	 -0.00000000	  0.00115849	  0.00000267	  0.00002070	  0.00300332	  0.00000000	 -0.00000000
345.00000000	 -0.00000000	 -0.00000000	  0.00705154	 -0.00088583	  0.00247869	 -0.00825566	 -0.00000000	 -0.00000000
346.00000000	  0.00000000	 -0.00000000	  0.00339078	  0.00096757	 -0.00270241	  0.00469770	  0.00000000	 -0.00000000
347.00000000	  0.00000000	  0.00000000	  0.00191995	  0.00063342	 -0.00180075	  0.00101486	 -0.00000000	  0.00000000
348.00000000	  0.00002623	  0.00000267	  0.00201969	 -0.00108102	  0.00310320	  0.00075930	  0.00003754	  0.00000167
349.00000000	 -0.00002902	  0.00004609	  0.00454545	  0.00037139	 -0.00102402	  0.00478633	 -0.00004226	  0.00003581
350.00000000	  0.00000272	 -0.00004871	  0.00260265	 -0.00239480	  0.00684495	  0.00112881	  0.00000459	 -0.00003758
351.00000000	 -0.00002631	 -0.00000246	  0.00337723	  0.00141379	 -0.00399734	  0.00333720	 -0.00003736	 -0.00000137
352.00000000	  0.00005241	  0.00000506	  0.00442187	  0.00028141	 -0.00079883	  0.00514374	  0.00007465	  0.00000266
353.00000000	 -0.00002361	 -0.00005110	  0.00334394	  0.00034902	 -0.00098315	 -0.00291655	 -0.00003248	 -0.00003866
354.00000000	 -0.00000252	  0.00004850	  0.00504768	  0.00007873	 -0.00022307	  0.00304955	 -0.00000501	  0.00003735
355.00000000	  0.00000000	 -0.00000000	  0.00254001	  0.00094533	 -0.00270101	  0.00363367	 -0.00000000	 -0.00000000
356.00000000	 -0.00000000	  0.00000000	  0.00019239	 -0.00007607	  0.00022194	 -0.00203553	  0.00000000	  0.00000000
357.00000000	 -0.00000000	  0.00000000	  0.00203047	  0.00047359	 -0.00135780	 -0.00499483	 -0.00000000	 -0.00000000
358.00000000	 -0.00000311	  0.00004869	  0.00533942	  0.00235007	 -0.00671573	  0.00318941	 -0.00000571	  0.00003730
359.00000000	  0.00000320	 -0.00004879	  0.00605542	 -0.00241586	  0.00698582	 -0.00281420	  0.00000546	 -0.00003741
360.00000000	  0.00002592	  0.00000267	  0.00017378	 -0.00049128	  0.00140685	  0.00454069	  0.00003714	  0.00000132
361.00000000	 -0.00002596	 -0.00000267	  0.00367939	 -0.00079126	  0.00225061	  0.00462311	 -0.00003708	 -0.00000128
362.00000000	 -0.00002877	  0.00004528	  0.00186719	 -0.00025153	  0.00071614	  0.00026280	 -0.00004266	  0.00003570
363.00000000	  0.00002886	 -0.00004522	  0.00431439	  0.00007013	 -0.00017655	 -0.00429891	  0.00004251	 -0.00003570
364.00000000	 -0.00000286	  0.00004808	  0.00474542	  0.00055360	 -0.00159489	  0.00652436	 -0.00000563	  0.00003706
365.00000000	  0.00000277	 -0.00004810	  0.00108228	  0.00049602	 -0.00140347	 -0.00201051	  0.00000559	 -0.00003704
366.00000000	  0.00002589	  0.00000286	  0.00214488	  0.00144630	 -0.00413829	  0.00053451	  0.00003714	  0.00000141
367.00000000	 -0.00005171	 -0.00000588	  0.00436703	 -0.00111530	  0.00323022	 -0.00506577	 -0.00007425	 -0.00000291
368.00000000	  0.00002595	  0.00000285	  0.00048682	 -0.00088714	  0.00253954	  0.00099213	  0.00003712	  0.00000145
369.00000000	 -0.00000000	 -0.00000000	  0.00299276	 -0.00061908	  0.00177458	 -0.00188141	  0.00000000	 -0.00000000
370.00000000	  0.00000000	  0.00000000	  0.00089506	 -0.00023220	  0.00065144	  0.00276525	 -0.00000000	  0.00000000
371.00000000	 -0.00000000	 -0.00000000	  0.00033200	  0.00158925	 -0.00451110	 -0.00312702	  0.00000000	  0.00000000
372.00000000	 -0.00000000	 -0.00000000	  0.00211577	 -0.00105766	  0.00301147	  0.00533858	  0.00000000	 -0.00000000
373.00000000	  0.00000000	  0.00000000	  0.00207896	 -0.00034720	  0.00100106	 -0.00155731	 -0.00000000	 -0.00000000
374.00000000	 -0.00000000	 -0.00000000	  0.00081376	  0.00208769	 -0.00593329	 -0.00287991	  0.00000000	 -0.00000000
375.00000000	  0.00000000	  0.00000000	  0.00262548	  0.00003981	 -0.00011763	  0.00074497	 -0.00000000	  0.00000000
376.00000000	  0.00000258	 -0.00004829	  0.00156965	 -0.00065614	  0.00185226	  0.00471410	  0.00000524	 -0.00003714
377.00000000	 -0.00000468	  0.00009622	  0.00660472	 -0.00280603	  0.00802379	  0.00058516	 -0.00000966	  0.00007432
378.00000000	  0.00000371	 -0.00009575	  0.00466019	 -0.00047361	  0.00142760	 -0.00510972	  0.00000887	 -0.00007416
379.00000000	 -0.00000182	  0.00004789	  0.00087810	  0.00049680	 -0.00137744	 -0.00204617	 -0.00000432	  0.00003708
380.00000000	 -0.00000000	  0.00000000	  0.00315430	 -0.00049306	  0.00138273	  0.00091419	  0.00000000	  0.00000000
381.00000000	 -0.00000162	  0.00004803	  0.00149872	  0.00038899	 -0.00109214	 -0.00054180	 -0.00000418	  0.00003719
382.00000000	  0.00000171	 -0.00004805	  0.00141494	 -0.00024092	  0.00068972	 -0.00050753	  0.00000412	 -0.00003720
383.00000000	 -0.00000000	 -0.00000000	  0.00722160	  0.00185252	 -0.00531338	  0.00605473	 -0.00000000	 -0.00000000
384.00000000	 -0.00002611	 -0.00000188	  0.00221797	 -0.00054389	  0.00158787	 -0.00240283	 -0.00003716	 -0.00000040
385.00000000	 -0.00000000	  0.00000002	  0.00084661	 -0.00020398	  0.00056085	  0.00128668	 -0.00000000	  0.00000002
386.00000000	  0.00002614	  0.00000182	  0.00475189	 -0.00126172	  0.00364014	 -0.00319900	  0.00003706	  0.00000031
387.00000000	 -0.00000000	 -0.00000000	  0.00526924	  0.00104580	 -0.00299598	  0.00300645	 -0.00000000	  0.00000000
388.00000000	  0.00000000	  0.00000000	  0.00069446	 -0.00031119	  0.00091844	 -0.00251672	  0.00000000	 -0.00000000
389.00000000	 -0.00000000	  0.00000000	  0.00090256	 -0.00041279	  0.00112632	  0.00292113	 -0.00000000	  0.00000000
390.00000000	 -0.00000000	 -0.00000000	  0.00326081	 -0.00088130	  0.00258655	 -0.00571743	 -0.00000000	 -0.00000000
391.00000000	  0.00000000	 -0.00000000	  0.00566876	  0.00202012	 -0.00576880	  0.00607078	  0.00000000	 -0.00000000
392.00000000	  0.00000000	  0.00000000	  0.00775682	 -0.00177350	  0.00517047	 -0.00754652	 -0.00000000	  0.00000000
393.00000000	  0.00000000	  0.00000000	  0.00615704	  0.00128200	 -0.00366036	  0.00407073	  0.00000000	  0.00000000
394.00000000	 -0.00000000	 -0.00000000	  0.00041518	  0.00070567	 -0.00204854	  0.00320359	  0.00000000	 -0.00000000
395.00000000	 -0.00000000	 -0.00000000	  0.00149191	  0.00005252	 -0.00015113	  0.00011608	  0.00000000	 -0.00000000
396.00000000	  0.00000175	 -0.00004806	  0.00418991	 -0.00118088	  0.00343738	 -0.00485438	  0.00000426	 -0.00003716
397.00000000	 -0.00000178	  0.00004801	  0.00257864	  0.00066846	 -0.00192846	  0.00277738	 -0.00000436	  0.00003714
398.00000000	 -0.00000000	 -0.00000000	  0.00268349	  0.00139375	 -0.00397641	  0.00154641	 -0.00000000	 -0.00000000
399.00000000	 -0.00000000	  0.00000000	  0.00135839	 -0.00134476	  0.00383415	  0.00021347	 -0.00000000	  0.00000000
400.00000000	  0.00000000	 -0.00000000	  0.00122818	  0.00102596	 -0.00289606	 -0.00123003	  0.00000000	 -0.00000000
401.00000000	  0.00000193	 -0.00004821	  0.00270144	 -0.00173127	  0.00498952	 -0.00429872	  0.00000445	 -0.00003725
402.00000000	 -0.00000417	  0.00009618	  0.00544427	  0.00120352	 -0.00349239	  0.00812043	 -0.00000953	  0.00007437
403.00000000	  0.00000202	 -0.00004809	  0.00193339	 -0.00028151	  0.00084957	 -0.00328239	  0.00000479	 -0.00003716
404.00000000	 -0.00002385	 -0.00005018	  0.00573266	  0.00228208	 -0.00656148	  0.00658228	 -0.00003199	 -0.00003769
405.00000000	  0.00002174	  0.00009865	  0.00315527	 -0.00209807	  0.00608415	 -0.00453532	  0.00002707	  0.00007499
406.00000000	  0.00000213	 -0.00004812	  0.00059317	  0.00109884	 -0.00306188	 -0.00620368	  0.00000490	 -0.00003711
407.00000000	 -0.00002614	 -0.00000237	  0.00300586	 -0.00161192	  0.00462160	 -0.00255818	 -0.00003723	 -0.00000101
408.00000000	  0.00002622	  0.00000229	  0.00359973	 -0.00159560	  0.00451661	  0.00276577	  0.00003712	  0.00000104
409.00000000	  0.00002617	  0.00000245	  0.01414987	  0.00206413	 -0.00585167	  0.01315100	  0.00003706	  0.00000113
410.00000000	 -0.00002607	 -0.00000283	  0.00225068	  0.00238219	 -0.00674397	 -0.00433043	 -0.00003722	 -0.00000138
411.00000000	  0.00000000	 -0.00000000	  0.00399400	 -0.00098482	  0.00283802	 -0.00646368	  0.00000000	  0.00000000
412.00000000	 -0.00002586	 -0.00000320	  0.00633827	 -0.00089708	  0.00258260	  0.00651474	 -0.00003689	 -0.00000179
413.00000000	  0.00002240	  0.00005114	  0.00515007	 -0.00000379	  0.00001295	  0.00494658	  0.00003022	  0.00003866
414.00000000	 -0.00002250	 -0.00005135	  0.00912471	 -0.00186900	  0.00536273	 -0.01074560	 -0.00003060	 -0.00003885
415.00000000	  0.00002609	  0.00000335	  0.00068413	  0.00172020	 -0.00486998	 -0.00171974	  0.00003703	  0.00000201
416.00000000	  0.00000354	 -0.00004771	  0.00244507	  0.00162076	 -0.00458860	  0.00488352	  0.00000623	 -0.00003674
417.00000000	  0.00000012	 -0.00000007	  0.00450990	 -0.00022571	  0.00064939	  0.00069553	  0.00000018	 -0.00000005
418.00000000	 -0.00000755	  0.00009572	  0.00431948	  0.00171143	 -0.00488659	  0.00065177	 -0.00001367	  0.00007346
419.00000000	  0.00002944	 -0.00004371	  0.00497697	  0.00110803	 -0.00319786	 -0.00082371	  0.00004382	 -0.00003383
420.00000000	 -0.00002536	 -0.00000440	  0.00724644	 -0.00116763	  0.00323343	 -0.01045660	 -0.00003665	 -0.00000298
421.00000000	  0.00000000	 -0.00000000	  0.00080808	 -0.00038175	  0.00103030	 -0.00326259	 -0.00000000	 -0.00000000
422.00000000	 -0.00000000	  0.00000000	  0.00352163	 -0.00114993	  0.00316215	 -0.00617194	 -0.00000000	  0.00000000
423.00000000	  0.00000000	 -0.00000000	  0.00688809	 -0.00309484	  0.00860322	 -0.01004672	  0.00000000	 -0.00000000
424.00000000	  0.00002628	  0.00000468	  0.00069706	 -0.00242066	  0.00681657	 -0.00145318	  0.00003722	  0.00000399
425.00000000	 -0.00005279	 -0.00000946	  0.00223059	 -0.00066091	  0.00172601	 -0.00384510	 -0.00007442	 -0.00000817
426.00000000	  0.00002642	  0.00000471	  0.00513624	  0.00403742	 -0.01206633	 -0.01700740	  0.00003755	  0.00000455
427.00000000	 -0.00000000	  0.00000000	  0.01643586	 -0.00716471	  0.02020006	 -0.00648342	 -0.00000000	  0.00000000
428.00000000	 -0.00000404	  0.00004932	  0.01158326	  0.00082877	 -0.00306888	 -0.01639105	 -0.00000339	  0.00003834
429.00000000	  0.00003145	 -0.00004520	  0.01077414	  0.00219116	 -0.00663524	 -0.00935860	  0.00004149	 -0.00003362
430.00000000	 -0.00002706	 -0.00000391	  0.00800440	 -0.00132226	  0.00390849	  0.00335726	 -0.00003844	 -0.00000421
431.00000000	  0.00000283	 -0.00005003	  0.01159773	 -0.00036647	  0.00052493	 -0.01116577	  0.00000107	 -0.00003879
432.00000000	 -0.00003005	  0.00004734	  0.00441611	  0.00317061	 -0.00859273	  0.00615529	 -0.00003997	  0.00003508
433.00000000	  0.00005424	  0.00000554	  0.00059278	 -0.00112087	  0.00327526	  0.00183358	  0.00007734	  0.00000692
434.00000000	 -0.00000010	  0.00000006	  0.00604166	  0.00224700	 -0.00670037	 -0.00729971	 -0.00000014	  0.00000004
435.00000000	 -0.00002698	 -0.00000259	  0.00356704	  0.00063568	 -0.00199003	 -0.00347988	 -0.00003881	 -0.00000349
436.00000000	 -0.00000000	  0.00000000	  0.00531130	  0.00328840	 -0.00909474	  0.00611377	  0.00000000	  0.00000000
437.00000000	  0.00000000	 -0.00000000	  0.00507719	 -0.00198684	  0.00529529	 -0.00926073	 -0.00000000	 -0.00000000
438.00000000	 -0.00000000	 -0.00000000	  0.00121138	  0.00112563	 -0.00313151	  0.00196305	  0.00000000	  0.00000000
439.00000000	 -0.00000000	  0.00000000	  0.00063088	 -0.00223154	  0.00682344	  0.00742733	 -0.00000000	  0.00000000
440.00000000	  0.00002701	  0.00000258	  0.00694588	  0.00037847	 -0.00173125	 -0.01368352	  0.00003896	  0.00000359
441.00000000	 -0.00002964	  0.00004862	  0.00997471	  0.00295627	 -0.00794329	  0.00918742	 -0.00004007	  0.00003539
442.00000000	  0.00000270	 -0.00005114	  0.00166469	  0.00139312	 -0.00381768	  0.00423755	  0.00000102	 -0.00003895
443.00000000	 -0.00002666	 -0.00000323	  0.00440802	  0.00039844	 -0.00208908	 -0.01635244	 -0.00003917	 -0.00000435
444.00000000	  0.00000015	  0.00000029	  0.00095290	  0.00005586	  0.00010933	  0.00429060	  0.00000024	  0.00000023
445.00000000	  0.00000017	  0.00000035	  0.00233682	 -0.00101257	  0.00346497	  0.00881953	  0.00000027	  0.00000028
446.00000000	  0.00005304	  0.00000522	  0.01481777	 -0.00085064	  0.00158817	 -0.01806406	  0.00007760	  0.00000721
447.00000000	 -0.00005027	 -0.00005546	  0.01475313	  0.00530427	 -0.01422238	  0.01851759	 -0.00007721	 -0.00004555
448.00000000	  0.00002359	  0.00005377	  0.01400054	 -0.00324229	  0.00903273	 -0.01240832	  0.00003825	  0.00004212
449.00000000	  0.00000216	 -0.00005118	  0.00482061	  0.00134922	 -0.00353596	  0.00770213	  0.00000014	 -0.00003884
450.00000000	 -0.00000201	  0.00005124	  0.00363905	  0.00028269	 -0.00030931	  0.01177590	 -0.00000028	  0.00003883
451.00000000	 -0.00000000	  0.00000000	  0.02543462	 -0.00244763	  0.00611993	 -0.03243955	 -0.00000000	 -0.00000000
452.00000000	  0.00000177	 -0.00005127	  0.01471700	  0.00236597	 -0.00565327	  0.02361473	 -0.00000040	 -0.00003897
453.00000000	 -0.00000130	  0.00005136	  0.01015448	 -0.00076552	  0.00172727	 -0.01410078	  0.00000080	  0.00003900
454.00000000	  0.00000179	 -0.00005167	  0.02047217	  0.00461886	 -0.01230566	  0.02391785	  0.00000041	 -0.00003907
455.00000000	 -0.00000285	  0.00010373	  0.01235097	 -0.00519460	  0.01494765	 -0.01558530	  0.00000063	  0.00007857
456.00000000	 -0.00000018	 -0.00000017	  0.00702217	  0.00215808	 -0.00580738	  0.01171828	 -0.00000028	 -0.00000014
457.00000000	  0.00000136	 -0.00005154	  0.00430160	 -0.00218166	  0.00671725	  0.00986022	  0.00000017	 -0.00003916
458.00000000	  0.00000000	 -0.00000000	  0.00732575	 -0.00261689	  0.00748407	 -0.00623842	 -0.00000000	 -0.00000000
459.00000000	  0.00002738	  0.00000140	  0.00650087	 -0.00058484	  0.00124590	 -0.01504991	  0.00003952	  0.00000227
460.00000000	 -0.00002738	 -0.00000122	  0.00122836	 -0.00070006	  0.00208642	  0.00185256	 -0.00003946	 -0.00000224
461.00000000	 -0.00000000	 -0.00000000	  0.01040849	 -0.00273775	  0.00771249	 -0.00496413	 -0.00000000	 -0.00000000
462.00000000	  0.00002761	  0.00000043	  0.00065362	 -0.00179704	  0.00522819	  0.00376639	  0.00003920	  0.00000145
463.00000000	 -0.00002771	 -0.00000041	  0.00053676	  0.00003375	 -0.00000849	  0.00331575	 -0.00003920	 -0.00000130
464.00000000	  0.00002777	 -0.00005002	  0.00334370	 -0.00312341	  0.00881516	 -0.00065348	  0.00003714	 -0.00003797
465.00000000	 -0.00000020	  0.00004964	  0.00464485	 -0.00070016	  0.00216198	  0.01042426	  0.00000126	  0.00003870
466.00000000	 -0.00002764	  0.00000019	  0.00428510	 -0.00135707	  0.00390778	  0.01297950	 -0.00003842	 -0.00000015
467.00000000	 -0.00000000	 -0.00000000	  0.00509723	 -0.00007732	  0.00018142	  0.01495045	  0.00000000	 -0.00000000
468.00000000	 -0.00000000	  0.00000000	  0.00869135	  0.00177973	 -0.00480905	 -0.01086840	 -0.00000000	  0.00000000
469.00000000	  0.00000000	 -0.00000000	  0.01993994	 -0.00703372	  0.01980099	 -0.01751246	  0.00000000	 -0.00000000
470.00000000	  0.00000113	  0.00004769	  0.01809336	  0.00438638	 -0.01199246	  0.02765851	  0.00000141	  0.00003755
471.00000000	 -0.00000159	 -0.00004791	  0.01738663	 -0.00428949	  0.01226436	 -0.02401788	 -0.00000205	 -0.00003773
472.00000000	  0.00000000	  0.00000000	  0.00989091	  0.00602448	 -0.01641125	  0.01352306	 -0.00000000	 -0.00000000
473.00000000	  0.00002704	 -0.00000221	  0.00137725	 -0.00500586	  0.01364428	  0.01288456	  0.00003719	 -0.00000236
474.00000000	 -0.00002724	  0.00000216	  0.02238939	 -0.00559661	  0.01576581	 -0.01623922	 -0.00003675	  0.00000261
475.00000000	 -0.00000000	  0.00000000	  0.00682969	  0.00818397	 -0.02188777	  0.00356235	 -0.00000000	  0.00000000
476.00000000	  0.00000000	 -0.00000000	  0.00994028	  0.00178729	 -0.00546304	  0.01997137	 -0.00000000	 -0.00000000
477.00000000	  0.00002739	 -0.00000335	  0.02849477	 -0.00942001	  0.02704147	 -0.02217628	  0.00003725	 -0.00000397
478.00000000	 -0.00002785	  0.00000409	  0.00664124	  0.00056865	 -0.00128111	 -0.00672057	 -0.00003725	  0.00000396
479.00000000	 -0.00000000	  0.00000000	  0.01920602	  0.00883378	 -0.02395730	  0.01459579	 -0.00000000	  0.00000000
480.00000000	  0.00000000	 -0.00000000	  0.00337443	 -0.00085711	  0.00181778	  0.01319805	 -0.00000000	 -0.00000000
481.00000000	 -0.00000000	  0.00000000	  0.00838449	 -0.00280608	  0.00775158	 -0.00080781	 -0.00000000	  0.00000000
482.00000000	 -0.00000502	 -0.00004651	  0.02230071	 -0.00659327	  0.01896249	 -0.01868165	 -0.00000530	 -0.00003687
483.00000000	  0.00000527	  0.00004609	  0.00514958	  0.00019427	 -0.00042775	 -0.00178602	  0.00000549	  0.00003685
484.00000000	 -0.00000000	  0.00000000	  0.00756062	 -0.00145732	  0.00429872	 -0.00935835	 -0.00000000	 -0.00000000
485.00000000	 -0.00000000	  0.00000000	  0.00981275	  0.00416899	 -0.01161892	  0.01457556	  0.00000000	  0.00000000
486.00000000	 -0.00000519	 -0.00004644	  0.01644441	  0.00644270	 -0.01778024	  0.01118715	 -0.00000439	 -0.00003673
487.00000000	  0.00000490	  0.00004682	  0.00297591	  0.00020093	 -0.00031577	 -0.00417186	  0.00000450	  0.00003673
488.00000000	 -0.00000000	  0.00000000	  0.01119232	 -0.00301961	  0.00879888	 -0.00959350	 -0.00000000	  0.00000000
489.00000000	  0.00000596	  0.00004652	  0.02278939	 -0.00853809	  0.02409207	 -0.01921460	  0.00000698	  0.00003702
490.00000000	 -0.00000624	 -0.00004597	  0.03058323	  0.01033290	 -0.02843601	  0.03261825	 -0.00000595	 -0.00003664
491.00000000	 -0.00000000	 -0.00000000	  0.00859479	  0.00018134	  0.00003028	 -0.00827704	 -0.00000000	 -0.00000000
492.00000000	 -0.00000000	  0.00000000	  0.01729023	 -0.00898132	  0.02542391	 -0.01758877	 -0.00000000	  0.00000000
493.00000000	  0.00002710	 -0.00000560	  0.02676530	  0.01492256	 -0.03989080	  0.01632128	  0.00003694	 -0.00000506
494.00000000	 -0.00002646	  0.00000495	  0.01892207	 -0.00594990	  0.01725328	 -0.01324846	 -0.00003643	  0.00000531
495.00000000	  0.00000000	  0.00000000	  0.01141764	 -0.00418165	  0.01209645	 -0.01599666	 -0.00000000	 -0.00000000
496.00000000	  0.00000000	  0.00000000	  0.00083440	  0.00303021	 -0.00791987	 -0.00355666	  0.00000000	  0.00000000
497.00000000	  0.00000000	 -0.00000000	  0.00008025	 -0.00196804	  0.00553868	 -0.00772962	 -0.00000000	  0.00000000
498.00000000	  0.00000000	  0.00000000	  0.01026863	  0.00079405	 -0.00226543	  0.00598317	 -0.00000000	 -0.00000000
499.00000000	 -0.00002818	  0.00000481	  0.00030065	  0.00091124	 -0.00236952	 -0.00257628	 -0.00003788	  0.00000401
500.00000000	  0.00002815	 -0.00000483	  0.00542422	  0.00314806	 -0.00847402	  0.00114359	  0.00003811	 -0.00000384
501.00000000	 -0.00000000	 -0.00000000	  0.01223047	  0.00465252	 -0.01285726	  0.01071877	 -0.00000000	 -0.00000000
502.00000000	 -0.00002737	  0.00000392	  0.01775696	  0.00850076	 -0.02383734	  0.01511995	 -0.00003854	  0.00000330
503.00000000	  0.00002696	 -0.00000346	  0.00639365	 -0.00060504	  0.00196200	 -0.00668016	  0.00003846	 -0.00000329
504.00000000	  0.00000406	  0.00005063	  0.01414316	 -0.00299171	  0.00902412	 -0.01587577	  0.00000537	  0.00003911
505.00000000	 -0.00000400	 -0.00005041	  0.00194217	  0.00062586	 -0.00185602	  0.00407438	 -0.00000530	 -0.00003907
506.00000000	  0.00000000	  0.00000000	  0.01251506	  0.00693195	 -0.01976186	  0.01092537	  0.00000000	  0.00000000
507.00000000	  0.00000398	  0.00005165	  0.01229615	 -0.00388203	  0.01172244	 -0.01616865	  0.00000529	  0.00003960
508.00000000	 -0.00000382	 -0.00005140	  0.01399103	  0.00585078	 -0.01669655	  0.00521458	 -0.00000479	 -0.00003942
509.00000000	 -0.00000267	 -0.00005274	  0.01195596	 -0.00077524	  0.00222358	  0.00338396	 -0.00000334	 -0.00004024
510.00000000	  0.00000038	 -0.00000055	  0.01417381	  0.00407762	 -0.01181725	  0.00050642	  0.00000055	 -0.00000041
511.00000000	  0.00000111	  0.00005352	  0.01750883	  0.00275947	 -0.00800942	  0.01044226	  0.00000153	  0.00004043
512.00000000	 -0.00000000	 -0.00000000	  0.00567382	 -0.00097312	  0.00292397	  0.00423083	 -0.00000000	  0.00000000
513.00000000	  0.00002735	  0.00000042	  0.00507128	  0.00091103	 -0.00273354	 -0.00307914	  0.00004061	  0.00000082
514.00000000	 -0.00002730	 -0.00000056	  0.00379935	  0.00007107	 -0.00026338	 -0.00429802	 -0.00004062	 -0.00000084
515.00000000	  0.00002739	  0.00000095	  0.00605695	  0.00169737	 -0.00510464	 -0.00245573	  0.00004090	  0.00000155
516.00000000	 -0.00002873	  0.00005333	  0.01219756	  0.00061955	 -0.00148644	  0.01335900	 -0.00004214	  0.00003933
517.00000000	  0.00000281	 -0.00010935	  0.00127331	  0.00177421	 -0.00539757	 -0.00343061	  0.00000264	 -0.00008185
518.00000000	 -0.00000168	  0.00005500	  0.00235569	 -0.00000015	  0.00000823	  0.00028826	 -0.00000145	  0.00004109
519.00000000	  0.00002733	  0.00000188	  0.00362901	 -0.00097691	  0.00304711	  0.00346161	  0.00004123	  0.00000204
520.00000000	 -0.00002739	 -0.00000197	  0.00435980	 -0.00269135	  0.00818773	  0.00347896	 -0.00004100	 -0.00000208
521.00000000	  0.00002772	  0.00000236	  0.00974555	  0.00131886	 -0.00373961	  0.00588341	  0.00004135	  0.00000245
522.00000000	 -0.00003094	  0.00005245	  0.02380907	  0.00233173	 -0.00618238	  0.02095220	 -0.00004645	  0.00003870
523.00000000	  0.00003094	 -0.00005109	  0.01440727	  0.00018444	 -0.00041480	  0.00401029	  0.00004696	 -0.00003766
524.00000000	 -0.00002745	 -0.00000443	  0.00833479	  0.00130834	 -0.00364694	  0.00798127	 -0.00004143	 -0.00000354
525.00000000	 -0.00000000	 -0.00000000	  0.00370295	 -0.00313101	  0.00944755	  0.00006012	  0.00000000	 -0.00000000
526.00000000	  0.00000000	  0.00000000	  0.00813733	  0.00080148	 -0.00205284	  0.01383831	 -0.00000000	  0.00000000
527.00000000	  0.00000000	  0.00000000	  0.00086795	 -0.00109069	  0.00330526	  0.00383916	 -0.00000000	  0.00000000
528.00000000	 -0.00000000	 -0.00000000	  0.00657672	  0.00333430	 -0.00978704	  0.01258341	 -0.00000000	  0.00000000
529.00000000	  0.00000000	  0.00000000	  0.00731302	 -0.00500710	  0.01506848	 -0.00195832	  0.00000000	  0.00000000
530.00000000	 -0.00000000	 -0.00000000	  0.01026369	  0.00027993	 -0.00083407	  0.00929439	  0.00000000	  0.00000000
531.00000000	 -0.00000000	  0.00000000	  0.00928593	  0.00314703	 -0.00921152	 -0.00602655	 -0.00000000	  0.00000000
532.00000000	 -0.00000000	  0.00000000	  0.00796988	 -0.00508623	  0.01527593	 -0.00797869	 -0.00000000	  0.00000000
533.00000000	  0.00000290	 -0.00005298	  0.00666419	  0.00177277	 -0.00522812	  0.00282917	  0.00000589	 -0.00004026
534.00000000	  0.00002749	  0.00000275	  0.00257631	 -0.00702146	  0.02047459	  0.01114910	  0.00004000	  0.00000053
535.00000000	 -0.00002808	 -0.00000263	  0.00923994	  0.00202997	 -0.00549676	 -0.01159497	 -0.00004044	 -0.00000048
536.00000000	 -0.00000190	  0.00005266	  0.01004391	  0.00617671	 -0.01814721	  0.01457822	 -0.00000574	  0.00004014
537.00000000	  0.00000000	  0.00000000	  0.01689110	 -0.00736838	  0.02228797	 -0.01342607	 -0.00000000	 -0.00000000
538.00000000	 -0.00000000	  0.00000000	  0.01078214	 -0.00327625	  0.00975631	 -0.01090173	  0.00000000	  0.00000000
539.00000000	 -0.00000000	 -0.00000000	  0.00932127	  0.00761964	 -0.02173260	  0.00604625	 -0.00000000	 -0.00000000
540.00000000	  0.00002592	  0.00005456	  0.00434965	  0.00133106	 -0.00381630	 -0.00377174	  0.00003513	  0.00004046
541.00000000	 -0.00002541	 -0.00005475	  0.00060706	 -0.00013258	  0.00029239	  0.00514598	 -0.00003510	 -0.00004031
542.00000000	  0.00002729	  0.00000156	  0.00544518	 -0.00243096	  0.00720085	 -0.00284135	  0.00003988	 -0.00000025
543.00000000	 -0.00002743	 -0.00000140	  0.00080738	 -0.00151611	  0.00429335	  0.00435071	 -0.00003977	  0.00000039
544.00000000	  0.00000000	  0.00000000	  0.00905218	 -0.00442994	  0.01292616	 -0.00399850	 -0.00000000	  0.00000000
545.00000000	 -0.00000000	 -0.00000000	  0.01082329	 -0.00140049	  0.00442901	 -0.01438997	  0.00000000	 -0.00000000
546.00000000	  0.00002748	  0.00005311	  0.00106661	  0.00706692	 -0.01987892	 -0.00293173	  0.00003713	  0.00003990
547.00000000	 -0.00002751	 -0.00000120	  0.00914370	 -0.00149557	  0.00426657	  0.00232249	 -0.00003975	  0.00000053
548.00000000	 -0.00000001	 -0.00005224	  0.01078448	  0.00680504	 -0.01975329	  0.00621402	  0.00000283	 -0.00003978
549.00000000	 -0.00002742	 -0.00005176	  0.02342729	 -0.00925472	  0.02776987	 -0.00996029	 -0.00003833	 -0.00003766
550.00000000	  0.00002864	  0.00005063	  0.00398897	 -0.00214943	  0.00584044	  0.00645066	  0.00003834	  0.00003734
551.00000000	  0.00002635	 -0.00005310	  0.00426782	  0.00247359	 -0.00682636	 -0.00326288	  0.00004055	 -0.00004278
552.00000000	 -0.00002618	  0.00005334	  0.00398549	  0.00040891	 -0.00067417	 -0.01108787	 -0.00004039	  0.00004248
553.00000000	  0.00000000	 -0.00000000	  0.00311742	  0.00008691	 -0.00010136	 -0.00385790	  0.00000000	 -0.00000000
554.00000000	  0.00000134	  0.00005167	  0.00406215	 -0.00030197	  0.00037149	  0.01236834	 -0.00000047	  0.00003981
555.00000000	 -0.00002943	 -0.00005046	  0.01280675	  0.00507177	 -0.01454647	  0.00198211	 -0.00003899	 -0.00003751
556.00000000	  0.00002741	 -0.00000085	  0.00836526	 -0.00178787	  0.00549894	 -0.00709342	  0.00003981	 -0.00000215
557.00000000	 -0.00000000	  0.00000000	  0.00280235	 -0.00042644	  0.00140674	 -0.00470633	 -0.00000000	  0.00000000
558.00000000	  0.00000000	  0.00000000	  0.00220510	 -0.00296307	  0.00845571	  0.00252209	 -0.00000000	  0.00000000
559.00000000	 -0.00000000	 -0.00000000	  0.00523604	 -0.00169505	  0.00496663	 -0.00366189	  0.00000000	 -0.00000000
560.00000000	  0.00002913	  0.00005021	  0.00427316	  0.00106556	 -0.00308742	  0.00214030	  0.00003901	  0.00003767
561.00000000	 -0.00002896	 -0.00005039	  0.00430407	  0.00435300	 -0.01242355	  0.00149485	 -0.00003917	 -0.00003761
562.00000000	 -0.00000000	  0.00000000	  0.00032089	  0.00090057	 -0.00271226	  0.00316121	 -0.00000000	  0.00000000
563.00000000	  0.00000000	  0.00000000	  0.00593111	 -0.00123892	  0.00365993	 -0.00165818	  0.00000000	  0.00000000
564.00000000	 -0.00000000	 -0.00000000	  0.00777092	 -0.00157462	  0.00477634	 -0.00547090	  0.00000000	 -0.00000000
565.00000000	 -0.00000000	  0.00000000	  0.00282217	  0.00023790	 -0.00087007	  0.00471329	 -0.00000000	  0.00000000
566.00000000	 -0.00000188	 -0.00005211	  0.00620817	 -0.00040530	  0.00147405	 -0.00711320	 -0.00000027	 -0.00004001
567.00000000	  0.00000184	  0.00005207	  0.00118858	 -0.00051344	  0.00144637	  0.00061740	  0.00000022	  0.00004003
568.00000000	 -0.00000000	  0.00000000	  0.00091300	 -0.00007773	  0.00011041	  0.00279707	 -0.00000000	  0.00000000
569.00000000	  0.00000000	 -0.00000000	  0.00467167	 -0.00171411	  0.00510748	 -0.00495433	  0.00000000	 -0.00000000
570.00000000	  0.00000000	  0.00000000	  0.00436961	 -0.00053703	  0.00137985	  0.00382130	  0.00000000	  0.00000000
571.00000000	 -0.00000000	 -0.00000000	  0.00027078	 -0.00096416	  0.00276077	 -0.00072068	 -0.00000000	 -0.00000000
572.00000000	 -0.00002837	  0.00000141	  0.00158832	 -0.00016083	  0.00063644	 -0.00529674	 -0.00004013	  0.00000213
573.00000000	  0.00002839	 -0.00000136	  0.00896722	  0.00449406	 -0.01284289	  0.00577450	  0.00004049	 -0.00000199
574.00000000	  0.00002788	 -0.00000129	  0.00039487	  0.00175097	 -0.00525086	  0.00630093	  0.00004024	 -0.00000238
575.00000000	 -0.00005691	 -0.00004945	  0.00405467	 -0.00087969	  0.00244974	  0.00205998	 -0.00007988	 -0.00003460
576.00000000	  0.00002949	  0.00005059	  0.00032609	 -0.00177638	  0.00498153	  0.00282044	  0.00003960	  0.00003718
577.00000000	  0.00002769	 -0.00000176	  0.00274699	  0.00125853	 -0.00360392	  0.00006458	  0.00003988	 -0.00000290
578.00000000	 -0.00002587	  0.00005365	  0.00305000	  0.00015698	 -0.00040752	 -0.00088801	 -0.00004023	  0.00004285
579.00000000	 -0.00000003	  0.00000029	  0.00155451	  0.00153502	 -0.00427659	 -0.00302744	 -0.00000006	  0.00000023
580.00000000	 -0.00000160	 -0.00005235	  0.00118283	 -0.00024199	  0.00064059	  0.00136216	  0.00000052	 -0.00004004
581.00000000	 -0.00000150	 -0.00005247	  0.00312250	  0.00086121	 -0.00247692	 -0.00030774	  0.00000082	 -0.00004011
582.00000000	  0.00000131	  0.00005252	  0.00558339	 -0.00120912	  0.00361886	 -0.00252993	 -0.00000060	  0.00004016
583.00000000	  0.00000150	  0.00005208	  0.00435295	 -0.00049360	  0.00099036	  0.00962784	 -0.00000072	  0.00003990
584.00000000	 -0.00000178	 -0.00005206	  0.00499799	 -0.00134271	  0.00414352	 -0.00529984	  0.00000052	 -0.00003995
585.00000000	 -0.00000000	 -0.00000000	  0.00244278	  0.00049234	 -0.00145910	  0.00101903	 -0.00000000	  0.00000000
586.00000000	  0.00000000	  0.00000000	  0.00000945	 -0.00137822	  0.00391703	  0.00084937	  0.00000000	 -0.00000000
587.00000000	 -0.00000000	 -0.00000000	  0.00489920	  0.00057291	 -0.00141467	 -0.00441656	 -0.00000000	  0.00000000
588.00000000	 -0.00002767	  0.00000195	  0.00339654	  0.00055626	 -0.00174174	  0.00321602	 -0.00003980	  0.00000306
589.00000000	  0.00002585	 -0.00005381	  0.00303056	  0.00137848	 -0.00407993	  0.00262733	  0.00004055	 -0.00004290
590.00000000	  0.00003110	  0.00010221	  0.00277815	 -0.00016107	  0.00056018	 -0.00188615	  0.00003888	  0.00007659
591.00000000	 -0.00000178	 -0.00005201	  0.00153307	 -0.00239615	  0.00695000	 -0.00091173	  0.00000049	 -0.00003995
592.00000000	 -0.00002948	 -0.00004994	  0.00802768	  0.00127692	 -0.00375422	  0.00241125	 -0.00003896	 -0.00003698
593.00000000	  0.00000144	  0.00005197	  0.00495384	  0.00362354	 -0.01053562	  0.00299707	 -0.00000114	  0.00003977
594.00000000	  0.00000000	  0.00000000	  0.00443677	 -0.00150033	  0.00424152	  0.00246335	  0.00000000	 -0.00000000
595.00000000	 -0.00000000	 -0.00000000	  0.00619336	 -0.00006038	  0.00033811	 -0.00291261	 -0.00000000	  0.00000000
596.00000000	  0.00002740	 -0.00000223	  0.00341151	 -0.00204757	  0.00588244	  0.00063598	  0.00003967	 -0.00000368
597.00000000	 -0.00002750	  0.00000232	  0.00058026	  0.00106123	 -0.00301095	 -0.00058051	 -0.00003975	  0.00000363
598.00000000	  0.00002741	 -0.00000211	  0.00403468	  0.00058512	 -0.00176660	  0.00149543	  0.00003974	 -0.00000338
599.00000000	 -0.00002738	  0.00000200	  0.00094936	 -0.00081330	  0.00236810	 -0.00035668	 -0.00003968	  0.00000333
600.00000000	 -0.00002741	  0.00000184	  0.00031878	  0.00077128	 -0.00213429	 -0.00162591	 -0.00003971	  0.00000317
601.00000000	  0.00002561	 -0.00005358	  0.00275989	 -0.00072752	  0.00188844	  0.00408409	  0.00004052	 -0.00004287
602.00000000	  0.00000184	  0.00005170	  0.00922155	 -0.00138888	  0.00442460	 -0.00739923	 -0.00000049	  0.00003970
603.00000000	 -0.00002758	  0.00000232	  0.00122049	  0.00025637	 -0.00080038	  0.00121698	 -0.00003968	  0.00000363
604.00000000	  0.00002756	 -0.00000236	  0.00339277	 -0.00148453	  0.00429605	 -0.00078339	  0.00003956	 -0.00000374
605.00000000	 -0.00002763	  0.00000266	  0.00122082	 -0.00156734	  0.00444292	  0.00033529	 -0.00003946	  0.00000398
606.00000000	 -0.00000004	 -0.00000004	  0.00152282	  0.00039666	 -0.00116007	  0.00064764	 -0.00000005	 -0.00000003
607.00000000	  0.00003018	  0.00004849	  0.00517975	 -0.00142727	  0.00377492	  0.00487514	  0.00003928	  0.00003565
608.00000000	 -0.00000245	 -0.00005104	  0.00000404	  0.00087617	 -0.00233287	 -0.00243003	  0.00000019	 -0.00003952
609.00000000	  0.00002778	 -0.00000235	  0.00183615	 -0.00028722	  0.00067881	  0.00239560	  0.00003955	 -0.00000374
610.00000000	 -0.00002779	  0.00000230	  0.00859334	 -0.00097640	  0.00324790	 -0.00818514	 -0.00003942	  0.00000377
611.00000000	  0.00002789	 -0.00000259	  0.00641874	  0.00028282	 -0.00116486	  0.00687702	  0.00003954	 -0.00000382
612.00000000	 -0.00002547	  0.00005359	  0.00067633	  0.00084323	 -0.00237116	 -0.00012781	 -0.00003983	  0.00004343
613.00000000	 -0.00003022	 -0.00004896	  0.00518300	  0.00051203	 -0.00164957	  0.00363033	 -0.00003929	 -0.00003599
614.00000000	  0.00002784	 -0.00000213	  0.00310826	 -0.00028315	  0.00101263	 -0.00363251	  0.00003968	 -0.00000362
615.00000000	  0.00002785	 -0.00000228	  0.00093892	 -0.00003196	 -0.00006740	  0.00280029	  0.00003967	 -0.00000374
616.00000000	 -0.00002784	  0.00000226	  0.00400831	 -0.00040862	  0.00153513	 -0.00658710	 -0.00003961	  0.00000364
617.00000000	 -0.00000000	  0.00000000	  0.00404845	  0.00112256	 -0.00350999	  0.00623389	  0.00000000	  0.00000000
618.00000000	  0.00002993	  0.00004909	  0.00237756	 -0.00028201	  0.00070145	  0.00175217	  0.00003899	  0.00003598
619.00000000	 -0.00002991	 -0.00004915	  0.00697808	 -0.00100974	  0.00324867	 -0.00645640	 -0.00003915	 -0.00003600
620.00000000	 -0.00002798	  0.00000230	  0.00365720	  0.00038468	 -0.00121016	  0.00228038	 -0.00003978	  0.00000361
621.00000000	  0.00003016	  0.00004923	  0.00005577	  0.00101852	 -0.00284162	 -0.00072481	  0.00003946	  0.00003618
622.00000000	 -0.00000216	 -0.00005148	  0.00181057	 -0.00143252	  0.00410125	 -0.00059337	  0.00000032	 -0.00003982
623.00000000	  0.00000222	  0.00005124	  0.00180091	  0.00049742	 -0.00149514	  0.00163755	 -0.00000039	  0.00003968
624.00000000	 -0.00000221	 -0.00005127	  0.00053996	 -0.00041754	  0.00118651	 -0.00008414	  0.00000036	 -0.00003969
625.00000000	 -0.00000230	 -0.00005134	  0.00152693	  0.00044188	 -0.00115619	 -0.00163133	  0.00000022	 -0.00003974
626.00000000	 -0.00000005	  0.00000008	  0.00189791	 -0.00012644	  0.00044234	 -0.00150281	 -0.00000008	  0.00000007
627.00000000	  0.00000012	  0.00000007	  0.00432535	 -0.00032851	  0.00079116	  0.00259170	  0.00000017	  0.00000005
628.00000000	  0.00000215	  0.00005119	  0.00243228	  0.00021281	 -0.00085936	  0.00463831	 -0.00000051	  0.00003964
629.00000000	  0.00000000	  0.00000000	  0.00218073	  0.00101554	 -0.00280577	 -0.00121352	 -0.00000000	  0.00000000
630.00000000	 -0.00000000	 -0.00000000	  0.00151057	  0.00032265	 -0.00099593	  0.00144223	 -0.00000000	  0.00000000
631.00000000	  0.00000210	  0.00005147	  0.00676365	 -0.00130893	  0.00404786	 -0.00563529	 -0.00000037	  0.00003978
632.00000000	 -0.00000217	 -0.00005138	  0.00762809	  0.00135780	 -0.00417713	  0.00641785	  0.00000067	 -0.00003973
633.00000000	  0.00002782	 -0.00000186	  0.00247187	 -0.00031045	  0.00105209	 -0.00299571	  0.00003976	 -0.00000341
634.00000000	 -0.00002784	  0.00000193	  0.00273685	  0.00017377	 -0.00069529	  0.00369405	 -0.00003979	  0.00000345
635.00000000	  0.00002776	 -0.00000187	  0.00093930	  0.00054038	 -0.00155045	  0.00024615	  0.00003974	 -0.00000342
636.00000000	 -0.00002774	  0.00000184	  0.00094661	  0.00005568	 -0.00018925	  0.00053192	 -0.00003974	  0.00000348
637.00000000	 -0.00000192	 -0.00005148	  0.00097896	  0.00006729	 -0.00019028	 -0.00002648	  0.00000108	 -0.00003971
638.00000000	  0.00000186	  0.00005148	  0.00341453	 -0.00067320	  0.00207782	 -0.00273684	 -0.00000094	  0.00003974
639.00000000	 -0.00000195	 -0.00005144	  0.00153282	  0.00018072	 -0.00049449	 -0.00034973	  0.00000093	 -0.00003972
640.00000000	  0.00002965	  0.00004955	  0.00185957	  0.00030712	 -0.00101775	  0.00262359	  0.00003878	  0.00003629
641.00000000	 -0.00002777	  0.00000185	  0.00117276	  0.00059379	 -0.00176887	  0.00136992	 -0.00003983	  0.00000343
642.00000000	  0.00000000	 -0.00000000	  0.00091848	 -0.00003734	  0.00006722	  0.00069205	  0.00000000	 -0.00000000
643.00000000	 -0.00000000	  0.00000000	  0.00088317	 -0.00048757	  0.00141631	 -0.00041895	 -0.00000000	  0.00000000
644.00000000	  0.00000177	  0.00005139	  0.00212672	 -0.00013861	  0.00015298	  0.00416285	 -0.00000134	  0.00003967
645.00000000	 -0.00000187	 -0.00005139	  0.00333925	  0.00087433	 -0.00256847	  0.00130010	  0.00000147	 -0.00003963
646.00000000	 -0.00002767	  0.00000162	  0.00544858	 -0.00004891	  0.00053795	 -0.00660802	 -0.00003977	  0.00000336
647.00000000	  0.00002942	  0.00004981	  0.00121883	 -0.00019723	  0.00037169	  0.00335303	  0.00003849	  0.00003631
648.00000000	  0.00002759	 -0.00000168	  0.00210129	  0.00077427	 -0.00219690	 -0.00025116	  0.00003968	 -0.00000330
649.00000000	 -0.00002928	 -0.00005000	  0.00248137	  0.00051892	 -0.00161676	  0.00229663	 -0.00003828	 -0.00003642
650.00000000	 -0.00000000	 -0.00000000	  0.00215488	  0.00010294	 -0.00017212	 -0.00210145	  0.00000000	 -0.00000000
651.00000000	  0.00002764	 -0.00000165	  0.00183349	 -0.00106262	  0.00316043	 -0.00190390	  0.00003982	 -0.00000333
652.00000000	 -0.00002940	 -0.00005003	  0.00031681	  0.00028778	 -0.00089781	  0.00131659	 -0.00003849	 -0.00003647
653.00000000	  0.00000175	  0.00005175	  0.00027686	 -0.00029106	  0.00088889	 -0.00097847	 -0.00000136	  0.00003985
