frame   ulx     uly     urx     ury     lrx     lry     llx     lly     
frame00001.jpg	376.00	425.00	423.00	423.00	428.00	473.00	379.00	475.00	
frame00002.jpg	376.00	425.00	423.00	423.00	428.00	473.00	379.00	475.00	
frame00003.jpg	376.00	425.00	423.00	423.00	428.00	473.00	379.00	475.00	
frame00004.jpg	376.00	425.00	423.00	423.00	428.00	473.00	379.00	475.00	
frame00005.jpg	376.00	425.00	423.00	423.00	428.00	473.00	379.00	475.00	
frame00006.jpg	376.00	425.00	423.00	423.00	428.00	473.00	379.00	475.00	
frame00007.jpg	376.00	425.00	423.00	423.00	428.00	473.00	379.00	475.00	
frame00008.jpg	376.00	425.00	423.00	423.00	428.00	473.00	379.00	475.00	
frame00009.jpg	376.00	425.00	423.00	423.00	428.00	473.00	379.00	475.00	
frame00010.jpg	376.00	425.00	423.00	423.00	428.00	473.00	379.00	475.00	
frame00011.jpg	376.00	425.00	423.00	423.00	428.00	473.00	379.00	475.00	
frame00012.jpg	376.00	425.00	423.00	423.00	428.00	473.00	379.00	475.00	
frame00013.jpg	376.00	425.00	423.00	423.00	428.00	473.00	379.00	475.00	
frame00014.jpg	376.00	425.00	423.00	423.00	428.00	473.00	379.00	475.00	
frame00015.jpg	376.00	425.00	423.00	423.00	428.00	473.00	379.00	475.00	
frame00016.jpg	376.00	425.00	423.00	423.00	428.00	473.00	379.00	475.00	
frame00017.jpg	376.00	425.00	423.00	423.00	428.00	473.00	379.00	475.00	
frame00018.jpg	376.00	425.00	423.00	423.00	428.00	473.00	379.00	475.00	
frame00019.jpg	376.00	425.00	423.00	423.00	428.00	473.00	379.00	475.00	
frame00020.jpg	376.00	425.00	423.00	423.00	428.00	473.00	379.00	475.00	
frame00021.jpg	376.00	425.00	423.00	423.00	428.00	473.00	379.00	475.00	
frame00022.jpg	376.00	425.00	423.00	423.00	428.00	473.00	379.00	475.00	
frame00023.jpg	376.00	425.00	423.00	423.00	428.00	473.00	379.00	475.00	
frame00024.jpg	376.00	425.00	423.00	423.00	428.00	473.00	379.00	475.00	
frame00025.jpg	376.00	425.00	423.00	423.00	428.00	473.00	379.00	475.00	
frame00026.jpg	376.00	425.00	423.00	423.00	428.00	473.00	379.00	475.00	
frame00027.jpg	376.00	425.00	423.00	423.00	428.00	473.00	379.00	475.00	
frame00028.jpg	376.00	425.00	423.00	423.00	428.00	473.00	379.00	475.00	
frame00029.jpg	376.00	425.00	423.00	423.00	428.00	473.00	379.00	475.00	
frame00030.jpg	376.00	425.00	423.00	423.00	428.00	473.00	379.00	475.00	
frame00031.jpg	376.00	425.00	423.00	423.00	428.00	473.00	379.00	475.00	
frame00032.jpg	376.00	425.00	423.00	423.00	428.00	473.00	379.00	475.00	
frame00033.jpg	376.00	425.00	423.00	423.00	428.00	473.00	379.00	475.00	
frame00034.jpg	376.00	425.00	423.00	423.00	428.00	473.00	379.00	475.00	
frame00035.jpg	376.00	425.00	423.00	423.00	428.00	473.00	379.00	475.00	
frame00036.jpg	376.00	425.00	423.00	423.00	428.00	473.00	379.00	475.00	
frame00037.jpg	376.00	425.00	423.00	423.00	428.00	473.00	379.00	475.00	
frame00038.jpg	376.00	425.00	423.00	423.00	428.00	473.00	379.00	475.00	
frame00039.jpg	376.00	425.00	423.00	423.00	428.00	473.00	379.00	475.00	
frame00040.jpg	376.00	425.00	423.00	423.00	428.00	473.00	379.00	475.00	
frame00041.jpg	376.00	425.00	423.00	423.00	428.00	473.00	379.00	475.00	
frame00042.jpg	376.00	425.00	423.00	423.00	428.00	473.00	379.00	475.00	
frame00043.jpg	376.00	425.00	423.00	423.00	428.00	473.00	379.00	475.00	
frame00044.jpg	376.00	425.00	423.00	423.00	428.00	473.00	379.00	475.00	
frame00045.jpg	376.00	425.00	423.00	423.00	428.00	473.00	379.00	475.00	
frame00046.jpg	376.00	425.00	423.00	423.00	428.00	473.00	379.00	475.00	
frame00047.jpg	376.00	425.00	423.00	423.00	428.00	473.00	379.00	475.00	
frame00048.jpg	376.00	425.00	423.00	423.00	428.00	473.00	379.00	475.00	
frame00049.jpg	376.00	425.00	423.00	423.00	428.00	473.00	379.00	475.00	
frame00050.jpg	376.00	425.00	423.00	423.00	428.00	473.00	379.00	475.00	
frame00051.jpg	376.00	425.00	423.00	423.00	428.00	473.00	379.00	475.00	
frame00052.jpg	376.00	425.00	423.00	423.00	428.00	473.00	379.00	475.00	
frame00053.jpg	376.00	425.00	423.00	423.00	428.00	473.00	379.00	475.00	
frame00054.jpg	376.00	425.00	423.00	423.00	428.00	473.00	379.00	475.00	
frame00055.jpg	376.00	425.00	423.00	423.00	428.00	473.00	379.00	475.00	
frame00056.jpg	376.00	425.00	423.00	423.00	428.00	473.00	379.00	475.00	
frame00057.jpg	376.00	425.00	423.00	423.00	428.00	473.00	379.00	475.00	
frame00058.jpg	376.00	425.00	423.00	423.00	428.00	473.00	379.00	475.00	
frame00059.jpg	376.00	425.00	423.00	423.00	428.00	473.00	379.00	475.00	
frame00060.jpg	376.00	425.00	423.00	423.00	428.00	473.00	379.00	475.00	
frame00061.jpg	376.00	425.00	423.00	423.00	428.00	473.00	379.00	475.00	
frame00062.jpg	376.00	425.00	423.00	423.00	428.00	473.00	379.00	475.00	
frame00063.jpg	376.00	425.00	423.00	423.00	428.00	473.00	379.00	475.00	
frame00064.jpg	376.00	425.00	423.00	423.00	428.00	473.00	379.00	475.00	
frame00065.jpg	376.00	425.00	423.00	423.00	428.00	473.00	379.00	475.00	
frame00066.jpg	376.00	425.00	423.00	423.00	428.00	473.00	379.00	475.00	
frame00067.jpg	376.00	425.00	423.00	423.00	428.00	473.00	379.00	475.00	
frame00068.jpg	376.00	425.00	423.00	423.00	428.00	473.00	379.00	475.00	
frame00069.jpg	376.00	425.00	423.00	423.00	428.00	473.00	379.00	475.00	
frame00070.jpg	376.00	425.00	423.00	423.00	428.00	473.00	379.00	475.00	
frame00071.jpg	376.00	425.00	423.00	423.00	428.00	473.00	379.00	475.00	
frame00072.jpg	376.00	425.00	423.00	423.00	428.00	473.00	379.00	475.00	
frame00073.jpg	376.00	425.00	423.00	423.00	428.00	473.00	379.00	475.00	
frame00074.jpg	376.00	425.00	423.00	423.00	428.00	473.00	379.00	475.00	
frame00075.jpg	376.00	425.00	423.00	423.00	428.00	473.00	379.00	475.00	
frame00076.jpg	376.00	425.00	423.00	423.00	428.00	473.00	379.00	475.00	
frame00077.jpg	376.00	425.00	423.00	423.00	428.00	473.00	379.00	475.00	
frame00078.jpg	376.00	425.00	423.00	423.00	428.00	473.00	379.00	475.00	
frame00079.jpg	376.00	425.00	423.00	423.00	428.00	473.00	379.00	475.00	
frame00080.jpg	376.00	425.00	423.00	423.00	428.00	473.00	379.00	475.00	
frame00081.jpg	376.00	425.00	423.00	423.00	428.00	473.00	379.00	475.00	
frame00082.jpg	376.00	425.00	423.00	423.00	428.00	473.00	379.00	475.00	
frame00083.jpg	376.00	425.00	423.00	423.00	428.00	473.00	379.00	475.00	
frame00084.jpg	376.00	425.00	423.00	423.00	428.00	473.00	379.00	475.00	
frame00085.jpg	376.00	425.00	423.00	423.00	428.00	473.00	379.00	475.00	
frame00086.jpg	376.00	425.00	423.00	423.00	428.00	473.00	379.00	475.00	
frame00087.jpg	376.00	425.00	423.00	423.00	428.00	473.00	379.00	475.00	
frame00088.jpg	376.00	425.00	423.00	423.00	428.00	473.00	379.00	475.00	
frame00089.jpg	376.00	425.00	423.00	423.00	428.00	473.00	379.00	475.00	
frame00090.jpg	376.00	425.00	423.00	423.00	428.00	473.00	379.00	475.00	
frame00091.jpg	376.00	425.00	423.00	423.00	428.00	473.00	379.00	475.00	
frame00092.jpg	376.00	425.00	423.00	423.00	428.00	473.00	379.00	475.00	
frame00093.jpg	376.00	425.00	423.00	423.00	428.00	473.00	379.00	475.00	
frame00094.jpg	376.00	425.00	423.00	423.00	428.00	473.00	379.00	475.00	
frame00095.jpg	376.00	425.00	423.00	423.00	428.00	473.00	379.00	475.00	
frame00096.jpg	376.00	425.00	423.00	423.00	428.00	473.00	379.00	475.00	
frame00097.jpg	376.00	425.00	423.00	423.00	428.00	473.00	379.00	475.00	
frame00098.jpg	376.00	425.00	423.00	423.00	428.00	473.00	379.00	475.00	
frame00099.jpg	376.00	425.00	423.00	423.00	428.00	473.00	379.00	475.00	
frame00100.jpg	376.00	425.00	423.00	423.00	428.00	473.00	379.00	475.00	
frame00101.jpg	376.00	425.00	423.00	423.00	428.00	473.00	379.00	475.00	
frame00102.jpg	376.00	425.00	423.00	423.00	428.00	473.00	379.00	475.00	
frame00103.jpg	376.00	425.00	423.00	423.00	428.00	473.00	379.00	475.00	
frame00104.jpg	376.00	425.00	423.00	423.00	428.00	473.00	379.00	475.00	
frame00105.jpg	376.00	425.00	423.00	423.00	428.00	473.00	379.00	475.00	
frame00106.jpg	376.00	425.00	423.00	423.00	428.00	473.00	379.00	475.00	
frame00107.jpg	376.00	425.00	423.00	423.00	428.00	473.00	379.00	475.00	
frame00108.jpg	376.00	425.00	423.00	423.00	428.00	473.00	379.00	475.00	
frame00109.jpg	376.00	425.00	423.00	423.00	428.00	473.00	379.00	475.00	
frame00110.jpg	376.00	425.00	423.00	423.00	428.00	473.00	379.00	475.00	
frame00111.jpg	376.00	425.00	423.00	423.00	428.00	473.00	379.00	475.00	
frame00112.jpg	376.00	425.00	423.00	423.00	428.00	473.00	379.00	475.00	
frame00113.jpg	376.00	425.00	423.00	423.00	428.00	473.00	379.00	475.00	
frame00114.jpg	376.00	425.00	423.00	423.00	428.00	473.00	379.00	475.00	
frame00115.jpg	376.00	425.00	423.00	423.00	428.00	473.00	379.00	475.00	
frame00116.jpg	376.00	425.00	423.00	423.00	428.00	473.00	379.00	475.00	
frame00117.jpg	376.00	425.00	423.00	423.00	428.00	473.00	379.00	475.00	
frame00118.jpg	376.07	425.00	423.07	423.00	428.08	473.00	379.08	475.00	
frame00119.jpg	376.15	424.99	423.15	422.99	428.16	472.99	379.15	474.99	
frame00120.jpg	376.15	424.99	423.15	422.99	428.16	472.99	379.15	474.99	
frame00121.jpg	376.15	424.99	423.15	422.99	428.16	472.99	379.15	474.99	
frame00122.jpg	376.22	424.99	423.22	422.99	428.23	472.99	379.23	474.99	
frame00123.jpg	376.30	424.99	423.30	422.99	428.31	472.99	379.31	474.99	
frame00124.jpg	376.52	424.98	423.52	422.98	428.54	472.98	379.54	474.98	
frame00125.jpg	376.74	424.89	423.74	422.89	428.77	472.89	379.77	474.89	
frame00126.jpg	376.95	424.66	423.94	422.66	428.98	472.63	379.99	474.63	
frame00127.jpg	377.29	424.26	424.27	422.26	429.32	472.20	380.35	474.20	
frame00128.jpg	377.63	423.71	424.59	421.71	429.65	471.61	380.70	473.61	
frame00129.jpg	377.97	423.17	424.91	421.17	429.98	471.02	381.05	473.02	
frame00130.jpg	378.45	422.47	425.36	420.47	430.45	470.26	381.55	472.26	
frame00131.jpg	378.90	421.31	425.76	419.31	430.87	469.00	382.01	471.00	
frame00132.jpg	379.46	419.70	426.27	417.70	431.39	467.26	382.60	469.26	
frame00133.jpg	379.97	417.19	426.68	415.19	431.80	464.54	383.12	466.54	
frame00134.jpg	380.43	413.95	427.01	411.95	432.13	461.02	383.58	463.02	
frame00135.jpg	380.97	409.83	427.39	407.84	432.51	456.55	384.14	458.55	
frame00136.jpg	381.61	405.00	427.84	403.00	432.96	451.31	384.79	453.31	
frame00137.jpg	382.24	400.21	428.29	398.21	433.40	446.12	385.44	448.12	
frame00138.jpg	382.87	395.46	428.73	393.46	433.84	440.97	386.08	442.97	
frame00139.jpg	383.49	390.75	429.17	388.75	434.27	435.86	386.71	437.86	
frame00140.jpg	384.11	386.07	429.60	384.07	434.71	430.79	387.34	432.80	
frame00141.jpg	382.57	387.78	428.12	385.78	433.17	432.64	385.74	434.64	
frame00142.jpg	381.71	389.03	427.31	387.03	432.33	433.99	384.85	436.00	
frame00143.jpg	380.18	391.03	425.85	389.04	430.82	436.16	383.27	438.16	
frame00144.jpg	378.65	393.04	424.39	391.05	429.31	438.33	381.67	440.33	
frame00145.jpg	377.11	395.06	422.92	393.06	427.79	440.51	380.07	442.51	
frame00146.jpg	375.56	397.08	421.45	395.09	426.26	442.70	378.47	444.70	
frame00147.jpg	374.01	399.11	419.97	397.11	424.73	444.90	376.86	446.90	
frame00148.jpg	372.45	401.15	418.49	399.15	423.20	447.10	375.24	449.10	
frame00149.jpg	370.89	403.19	417.00	401.19	421.66	449.31	373.62	451.31	
frame00150.jpg	369.33	405.24	415.51	403.24	420.11	451.53	372.00	453.53	
frame00151.jpg	367.76	407.30	414.01	405.30	418.56	453.75	370.36	455.75	
frame00152.jpg	368.87	402.18	414.93	400.18	419.49	448.21	371.51	450.21	
frame00153.jpg	369.85	397.55	415.73	395.55	420.30	443.19	372.52	445.19	
frame00154.jpg	370.55	393.25	416.26	391.26	420.84	438.53	373.24	440.53	
frame00155.jpg	370.97	389.29	416.53	387.29	421.10	434.24	373.67	436.24	
frame00156.jpg	371.26	385.49	416.66	383.50	421.23	430.13	373.96	432.13	
frame00157.jpg	371.42	382.16	416.70	380.16	421.25	426.51	374.12	428.51	
frame00158.jpg	371.62	379.40	416.79	377.41	421.33	423.53	374.32	425.53	
frame00159.jpg	371.56	377.23	416.64	375.23	421.17	421.18	374.26	423.18	
frame00160.jpg	371.38	375.35	416.39	373.35	420.90	419.14	374.06	421.14	
frame00161.jpg	371.08	373.89	416.03	371.90	420.52	417.57	373.75	419.57	
frame00162.jpg	370.81	372.86	415.71	370.87	420.19	416.45	373.46	418.45	
frame00163.jpg	370.28	372.26	415.16	370.27	419.60	415.80	372.91	417.80	
frame00164.jpg	369.61	371.81	414.47	369.81	418.89	415.30	372.21	417.30	
frame00165.jpg	368.95	371.35	413.78	369.36	418.17	414.81	371.52	416.81	
frame00166.jpg	368.42	370.89	413.24	368.90	417.60	414.31	370.97	416.30	
frame00167.jpg	367.89	370.29	412.68	368.30	417.02	413.66	370.42	415.65	
frame00168.jpg	367.50	369.68	412.27	367.69	416.59	413.00	370.01	415.00	
frame00169.jpg	367.13	369.36	411.88	367.36	416.18	412.64	369.63	414.64	
frame00170.jpg	366.92	369.30	411.66	367.30	415.95	412.58	369.40	414.58	
frame00171.jpg	366.84	369.30	411.59	367.31	415.88	412.58	369.33	414.58	
frame00172.jpg	366.92	369.36	411.67	367.37	415.96	412.65	369.41	414.65	
frame00173.jpg	367.14	369.42	411.89	367.43	416.19	412.72	369.63	414.72	
frame00174.jpg	367.49	369.41	412.24	367.42	416.56	412.70	370.00	414.70	
frame00175.jpg	367.84	369.39	412.60	367.40	416.93	412.69	370.37	414.68	
frame00176.jpg	368.05	369.31	412.80	367.32	417.14	412.60	370.58	414.60	
frame00177.jpg	368.25	369.10	412.99	367.11	417.34	412.37	370.79	414.37	
frame00178.jpg	368.32	369.03	413.06	367.04	417.41	412.29	370.86	414.29	
frame00179.jpg	368.52	368.81	413.25	366.82	417.61	412.06	371.07	414.06	
frame00180.jpg	368.72	368.59	413.44	366.60	417.81	411.82	371.28	413.82	
frame00181.jpg	368.79	368.52	413.51	366.53	417.87	411.75	371.34	413.75	
frame00182.jpg	368.85	368.45	413.57	366.46	417.94	411.67	371.41	413.67	
frame00183.jpg	368.85	368.45	413.57	366.46	417.94	411.67	371.41	413.67	
frame00184.jpg	368.86	368.52	413.58	366.53	417.95	411.74	371.42	413.74	
frame00185.jpg	368.79	368.52	413.51	366.53	417.87	411.75	371.34	413.75	
frame00186.jpg	368.71	368.53	413.44	366.53	417.80	411.75	371.27	413.75	
frame00187.jpg	368.64	368.46	413.36	366.47	417.72	411.68	371.19	413.68	
frame00188.jpg	368.57	368.39	413.28	366.40	417.64	411.61	371.12	413.61	
frame00189.jpg	368.57	368.39	413.28	366.40	417.64	411.61	371.12	413.61	
frame00190.jpg	368.64	368.39	413.35	366.40	417.71	411.60	371.19	413.60	
frame00191.jpg	368.71	368.39	413.42	366.40	417.79	411.60	371.26	413.60	
frame00192.jpg	368.78	368.38	413.50	366.39	417.86	411.60	371.34	413.60	
frame00193.jpg	368.99	368.44	413.71	366.45	418.09	411.66	371.56	413.66	
frame00194.jpg	369.21	368.50	413.93	366.51	418.32	411.73	371.79	413.73	
frame00195.jpg	369.43	368.70	414.17	366.71	418.56	411.94	372.02	413.94	
frame00196.jpg	369.66	368.90	414.40	366.91	418.80	412.16	372.25	414.15	
frame00197.jpg	369.88	369.09	414.63	367.10	419.05	412.37	372.49	414.37	
frame00198.jpg	370.10	369.15	414.85	367.16	419.28	412.43	372.71	414.43	
frame00199.jpg	370.31	369.21	415.07	367.22	419.50	412.50	372.94	414.50	
frame00200.jpg	370.39	369.28	415.15	367.29	419.58	412.57	373.01	414.57	
frame00201.jpg	370.46	369.35	415.23	367.35	419.67	412.64	373.09	414.64	
frame00202.jpg	370.53	369.34	415.30	367.35	419.74	412.64	373.17	414.64	
frame00203.jpg	370.60	369.27	415.36	367.28	419.81	412.56	373.23	414.56	
frame00204.jpg	370.81	369.19	415.57	367.20	420.02	412.48	373.45	414.48	
frame00205.jpg	371.02	369.11	415.77	367.12	420.23	412.39	373.67	414.39	
frame00206.jpg	371.22	369.03	415.98	367.04	420.45	412.31	373.88	414.31	
frame00207.jpg	371.22	368.97	415.97	366.97	420.44	412.24	373.88	414.23	
frame00208.jpg	371.29	368.89	416.04	366.90	420.51	412.16	373.95	414.16	
frame00209.jpg	371.35	368.68	416.09	366.69	420.56	411.93	374.01	413.93	
frame00210.jpg	371.41	368.61	416.15	366.62	420.63	411.85	374.08	413.85	
frame00211.jpg	371.47	368.40	416.20	366.41	420.68	411.63	374.14	413.63	
frame00212.jpg	371.53	368.19	416.25	366.20	420.73	411.40	374.20	413.40	
frame00213.jpg	371.52	368.12	416.25	366.13	420.72	411.33	374.19	413.32	
frame00214.jpg	371.45	368.06	416.17	366.07	420.64	411.25	374.12	413.25	
frame00215.jpg	371.38	367.99	416.09	366.00	420.56	411.18	374.04	413.18	
frame00216.jpg	371.30	367.93	416.01	365.94	420.48	411.11	373.96	413.11	
frame00217.jpg	371.23	367.86	415.93	365.87	420.40	411.04	373.88	413.04	
frame00218.jpg	371.16	367.87	415.86	365.87	420.32	411.04	373.81	413.04	
frame00219.jpg	371.09	367.94	415.80	365.95	420.26	411.12	373.74	413.12	
frame00220.jpg	371.09	368.01	415.81	366.01	420.26	411.20	373.74	413.20	
frame00221.jpg	371.10	368.21	415.83	366.22	420.29	411.42	373.76	413.42	
frame00222.jpg	371.03	368.22	415.76	366.22	420.21	411.42	373.68	413.42	
frame00223.jpg	371.10	368.21	415.83	366.22	420.29	411.42	373.76	413.42	
frame00224.jpg	371.18	368.28	415.90	366.29	420.37	411.49	373.84	413.49	
frame00225.jpg	371.40	368.34	416.12	366.35	420.60	411.56	374.06	413.55	
frame00226.jpg	371.62	368.53	416.36	366.54	420.84	411.77	374.29	413.77	
frame00227.jpg	371.84	368.73	416.59	366.74	421.08	411.98	374.53	413.98	
frame00228.jpg	372.08	369.20	416.85	367.21	421.36	412.50	374.78	414.49	
frame00229.jpg	372.33	369.68	417.11	367.68	421.63	413.01	375.03	415.01	
frame00230.jpg	372.57	370.15	417.37	368.16	421.90	413.52	375.28	415.52	
frame00231.jpg	372.67	370.63	417.49	368.64	422.03	414.04	375.39	416.04	
frame00232.jpg	372.77	371.11	417.61	369.12	422.16	414.56	375.49	416.56	
frame00233.jpg	372.87	371.59	417.73	369.60	422.28	415.08	375.60	417.08	
frame00234.jpg	372.97	372.21	417.86	370.22	422.42	415.75	375.71	417.75	
frame00235.jpg	373.23	372.83	418.14	370.83	422.71	416.42	375.98	418.42	
frame00236.jpg	373.48	373.58	418.43	371.59	423.02	417.23	376.25	419.23	
frame00237.jpg	373.76	374.61	418.75	372.62	423.36	418.35	376.54	420.35	
frame00238.jpg	374.19	375.78	419.23	373.79	423.86	419.62	376.98	421.62	
frame00239.jpg	374.29	377.53	419.40	375.53	424.05	421.51	377.10	423.51	
frame00240.jpg	374.07	379.71	419.26	377.72	423.91	423.88	376.87	425.88	
frame00241.jpg	373.58	382.20	418.87	380.21	423.51	426.57	376.36	428.57	
frame00242.jpg	372.95	384.99	418.35	383.00	422.98	429.59	375.72	431.59	
frame00243.jpg	372.21	388.23	417.73	386.24	422.35	433.10	374.95	435.10	
frame00244.jpg	371.52	392.63	417.22	390.64	421.84	437.86	374.25	439.87	
frame00245.jpg	370.84	397.07	416.70	395.07	421.32	442.67	373.55	444.67	
frame00246.jpg	370.14	401.54	416.18	399.54	420.79	447.52	372.84	449.52	
frame00247.jpg	369.45	406.04	415.66	404.05	420.27	452.40	372.12	454.40	
frame00248.jpg	368.74	410.58	415.13	408.59	419.74	457.32	371.40	459.32	
frame00249.jpg	368.03	415.16	414.60	413.16	419.20	462.28	370.67	464.28	
frame00250.jpg	367.32	419.77	414.07	417.77	418.66	467.29	369.94	469.28	
frame00251.jpg	366.60	424.41	413.53	422.41	418.12	472.33	369.20	474.33	
frame00252.jpg	365.87	429.09	412.98	427.09	417.57	477.41	368.45	479.41	
frame00253.jpg	365.14	433.81	412.43	431.81	417.02	482.54	367.70	484.53	
frame00254.jpg	364.40	438.57	411.88	436.57	416.46	487.70	366.94	489.70	
frame00255.jpg	363.66	443.36	411.33	441.36	415.90	492.91	366.17	494.91	
frame00256.jpg	362.91	448.19	410.76	446.19	415.33	498.17	365.40	500.16	
frame00257.jpg	362.15	453.06	410.20	451.06	414.76	503.46	364.62	505.46	
frame00258.jpg	361.39	457.97	409.63	455.97	414.19	508.81	363.84	510.80	
frame00259.jpg	360.63	462.91	409.05	460.92	413.60	514.19	363.05	516.18	
frame00260.jpg	359.85	467.90	408.47	465.90	413.02	519.62	362.25	521.61	
frame00261.jpg	359.07	472.93	407.89	470.93	412.43	525.10	361.45	527.09	
frame00262.jpg	358.42	477.49	407.42	475.50	411.95	530.08	360.78	532.07	
frame00263.jpg	357.59	481.60	406.74	479.60	411.26	534.55	359.91	536.54	
frame00264.jpg	356.73	485.23	406.02	483.23	410.52	538.51	359.02	540.50	
frame00265.jpg	355.84	488.38	405.25	486.38	409.73	541.94	358.10	543.93	
frame00266.jpg	355.21	490.17	404.69	488.18	409.15	543.90	357.45	545.88	
frame00267.jpg	354.84	490.61	404.33	488.62	408.78	544.38	357.06	546.36	
frame00268.jpg	354.76	490.70	404.26	488.70	408.70	544.47	356.98	546.46	
frame00269.jpg	354.69	490.79	404.19	488.79	408.63	544.57	356.90	546.55	
frame00270.jpg	354.61	490.88	404.12	488.88	408.55	544.66	356.82	546.65	
frame00271.jpg	354.53	490.88	404.04	488.88	408.47	544.67	356.74	546.65	
frame00272.jpg	354.53	490.88	404.04	488.88	408.47	544.67	356.74	546.65	
frame00273.jpg	354.61	490.79	404.11	488.80	408.55	544.57	356.82	546.55	
frame00274.jpg	354.69	490.87	404.20	488.88	408.64	544.66	356.90	546.64	
frame00275.jpg	354.77	490.95	404.28	488.96	408.73	544.75	356.99	546.73	
frame00276.jpg	354.85	490.95	404.36	488.95	408.81	544.75	357.07	546.73	
frame00277.jpg	354.93	491.03	404.45	489.04	408.90	544.83	357.16	546.82	
frame00278.jpg	355.01	491.11	404.53	489.12	408.99	544.92	357.24	546.91	
frame00279.jpg	355.09	491.19	404.62	489.20	409.08	545.01	357.33	547.00	
frame00280.jpg	355.17	491.28	404.70	489.28	409.16	545.10	357.41	547.09	
frame00281.jpg	355.26	491.36	404.79	489.36	409.25	545.19	357.50	547.18	
frame00282.jpg	355.26	491.44	404.79	489.45	409.26	545.28	357.50	547.27	
frame00283.jpg	355.26	491.53	404.80	489.53	409.27	545.38	357.51	547.36	
frame00284.jpg	355.26	491.53	404.80	489.53	409.27	545.38	357.51	547.36	
frame00285.jpg	355.26	491.53	404.80	489.53	409.27	545.38	357.51	547.36	
frame00286.jpg	355.26	491.53	404.80	489.53	409.27	545.38	357.51	547.36	
frame00287.jpg	355.26	491.53	404.80	489.53	409.27	545.38	357.51	547.36	
frame00288.jpg	355.26	491.53	404.80	489.53	409.27	545.38	357.51	547.36	
frame00289.jpg	355.26	491.53	404.80	489.53	409.27	545.38	357.51	547.36	
frame00290.jpg	355.26	491.53	404.80	489.53	409.27	545.38	357.51	547.36	
frame00291.jpg	355.26	491.53	404.80	489.53	409.27	545.38	357.51	547.36	
frame00292.jpg	355.34	491.52	404.88	489.53	409.35	545.37	357.59	547.36	
frame00293.jpg	355.34	491.52	404.88	489.53	409.35	545.37	357.59	547.36	
frame00294.jpg	355.34	491.52	404.88	489.53	409.35	545.37	357.59	547.36	
frame00295.jpg	355.34	491.52	404.88	489.53	409.35	545.37	357.59	547.36	
frame00296.jpg	355.34	491.52	404.88	489.53	409.35	545.37	357.59	547.36	
frame00297.jpg	355.34	491.52	404.88	489.53	409.35	545.37	357.59	547.36	
frame00298.jpg	355.34	491.52	404.88	489.53	409.35	545.37	357.59	547.36	
frame00299.jpg	355.34	491.52	404.88	489.53	409.35	545.37	357.59	547.36	
frame00300.jpg	355.34	491.52	404.88	489.53	409.35	545.37	357.59	547.36	
frame00301.jpg	355.34	491.52	404.88	489.53	409.35	545.37	357.59	547.36	
frame00302.jpg	355.34	491.52	404.88	489.53	409.35	545.37	357.59	547.36	
