frame	ulx	uly	urx	ury	lrx	lry	llx	lly
frame00001.jpg	314.00	309.00	449.00	303.00	457.00	494.00	325.00	500.00
frame00002.jpg	314.06	308.84	448.96	302.83	456.94	493.91	325.02	500.00
frame00003.jpg	314.07	308.87	448.94	302.86	456.96	493.94	325.01	500.02
frame00004.jpg	314.06	308.84	448.96	302.83	456.94	493.92	325.00	500.00
frame00005.jpg	314.10	308.85	448.93	302.82	456.96	493.93	325.00	499.99
frame00006.jpg	314.08	308.82	448.94	302.81	456.96	493.92	325.00	500.01
frame00007.jpg	314.05	308.83	448.93	302.82	456.95	493.92	325.01	500.01
frame00008.jpg	314.02	308.83	448.94	302.85	456.94	493.92	325.02	500.01
frame00009.jpg	313.99	308.86	448.95	302.87	456.95	493.93	325.02	500.02
frame00010.jpg	314.01	308.88	448.96	302.86	456.96	493.94	325.01	500.03
frame00011.jpg	314.03	308.88	448.94	302.80	456.95	493.92	325.03	500.02
frame00012.jpg	314.04	308.81	448.93	302.79	456.94	493.89	325.01	500.02
frame00013.jpg	314.09	308.83	448.92	302.76	456.95	493.91	325.01	500.01
frame00014.jpg	314.10	308.77	448.91	302.74	456.95	493.91	325.01	500.01
frame00015.jpg	314.08	308.76	448.88	302.78	456.96	493.90	325.01	500.01
frame00016.jpg	314.08	308.76	448.91	302.75	456.94	493.89	325.01	500.00
frame00017.jpg	314.10	308.78	448.89	302.77	456.94	493.90	325.01	500.00
frame00018.jpg	314.10	308.78	448.90	302.77	456.96	493.91	325.02	500.00
frame00019.jpg	314.08	308.76	448.90	302.74	456.94	493.91	325.03	500.00
frame00020.jpg	314.07	308.77	448.91	302.77	456.94	493.90	325.01	500.01
frame00021.jpg	314.07	308.76	448.89	302.79	456.96	493.92	325.01	500.00
frame00022.jpg	314.08	308.74	448.90	302.76	456.94	493.90	325.01	500.01
frame00023.jpg	314.08	308.74	448.92	302.73	456.94	493.91	325.03	500.00
frame00024.jpg	314.08	308.76	448.89	302.76	456.94	493.91	325.02	500.00
frame00025.jpg	314.08	308.77	448.88	302.78	456.94	493.90	325.01	500.00
frame00026.jpg	314.07	308.78	448.90	302.76	456.96	493.92	325.03	499.99
frame00027.jpg	314.05	308.78	448.88	302.78	456.96	493.92	325.02	500.00
frame00028.jpg	314.07	308.77	448.90	302.80	456.96	493.93	325.01	500.00
frame00029.jpg	314.08	308.79	448.89	302.81	456.96	493.92	325.01	500.00
frame00030.jpg	314.09	308.80	448.89	302.81	456.96	493.92	325.01	500.00
frame00031.jpg	314.08	308.79	448.91	302.76	456.96	493.92	325.02	499.99
frame00032.jpg	314.07	308.81	448.90	302.80	456.96	493.92	325.02	500.00
frame00033.jpg	314.08	308.79	448.92	302.76	456.94	493.91	325.02	500.00
frame00034.jpg	314.08	308.79	448.90	302.77	456.95	493.91	325.01	500.00
frame00035.jpg	314.10	308.78	448.92	302.76	456.95	493.90	325.01	499.99
frame00036.jpg	314.10	308.75	448.90	302.76	456.95	493.91	325.01	500.00
frame00037.jpg	314.11	308.78	448.88	302.76	456.96	493.91	325.03	499.99
frame00038.jpg	314.12	308.77	448.89	302.74	456.96	493.91	325.04	499.98
frame00039.jpg	314.14	308.75	448.89	302.76	456.95	493.89	325.01	500.00
frame00040.jpg	314.13	308.74	448.87	302.77	456.95	493.90	325.01	499.98
frame00041.jpg	314.15	308.77	448.87	302.77	456.96	493.91	325.01	499.98
frame00042.jpg	314.15	308.77	448.89	302.74	456.95	493.89	325.02	499.97
frame00043.jpg	314.12	308.71	448.89	302.73	456.94	493.89	325.01	499.98
frame00044.jpg	314.15	308.70	448.89	302.69	456.94	493.88	325.03	499.97
frame00045.jpg	314.16	308.71	448.87	302.72	456.95	493.88	325.02	499.98
frame00046.jpg	314.17	308.70	448.86	302.72	456.95	493.88	325.01	499.97
frame00047.jpg	314.18	308.72	448.88	302.68	456.95	493.88	325.04	499.95
frame00048.jpg	314.18	308.71	448.89	302.67	456.96	493.89	325.03	499.97
frame00049.jpg	314.18	308.71	448.89	302.69	456.94	493.87	325.02	499.97
frame00050.jpg	314.19	308.72	448.87	302.70	456.95	493.89	325.02	499.97
frame00051.jpg	314.17	308.71	448.87	302.67	456.95	493.87	325.04	499.97
frame00052.jpg	314.19	308.69	448.88	302.67	456.94	493.87	325.03	499.97
frame00053.jpg	314.20	308.71	448.87	302.68	456.95	493.88	325.03	499.97
frame00054.jpg	314.17	308.68	448.88	302.64	456.95	493.87	325.03	499.96
frame00055.jpg	314.18	308.68	448.88	302.67	456.93	493.86	325.03	499.96
frame00056.jpg	314.22	308.70	448.88	302.69	456.94	493.87	325.02	499.96
frame00057.jpg	314.19	308.68	448.88	302.68	456.95	493.87	325.02	499.96
frame00058.jpg	314.19	308.68	448.89	302.69	456.94	493.86	325.01	499.96
frame00059.jpg	314.22	308.73	448.87	302.70	456.95	493.88	325.03	499.96
frame00060.jpg	314.19	308.70	448.87	302.67	456.96	493.88	325.04	499.96
frame00061.jpg	314.20	308.70	448.88	302.68	456.96	493.87	325.02	499.96
frame00062.jpg	314.21	308.72	448.87	302.70	456.97	493.89	325.02	499.97
frame00063.jpg	314.18	308.70	448.89	302.66	456.95	493.87	325.03	499.96
frame00064.jpg	314.20	308.73	448.89	302.71	456.96	493.87	325.01	499.96
frame00065.jpg	314.19	308.72	448.88	302.72	456.96	493.88	325.02	499.96
frame00066.jpg	314.19	308.72	448.89	302.71	456.93	493.87	325.03	499.96
frame00067.jpg	314.15	308.70	448.87	302.74	456.96	493.88	325.02	499.97
frame00068.jpg	314.16	308.70	448.89	302.73	456.94	493.88	325.02	499.97
frame00069.jpg	314.16	308.72	448.88	302.73	456.94	493.88	325.02	499.97
frame00070.jpg	314.19	308.73	448.89	302.72	456.94	493.90	325.01	499.97
frame00071.jpg	314.18	308.72	448.89	302.71	456.95	493.88	325.02	499.96
frame00072.jpg	314.17	308.70	448.87	302.74	456.94	493.88	325.02	499.97
frame00073.jpg	314.16	308.70	448.87	302.72	456.94	493.87	325.03	499.97
frame00074.jpg	314.16	308.66	448.90	302.70	456.92	493.86	325.03	499.97
frame00075.jpg	314.15	308.66	448.90	302.69	456.93	493.86	325.02	499.96
frame00076.jpg	314.18	308.70	448.87	302.68	456.96	493.88	325.03	499.96
frame00077.jpg	314.18	308.66	448.91	302.64	456.94	493.87	325.03	499.95
frame00078.jpg	314.20	308.66	448.89	302.66	456.94	493.87	325.04	499.95
frame00079.jpg	314.21	308.65	448.88	302.65	456.94	493.88	325.03	499.96
frame00080.jpg	314.23	308.65	448.89	302.64	456.93	493.87	325.05	499.94
frame00081.jpg	314.24	308.69	448.88	302.66	456.95	493.87	325.04	499.94
frame00082.jpg	314.25	308.67	448.88	302.67	456.95	493.87	325.02	499.94
frame00083.jpg	314.21	308.63	448.92	302.64	456.93	493.86	325.04	499.92
frame00084.jpg	314.22	308.65	448.89	302.68	456.95	493.88	325.03	499.94
frame00085.jpg	314.20	308.65	448.90	302.69	456.94	493.88	325.02	499.95
frame00086.jpg	314.20	308.66	448.92	302.67	456.95	493.88	325.03	499.95
frame00087.jpg	314.23	308.66	448.89	302.66	456.96	493.88	325.03	499.96
frame00088.jpg	314.22	308.63	448.89	302.66	456.95	493.87	325.03	499.95
frame00089.jpg	314.20	308.59	448.92	302.64	456.94	493.86	325.03	499.94
frame00090.jpg	314.22	308.61	448.91	302.67	456.93	493.86	325.02	499.95
frame00091.jpg	314.24	308.65	448.90	302.65	456.95	493.88	325.03	499.95
frame00092.jpg	314.25	308.60	448.91	302.66	456.93	493.87	325.03	499.94
frame00093.jpg	314.26	308.62	448.88	302.67	456.94	493.90	325.03	499.95
frame00094.jpg	314.24	308.64	448.90	302.67	456.94	493.89	325.02	499.95
frame00095.jpg	314.24	308.66	448.90	302.68	456.94	493.89	325.01	499.96
frame00096.jpg	314.22	308.66	448.88	302.71	456.95	493.90	325.01	499.96
frame00097.jpg	314.17	308.64	448.89	302.72	456.95	493.90	325.01	499.96
frame00098.jpg	314.20	308.66	448.91	302.71	456.95	493.89	325.00	499.97
frame00099.jpg	314.21	308.63	448.90	302.70	456.96	493.90	325.02	499.95
frame00100.jpg	314.22	308.58	448.91	302.67	456.95	493.89	325.03	499.94
frame00101.jpg	314.25	308.60	448.90	302.67	456.95	493.89	325.03	499.93
frame00102.jpg	314.27	308.59	448.90	302.68	456.96	493.91	325.03	499.93
frame00103.jpg	314.29	308.64	448.90	302.69	456.97	493.92	325.03	499.93
frame00104.jpg	314.26	308.57	448.91	302.64	456.95	493.91	325.03	499.92
frame00105.jpg	314.26	308.56	448.91	302.65	456.96	493.90	325.02	499.92
frame00106.jpg	314.27	308.56	448.92	302.63	456.95	493.89	325.04	499.92
frame00107.jpg	314.26	308.55	448.92	302.63	456.96	493.91	325.03	499.92
frame00108.jpg	314.24	308.56	448.92	302.64	456.96	493.91	325.04	499.91
frame00109.jpg	314.22	308.58	448.92	302.66	456.94	493.89	325.04	499.93
frame00110.jpg	314.21	308.58	448.91	302.67	456.93	493.89	325.02	499.94
frame00111.jpg	314.25	308.59	448.92	302.66	456.95	493.91	325.02	499.94
frame00112.jpg	314.26	308.58	448.92	302.63	456.94	493.90	325.04	499.93
frame00113.jpg	314.24	308.52	448.91	302.64	456.93	493.86	325.03	499.92
frame00114.jpg	314.31	308.52	448.92	302.59	456.94	493.86	325.04	499.89
frame00115.jpg	314.37	308.45	448.95	302.56	456.94	493.88	325.04	499.86
frame00116.jpg	314.40	308.38	448.96	302.52	456.95	493.88	325.05	499.84
frame00117.jpg	314.47	308.37	448.99	302.52	456.96	493.88	325.04	499.81
frame00118.jpg	314.50	308.30	448.98	302.45	456.95	493.85	325.06	499.79
frame00119.jpg	314.66	308.19	449.01	302.38	456.93	493.82	325.05	499.77
frame00120.jpg	314.84	308.08	449.08	302.30	456.95	493.84	325.07	499.67
frame00121.jpg	315.00	307.91	449.14	302.27	456.95	493.84	325.07	499.61
frame00122.jpg	315.10	307.77	449.20	302.21	456.95	493.81	325.09	499.52
frame00123.jpg	315.28	307.68	449.27	302.17	456.96	493.82	325.09	499.45
frame00124.jpg	315.41	307.62	449.26	302.16	456.98	493.86	325.06	499.40
frame00125.jpg	315.42	307.49	449.32	302.05	456.90	493.84	325.04	499.33
frame00126.jpg	315.49	307.46	449.27	302.06	456.91	493.88	325.02	499.28
frame00127.jpg	315.56	307.35	449.25	302.04	456.85	493.88	324.95	499.23
frame00128.jpg	315.68	307.16	449.25	301.91	456.75	493.87	324.90	499.13
frame00129.jpg	315.85	306.86	449.26	301.76	456.64	493.84	324.79	499.04
frame00130.jpg	316.04	306.59	449.18	301.59	456.50	493.87	324.66	498.88
frame00131.jpg	316.12	306.29	448.94	301.48	456.20	493.87	324.32	498.71
frame00132.jpg	316.20	305.87	448.71	301.27	455.77	493.92	323.92	498.47
frame00133.jpg	316.29	305.49	448.44	301.10	455.33	493.95	323.44	498.23
frame00134.jpg	316.28	304.93	448.09	300.87	454.81	493.92	322.99	497.95
frame00135.jpg	316.64	304.45	447.90	300.66	454.42	493.90	322.60	497.58
frame00136.jpg	317.10	303.85	447.74	300.33	454.16	493.69	322.38	497.13
frame00137.jpg	317.42	303.31	447.48	300.03	453.91	493.44	322.13	496.65
frame00138.jpg	317.81	302.64	447.18	299.71	453.45	493.19	321.80	496.04
frame00139.jpg	318.18	302.08	446.76	299.24	453.24	492.70	321.57	495.36
frame00140.jpg	318.36	301.40	446.30	298.56	453.15	491.91	321.61	494.57
frame00141.jpg	318.78	300.96	445.75	298.12	453.15	491.19	321.59	493.71
frame00142.jpg	319.37	300.63	445.25	297.66	452.97	490.32	321.53	492.87
frame00143.jpg	319.71	300.30	444.49	297.44	452.93	489.49	321.53	491.90
frame00144.jpg	320.34	300.41	443.99	297.23	452.83	488.55	321.54	490.87
frame00145.jpg	320.69	300.47	443.38	297.16	452.83	487.62	321.59	489.91
frame00146.jpg	321.33	301.03	442.71	297.54	452.67	486.56	321.69	488.79
frame00147.jpg	321.75	301.28	441.97	298.03	452.57	485.52	321.60	487.88
frame00148.jpg	322.40	302.25	441.26	298.81	452.58	484.68	321.56	486.83
frame00149.jpg	322.85	302.84	440.66	299.75	452.43	483.59	321.63	485.90
frame00150.jpg	323.54	303.95	440.10	300.86	452.25	482.54	321.86	484.76
frame00151.jpg	324.46	305.39	439.68	302.19	452.21	481.68	321.91	483.78
frame00152.jpg	324.98	306.78	438.98	303.98	452.08	480.58	321.99	482.93
frame00153.jpg	325.71	308.64	438.50	305.94	452.02	479.62	322.09	481.91
frame00154.jpg	326.40	310.76	437.95	308.11	452.00	478.86	322.10	480.97
frame00155.jpg	327.21	313.14	437.78	310.14	451.72	477.67	322.27	479.96
frame00156.jpg	327.60	315.83	437.30	312.93	451.50	476.53	322.35	479.04
frame00157.jpg	328.50	319.11	436.68	316.03	451.44	475.80	322.55	478.03
frame00158.jpg	329.00	322.62	436.17	319.14	451.25	474.80	322.63	477.18
frame00159.jpg	329.79	326.70	435.16	323.10	451.43	474.11	322.70	476.50
frame00160.jpg	330.43	330.60	434.46	327.14	451.21	473.17	322.73	475.76
frame00161.jpg	331.05	334.55	433.81	331.34	451.16	472.42	322.82	475.15
frame00162.jpg	331.50	338.62	433.33	335.55	451.09	471.51	322.86	474.58
frame00163.jpg	331.91	342.72	433.13	339.67	450.88	470.83	322.92	474.02
frame00164.jpg	332.40	346.99	432.86	343.73	450.74	470.29	323.09	473.64
frame00165.jpg	333.01	351.47	432.61	347.87	450.82	470.02	323.10	473.27
frame00166.jpg	333.52	355.69	432.44	352.07	450.49	469.28	323.14	473.01
frame00167.jpg	333.99	359.80	432.37	356.14	450.25	468.93	323.24	472.74
frame00168.jpg	334.59	364.31	432.08	360.40	450.42	468.75	323.40	472.53
frame00169.jpg	334.94	368.60	432.00	364.45	450.35	468.39	323.63	472.36
frame00170.jpg	335.22	372.90	431.74	368.60	450.50	468.07	323.67	472.36
frame00171.jpg	335.78	377.19	431.57	372.83	450.58	467.97	323.87	472.28
frame00172.jpg	336.33	381.61	431.57	377.14	450.45	467.76	323.81	472.28
frame00173.jpg	336.71	385.91	431.37	381.21	450.50	467.71	323.94	472.26
frame00174.jpg	336.87	389.50	431.53	384.87	450.13	467.55	323.94	472.30
frame00175.jpg	337.18	393.15	431.34	388.46	450.31	467.59	324.12	472.34
frame00176.jpg	337.82	396.54	431.38	391.67	450.31	467.58	324.02	472.47
frame00177.jpg	337.96	399.53	431.28	394.62	450.20	467.51	324.14	472.62
frame00178.jpg	338.52	402.88	431.31	397.80	450.32	467.45	324.11	472.59
frame00179.jpg	338.26	405.56	431.11	400.29	450.10	467.36	324.55	472.63
frame00180.jpg	338.41	408.42	430.57	403.14	450.12	467.34	324.21	472.88
frame00181.jpg	338.21	410.74	430.07	405.30	450.28	467.24	324.31	473.01
frame00182.jpg	338.12	412.68	429.75	407.00	450.07	466.94	324.20	473.20
frame00183.jpg	338.15	414.26	429.63	408.06	450.07	466.95	324.53	473.27
frame00184.jpg	338.10	415.66	429.26	409.48	450.25	466.83	324.52	473.32
frame00185.jpg	338.18	416.93	429.17	410.73	450.74	466.76	324.99	473.06
frame00186.jpg	338.29	417.52	428.75	411.74	451.55	466.64	325.15	473.00
frame00187.jpg	338.39	417.66	428.84	411.96	451.69	466.50	325.16	472.91
frame00188.jpg	338.69	417.94	428.92	412.16	452.01	466.53	325.19	472.80
frame00189.jpg	338.50	418.15	428.97	412.55	451.91	466.55	325.49	472.66
frame00190.jpg	338.59	418.42	429.38	413.34	451.77	466.74	325.73	472.31
frame00191.jpg	339.23	419.18	429.39	414.66	452.57	467.05	325.90	471.98
frame00192.jpg	339.33	419.49	429.34	415.40	453.05	467.18	325.99	471.57
frame00193.jpg	339.36	419.61	429.55	415.69	452.94	467.01	325.82	471.46
frame00194.jpg	339.40	419.62	429.58	415.76	453.04	467.03	325.82	471.37
frame00195.jpg	339.54	419.60	429.75	415.77	453.00	467.12	325.78	471.31
frame00196.jpg	339.72	419.77	429.77	415.93	452.89	467.05	325.85	471.23
frame00197.jpg	339.51	419.61	429.89	415.90	452.73	467.02	325.77	471.23
frame00198.jpg	339.60	419.82	429.77	415.98	452.90	466.97	325.86	471.20
frame00199.jpg	339.40	419.66	429.69	416.02	452.77	466.95	325.84	471.09
frame00200.jpg	339.72	419.98	429.43	416.31	453.05	466.91	325.69	471.07
frame00201.jpg	339.88	420.16	429.38	416.49	453.15	466.88	325.65	471.01
frame00202.jpg	340.10	420.32	429.38	416.66	453.21	466.88	325.59	470.96
frame00203.jpg	340.01	420.41	429.16	416.91	453.60	466.93	325.45	470.83
frame00204.jpg	339.94	420.33	429.28	416.86	453.46	466.92	325.53	470.81
frame00205.jpg	339.57	420.32	429.29	416.76	453.28	466.80	325.73	470.83
frame00206.jpg	339.92	420.43	429.20	416.86	453.38	466.85	325.63	470.84
frame00207.jpg	339.94	420.36	429.15	416.84	453.33	466.85	325.71	470.80
frame00208.jpg	339.65	420.27	429.28	416.72	453.19	466.82	325.70	470.78
frame00209.jpg	339.88	420.36	429.25	416.79	453.23	466.84	325.75	470.76
frame00210.jpg	339.75	420.46	429.22	416.86	453.41	466.79	325.76	470.73
frame00211.jpg	339.88	420.51	429.18	416.89	453.46	466.86	325.81	470.75
frame00212.jpg	339.69	420.42	429.11	417.06	453.51	466.85	325.56	470.68
frame00213.jpg	339.99	420.50	429.17	416.98	453.49	466.91	325.76	470.71
frame00214.jpg	340.22	420.67	429.16	417.14	453.56	466.89	325.50	470.77
frame00215.jpg	339.78	420.56	429.04	416.94	453.56	466.90	325.91	470.72
frame00216.jpg	340.12	420.79	428.88	417.18	453.98	466.94	325.59	470.75
frame00217.jpg	339.95	420.68	428.88	417.21	453.71	466.89	325.59	470.72
frame00218.jpg	340.01	420.60	429.00	417.05	453.60	466.92	325.70	470.73
frame00219.jpg	339.75	420.66	428.72	417.14	453.88	466.93	325.72	470.73
frame00220.jpg	339.73	420.70	428.88	417.18	453.69	466.86	325.58	470.79
frame00221.jpg	339.68	420.51	429.15	416.92	453.44	466.93	325.95	470.70
frame00222.jpg	339.84	420.75	428.75	417.14	453.94	467.00	325.81	470.77
frame00223.jpg	339.89	420.65	429.09	417.14	453.57	466.92	325.53	470.79
frame00224.jpg	339.96	420.74	428.82	417.25	453.91	467.00	325.45	470.84
frame00225.jpg	339.98	420.81	429.08	417.03	453.63	466.91	325.87	470.85
frame00226.jpg	339.43	420.51	428.91	416.91	453.60	467.00	326.02	470.86
frame00227.jpg	339.81	420.49	429.04	416.84	453.54	467.03	325.69	470.99
frame00228.jpg	339.71	420.45	429.13	416.80	453.34	466.97	325.79	470.99
frame00229.jpg	339.78	420.54	429.07	416.76	453.36	466.97	325.95	470.97
frame00230.jpg	339.50	420.46	429.12	416.63	453.36	466.96	326.02	471.03
frame00231.jpg	339.45	420.35	429.14	416.68	453.36	467.02	325.79	471.07
frame00232.jpg	339.51	420.28	429.35	416.49	453.26	467.01	325.86	471.10
frame00233.jpg	339.90	420.44	429.31	416.57	453.38	467.06	325.84	471.17
frame00234.jpg	339.34	420.28	429.20	416.45	453.24	467.02	325.93	471.23
frame00235.jpg	339.44	420.35	429.46	416.37	453.00	466.93	326.10	471.22
frame00236.jpg	339.12	419.94	429.62	416.13	452.76	466.95	325.82	471.34
frame00237.jpg	339.30	420.05	429.49	416.06	452.96	467.07	326.05	471.35
frame00238.jpg	339.07	419.90	429.68	415.76	452.53	466.99	326.41	471.47
frame00239.jpg	338.87	419.57	429.71	415.34	452.60	467.14	326.41	471.56
frame00240.jpg	338.86	419.12	430.08	414.83	451.98	467.08	326.26	471.73
frame00241.jpg	338.44	418.89	429.73	414.20	452.24	467.14	326.69	471.84
frame00242.jpg	338.30	418.26	429.83	413.68	451.68	467.09	326.23	472.05
frame00243.jpg	338.39	417.80	429.91	412.80	451.57	466.91	326.22	472.19
frame00244.jpg	337.96	416.85	429.82	411.61	451.57	466.71	326.13	472.48
frame00245.jpg	338.18	415.13	429.86	409.99	451.60	466.96	325.80	472.57
frame00246.jpg	338.28	413.06	430.30	407.80	451.52	466.82	325.94	472.42
frame00247.jpg	338.06	409.81	430.57	404.60	451.51	466.70	325.92	472.32
frame00248.jpg	337.71	405.96	430.65	400.95	451.46	466.63	325.92	472.18
frame00249.jpg	337.66	402.17	430.65	397.23	451.63	466.65	325.68	472.03
frame00250.jpg	337.20	398.15	430.69	393.30	451.71	466.62	325.62	471.95
frame00251.jpg	337.06	394.40	430.65	389.30	451.75	466.62	325.73	471.88
frame00252.jpg	336.65	390.52	430.71	385.56	451.60	466.60	325.49	471.95
frame00253.jpg	335.94	386.62	430.84	381.57	451.59	466.61	325.54	471.88
frame00254.jpg	335.36	382.75	430.89	377.90	451.42	466.55	325.40	472.00
frame00255.jpg	335.16	378.83	431.02	374.13	451.61	466.75	325.20	472.04
frame00256.jpg	334.83	374.32	431.31	369.62	451.35	466.78	325.16	472.04
frame00257.jpg	334.34	369.60	431.46	365.02	451.46	466.97	325.06	472.19
frame00258.jpg	333.73	364.76	431.71	359.92	451.53	467.13	325.23	472.19
frame00259.jpg	333.15	360.20	431.73	355.31	451.77	467.31	325.03	472.42
frame00260.jpg	332.41	355.51	431.76	350.51	452.05	467.69	325.00	472.75
frame00261.jpg	331.71	350.78	431.88	345.83	451.99	468.02	324.82	473.08
frame00262.jpg	331.08	346.51	431.91	341.49	452.24	468.48	324.79	473.45
frame00263.jpg	330.41	342.04	432.16	337.19	452.14	469.05	324.77	473.84
frame00264.jpg	330.31	338.37	432.51	333.47	452.32	469.90	324.45	474.37
frame00265.jpg	329.80	334.28	433.31	329.57	452.23	470.58	324.37	474.80
frame00266.jpg	329.23	330.23	434.03	325.79	452.06	471.16	324.36	475.28
frame00267.jpg	328.89	326.63	434.64	322.16	452.01	471.80	324.49	475.77
frame00268.jpg	328.53	323.62	434.88	318.87	452.20	472.59	324.54	476.49
frame00269.jpg	328.07	320.16	435.41	315.71	452.20	473.53	324.22	477.42
frame00270.jpg	327.62	317.18	435.94	312.72	452.39	474.59	324.04	478.42
frame00271.jpg	327.09	314.19	436.40	310.06	452.60	475.93	323.84	479.50
frame00272.jpg	326.23	310.84	437.46	307.25	452.75	477.23	323.51	480.62
frame00273.jpg	325.82	308.69	438.14	305.14	452.90	478.70	323.32	481.83
frame00274.jpg	325.20	306.27	439.37	303.01	452.92	480.52	323.02	482.94
frame00275.jpg	325.04	304.28	440.68	301.55	452.84	482.01	322.93	484.22
frame00276.jpg	325.01	302.85	442.12	300.47	452.91	484.14	322.81	485.62
frame00277.jpg	324.80	302.05	443.39	300.07	452.93	485.99	322.58	487.02
frame00278.jpg	324.69	301.43	444.41	300.04	453.04	487.65	322.34	488.37
frame00279.jpg	323.95	300.91	445.32	299.57	453.08	488.64	322.36	489.56
frame00280.jpg	323.45	300.54	446.14	299.29	453.14	489.82	322.38	490.64
frame00281.jpg	322.97	300.98	446.79	299.76	453.35	490.93	322.38	491.74
frame00282.jpg	322.51	301.06	447.72	300.12	453.35	491.91	322.25	492.98
frame00283.jpg	321.71	301.94	447.97	300.36	453.64	492.50	322.39	493.91
frame00284.jpg	320.57	302.37	447.90	300.36	453.88	492.75	322.51	494.79
frame00285.jpg	319.53	302.84	447.98	300.47	454.08	492.85	322.70	495.50
frame00286.jpg	318.60	303.56	447.96	300.57	454.40	493.07	322.94	496.20
frame00287.jpg	317.77	304.33	447.99	300.85	454.60	493.18	323.14	496.88
frame00288.jpg	316.99	305.07	447.92	301.12	454.79	493.30	323.26	497.37
frame00289.jpg	316.23	305.66	447.78	301.34	454.92	493.34	323.30	497.82
frame00290.jpg	315.60	306.16	447.66	301.55	454.98	493.34	323.35	498.17
frame00291.jpg	314.96	306.59	447.48	301.72	455.01	493.35	323.35	498.51
frame00292.jpg	314.38	307.04	447.32	301.84	455.03	493.36	323.38	498.74
frame00293.jpg	313.85	307.49	447.16	302.05	455.07	493.39	323.37	498.95
frame00294.jpg	313.40	307.89	447.03	302.22	455.03	493.40	323.34	499.13
frame00295.jpg	312.93	308.33	446.83	302.43	455.06	493.46	323.36	499.31
frame00296.jpg	312.43	308.67	446.67	302.70	455.08	493.48	323.32	499.50
frame00297.jpg	312.26	308.85	446.74	302.96	455.07	493.56	323.30	499.54
frame00298.jpg	312.15	308.96	446.85	303.10	455.07	493.62	323.28	499.57
frame00299.jpg	312.06	309.16	446.96	303.27	455.09	493.67	323.27	499.65
frame00300.jpg	311.99	309.36	447.08	303.47	455.10	493.72	323.26	499.70
frame00301.jpg	311.91	309.47	447.23	303.57	455.10	493.75	323.27	499.71
frame00302.jpg	311.88	309.61	447.27	303.72	455.11	493.79	323.25	499.75
frame00303.jpg	311.83	309.67	447.33	303.77	455.11	493.83	323.26	499.76
frame00304.jpg	311.77	309.70	447.37	303.81	455.12	493.83	323.25	499.78
frame00305.jpg	311.78	309.72	447.40	303.83	455.12	493.84	323.25	499.78
frame00306.jpg	311.79	309.71	447.37	303.82	455.12	493.85	323.25	499.78
frame00307.jpg	311.79	309.67	447.37	303.75	455.10	493.81	323.27	499.76
frame00308.jpg	311.80	309.65	447.34	303.73	455.10	493.78	323.26	499.77
frame00309.jpg	311.81	309.61	447.32	303.67	455.12	493.77	323.26	499.75
frame00310.jpg	311.84	309.54	447.28	303.62	455.09	493.75	323.25	499.74
frame00311.jpg	311.86	309.45	447.23	303.52	455.09	493.73	323.26	499.73
frame00312.jpg	311.90	309.41	447.20	303.48	455.10	493.72	323.26	499.70
frame00313.jpg	311.95	309.31	447.16	303.41	455.08	493.72	323.26	499.68
frame00314.jpg	311.95	309.28	447.10	303.35	455.09	493.70	323.26	499.67
frame00315.jpg	311.98	309.20	447.06	303.33	455.08	493.68	323.26	499.65
frame00316.jpg	311.99	309.18	447.01	303.28	455.08	493.67	323.27	499.65
frame00317.jpg	311.98	309.16	446.98	303.27	455.10	493.67	323.27	499.65
frame00318.jpg	312.00	309.12	447.02	303.25	455.07	493.66	323.27	499.64
frame00319.jpg	312.04	309.13	447.02	303.21	455.06	493.67	323.26	499.65
frame00320.jpg	312.04	309.12	447.01	303.20	455.07	493.66	323.27	499.64
frame00321.jpg	312.04	309.07	446.98	303.17	455.07	493.64	323.27	499.63
frame00322.jpg	312.07	309.03	446.93	303.14	455.07	493.62	323.27	499.61
frame00323.jpg	312.08	308.94	446.89	303.04	455.05	493.59	323.26	499.60
frame00324.jpg	312.11	308.90	446.82	302.98	455.07	493.58	323.28	499.58
frame00325.jpg	312.15	308.85	446.81	302.93	455.05	493.56	323.27	499.57
frame00326.jpg	312.17	308.82	446.81	302.93	455.04	493.56	323.26	499.56
frame00327.jpg	312.17	308.84	446.79	302.92	455.06	493.55	323.29	499.55
frame00328.jpg	312.17	308.78	446.77	302.89	455.04	493.55	323.28	499.55
frame00329.jpg	312.22	308.83	446.76	302.88	455.06	493.57	323.29	499.53
frame00330.jpg	312.23	308.82	446.75	302.92	455.06	493.56	323.28	499.54
frame00331.jpg	312.23	308.77	446.75	302.87	455.04	493.56	323.29	499.53
frame00332.jpg	312.19	308.75	446.74	302.88	455.04	493.54	323.28	499.54
frame00333.jpg	312.21	308.75	446.74	302.87	455.05	493.53	323.29	499.53
frame00334.jpg	312.24	308.75	446.76	302.86	455.04	493.55	323.29	499.52
frame00335.jpg	312.22	308.77	446.73	302.89	455.07	493.55	323.30	499.52
frame00336.jpg	312.20	308.75	446.75	302.85	455.04	493.53	323.30	499.51
frame00337.jpg	312.23	308.77	446.73	302.86	455.07	493.55	323.30	499.52
frame00338.jpg	312.19	308.72	446.74	302.85	455.05	493.53	323.31	499.52
frame00339.jpg	312.19	308.72	446.73	302.86	455.05	493.52	323.30	499.52
frame00340.jpg	312.23	308.72	446.72	302.85	455.05	493.55	323.29	499.52
frame00341.jpg	312.21	308.70	446.73	302.84	455.05	493.53	323.29	499.51
frame00342.jpg	312.26	308.73	446.72	302.84	455.06	493.53	323.30	499.50
frame00343.jpg	312.27	308.74	446.72	302.83	455.06	493.52	323.31	499.50
frame00344.jpg	312.26	308.69	446.74	302.81	455.05	493.52	323.29	499.50
frame00345.jpg	312.26	308.70	446.72	302.81	455.05	493.53	323.30	499.50
frame00346.jpg	312.25	308.71	446.73	302.83	455.05	493.53	323.31	499.49
frame00347.jpg	312.27	308.73	446.72	302.83	455.06	493.55	323.31	499.50
frame00348.jpg	312.23	308.71	446.73	302.82	455.06	493.54	323.31	499.50
frame00349.jpg	312.25	308.75	446.72	302.84	455.07	493.54	323.31	499.51
frame00350.jpg	312.27	308.74	446.74	302.84	455.06	493.54	323.29	499.49
frame00351.jpg	312.28	308.73	446.73	302.82	455.04	493.54	323.30	499.50
frame00352.jpg	312.24	308.71	446.72	302.83	455.05	493.51	323.31	499.49
frame00353.jpg	312.25	308.73	446.71	302.85	455.06	493.53	323.29	499.50
frame00354.jpg	312.25	308.73	446.72	302.81	455.06	493.52	323.31	499.49
frame00355.jpg	312.23	308.72	446.70	302.83	455.08	493.52	323.31	499.51
frame00356.jpg	312.25	308.72	446.71	302.82	455.05	493.54	323.30	499.51
frame00357.jpg	312.29	308.74	446.71	302.86	455.05	493.53	323.28	499.52
frame00358.jpg	312.26	308.73	446.72	302.84	455.06	493.53	323.30	499.52
frame00359.jpg	312.21	308.71	446.73	302.82	455.04	493.51	323.31	499.50
frame00360.jpg	312.24	308.77	446.75	302.81	455.05	493.54	323.30	499.52
