frame	ulx	uly	urx	ury	lrx	lry	llx	lly
frame00001.jpg	376.00	425.00	423.00	423.00	428.00	473.00	379.00	475.00
frame00002.jpg	375.85	424.75	423.04	422.89	427.88	473.01	378.96	475.14
frame00003.jpg	375.84	424.76	423.04	422.87	427.88	473.01	378.99	475.14
frame00004.jpg	375.84	424.76	423.04	422.88	427.89	473.02	378.98	475.13
frame00005.jpg	375.84	424.76	423.05	422.87	427.88	473.01	378.98	475.13
frame00006.jpg	375.84	424.77	423.05	422.86	427.88	473.01	378.98	475.13
frame00007.jpg	375.85	424.76	423.07	422.87	427.87	473.01	378.97	475.14
frame00008.jpg	375.85	424.75	423.06	422.88	427.87	473.01	378.97	475.13
frame00009.jpg	375.84	424.76	423.06	422.88	427.87	473.01	378.97	475.14
frame00010.jpg	375.84	424.76	423.06	422.87	427.89	473.02	378.97	475.14
frame00011.jpg	375.86	424.78	423.06	422.89	427.89	473.03	378.98	475.12
frame00012.jpg	375.84	424.76	423.05	422.87	427.89	473.01	378.98	475.14
frame00013.jpg	375.85	424.77	423.05	422.86	427.89	473.02	378.99	475.14
frame00014.jpg	375.83	424.77	423.05	422.88	427.88	473.01	378.98	475.12
frame00015.jpg	375.85	424.79	423.04	422.89	427.89	473.01	378.97	475.13
frame00016.jpg	375.82	424.74	423.07	422.87	427.87	473.00	378.98	475.13
frame00017.jpg	375.86	424.77	423.04	422.90	427.89	473.02	378.97	475.13
frame00018.jpg	375.85	424.75	423.05	422.86	427.88	473.01	378.99	475.14
frame00019.jpg	375.84	424.76	423.05	422.88	427.88	473.01	378.97	475.14
frame00020.jpg	375.85	424.76	423.06	422.85	427.87	473.01	378.97	475.14
frame00021.jpg	375.89	424.78	423.02	422.92	427.90	473.04	378.96	475.15
frame00022.jpg	375.86	424.76	423.05	422.88	427.88	473.01	378.98	475.14
frame00023.jpg	375.86	424.78	423.05	422.88	427.89	473.02	378.98	475.14
frame00024.jpg	375.83	424.77	423.05	422.87	427.89	473.01	378.99	475.13
frame00025.jpg	375.84	424.77	423.05	422.88	427.89	473.02	378.98	475.13
frame00026.jpg	375.84	424.76	423.03	422.90	427.89	473.02	378.98	475.14
frame00027.jpg	375.86	424.76	423.07	422.87	427.88	473.01	378.98	475.14
frame00028.jpg	375.84	424.77	423.06	422.87	427.88	473.01	378.98	475.14
frame00029.jpg	375.88	424.78	423.04	422.91	427.90	473.03	378.96	475.14
frame00030.jpg	375.86	424.77	423.04	422.89	427.89	473.03	378.97	475.14
frame00031.jpg	375.86	424.77	423.05	422.89	427.89	473.03	378.97	475.13
frame00032.jpg	375.84	424.75	423.06	422.88	427.88	473.01	378.97	475.14
frame00033.jpg	375.85	424.76	423.04	422.89	427.88	473.02	378.98	475.14
frame00034.jpg	375.85	424.77	423.04	422.88	427.89	473.01	378.97	475.14
frame00035.jpg	375.84	424.75	423.05	422.89	427.89	473.02	378.97	475.14
frame00036.jpg	375.83	424.75	423.05	422.88	427.88	473.01	378.98	475.15
frame00037.jpg	375.85	424.76	423.05	422.89	427.88	473.01	378.97	475.15
frame00038.jpg	375.84	424.75	423.06	422.88	427.89	473.02	378.98	475.14
frame00039.jpg	375.84	424.77	423.04	422.88	427.89	473.03	378.98	475.15
frame00040.jpg	375.85	424.78	423.05	422.88	427.90	473.02	378.98	475.13
frame00041.jpg	375.82	424.76	423.08	422.84	427.88	473.01	378.99	475.13
frame00042.jpg	375.83	424.75	423.06	422.87	427.88	473.01	378.97	475.14
frame00043.jpg	375.83	424.76	423.06	422.87	427.88	473.01	378.98	475.14
frame00044.jpg	375.84	424.77	423.06	422.86	427.89	473.02	378.99	475.13
frame00045.jpg	375.84	424.75	423.07	422.86	427.88	473.02	378.98	475.14
frame00046.jpg	375.86	424.79	423.05	422.90	427.89	473.02	378.97	475.12
frame00047.jpg	375.86	424.78	423.04	422.89	427.90	473.01	378.98	475.14
frame00048.jpg	375.85	424.77	423.06	422.89	427.89	473.02	378.97	475.12
frame00049.jpg	375.83	424.77	423.04	422.88	427.89	473.00	378.98	475.13
frame00050.jpg	375.84	424.76	423.06	422.86	427.88	473.01	378.99	475.14
frame00051.jpg	375.84	424.77	423.05	422.89	427.88	473.01	378.97	475.14
frame00052.jpg	375.84	424.77	423.04	422.90	427.89	473.01	378.97	475.13
frame00053.jpg	375.85	424.76	423.06	422.89	427.89	473.01	378.97	475.13
frame00054.jpg	375.84	424.77	423.05	422.87	427.89	473.02	378.99	475.13
frame00055.jpg	375.84	424.75	423.04	422.89	427.89	473.02	378.97	475.16
frame00056.jpg	375.84	424.75	423.05	422.89	427.88	473.01	378.97	475.15
frame00057.jpg	375.84	424.75	423.04	422.90	427.88	473.01	378.98	475.14
frame00058.jpg	375.85	424.77	423.07	422.88	427.88	473.02	378.98	475.11
frame00059.jpg	375.82	424.75	423.05	422.89	427.88	473.00	378.97	475.14
frame00060.jpg	375.83	424.77	423.05	422.87	427.89	473.02	378.99	475.13
frame00061.jpg	375.84	424.76	423.07	422.88	427.87	473.01	378.97	475.14
frame00062.jpg	375.82	424.76	423.06	422.86	427.88	473.01	378.97	475.14
frame00063.jpg	375.83	424.76	423.06	422.87	427.89	473.02	378.99	475.12
frame00064.jpg	375.83	424.76	423.06	422.87	427.88	473.00	378.98	475.14
frame00065.jpg	375.84	424.77	423.05	422.87	427.89	473.01	378.98	475.13
frame00066.jpg	375.84	424.76	423.06	422.87	427.89	473.02	378.98	475.13
frame00067.jpg	375.84	424.75	423.07	422.87	427.87	473.01	378.98	475.13
frame00068.jpg	375.85	424.77	423.05	422.88	427.89	473.02	378.97	475.14
frame00069.jpg	375.85	424.78	423.05	422.89	427.89	473.02	378.97	475.14
frame00070.jpg	375.84	424.77	423.05	422.89	427.89	473.02	378.98	475.12
frame00071.jpg	375.84	424.76	423.05	422.88	427.88	473.01	378.98	475.14
frame00072.jpg	375.85	424.77	423.07	422.87	427.88	473.01	378.97	475.13
frame00073.jpg	375.84	424.77	423.05	422.88	427.88	473.01	378.98	475.13
frame00074.jpg	375.85	424.77	423.05	422.89	427.88	473.02	378.97	475.14
frame00075.jpg	375.85	424.76	423.05	422.90	427.88	473.03	378.96	475.14
frame00076.jpg	375.84	424.77	423.04	422.89	427.89	473.03	378.97	475.14
frame00077.jpg	375.83	424.77	423.05	422.87	427.89	473.02	378.98	475.13
frame00078.jpg	375.84	424.78	423.05	422.87	427.89	473.02	378.98	475.14
frame00079.jpg	375.84	424.77	423.04	422.90	427.89	473.03	378.97	475.14
frame00080.jpg	375.81	424.75	423.06	422.87	427.89	473.02	378.98	475.14
frame00081.jpg	375.82	424.76	423.06	422.86	427.88	473.02	378.98	475.13
frame00082.jpg	375.83	424.75	423.07	422.90	427.88	473.02	378.95	475.14
frame00083.jpg	375.83	424.79	423.05	422.88	427.88	473.02	378.97	475.13
frame00084.jpg	375.85	424.79	423.05	422.89	427.89	473.02	378.97	475.14
frame00085.jpg	375.83	424.78	423.06	422.87	427.88	473.01	378.98	475.13
frame00086.jpg	375.82	424.77	423.05	422.86	427.89	473.03	378.99	475.13
frame00087.jpg	375.85	424.78	423.04	422.88	427.89	473.04	378.96	475.13
frame00088.jpg	375.86	424.79	423.03	422.92	427.89	473.04	378.95	475.13
frame00089.jpg	375.87	424.73	423.08	422.89	427.88	473.04	378.97	475.09
frame00090.jpg	375.88	424.74	423.07	422.91	427.90	473.04	378.97	475.09
frame00091.jpg	375.87	424.72	423.08	422.88	427.89	473.04	378.97	475.10
frame00092.jpg	375.88	424.72	423.08	422.90	427.89	473.05	378.97	475.09
frame00093.jpg	375.85	424.70	423.10	422.86	427.89	473.04	378.97	475.08
frame00094.jpg	375.89	424.71	423.08	422.90	427.88	473.05	378.96	475.09
frame00095.jpg	375.85	424.70	423.10	422.86	427.88	473.03	378.97	475.08
frame00096.jpg	375.86	424.71	423.08	422.89	427.90	473.05	378.98	475.08
frame00097.jpg	375.90	424.72	423.08	422.90	427.89	473.03	378.95	475.10
frame00098.jpg	375.89	424.71	423.09	422.90	427.89	473.04	378.96	475.09
frame00099.jpg	375.88	424.71	423.09	422.87	427.89	473.03	378.96	475.08
frame00100.jpg	375.88	424.71	423.08	422.88	427.88	473.03	378.96	475.08
frame00101.jpg	375.87	424.70	423.09	422.89	427.88	473.04	378.96	475.07
frame00102.jpg	375.88	424.69	423.09	422.89	427.88	473.05	378.96	475.08
frame00103.jpg	375.86	424.68	423.10	422.88	427.88	473.04	378.96	475.08
frame00104.jpg	375.89	424.70	423.09	422.91	427.88	473.05	378.94	475.08
frame00105.jpg	375.85	424.69	423.13	422.86	427.88	473.03	378.96	475.07
frame00106.jpg	375.88	424.71	423.09	422.90	427.89	473.03	378.94	475.08
frame00107.jpg	375.88	424.69	423.09	422.90	427.90	473.06	378.95	475.06
frame00108.jpg	375.89	424.70	423.09	422.88	427.91	473.07	378.95	475.04
frame00109.jpg	375.89	424.68	423.10	422.89	427.90	473.07	378.94	475.05
frame00110.jpg	375.89	424.68	423.10	422.90	427.90	473.07	378.94	475.02
frame00111.jpg	375.89	424.67	423.08	422.91	427.90	473.08	378.93	475.03
frame00112.jpg	375.89	424.69	423.08	422.89	427.91	473.07	378.93	475.04
frame00113.jpg	375.90	424.69	423.09	422.88	427.91	473.06	378.94	475.04
frame00114.jpg	375.91	424.69	423.09	422.89	427.93	473.06	378.96	475.04
frame00115.jpg	375.91	424.69	423.12	422.89	427.93	473.05	378.97	475.03
frame00116.jpg	375.91	424.68	423.09	422.91	427.93	473.08	378.96	475.04
frame00117.jpg	375.92	424.70	423.10	422.88	427.93	473.06	378.97	475.04
frame00118.jpg	375.93	424.66	423.13	422.90	427.92	473.06	378.97	475.03
frame00119.jpg	376.00	424.62	423.17	422.92	427.94	473.09	378.97	475.01
frame00120.jpg	376.01	424.62	423.20	422.88	427.95	473.08	378.99	475.00
frame00121.jpg	376.01	424.61	423.19	422.91	427.94	473.07	378.97	475.00
frame00122.jpg	376.04	424.62	423.20	422.90	427.94	473.08	378.98	474.98
frame00123.jpg	376.06	424.61	423.22	422.90	427.94	473.08	378.98	475.00
frame00124.jpg	376.20	424.52	423.38	422.93	428.00	473.10	379.02	474.94
frame00125.jpg	376.50	424.35	423.64	422.98	428.11	473.03	379.16	474.82
frame00126.jpg	376.81	424.10	423.99	422.83	428.24	472.91	379.34	474.65
frame00127.jpg	377.20	423.76	424.40	422.60	428.41	472.70	379.55	474.36
frame00128.jpg	377.72	423.19	424.91	422.22	428.59	472.35	379.77	473.76
frame00129.jpg	378.32	422.30	425.48	421.67	428.77	472.06	379.96	473.14
frame00130.jpg	378.96	421.40	426.01	421.28	428.92	471.57	380.21	472.38
frame00131.jpg	379.46	420.59	426.51	420.34	429.35	470.48	380.66	471.41
frame00132.jpg	379.69	419.57	426.66	419.05	430.08	468.64	381.42	470.19
frame00133.jpg	379.72	418.11	426.65	416.87	430.90	465.91	382.25	468.42
frame00134.jpg	379.81	415.55	426.78	413.93	431.64	462.60	382.91	465.53
frame00135.jpg	380.14	411.97	427.03	410.24	432.24	458.68	383.36	461.70
frame00136.jpg	380.60	407.57	427.19	405.78	433.06	453.82	383.79	457.00
frame00137.jpg	380.66	402.24	427.36	400.10	433.84	447.82	384.49	451.63
frame00138.jpg	380.75	395.98	427.40	393.75	434.58	440.65	384.98	445.01
frame00139.jpg	380.97	388.35	427.05	386.08	435.36	432.22	385.17	437.33
frame00140.jpg	380.87	379.33	427.03	376.70	435.79	423.09	385.48	428.60
frame00141.jpg	380.93	370.08	426.90	367.37	436.28	413.59	385.46	419.42
frame00142.jpg	380.88	359.85	426.53	356.92	436.68	403.08	385.67	409.17
frame00143.jpg	380.53	349.05	426.99	345.83	436.49	392.87	385.81	398.98
frame00144.jpg	380.82	338.67	427.15	336.07	436.47	383.35	385.47	389.03
frame00145.jpg	381.05	328.20	427.67	325.58	436.52	373.77	385.54	379.19
frame00146.jpg	381.37	318.89	428.02	316.58	436.65	365.06	385.53	370.12
frame00147.jpg	381.94	309.87	428.02	306.86	437.33	355.45	386.08	360.74
frame00148.jpg	382.34	300.39	429.00	297.01	437.67	346.67	386.90	351.93
frame00149.jpg	382.98	291.90	430.50	288.88	437.69	339.88	387.73	344.22
frame00150.jpg	384.16	284.30	431.62	282.21	437.99	332.58	388.04	336.31
frame00151.jpg	385.45	276.16	432.89	274.84	438.54	325.77	388.58	328.87
frame00152.jpg	386.90	269.07	434.86	268.43	439.05	320.43	389.43	322.41
frame00153.jpg	388.73	263.41	436.10	263.74	439.56	315.29	390.00	316.78
frame00154.jpg	389.84	258.04	437.30	258.72	440.19	310.34	390.86	311.65
frame00155.jpg	390.53	253.60	437.59	254.42	440.96	305.65	391.59	307.18
frame00156.jpg	390.70	249.29	437.72	249.61	441.44	300.95	392.28	302.67
frame00157.jpg	390.82	245.27	437.66	245.11	441.79	296.71	392.46	298.86
frame00158.jpg	390.54	241.56	437.91	240.88	442.03	293.22	392.91	295.45
frame00159.jpg	390.84	238.82	437.99	238.07	442.15	290.65	392.96	292.79
frame00160.jpg	390.98	236.80	437.81	235.83	442.13	288.64	392.54	290.23
frame00161.jpg	390.38	234.76	437.29	233.53	441.93	286.54	392.39	288.22
frame00162.jpg	390.10	233.54	436.79	231.91	441.83	285.16	392.14	287.01
frame00163.jpg	389.57	232.90	436.21	231.09	441.45	284.37	391.67	286.28
frame00164.jpg	388.97	232.74	435.49	230.48	440.95	284.02	391.14	285.74
frame00165.jpg	388.21	232.23	435.01	229.87	440.19	283.66	390.46	284.86
frame00166.jpg	387.67	231.90	434.13	229.75	439.53	283.27	389.55	284.49
frame00167.jpg	386.97	231.10	433.37	229.05	438.89	282.64	388.89	283.81
frame00168.jpg	386.23	230.50	432.83	228.03	438.27	281.89	388.38	283.21
frame00169.jpg	385.68	229.99	432.29	227.63	437.68	281.35	387.75	282.75
frame00170.jpg	385.41	229.63	431.86	227.51	437.32	281.24	387.31	282.37
frame00171.jpg	385.34	229.59	431.68	227.76	437.05	281.23	387.03	282.46
frame00172.jpg	385.19	229.66	432.01	227.62	436.93	281.39	387.19	282.41
frame00173.jpg	385.56	229.85	432.08	228.07	436.99	281.56	387.25	282.63
frame00174.jpg	385.93	230.09	432.31	228.20	437.38	281.70	387.42	282.73
frame00175.jpg	386.28	230.12	432.66	228.38	437.57	281.73	387.76	282.76
frame00176.jpg	386.39	230.15	433.00	228.32	437.84	281.93	388.05	282.79
frame00177.jpg	386.62	230.05	433.17	228.13	437.98	281.71	388.32	282.75
frame00178.jpg	386.70	229.93	433.23	228.16	438.14	281.67	388.48	282.64
frame00179.jpg	386.80	229.90	433.26	227.99	438.39	281.62	388.62	282.57
frame00180.jpg	387.06	229.91	433.30	227.87	438.66	281.28	388.71	282.42
frame00181.jpg	387.03	229.76	433.39	227.72	438.73	281.07	388.92	282.36
frame00182.jpg	387.10	229.84	433.37	227.68	438.73	281.03	388.93	282.38
frame00183.jpg	386.90	229.94	433.34	227.69	438.81	281.08	388.96	282.35
frame00184.jpg	386.92	230.08	433.32	227.82	438.62	281.15	388.99	282.55
frame00185.jpg	386.82	230.22	433.23	228.00	438.61	281.43	388.84	282.58
frame00186.jpg	386.79	230.23	433.17	228.23	438.50	281.69	388.60	282.60
frame00187.jpg	386.67	230.37	433.16	228.28	438.33	281.62	388.41	282.55
frame00188.jpg	386.59	230.31	433.21	228.38	437.95	281.58	388.07	282.45
frame00189.jpg	386.61	230.14	433.20	228.41	437.74	281.75	387.94	282.60
frame00190.jpg	386.45	230.07	433.31	228.26	437.60	281.67	388.05	282.67
frame00191.jpg	386.32	229.84	433.40	228.18	437.67	281.65	388.15	282.93
frame00192.jpg	386.20	229.92	433.52	228.30	437.60	281.55	388.27	282.91
frame00193.jpg	386.55	230.08	433.61	228.49	437.78	281.75	388.45	283.18
frame00194.jpg	386.90	230.49	433.57	229.24	438.06	282.07	388.58	283.42
frame00195.jpg	387.13	230.68	433.93	229.66	438.09	282.43	388.70	283.72
frame00196.jpg	387.43	230.73	434.53	229.84	438.10	282.80	388.92	284.05
frame00197.jpg	387.59	230.81	434.87	230.32	438.24	283.10	389.12	284.38
frame00198.jpg	387.69	231.20	435.23	230.19	438.49	283.07	389.56	284.66
frame00199.jpg	387.88	231.33	435.31	230.20	438.80	283.31	389.84	284.89
frame00200.jpg	388.14	231.59	435.19	230.58	439.08	283.57	389.95	284.96
frame00201.jpg	388.23	232.13	435.26	230.87	439.31	283.74	389.93	285.03
frame00202.jpg	388.24	232.10	435.31	230.85	439.25	284.01	389.99	285.25
frame00203.jpg	388.38	232.13	435.37	231.05	439.14	284.01	389.97	285.63
frame00204.jpg	388.43	232.33	435.45	231.06	439.44	284.26	390.19	285.55
frame00205.jpg	388.61	232.49	435.35	231.36	439.61	284.23	390.27	285.72
frame00206.jpg	388.65	232.38	435.48	231.48	439.69	284.28	390.39	285.73
frame00207.jpg	388.46	232.34	435.52	231.25	439.59	284.08	390.61	285.77
frame00208.jpg	388.53	232.27	435.58	231.30	439.65	284.08	390.62	285.94
frame00209.jpg	388.56	232.42	435.42	231.20	439.79	284.02	390.77	286.04
frame00210.jpg	388.52	232.48	435.45	231.14	439.81	283.92	390.84	285.94
frame00211.jpg	388.45	232.71	435.25	231.18	440.03	283.95	390.84	286.10
frame00212.jpg	388.74	232.83	435.05	231.46	440.03	284.16	390.66	285.96
frame00213.jpg	388.66	232.91	435.07	231.46	439.92	284.03	390.58	285.88
frame00214.jpg	388.34	232.90	434.87	231.39	439.89	284.16	390.63	285.94
frame00215.jpg	388.20	233.00	434.70	231.47	439.90	284.16	390.54	285.91
frame00216.jpg	388.37	233.17	434.56	231.50	439.80	284.27	390.26	286.09
frame00217.jpg	388.10	233.30	434.42	231.33	439.77	284.39	390.27	285.99
frame00218.jpg	388.10	233.28	434.19	231.55	439.64	284.48	390.04	286.07
frame00219.jpg	387.77	233.32	434.26	231.39	439.55	284.37	390.11	286.09
frame00220.jpg	387.88	233.53	434.10	231.80	439.45	284.59	389.88	286.36
frame00221.jpg	387.68	233.90	434.18	231.95	439.29	284.86	389.93	286.52
frame00222.jpg	387.65	234.09	434.17	231.92	439.33	285.10	389.70	286.64
frame00223.jpg	387.44	234.17	434.11	232.06	439.30	285.10	389.68	286.64
frame00224.jpg	387.55	234.19	434.02	232.17	439.32	285.25	389.66	286.83
frame00225.jpg	387.60	234.36	434.10	232.15	439.43	285.45	389.91	286.96
frame00226.jpg	387.70	234.61	434.22	232.36	439.62	285.45	390.16	287.24
frame00227.jpg	387.90	234.91	434.36	232.69	439.88	285.57	390.43	287.76
frame00228.jpg	388.12	235.33	434.41	233.19	440.18	285.90	390.77	288.42
frame00229.jpg	388.22	236.25	434.55	233.69	440.63	286.23	391.24	289.11
frame00230.jpg	388.06	236.76	434.76	234.03	440.69	286.55	391.67	289.80
frame00231.jpg	388.60	237.38	434.67	234.99	440.98	287.39	391.48	290.48
frame00232.jpg	388.62	237.98	434.90	235.62	441.15	288.11	391.56	290.83
frame00233.jpg	388.69	238.59	435.13	235.95	441.22	288.61	391.82	291.52
frame00234.jpg	388.93	239.36	435.22	236.84	441.48	289.59	391.87	292.27
frame00235.jpg	389.07	240.39	435.39	237.89	441.67	290.31	392.00	293.18
frame00236.jpg	389.35	241.10	435.74	238.76	441.85	291.33	392.25	294.13
frame00237.jpg	389.69	242.21	436.10	239.87	442.21	292.41	392.58	295.01
frame00238.jpg	390.05	243.82	436.19	241.20	442.75	293.51	393.15	296.53
frame00239.jpg	390.05	245.93	436.28	243.19	443.19	294.94	393.68	298.43
frame00240.jpg	389.92	248.48	436.10	245.91	443.03	297.20	393.68	301.07
frame00241.jpg	389.50	251.29	435.94	248.55	442.45	299.83	393.57	303.86
frame00242.jpg	389.25	254.56	435.49	252.45	441.99	303.28	392.78	306.97
frame00243.jpg	388.98	257.82	435.30	256.13	441.18	306.91	392.04	310.09
frame00244.jpg	388.74	262.01	434.83	261.03	440.35	310.94	391.35	313.91
frame00245.jpg	388.28	268.38	434.10	267.67	439.42	315.78	390.59	319.16
frame00246.jpg	387.07	275.22	433.30	274.60	438.44	322.26	390.02	326.22
frame00247.jpg	386.10	282.95	432.14	282.38	437.50	329.38	389.12	333.71
frame00248.jpg	385.29	290.96	431.12	290.56	436.42	337.24	388.13	341.40
frame00249.jpg	384.13	300.30	429.59	300.02	435.41	345.79	386.98	349.88
frame00250.jpg	382.83	310.10	428.24	309.75	433.92	355.23	385.89	359.91
frame00251.jpg	381.45	320.55	426.93	320.33	432.65	365.02	384.13	370.43
frame00252.jpg	379.40	330.61	425.78	330.01	431.24	375.12	383.03	380.94
frame00253.jpg	378.45	340.99	424.42	340.53	430.16	385.67	381.58	391.25
frame00254.jpg	377.13	351.49	423.10	351.35	428.84	396.30	380.30	401.80
frame00255.jpg	375.79	361.29	422.22	361.22	427.35	406.66	379.13	412.11
frame00256.jpg	374.66	370.51	421.24	369.97	426.27	416.09	378.14	421.78
frame00257.jpg	373.19	379.73	419.85	379.02	425.43	424.99	377.25	430.82
frame00258.jpg	371.78	388.07	418.93	386.88	424.28	433.35	376.36	439.79
frame00259.jpg	370.58	394.80	418.14	393.10	423.58	440.41	375.79	447.00
frame00260.jpg	370.10	401.06	417.32	399.31	423.02	446.67	374.99	453.02
frame00261.jpg	369.24	406.32	416.84	404.08	422.55	451.99	374.69	458.33
frame00262.jpg	368.56	411.34	416.12	408.44	422.40	456.24	374.50	462.77
frame00263.jpg	367.81	416.27	415.42	412.87	422.15	460.24	374.14	467.05
frame00264.jpg	367.12	420.08	414.89	416.27	421.79	464.07	373.71	470.74
frame00265.jpg	366.78	423.35	414.48	419.65	421.35	467.69	372.94	473.74
frame00266.jpg	366.46	425.62	414.37	422.26	420.73	471.16	372.11	476.19
frame00267.jpg	366.64	425.65	414.39	422.71	420.29	472.76	371.42	476.72
frame00268.jpg	366.53	425.96	414.21	422.87	420.17	473.03	371.20	476.88
frame00269.jpg	366.15	426.36	413.82	422.86	420.18	472.79	371.22	477.08
frame00270.jpg	366.12	426.50	413.71	422.98	420.11	473.07	371.00	477.19
frame00271.jpg	366.21	426.47	413.76	423.08	420.05	473.46	370.81	477.19
frame00272.jpg	366.16	426.54	413.74	423.13	420.02	473.60	370.75	477.20
frame00273.jpg	366.20	426.48	413.71	423.14	420.00	473.57	370.71	477.12
frame00274.jpg	366.22	426.47	413.76	423.12	420.02	473.62	370.72	477.13
frame00275.jpg	366.33	426.53	413.90	423.32	420.00	473.79	370.69	477.16
frame00276.jpg	366.55	426.55	414.07	423.50	420.04	473.97	370.71	477.19
frame00277.jpg	366.68	426.56	414.20	423.59	420.07	474.05	370.76	477.22
frame00278.jpg	366.84	426.53	414.36	423.74	420.08	474.16	370.78	477.25
frame00279.jpg	367.00	426.53	414.64	423.86	420.08	474.32	370.86	477.29
frame00280.jpg	367.26	426.57	414.89	424.13	420.11	474.56	370.89	477.36
frame00281.jpg	367.45	426.65	414.99	424.39	420.18	474.75	370.92	477.44
frame00282.jpg	367.52	426.69	415.07	424.51	420.20	474.84	370.93	477.48
frame00283.jpg	367.62	426.76	415.13	424.69	420.19	475.00	370.90	477.55
frame00284.jpg	367.65	426.77	415.15	424.73	420.16	475.06	370.89	477.54
frame00285.jpg	367.62	426.76	415.16	424.72	420.15	475.07	370.90	477.55
frame00286.jpg	367.64	426.78	415.16	424.74	420.16	475.07	370.89	477.55
frame00287.jpg	367.64	426.79	415.17	424.73	420.15	475.06	370.89	477.53
frame00288.jpg	367.66	426.80	415.15	424.75	420.17	475.09	370.90	477.55
frame00289.jpg	367.66	426.78	415.16	424.74	420.15	475.07	370.90	477.57
frame00290.jpg	367.64	426.78	415.16	424.75	420.16	475.06	370.91	477.56
frame00291.jpg	367.65	426.78	415.18	424.75	420.15	475.05	370.92	477.57
frame00292.jpg	367.64	426.82	415.20	424.75	420.15	475.02	370.94	477.62
frame00293.jpg	367.66	426.86	415.19	424.79	420.13	474.97	370.97	477.72
frame00294.jpg	367.61	426.86	415.18	424.80	420.11	474.94	370.98	477.77
frame00295.jpg	367.66	426.88	415.18	424.84	420.09	474.93	370.94	477.77
frame00296.jpg	367.61	426.90	415.14	424.78	420.07	474.97	370.92	477.75
frame00297.jpg	367.58	426.88	415.11	424.81	420.06	474.99	370.88	477.73
frame00298.jpg	367.58	426.89	415.12	424.81	420.06	474.96	370.90	477.74
frame00299.jpg	367.60	426.92	415.12	424.79	420.06	474.96	370.91	477.74
frame00300.jpg	367.65	426.92	415.14	424.80	420.07	474.97	370.91	477.73
frame00301.jpg	367.67	426.93	415.10	424.81	420.07	474.98	370.91	477.75
frame00302.jpg	367.70	426.94	415.09	424.81	420.07	474.99	370.92	477.75
