frame	ulx	uly	urx	ury	lrx	lry	llx	lly
frame00001.jpg	310.00	288.00	407.00	284.00	413.00	436.00	315.00	440.00
frame00002.jpg	310.20	288.01	406.97	283.86	413.02	435.84	314.97	440.09
frame00003.jpg	310.21	288.00	406.94	283.88	413.00	435.81	314.97	440.10
frame00004.jpg	310.20	287.99	406.95	283.85	413.02	435.81	314.98	440.11
frame00005.jpg	310.20	287.98	406.95	283.84	413.02	435.80	314.99	440.12
frame00006.jpg	310.19	288.00	406.94	283.86	413.03	435.80	314.98	440.13
frame00007.jpg	310.17	288.01	406.95	283.84	413.02	435.79	314.99	440.12
frame00008.jpg	310.19	287.98	406.95	283.83	413.01	435.80	314.99	440.13
frame00009.jpg	310.18	287.96	406.97	283.81	413.01	435.79	314.99	440.13
frame00010.jpg	310.19	287.99	406.95	283.85	413.02	435.78	314.97	440.15
frame00011.jpg	310.20	288.03	406.94	283.86	413.02	435.79	314.98	440.13
frame00012.jpg	310.17	287.99	406.97	283.83	413.01	435.77	314.98	440.14
frame00013.jpg	310.17	288.05	406.93	283.84	413.02	435.78	314.99	440.15
frame00014.jpg	310.15	288.02	406.95	283.82	413.02	435.78	314.99	440.16
frame00015.jpg	310.19	288.06	406.94	283.84	413.02	435.79	314.99	440.16
frame00016.jpg	310.18	288.02	406.94	283.85	413.02	435.77	314.99	440.17
frame00017.jpg	310.16	287.99	406.97	283.81	413.01	435.76	314.99	440.15
frame00018.jpg	310.18	287.98	406.95	283.80	413.01	435.77	314.99	440.16
frame00019.jpg	310.19	288.03	406.94	283.82	413.03	435.77	314.98	440.17
frame00020.jpg	310.19	288.01	406.95	283.81	413.01	435.76	314.99	440.16
frame00021.jpg	310.21	288.02	406.95	283.82	413.01	435.75	314.98	440.16
frame00022.jpg	310.21	288.03	406.92	283.85	413.04	435.77	314.97	440.18
frame00023.jpg	310.21	288.02	406.93	283.81	413.01	435.76	314.99	440.16
frame00024.jpg	310.17	287.98	406.96	283.76	413.01	435.76	315.00	440.15
frame00025.jpg	310.16	288.04	406.92	283.82	413.01	435.75	314.99	440.18
frame00026.jpg	310.14	288.03	406.94	283.81	413.00	435.77	314.98	440.18
frame00027.jpg	310.13	288.06	406.93	283.84	413.02	435.76	314.98	440.18
frame00028.jpg	310.14	288.07	406.96	283.81	413.02	435.76	314.99	440.16
frame00029.jpg	310.17	288.03	406.96	283.79	413.00	435.76	315.00	440.15
frame00030.jpg	310.20	288.03	406.94	283.80	413.02	435.77	314.98	440.17
frame00031.jpg	310.22	288.00	406.93	283.80	413.03	435.77	314.99	440.17
frame00032.jpg	310.21	288.02	406.92	283.81	413.02	435.76	314.99	440.16
frame00033.jpg	310.22	288.04	406.93	283.81	413.03	435.78	314.99	440.16
frame00034.jpg	310.22	288.01	406.95	283.82	413.01	435.77	314.98	440.16
frame00035.jpg	310.22	288.00	406.95	283.83	413.00	435.76	314.98	440.16
frame00036.jpg	310.19	287.98	406.94	283.82	413.01	435.76	315.00	440.16
frame00037.jpg	310.22	288.01	406.93	283.86	413.01	435.76	314.99	440.17
frame00038.jpg	310.19	288.00	406.94	283.82	413.02	435.78	314.99	440.17
frame00039.jpg	310.21	288.00	406.95	283.85	413.00	435.77	314.97	440.17
frame00040.jpg	310.22	288.03	406.94	283.87	413.01	435.79	314.98	440.16
frame00041.jpg	310.19	288.03	406.95	283.88	413.01	435.78	314.99	440.15
frame00042.jpg	310.17	288.02	406.96	283.85	413.01	435.77	314.99	440.16
frame00043.jpg	310.21	288.04	406.94	283.90	413.01	435.78	314.96	440.18
frame00044.jpg	310.20	288.00	406.95	283.83	413.01	435.77	314.98	440.16
frame00045.jpg	310.23	288.00	406.95	283.84	413.01	435.77	314.99	440.16
frame00046.jpg	310.23	288.03	406.94	283.84	413.03	435.78	315.01	440.15
frame00047.jpg	310.24	288.01	406.96	283.83	413.01	435.77	314.98	440.15
frame00048.jpg	310.22	288.02	406.94	283.86	413.03	435.76	314.98	440.17
frame00049.jpg	310.23	287.99	406.96	283.83	413.00	435.75	314.99	440.16
frame00050.jpg	310.21	287.99	406.97	283.79	413.01	435.76	314.99	440.16
frame00051.jpg	310.26	288.04	406.95	283.83	413.01	435.76	314.99	440.17
frame00052.jpg	310.19	287.96	406.95	283.80	413.02	435.73	314.97	440.18
frame00053.jpg	310.22	287.95	406.95	283.81	413.01	435.71	314.95	440.19
frame00054.jpg	310.27	287.98	406.94	283.79	413.03	435.73	314.98	440.16
frame00055.jpg	310.30	287.95	406.96	283.77	413.05	435.73	314.98	440.17
frame00056.jpg	310.32	287.89	406.97	283.75	413.02	435.69	314.98	440.16
frame00057.jpg	310.34	287.87	406.96	283.76	413.04	435.71	314.97	440.16
frame00058.jpg	310.43	287.83	407.01	283.70	413.04	435.70	314.95	440.16
frame00059.jpg	310.51	287.70	407.04	283.62	413.06	435.67	314.97	440.12
frame00060.jpg	310.71	287.58	407.11	283.57	413.08	435.67	314.97	440.06
frame00061.jpg	310.85	287.42	407.17	283.49	413.08	435.66	314.96	439.99
frame00062.jpg	311.06	287.27	407.28	283.36	413.01	435.63	314.94	439.91
frame00063.jpg	311.22	287.19	407.33	283.29	413.02	435.62	314.91	439.84
frame00064.jpg	311.29	287.04	407.39	283.18	412.98	435.58	314.91	439.74
frame00065.jpg	311.42	287.00	407.42	283.18	412.96	435.59	314.89	439.73
frame00066.jpg	311.40	287.06	407.34	283.22	412.98	435.57	314.90	439.74
frame00067.jpg	311.35	287.16	407.30	283.28	412.96	435.58	314.90	439.75
frame00068.jpg	311.31	287.34	407.24	283.35	412.99	435.61	314.87	439.83
frame00069.jpg	311.15	287.37	407.16	283.38	412.99	435.63	314.90	439.86
frame00070.jpg	311.06	287.42	407.11	283.46	412.99	435.64	314.87	439.95
frame00071.jpg	310.97	287.48	407.02	283.55	413.00	435.67	314.84	440.02
frame00072.jpg	310.90	287.51	407.03	283.51	412.98	435.65	314.85	440.00
frame00073.jpg	310.83	287.46	407.05	283.52	412.99	435.66	314.86	440.00
frame00074.jpg	310.83	287.47	407.04	283.50	412.99	435.65	314.85	440.05
frame00075.jpg	310.80	287.54	407.04	283.56	412.98	435.65	314.85	440.08
frame00076.jpg	310.68	287.59	407.03	283.58	412.94	435.64	314.84	440.15
frame00077.jpg	310.55	287.78	406.96	283.66	412.98	435.68	314.85	440.26
frame00078.jpg	310.43	287.91	406.96	283.74	413.01	435.68	314.85	440.37
frame00079.jpg	310.38	288.05	407.00	283.78	413.04	435.70	314.91	440.44
frame00080.jpg	310.34	288.11	407.07	283.79	413.15	435.74	314.98	440.56
frame00081.jpg	310.44	288.12	407.24	283.79	413.28	435.79	315.05	440.72
frame00082.jpg	310.61	288.14	407.47	283.79	413.45	435.88	315.15	440.88
frame00083.jpg	310.79	288.16	407.75	283.79	413.62	435.94	315.28	441.07
frame00084.jpg	310.91	288.21	407.99	283.83	413.91	436.08	315.49	441.23
frame00085.jpg	311.14	288.27	408.28	283.91	414.28	436.35	315.71	441.48
frame00086.jpg	311.45	288.30	408.72	283.97	414.66	436.72	315.96	441.68
frame00087.jpg	311.75	288.37	409.10	284.14	415.06	437.10	316.25	441.95
frame00088.jpg	311.98	288.54	409.45	284.26	415.57	437.58	316.52	442.25
frame00089.jpg	312.23	288.60	409.88	284.31	415.92	438.00	316.71	442.55
frame00090.jpg	312.36	288.65	410.18	284.44	416.27	438.38	316.84	442.95
frame00091.jpg	312.37	288.69	410.44	284.50	416.52	438.75	316.97	443.27
frame00092.jpg	312.38	288.85	410.67	284.60	416.76	439.12	317.00	443.65
frame00093.jpg	312.42	288.94	410.84	284.75	416.92	439.52	317.00	444.00
frame00094.jpg	312.40	289.05	410.95	284.89	417.10	439.91	317.04	444.34
frame00095.jpg	312.39	289.15	411.10	285.05	417.26	440.26	317.01	444.68
frame00096.jpg	312.38	289.27	411.21	285.12	417.38	440.61	317.00	444.98
frame00097.jpg	312.27	289.36	411.30	285.20	417.47	440.91	316.96	445.31
frame00098.jpg	312.24	289.49	411.40	285.31	417.61	441.33	316.91	445.67
frame00099.jpg	312.12	289.52	411.53	285.37	417.74	441.70	316.89	445.99
frame00100.jpg	312.12	289.60	411.66	285.49	417.90	442.17	316.85	446.36
frame00101.jpg	312.13	289.72	411.80	285.61	418.03	442.57	316.81	446.76
frame00102.jpg	312.02	289.87	411.90	285.78	418.18	442.94	316.75	447.16
frame00103.jpg	311.93	289.98	412.04	285.87	418.31	443.30	316.69	447.57
frame00104.jpg	311.88	290.09	412.19	285.95	418.40	443.70	316.62	448.00
frame00105.jpg	311.85	290.28	412.34	286.03	418.55	444.17	316.55	448.44
frame00106.jpg	311.82	290.41	412.52	286.16	418.68	444.66	316.43	448.94
frame00107.jpg	311.71	290.55	412.61	286.36	418.86	445.18	316.37	449.45
frame00108.jpg	311.59	290.67	412.75	286.48	418.99	445.61	316.30	449.95
frame00109.jpg	311.56	290.87	412.88	286.60	419.18	446.15	316.30	450.45
frame00110.jpg	311.48	290.92	413.11	286.68	419.26	446.65	316.18	450.96
frame00111.jpg	311.35	291.09	413.27	286.80	419.43	447.26	316.04	451.51
frame00112.jpg	311.23	291.29	413.33	287.14	419.59	447.85	315.87	452.17
frame00113.jpg	311.04	291.51	413.46	287.28	419.74	448.43	315.74	452.82
frame00114.jpg	310.88	291.77	413.56	287.49	419.89	449.06	315.59	453.51
frame00115.jpg	310.61	291.88	413.70	287.60	419.98	449.66	315.41	454.30
frame00116.jpg	310.46	292.11	413.89	287.74	420.11	450.36	315.19	455.10
frame00117.jpg	310.32	292.39	414.04	287.95	420.35	451.06	315.08	455.88
frame00118.jpg	310.34	292.73	414.30	288.20	420.60	451.82	314.98	456.70
frame00119.jpg	310.23	292.89	414.68	288.47	420.91	452.57	314.88	457.56
frame00120.jpg	310.14	293.15	414.99	288.69	421.26	453.36	314.83	458.46
frame00121.jpg	309.99	293.28	415.32	288.89	421.53	454.16	314.77	459.43
frame00122.jpg	309.96	293.64	415.71	289.13	421.90	455.15	314.68	460.35
frame00123.jpg	309.78	293.97	416.01	289.38	422.29	456.08	314.63	461.34
frame00124.jpg	309.71	294.32	416.37	289.71	422.64	457.10	314.50	462.42
frame00125.jpg	309.59	294.72	416.67	290.11	423.08	458.24	314.36	463.52
frame00126.jpg	309.50	295.08	417.14	290.39	423.46	459.40	314.23	464.66
frame00127.jpg	309.29	295.38	417.54	290.72	423.91	460.58	314.17	465.90
frame00128.jpg	309.24	295.88	418.01	291.19	424.50	461.86	314.13	467.21
frame00129.jpg	309.11	296.24	418.61	291.47	425.03	463.10	314.11	468.54
frame00130.jpg	308.93	296.70	419.06	291.91	425.57	464.41	314.01	469.96
frame00131.jpg	308.72	297.29	419.48	292.31	426.12	465.67	313.92	471.38
frame00132.jpg	308.56	297.72	419.97	292.75	426.64	466.86	313.86	472.81
frame00133.jpg	308.49	298.16	420.55	292.97	427.19	468.11	313.88	474.17
frame00134.jpg	308.28	298.69	421.02	293.44	427.70	469.27	313.81	475.57
frame00135.jpg	308.05	299.32	421.33	293.88	428.23	470.56	313.72	476.92
frame00136.jpg	307.64	299.62	421.71	294.22	428.62	471.72	313.53	478.29
frame00137.jpg	307.32	300.14	421.94	294.62	428.93	472.90	313.27	479.66
frame00138.jpg	306.69	300.51	422.02	294.85	429.06	474.04	312.86	481.01
frame00139.jpg	305.92	301.05	421.78	295.12	429.03	475.04	312.28	482.42
frame00140.jpg	305.02	301.52	421.43	295.59	428.78	476.25	311.42	483.88
frame00141.jpg	304.11	301.90	421.24	295.78	428.52	477.45	310.65	485.28
frame00142.jpg	303.17	302.39	420.98	296.21	428.44	478.74	309.94	486.73
frame00143.jpg	302.37	302.86	420.85	296.69	428.39	480.21	309.22	488.20
frame00144.jpg	301.64	303.44	420.77	297.14	428.42	481.83	308.53	489.69
frame00145.jpg	300.93	303.99	420.81	297.66	428.40	483.44	307.77	491.27
frame00146.jpg	300.05	304.46	420.74	298.23	428.47	485.26	307.03	492.91
frame00147.jpg	298.99	305.00	420.65	298.76	428.58	487.06	306.34	494.54
frame00148.jpg	298.18	305.70	420.66	299.42	428.68	489.08	305.48	496.32
frame00149.jpg	297.10	306.09	420.69	299.90	428.80	491.05	304.84	498.13
frame00150.jpg	296.39	306.74	420.81	300.55	428.95	493.17	304.04	500.12
frame00151.jpg	295.58	307.39	420.95	301.16	429.24	495.21	303.40	502.15
frame00152.jpg	294.75	308.04	421.25	301.76	429.46	497.35	302.75	504.14
frame00153.jpg	293.99	308.78	421.47	302.54	429.80	499.45	302.03	506.27
frame00154.jpg	293.22	309.51	421.76	303.02	430.11	501.54	301.46	508.31
frame00155.jpg	292.46	310.16	421.99	303.74	430.42	503.63	300.84	510.47
frame00156.jpg	291.82	310.93	422.29	304.34	430.96	505.72	300.39	512.51
frame00157.jpg	291.38	311.56	422.84	304.93	431.42	507.56	299.96	514.57
frame00158.jpg	290.85	312.08	423.42	305.39	431.96	509.45	299.61	516.58
frame00159.jpg	290.62	312.71	424.03	305.99	432.47	511.28	299.27	518.61
frame00160.jpg	290.41	313.21	424.61	306.50	433.14	513.12	299.10	520.65
frame00161.jpg	290.28	313.78	425.54	306.94	433.94	514.94	298.97	522.56
frame00162.jpg	290.52	314.24	426.54	307.62	434.83	516.93	298.95	524.61
frame00163.jpg	290.70	314.73	427.69	308.07	435.91	518.79	299.09	526.59
frame00164.jpg	291.05	315.37	428.83	308.59	436.92	520.71	299.27	528.56
frame00165.jpg	291.06	315.87	429.81	309.07	437.74	522.48	299.23	530.63
frame00166.jpg	290.72	316.47	430.46	309.68	438.33	524.45	298.97	532.66
frame00167.jpg	290.17	317.13	430.82	310.37	438.82	526.62	298.44	534.85
frame00168.jpg	289.51	317.68	431.28	310.96	439.09	528.91	297.65	537.00
frame00169.jpg	288.88	318.43	431.47	311.75	439.42	531.31	296.79	539.21
frame00170.jpg	288.16	318.86	431.74	312.37	439.52	533.62	295.99	541.36
frame00171.jpg	287.48	319.55	432.00	313.10	439.70	536.08	295.03	543.56
frame00172.jpg	286.79	320.13	432.34	313.81	439.64	538.33	294.08	545.67
frame00173.jpg	285.83	320.75	432.32	314.44	439.73	540.71	293.14	547.88
frame00174.jpg	284.78	321.38	432.36	315.10	439.72	542.91	292.13	550.08
frame00175.jpg	283.65	322.09	432.22	315.92	439.78	545.14	291.14	552.33
frame00176.jpg	282.98	322.98	432.35	316.67	439.68	547.33	290.14	554.55
frame00177.jpg	282.15	323.65	432.64	317.30	439.89	549.51	289.27	556.72
frame00178.jpg	281.34	324.14	432.93	317.95	440.13	551.87	288.52	558.75
frame00179.jpg	281.09	324.74	433.48	318.52	440.45	554.24	287.80	560.91
frame00180.jpg	280.93	324.95	434.25	319.27	440.78	556.58	287.07	563.03
frame00181.jpg	280.49	325.56	434.65	319.98	441.41	558.52	286.80	564.99
frame00182.jpg	280.01	326.64	435.09	320.73	441.91	560.33	286.41	566.99
frame00183.jpg	279.23	327.35	435.27	321.47	442.14	562.07	285.95	568.95
frame00184.jpg	278.54	327.93	435.68	321.94	442.35	563.96	285.35	570.92
frame00185.jpg	277.92	328.58	435.87	322.62	442.58	565.88	284.63	572.92
frame00186.jpg	277.20	329.09	436.09	323.07	442.72	567.63	284.09	574.68
frame00187.jpg	276.39	329.70	436.20	323.75	443.13	569.28	283.48	576.63
frame00188.jpg	275.80	330.01	436.64	324.10	443.28	571.12	282.92	578.55
frame00189.jpg	275.20	331.03	436.58	324.98	443.52	572.61	282.49	580.32
frame00190.jpg	274.48	331.60	436.73	325.49	443.76	574.25	281.89	581.85
frame00191.jpg	274.07	331.96	437.13	325.77	443.72	575.71	281.44	583.18
frame00192.jpg	273.70	332.46	437.12	326.36	443.88	577.08	280.95	584.61
frame00193.jpg	273.20	332.83	437.31	326.68	444.06	578.25	280.55	585.58
frame00194.jpg	272.79	333.05	437.35	327.12	444.15	579.30	280.09	586.70
frame00195.jpg	272.46	333.22	437.35	327.57	444.14	580.20	279.73	587.67
frame00196.jpg	272.20	333.69	437.42	327.79	444.42	581.07	279.53	588.38
frame00197.jpg	271.86	333.83	437.55	327.95	444.47	581.32	279.54	588.87
frame00198.jpg	271.85	333.83	437.84	327.91	444.62	581.85	279.34	589.55
frame00199.jpg	271.85	334.03	438.01	327.90	444.75	582.43	279.34	590.13
frame00200.jpg	271.77	334.57	438.18	328.22	444.98	582.93	279.26	590.77
frame00201.jpg	271.40	334.75	438.19	328.48	445.03	583.48	279.03	591.71
frame00202.jpg	271.18	335.18	438.21	328.93	445.30	584.16	278.89	592.39
frame00203.jpg	271.19	335.24	438.50	328.88	445.47	584.92	278.78	593.15
frame00204.jpg	271.07	335.24	438.89	329.04	445.55	585.54	278.40	593.88
frame00205.jpg	270.85	335.48	438.92	329.19	445.64	586.01	278.38	594.49
frame00206.jpg	270.47	336.29	438.79	329.58	445.83	586.43	278.47	595.01
frame00207.jpg	269.94	336.46	438.79	329.96	446.00	587.11	278.12	595.72
frame00208.jpg	269.79	336.43	439.06	329.86	445.96	587.91	277.95	596.24
frame00209.jpg	269.96	336.70	439.21	330.32	446.13	588.76	277.56	597.06
frame00210.jpg	270.02	336.75	439.54	330.35	446.22	589.80	277.32	597.69
frame00211.jpg	269.71	336.67	439.67	330.48	446.32	590.65	277.04	598.57
frame00212.jpg	269.61	336.88	439.84	330.89	446.43	591.42	276.70	599.37
frame00213.jpg	269.56	337.30	440.15	331.02	446.52	592.13	276.62	599.98
frame00214.jpg	269.30	337.64	440.05	331.43	446.69	592.69	276.38	600.76
frame00215.jpg	268.80	337.90	439.96	331.60	446.81	592.97	276.26	601.24
frame00216.jpg	268.81	338.56	439.80	331.88	446.90	593.17	276.28	601.47
frame00217.jpg	268.64	338.47	439.84	331.80	446.79	593.07	276.35	601.42
frame00218.jpg	268.66	338.14	439.83	331.69	446.75	593.08	276.30	601.56
frame00219.jpg	268.76	338.24	439.95	331.75	446.83	593.04	276.28	601.45
frame00220.jpg	268.79	337.96	439.91	331.71	446.70	593.00	276.34	601.45
frame00221.jpg	268.85	338.17	439.95	331.85	446.86	592.96	276.31	601.45
frame00222.jpg	268.75	338.22	440.02	331.68	446.86	592.94	276.34	601.48
frame00223.jpg	268.68	338.29	439.84	331.79	446.90	593.03	276.30	601.56
frame00224.jpg	268.56	337.98	440.08	331.45	446.83	592.88	276.43	601.44
frame00225.jpg	268.88	338.15	440.06	331.46	446.86	592.91	276.45	601.38
frame00226.jpg	269.03	338.14	440.04	331.41	446.94	592.96	276.41	601.42
frame00227.jpg	269.02	338.21	440.03	331.53	446.94	592.86	276.40	601.46
frame00228.jpg	268.91	338.32	439.98	331.64	446.99	592.90	276.40	601.49
frame00229.jpg	269.00	338.29	440.04	331.63	446.84	592.86	276.38	601.53
frame00230.jpg	268.91	338.32	439.87	331.73	446.95	592.88	276.41	601.56
frame00231.jpg	268.92	338.32	439.95	331.53	446.94	592.86	276.48	601.50
frame00232.jpg	268.83	338.15	439.90	331.61	446.88	592.83	276.46	601.51
frame00233.jpg	268.90	338.34	440.04	331.64	446.88	592.87	276.34	601.36
frame00234.jpg	268.93	338.48	439.83	331.79	446.98	592.93	276.38	601.50
frame00235.jpg	268.65	338.14	439.84	331.59	446.88	592.81	276.53	601.47
frame00236.jpg	268.77	338.50	439.76	331.69	447.00	592.91	276.52	601.41
frame00237.jpg	268.79	338.64	439.77	331.65	446.95	592.87	276.51	601.44
frame00238.jpg	268.65	338.21	439.86	331.69	446.86	592.80	276.46	601.45
frame00239.jpg	268.84	338.52	439.93	331.68	446.94	592.89	276.49	601.28
frame00240.jpg	268.95	338.34	439.87	331.67	446.90	592.78	276.45	601.39
frame00241.jpg	269.02	338.32	439.93	331.53	446.89	592.76	276.44	601.25
frame00242.jpg	269.07	338.35	439.96	331.48	446.82	592.71	276.49	601.19
frame00243.jpg	268.83	338.23	439.84	331.60	446.90	592.68	276.43	601.23
frame00244.jpg	268.73	338.19	439.75	331.39	446.92	592.62	276.64	601.12
frame00245.jpg	269.08	338.29	439.78	331.55	446.87	592.63	276.52	601.11
frame00246.jpg	268.98	338.32	439.86	331.38	446.92	592.56	276.52	601.05
frame00247.jpg	269.04	338.09	439.80	331.56	446.75	592.44	276.45	601.11
frame00248.jpg	269.05	338.36	439.81	331.44	446.87	592.38	276.58	600.97
frame00249.jpg	268.97	338.32	439.64	331.57	446.87	592.05	276.62	600.94
frame00250.jpg	268.93	338.26	439.70	331.29	446.79	591.79	276.76	600.70
frame00251.jpg	268.72	338.24	439.42	331.56	446.78	591.42	276.83	600.57
frame00252.jpg	268.98	338.25	439.46	331.22	446.69	591.28	276.96	600.27
frame00253.jpg	268.94	338.46	439.43	331.09	446.79	590.90	277.01	599.81
frame00254.jpg	269.01	338.12	439.20	331.06	446.63	590.44	277.17	599.50
frame00255.jpg	269.15	337.66	439.35	330.66	446.43	589.91	277.31	599.00
frame00256.jpg	269.29	337.70	439.09	330.63	446.51	589.53	277.57	598.46
frame00257.jpg	269.25	337.49	438.94	330.50	446.39	588.94	277.63	597.83
frame00258.jpg	269.37	337.25	438.74	330.29	446.20	588.26	277.78	597.17
frame00259.jpg	269.95	337.13	438.63	330.04	445.88	587.65	277.81	596.36
frame00260.jpg	270.07	336.41	438.27	329.72	445.64	587.25	277.77	595.90
frame00261.jpg	270.41	335.87	438.25	329.19	445.36	586.92	277.77	595.25
frame00262.jpg	270.86	335.49	438.27	329.05	445.25	586.53	277.57	594.74
frame00263.jpg	270.97	335.30	437.95	329.01	445.14	585.88	277.78	594.27
frame00264.jpg	270.56	335.38	437.69	328.78	445.16	585.06	278.19	593.54
frame00265.jpg	270.34	335.72	437.43	328.77	445.06	584.16	278.51	593.05
frame00266.jpg	270.13	335.78	437.29	328.68	444.98	583.37	278.74	592.68
frame00267.jpg	270.49	335.66	437.27	328.68	444.91	582.96	278.85	592.41
frame00268.jpg	271.09	335.58	437.54	328.32	444.97	582.66	278.94	592.05
frame00269.jpg	271.30	335.38	437.38	328.28	445.02	582.16	279.18	591.60
frame00270.jpg	271.38	335.09	437.24	327.97	444.92	581.36	279.50	590.86
frame00271.jpg	271.69	334.52	437.28	327.77	444.67	580.55	279.62	590.13
frame00272.jpg	272.01	334.18	437.15	327.37	444.45	579.74	279.79	589.20
frame00273.jpg	272.47	333.89	436.86	327.06	444.18	578.93	279.92	588.11
frame00274.jpg	272.45	333.28	436.44	326.65	443.75	577.80	280.12	586.85
frame00275.jpg	272.51	332.93	435.89	326.29	443.42	576.66	280.31	585.48
frame00276.jpg	272.77	332.40	435.43	325.78	442.73	575.50	280.25	584.07
frame00277.jpg	272.99	332.03	434.78	325.31	442.08	574.05	280.31	582.50
frame00278.jpg	273.14	331.41	434.15	324.65	441.53	572.49	280.36	580.80
frame00279.jpg	273.29	330.51	433.60	324.05	440.84	570.72	280.55	579.07
frame00280.jpg	273.55	330.01	432.91	323.46	440.23	568.93	280.66	577.23
frame00281.jpg	273.74	329.39	432.03	322.96	439.63	567.22	280.74	575.59
frame00282.jpg	273.95	328.97	431.47	322.32	438.96	565.22	281.03	573.55
frame00283.jpg	273.99	328.37	430.77	321.68	438.37	563.15	281.37	571.55
frame00284.jpg	274.25	327.79	430.10	321.03	437.76	561.18	281.69	569.59
frame00285.jpg	274.68	327.17	429.57	320.54	437.19	559.25	281.94	567.64
frame00286.jpg	275.21	326.51	429.14	319.79	436.64	557.24	282.38	565.51
frame00287.jpg	275.79	325.72	428.80	319.12	436.26	555.18	282.82	563.51
frame00288.jpg	276.42	324.98	428.36	318.37	435.92	553.18	283.54	561.37
frame00289.jpg	277.43	324.18	428.40	317.96	435.45	551.15	283.98	559.12
frame00290.jpg	278.08	323.54	428.34	317.13	435.23	549.07	284.69	556.87
frame00291.jpg	278.84	322.90	428.05	316.75	434.95	546.98	285.23	554.90
frame00292.jpg	279.35	322.35	427.68	316.11	434.59	544.92	285.90	552.78
frame00293.jpg	279.88	321.70	427.34	315.47	434.14	542.85	286.40	550.79
frame00294.jpg	280.40	320.94	427.04	314.80	433.73	541.01	286.78	548.77
frame00295.jpg	281.05	320.00	426.78	314.20	433.21	539.15	287.12	546.83
frame00296.jpg	281.66	319.62	426.37	313.69	432.97	537.23	287.67	544.86
frame00297.jpg	282.08	319.03	425.94	313.03	432.62	535.21	288.23	543.15
frame00298.jpg	282.48	318.42	425.54	312.41	432.13	533.25	288.66	541.37
frame00299.jpg	282.71	317.97	425.06	311.77	431.85	531.37	289.14	539.79
frame00300.jpg	283.04	317.76	424.47	311.36	431.72	529.54	289.73	538.29
frame00301.jpg	283.37	317.41	424.04	310.64	431.56	527.70	290.49	536.68
frame00302.jpg	283.71	317.00	423.49	310.17	431.51	525.83	291.18	535.26
frame00303.jpg	284.04	316.60	423.14	309.46	431.54	524.00	292.01	533.53
frame00304.jpg	284.55	316.18	422.74	308.96	431.48	522.25	292.81	531.74
frame00305.jpg	285.38	315.43	422.65	308.39	431.23	520.67	293.35	529.82
frame00306.jpg	286.22	314.87	422.58	307.82	431.01	518.96	293.90	527.98
frame00307.jpg	286.78	314.00	422.50	307.12	430.79	517.29	294.52	526.15
frame00308.jpg	287.64	313.72	422.17	306.84	430.47	515.63	294.97	524.39
frame00309.jpg	287.92	313.09	421.87	306.19	430.14	513.86	295.44	522.60
frame00310.jpg	288.40	312.57	421.50	305.76	429.75	512.09	295.87	520.78
frame00311.jpg	288.92	312.09	421.05	305.20	429.42	510.43	296.22	519.07
frame00312.jpg	289.36	311.28	420.80	304.63	428.88	508.78	296.50	517.26
frame00313.jpg	289.88	310.66	420.46	304.17	428.33	507.17	296.71	515.52
frame00314.jpg	290.18	310.28	419.92	303.74	428.07	505.66	297.07	513.94
frame00315.jpg	290.53	309.71	419.54	303.21	427.83	504.19	297.52	512.49
frame00316.jpg	291.05	309.18	419.38	302.67	427.52	502.84	297.91	510.92
frame00317.jpg	291.66	308.83	419.19	302.52	427.32	501.38	298.34	509.36
frame00318.jpg	291.94	308.40	418.90	302.05	427.09	499.96	298.82	507.78
frame00319.jpg	292.22	307.94	418.49	301.51	426.76	498.52	299.21	506.28
frame00320.jpg	292.51	307.60	418.11	301.20	426.35	496.93	299.53	504.66
frame00321.jpg	292.68	306.96	417.64	300.70	425.85	495.37	299.68	503.18
frame00322.jpg	292.96	306.53	417.11	300.27	425.26	493.78	299.82	501.61
frame00323.jpg	293.14	306.03	416.56	299.70	424.62	492.10	299.98	500.05
frame00324.jpg	293.27	305.55	415.90	299.27	424.00	490.34	300.12	498.51
frame00325.jpg	293.64	305.16	415.30	298.79	423.36	488.73	300.20	496.90
frame00326.jpg	293.88	304.44	414.79	298.30	422.72	487.08	300.31	495.26
frame00327.jpg	294.24	303.91	414.18	297.81	422.15	485.56	300.48	493.64
frame00328.jpg	294.50	303.34	413.75	297.32	421.54	484.08	300.57	491.92
frame00329.jpg	294.78	302.94	413.33	297.09	420.85	482.72	300.54	490.32
frame00330.jpg	294.91	302.69	412.66	296.86	420.18	481.23	300.63	488.73
frame00331.jpg	294.85	302.40	411.93	296.44	419.50	479.63	300.73	487.11
frame00332.jpg	294.70	301.87	411.26	295.94	418.75	478.07	300.71	485.59
frame00333.jpg	294.78	301.43	410.58	295.66	418.04	476.71	300.60	484.14
frame00334.jpg	294.81	300.90	410.00	295.21	417.42	475.24	300.68	482.60
frame00335.jpg	295.05	300.41	409.54	294.75	416.87	473.79	300.80	481.13
frame00336.jpg	295.41	299.92	409.16	294.34	416.43	472.40	301.04	479.62
frame00337.jpg	295.73	299.53	408.79	293.94	416.06	470.91	301.35	478.07
frame00338.jpg	296.11	299.17	408.46	293.55	415.65	469.27	301.78	476.49
frame00339.jpg	296.30	298.82	407.98	293.21	415.28	467.73	302.07	474.89
frame00340.jpg	296.59	298.38	407.52	292.82	414.74	466.19	302.25	473.38
frame00341.jpg	296.82	297.85	407.14	292.30	414.27	464.63	302.50	471.81
frame00342.jpg	297.18	297.30	406.74	291.81	413.87	463.18	302.75	470.39
frame00343.jpg	297.68	296.86	406.44	291.45	413.49	461.72	303.01	468.96
frame00344.jpg	298.09	296.24	406.30	290.91	413.06	460.21	303.33	467.36
frame00345.jpg	298.59	295.83	406.09	290.58	412.71	458.82	303.64	465.80
frame00346.jpg	298.87	295.51	405.82	290.34	412.45	457.38	304.02	464.41
frame00347.jpg	299.13	295.27	405.52	289.99	412.29	455.97	304.49	463.04
frame00348.jpg	299.52	294.70	405.42	289.45	411.97	454.74	304.81	461.58
frame00349.jpg	300.03	294.22	405.21	289.11	411.84	453.54	305.20	460.20
frame00350.jpg	300.58	293.76	405.07	288.78	411.72	452.42	305.61	458.83
frame00351.jpg	301.09	293.27	404.99	288.26	411.63	451.36	306.13	457.55
frame00352.jpg	301.45	292.80	404.87	287.86	411.64	450.31	306.63	456.32
frame00353.jpg	302.01	292.42	404.76	287.63	411.62	449.30	307.07	455.08
frame00354.jpg	302.56	292.01	404.74	287.32	411.57	448.34	307.46	453.91
frame00355.jpg	303.05	291.64	404.71	286.96	411.42	447.32	307.81	452.88
frame00356.jpg	303.44	291.41	404.66	286.69	411.32	446.29	308.21	451.77
frame00357.jpg	303.82	290.99	404.66	286.39	411.21	445.31	308.50	450.81
frame00358.jpg	304.28	290.76	404.64	286.14	411.23	444.39	308.93	449.92
frame00359.jpg	304.87	290.57	404.80	285.86	411.40	443.53	309.46	449.11
frame00360.jpg	305.41	290.10	405.08	285.52	411.59	442.73	310.04	448.35
frame00361.jpg	306.12	289.91	405.35	285.29	411.91	442.09	310.62	447.64
frame00362.jpg	306.79	289.60	405.76	285.10	412.15	441.50	311.14	446.96
frame00363.jpg	307.55	289.38	406.16	284.97	412.42	441.07	311.61	446.37
frame00364.jpg	308.10	289.00	406.53	284.72	412.64	440.66	312.07	445.84
frame00365.jpg	308.55	288.92	406.75	284.59	412.91	440.22	312.58	445.33
frame00366.jpg	308.83	288.91	406.86	284.54	413.12	439.74	312.99	444.92
frame00367.jpg	309.00	288.92	406.87	284.48	413.25	439.23	313.32	444.49
frame00368.jpg	309.19	288.69	406.98	284.30	413.24	438.74	313.55	444.03
frame00369.jpg	309.52	288.50	407.00	284.15	413.21	438.39	313.67	443.58
frame00370.jpg	309.85	288.21	407.12	283.96	413.12	438.07	313.75	443.05
frame00371.jpg	309.99	287.93	407.07	283.85	413.02	437.66	313.87	442.53
frame00372.jpg	310.11	287.89	406.96	283.77	412.92	437.26	313.99	442.03
frame00373.jpg	310.17	287.86	406.79	283.72	412.84	436.95	314.03	441.64
frame00374.jpg	310.19	287.70	406.73	283.57	412.80	436.62	314.14	441.29
frame00375.jpg	310.43	287.54	406.80	283.42	412.78	436.38	314.24	441.04
frame00376.jpg	310.64	287.38	406.93	283.29	412.81	436.21	314.38	440.79
frame00377.jpg	310.86	287.34	406.96	283.27	412.88	436.10	314.46	440.67
frame00378.jpg	310.96	287.33	406.99	283.27	412.90	436.02	314.53	440.54
frame00379.jpg	311.00	287.33	406.98	283.29	412.95	435.95	314.58	440.49
frame00380.jpg	311.03	287.30	406.99	283.22	412.96	435.92	314.61	440.43
frame00381.jpg	311.15	287.21	407.07	283.20	412.95	435.88	314.63	440.35
frame00382.jpg	311.32	287.11	407.13	283.20	412.95	435.81	314.63	440.31
frame00383.jpg	311.46	286.99	407.24	283.11	412.94	435.76	314.68	440.18
frame00384.jpg	311.52	287.02	407.25	283.15	412.98	435.70	314.74	440.06
frame00385.jpg	311.41	287.15	407.12	283.22	413.08	435.58	314.93	439.96
frame00386.jpg	311.34	287.28	407.10	283.28	413.07	435.49	315.02	439.85
frame00387.jpg	311.26	287.39	407.03	283.28	413.07	435.51	315.06	439.77
frame00388.jpg	311.14	287.40	406.93	283.32	413.13	435.53	315.07	439.76
frame00389.jpg	311.25	287.23	407.07	283.19	413.10	435.52	315.09	439.66
frame00390.jpg	311.44	287.03	407.26	283.13	413.09	435.48	315.06	439.58
frame00391.jpg	311.58	286.79	407.39	283.03	413.06	435.43	315.11	439.44
frame00392.jpg	311.83	286.64	407.56	282.99	413.06	435.41	315.11	439.32
frame00393.jpg	312.00	286.45	407.66	282.91	413.09	435.40	315.17	439.17
frame00394.jpg	312.15	286.40	407.71	282.92	413.09	435.42	315.15	439.14
frame00395.jpg	312.14	286.37	407.76	282.85	413.08	435.40	315.17	439.10
frame00396.jpg	312.14	286.41	407.73	282.92	413.08	435.43	315.15	439.13
frame00397.jpg	312.07	286.41	407.74	282.93	413.07	435.39	315.15	439.13
frame00398.jpg	312.05	286.43	407.73	282.94	413.07	435.40	315.16	439.14
frame00399.jpg	312.07	286.50	407.70	282.99	413.09	435.44	315.15	439.15
frame00400.jpg	312.02	286.49	407.70	282.94	413.10	435.43	315.16	439.14
frame00401.jpg	312.04	286.48	407.70	282.94	413.08	435.42	315.17	439.13
frame00402.jpg	312.02	286.45	407.71	282.92	413.08	435.43	315.18	439.15
frame00403.jpg	312.01	286.46	407.68	282.99	413.07	435.41	315.16	439.17
frame00404.jpg	311.98	286.52	407.68	283.00	413.09	435.40	315.17	439.15
frame00405.jpg	311.99	286.53	407.73	282.96	413.06	435.41	315.15	439.18
frame00406.jpg	311.93	286.57	407.65	282.99	413.10	435.43	315.17	439.19
frame00407.jpg	311.93	286.56	407.67	283.01	413.09	435.43	315.15	439.20
frame00408.jpg	311.95	286.60	407.65	283.03	413.08	435.45	315.16	439.20
frame00409.jpg	311.93	286.59	407.67	283.02	413.07	435.42	315.18	439.20
frame00410.jpg	311.88	286.62	407.64	283.06	413.07	435.42	315.17	439.24
frame00411.jpg	311.84	286.67	407.64	283.05	413.08	435.44	315.17	439.24
frame00412.jpg	311.81	286.75	407.60	283.15	413.10	435.46	315.14	439.28
frame00413.jpg	311.73	286.77	407.59	283.17	413.11	435.47	315.19	439.31
frame00414.jpg	311.62	286.84	407.57	283.20	413.13	435.46	315.19	439.35
frame00415.jpg	311.57	286.93	407.57	283.22	413.13	435.46	315.21	439.39
frame00416.jpg	311.49	287.07	407.50	283.25	413.19	435.52	315.25	439.45
frame00417.jpg	311.39	287.09	407.49	283.29	413.19	435.51	315.24	439.49
frame00418.jpg	311.35	287.09	407.44	283.31	413.18	435.51	315.24	439.51
frame00419.jpg	311.36	287.11	407.49	283.29	413.17	435.49	315.24	439.50
frame00420.jpg	311.38	287.10	407.50	283.26	413.18	435.51	315.24	439.50
frame00421.jpg	311.39	287.13	407.47	283.31	413.17	435.50	315.22	439.53
frame00422.jpg	311.35	287.16	407.47	283.31	413.19	435.52	315.24	439.52
frame00423.jpg	311.32	287.24	407.42	283.36	413.21	435.52	315.25	439.56
frame00424.jpg	311.33	287.30	407.44	283.40	413.21	435.54	315.23	439.57
frame00425.jpg	311.24	287.38	407.36	283.44	413.26	435.57	315.28	439.60
frame00426.jpg	311.21	287.44	407.36	283.48	413.24	435.55	315.26	439.64
frame00427.jpg	311.15	287.51	407.32	283.51	413.25	435.58	315.29	439.66
frame00428.jpg	311.07	287.54	407.28	283.55	413.29	435.59	315.28	439.68
frame00429.jpg	311.03	287.59	407.24	283.57	413.30	435.59	315.29	439.70
frame00430.jpg	311.02	287.52	407.31	283.54	413.26	435.57	315.28	439.69
frame00431.jpg	311.03	287.56	407.27	283.54	413.27	435.57	315.29	439.70
frame00432.jpg	311.04	287.58	407.26	283.59	413.28	435.59	315.30	439.68
frame00433.jpg	311.00	287.55	407.23	283.60	413.27	435.61	315.29	439.70
frame00434.jpg	311.00	287.59	407.24	283.60	413.29	435.63	315.29	439.69
frame00435.jpg	311.00	287.63	407.24	283.62	413.29	435.63	315.29	439.70
frame00436.jpg	310.90	287.54	407.22	283.59	413.26	435.57	315.32	439.71
frame00437.jpg	310.98	287.64	407.22	283.67	413.28	435.59	315.29	439.70
frame00438.jpg	310.98	287.58	407.22	283.65	413.28	435.59	315.28	439.71
frame00439.jpg	311.07	287.61	407.28	283.59	413.30	435.62	315.29	439.67
frame00440.jpg	311.07	287.57	407.28	283.57	413.30	435.59	315.31	439.65
frame00441.jpg	311.10	287.55	407.31	283.56	413.27	435.60	315.29	439.65
frame00442.jpg	311.07	287.56	407.28	283.59	413.29	435.59	315.30	439.66
frame00443.jpg	311.04	287.55	407.31	283.56	413.29	435.59	315.30	439.66
frame00444.jpg	311.05	287.58	407.27	283.58	413.30	435.60	315.31	439.67
frame00445.jpg	311.04	287.60	407.26	283.56	413.31	435.62	315.31	439.67
frame00446.jpg	311.05	287.60	407.31	283.56	413.27	435.60	315.29	439.68
frame00447.jpg	310.98	287.57	407.26	283.58	413.29	435.58	315.30	439.69
frame00448.jpg	311.04	287.67	407.20	283.63	413.33	435.61	315.33	439.68
frame00449.jpg	311.02	287.54	407.27	283.54	413.27	435.57	315.32	439.66
frame00450.jpg	311.00	287.55	407.26	283.59	413.27	435.58	315.29	439.70
frame00451.jpg	310.93	287.62	407.19	283.59	413.29	435.59	315.32	439.73
frame00452.jpg	310.75	287.63	407.17	283.61	413.28	435.57	315.33	439.79
frame00453.jpg	310.69	287.73	407.12	283.72	413.27	435.59	315.33	439.88
frame00454.jpg	310.61	287.86	407.17	283.80	413.26	435.58	315.32	439.87
frame00455.jpg	310.54	287.89	407.13	283.81	413.28	435.61	315.32	439.91
frame00456.jpg	310.52	287.84	407.15	283.76	413.27	435.60	315.33	439.88
frame00457.jpg	310.54	287.76	407.18	283.72	413.26	435.56	315.33	439.85
