frame	ulx	uly	urx	ury	lrx	lry	llx	lly
frame00001.jpg 310.00 318.00 411.00 314.00 419.00 466.00 318.00 470.00
frame00002.jpg 310.11 318.13 411.08 314.24 418.88 465.56 317.91 469.45
frame00003.jpg 310.14 318.18 410.94 314.33 418.50 465.45 317.70 469.30
frame00004.jpg 310.16 318.13 410.89 314.49 418.45 465.85 317.72 469.49
frame00005.jpg 310.16 318.18 411.03 314.26 418.59 465.30 317.72 469.22
frame00006.jpg 310.11 318.15 411.01 314.48 418.77 465.76 317.87 469.43
frame00007.jpg 310.11 318.16 411.08 314.17 418.92 465.41 317.95 469.40
frame00008.jpg 310.11 318.11 410.95 314.40 418.75 465.96 317.91 469.67
frame00009.jpg 310.17 318.19 410.93 314.24 418.37 465.40 317.61 469.35
frame00010.jpg 310.14 318.12 410.94 314.41 418.62 465.69 317.82 469.40
frame00011.jpg 310.12 318.12 410.99 314.72 418.55 466.28 317.68 469.68
frame00012.jpg 310.10 318.10 411.00 314.67 418.68 466.23 317.78 469.66
frame00013.jpg 310.12 318.11 411.10 314.64 418.66 466.09 317.68 469.55
frame00014.jpg 310.15 318.19 410.81 314.55 418.33 465.59 317.67 469.23
frame00015.jpg 310.17 318.25 410.93 314.05 418.49 464.81 317.73 469.01
frame00016.jpg 310.10 318.08 411.07 314.69 418.87 466.13 317.90 469.52
frame00017.jpg 310.12 318.12 411.10 314.34 418.94 465.54 317.96 469.32
frame00018.jpg 310.12 318.17 410.92 314.32 418.64 465.64 317.84 469.49
frame00019.jpg 310.16 318.15 410.92 314.48 418.52 465.60 317.76 469.27
frame00020.jpg 310.10 318.14 411.04 314.46 418.76 465.74 317.82 469.42
frame00021.jpg 310.13 318.10 410.97 314.56 418.61 465.96 317.77 469.50
frame00022.jpg 310.13 318.15 410.93 314.55 418.49 465.79 317.69 469.39
frame00023.jpg 310.14 318.15 410.87 314.62 418.35 466.02 317.62 469.55
frame00024.jpg 310.12 318.06 410.96 314.70 418.59 466.30 317.76 469.66
frame00025.jpg 310.17 318.15 410.93 314.48 418.37 465.60 317.61 469.27
frame00026.jpg 310.14 318.17 410.84 314.39 418.56 465.51 317.86 469.29
frame00027.jpg 310.10 318.13 411.04 314.60 418.76 465.91 317.82 469.45
frame00028.jpg 310.17 318.12 410.93 314.44 418.49 465.68 317.73 469.36
frame00029.jpg 310.12 318.08 410.99 314.69 418.63 466.17 317.76 469.56
frame00030.jpg 310.12 318.09 410.92 314.73 418.52 466.45 317.72 469.81
frame00031.jpg 310.18 318.18 410.95 314.23 418.47 465.30 317.70 469.26
frame00032.jpg 310.13 318.14 411.21 314.25 418.89 465.49 317.81 469.38
frame00033.jpg 310.15 318.19 410.88 314.45 418.44 465.61 317.71 469.35
frame00034.jpg 310.11 318.13 411.05 314.35 418.73 465.79 317.79 469.57
frame00035.jpg 310.14 318.13 410.98 314.42 418.66 465.66 317.82 469.37
frame00036.jpg 310.19 318.14 410.64 314.61 418.12 465.81 317.67 469.34
frame00037.jpg 310.14 318.18 411.05 314.23 418.65 465.43 317.74 469.38
frame00038.jpg 310.14 318.18 410.91 314.44 418.47 465.51 317.70 469.26
frame00039.jpg 310.12 318.13 410.92 314.60 418.60 466.04 317.80 469.57
frame00040.jpg 310.13 318.14 410.97 314.36 418.69 465.60 317.85 469.38
frame00041.jpg 310.11 318.11 410.98 314.68 418.62 466.24 317.75 469.67
frame00042.jpg 310.13 318.14 410.90 314.71 418.38 466.15 317.61 469.58
frame00043.jpg 310.14 318.14 410.87 314.61 418.51 465.81 317.78 469.34
frame00044.jpg 310.11 318.17 411.16 314.25 418.95 465.33 317.91 469.25
frame00045.jpg 310.19 318.22 410.75 314.19 418.31 465.19 317.75 469.22
frame00046.jpg 310.15 318.12 410.81 314.87 418.25 466.22 317.59 469.48
frame00047.jpg 310.08 318.07 411.09 314.60 418.97 466.21 317.96 469.67
frame00048.jpg 310.14 318.14 411.01 314.36 418.65 465.56 317.78 469.34
frame00049.jpg 310.11 318.11 411.05 314.47 418.73 465.99 317.79 469.63
frame00050.jpg 310.17 318.16 410.90 314.45 418.42 465.57 317.69 469.28
frame00051.jpg 310.15 318.15 411.06 314.23 418.66 465.35 317.75 469.27
frame00052.jpg 310.08 318.13 411.09 314.38 418.93 465.79 317.92 469.53
frame00053.jpg 310.07 318.07 411.08 314.71 418.92 466.47 317.91 469.83
frame00054.jpg 310.14 318.12 411.05 314.41 418.73 465.73 317.82 469.44
frame00055.jpg 310.13 318.12 411.28 314.13 419.08 465.41 317.93 469.40
frame00056.jpg 310.13 318.14 410.97 314.50 418.65 465.74 317.81 469.38
frame00057.jpg 310.15 318.23 411.02 314.10 418.70 464.94 317.83 469.07
frame00058.jpg 310.15 318.14 411.06 314.36 418.66 465.48 317.75 469.26
frame00059.jpg 310.16 318.20 410.85 314.49 418.45 465.45 317.76 469.16
frame00060.jpg 310.11 318.12 410.87 314.59 418.55 465.90 317.79 469.44
frame00061.jpg 310.10 318.15 411.15 314.13 419.02 465.25 317.98 469.27
frame00062.jpg 310.11 318.06 410.91 314.87 418.59 466.63 317.79 469.82
frame00063.jpg 310.12 318.14 411.10 314.25 418.78 465.42 317.80 469.30
frame00064.jpg 310.13 318.14 410.97 314.50 418.69 465.86 317.85 469.50
frame00065.jpg 310.10 318.12 411.18 314.41 418.98 465.73 317.90 469.44
frame00066.jpg 310.14 318.14 410.94 314.43 418.58 465.67 317.78 469.38
frame00067.jpg 310.14 318.13 410.91 314.60 418.55 465.80 317.78 469.33
frame00068.jpg 310.15 318.14 410.99 314.57 418.55 465.73 317.71 469.30
frame00069.jpg 310.13 318.14 410.93 314.71 418.49 466.11 317.69 469.54
frame00070.jpg 310.08 318.06 411.12 314.59 419.01 466.35 317.96 469.82
frame00071.jpg 310.08 318.10 411.16 314.35 419.16 465.87 318.08 469.62
frame00072.jpg 310.12 318.13 411.10 314.49 418.82 465.73 317.84 469.37
frame00073.jpg 310.17 318.22 410.76 314.16 418.36 465.16 317.77 469.22
frame00074.jpg 310.17 318.13 410.65 314.88 418.09 466.15 317.61 469.41
frame00075.jpg 310.11 318.11 411.08 314.47 418.68 466.03 317.71 469.67
frame00076.jpg 310.13 318.16 411.14 314.17 419.02 465.21 318.01 469.20
frame00077.jpg 310.15 318.12 410.81 314.87 418.21 466.35 317.55 469.60
frame00078.jpg 310.12 318.08 411.13 314.69 418.77 466.17 317.76 469.56
frame00079.jpg 310.11 318.13 411.29 314.14 419.01 465.42 317.83 469.41
frame00080.jpg 310.16 318.17 410.85 314.50 418.37 465.77 317.68 469.45
frame00081.jpg 310.17 318.17 410.86 314.46 418.42 465.54 317.73 469.25
frame00082.jpg 310.16 318.14 411.00 314.29 418.59 465.69 317.76 469.54
frame00083.jpg 310.14 318.14 411.08 314.33 418.72 465.73 317.78 469.54
frame00084.jpg 310.16 318.10 411.00 314.42 418.67 465.90 317.84 469.58
frame00085.jpg 310.18 318.16 411.05 314.17 418.69 465.25 317.82 469.24
frame00086.jpg 310.13 318.14 410.97 314.46 418.69 465.74 317.85 469.42
frame00087.jpg 310.19 318.19 410.85 314.17 418.41 465.17 317.75 469.19
frame00088.jpg 310.18 318.12 411.05 314.44 418.53 465.76 317.66 469.44
frame00089.jpg 310.17 318.05 410.83 314.73 418.39 466.52 317.73 469.85
frame00090.jpg 310.16 318.13 411.03 314.35 418.79 465.59 317.92 469.37
frame00091.jpg 310.19 318.15 411.06 314.09 418.70 465.13 317.83 469.19
frame00092.jpg 310.24 318.17 410.76 314.46 418.08 465.42 317.56 469.13
frame00093.jpg 310.18 318.09 410.98 314.59 418.46 466.19 317.66 469.69
frame00094.jpg 310.19 318.14 411.09 314.15 418.65 465.39 317.75 469.38
frame00095.jpg 310.19 318.15 410.96 314.34 418.51 465.54 317.75 469.35
frame00096.jpg 310.14 318.08 411.29 314.37 419.01 465.81 317.86 469.52
frame00097.jpg 310.15 318.12 411.09 314.38 418.77 465.73 317.83 469.48
frame00098.jpg 310.13 318.11 411.24 314.29 418.93 465.69 317.81 469.51
frame00099.jpg 310.19 318.13 411.02 314.38 418.47 465.66 317.63 469.41
frame00100.jpg 310.18 318.19 411.01 314.17 418.65 465.17 317.82 469.19
frame00101.jpg 310.14 318.11 411.15 314.40 418.79 465.96 317.78 469.67
frame00102.jpg 310.18 318.16 410.84 314.31 418.40 465.43 317.74 469.28
frame00103.jpg 310.18 318.13 411.05 314.42 418.53 465.78 317.66 469.49
frame00104.jpg 310.14 318.07 411.01 314.60 418.69 466.36 317.82 469.83
frame00105.jpg 310.16 318.08 411.20 314.37 418.72 465.77 317.68 469.48
frame00106.jpg 310.19 318.15 410.99 314.48 418.31 465.76 317.51 469.43
frame00107.jpg 310.13 318.11 411.35 314.01 419.11 465.53 317.89 469.63
frame00108.jpg 310.19 318.13 411.27 314.07 418.83 465.07 317.75 469.13
frame00109.jpg 310.15 318.03 411.02 314.88 418.50 466.48 317.63 469.63
frame00110.jpg 310.15 317.92 411.19 314.70 418.92 466.30 317.87 469.52
frame00111.jpg 310.15 317.78 411.16 314.95 418.96 466.83 317.95 469.66
frame00112.jpg 310.15 317.82 411.27 314.74 419.03 466.54 317.91 469.62
frame00113.jpg 310.21 318.06 411.01 314.28 418.61 465.40 317.81 469.18
frame00114.jpg 310.21 318.22 410.83 314.72 418.07 465.76 317.45 469.26
frame00115.jpg 310.12 318.13 411.13 314.45 418.89 466.01 317.88 469.69
frame00116.jpg 310.06 318.03 411.42 314.43 419.34 466.19 317.98 469.79
frame00117.jpg 310.20 318.10 411.07 314.35 418.47 465.55 317.60 469.30
frame00118.jpg 310.14 318.01 411.43 314.41 419.07 465.89 317.78 469.49
frame00119.jpg 310.17 318.10 411.07 314.63 418.59 465.95 317.69 469.42
frame00120.jpg 310.20 318.12 411.00 314.41 418.44 465.65 317.64 469.36
frame00121.jpg 310.13 318.07 411.24 314.64 418.80 466.20 317.69 469.63
frame00122.jpg 310.19 318.18 411.02 314.26 418.50 465.38 317.67 469.30
frame00123.jpg 310.14 318.10 411.15 314.53 418.71 465.93 317.70 469.50
frame00124.jpg 310.12 318.04 411.23 314.47 418.87 466.15 317.76 469.72
frame00125.jpg 310.13 317.94 411.24 314.75 418.89 466.43 317.77 469.62
frame00126.jpg 310.13 317.86 411.24 314.75 419.00 466.58 317.89 469.70
frame00127.jpg 310.18 317.88 411.05 314.70 418.73 466.42 317.86 469.60
frame00128.jpg 310.17 317.88 411.00 314.90 418.64 466.55 317.81 469.52
frame00129.jpg 310.19 317.89 410.88 314.99 418.36 466.67 317.67 469.57
frame00130.jpg 310.19 317.76 410.81 315.13 418.33 467.10 317.71 469.72
frame00131.jpg 310.20 317.74 411.07 314.87 418.71 466.55 317.84 469.42
frame00132.jpg 310.21 317.66 411.01 314.86 418.89 466.46 318.09 469.26
frame00133.jpg 310.16 317.48 411.31 315.17 419.43 467.25 318.28 469.56
frame00134.jpg 310.13 317.32 411.49 315.22 419.81 467.58 318.45 469.68
frame00135.jpg 310.14 317.18 411.64 315.43 420.00 467.99 318.50 469.74
frame00136.jpg 310.22 317.06 411.44 315.62 419.64 468.26 318.42 469.70
frame00137.jpg 310.12 316.82 411.80 316.30 420.39 469.70 318.72 470.22
frame00138.jpg 310.18 316.85 411.54 316.57 419.78 469.65 318.42 469.93
frame00139.jpg 310.26 317.01 411.51 316.03 419.68 467.99 318.42 468.97
frame00140.jpg 310.25 317.00 411.30 315.91 419.41 468.27 318.37 469.36
frame00141.jpg 310.27 317.01 411.42 315.82 419.54 467.90 318.39 469.09
frame00142.jpg 310.16 316.76 411.52 316.90 419.76 470.10 318.40 469.96
frame00143.jpg 310.22 316.88 411.44 316.28 419.64 469.00 318.42 469.60
frame00144.jpg 310.23 316.71 411.31 316.85 419.63 469.97 318.55 469.83
frame00145.jpg 310.31 316.76 411.36 316.45 419.36 469.13 318.31 469.44
frame00146.jpg 310.27 316.62 411.31 316.93 419.48 470.34 318.43 470.02
frame00147.jpg 310.26 316.77 411.03 316.60 419.23 469.28 318.46 469.45
frame00148.jpg 310.23 316.75 411.10 316.65 419.30 469.61 318.43 469.71
frame00149.jpg 310.22 316.81 411.19 316.29 419.55 468.97 318.58 469.49
frame00150.jpg 310.22 316.85 411.44 316.11 419.80 468.43 318.58 469.17
frame00151.jpg 310.24 316.94 411.18 316.13 419.46 468.13 318.52 468.94
frame00152.jpg 310.27 317.01 410.93 316.03 419.21 467.99 318.55 468.97
frame00153.jpg 310.33 317.17 410.78 315.63 418.98 466.51 318.53 468.05
frame00154.jpg 310.31 317.20 410.87 315.56 419.03 466.48 318.47 468.12
frame00155.jpg 310.27 316.96 411.14 316.61 419.34 468.61 318.47 468.96
frame00156.jpg 310.34 316.46 411.67 317.93 419.95 471.17 318.62 469.70
frame00157.jpg 310.98 316.34 412.03 315.57 419.58 468.81 318.54 469.58
frame00158.jpg 312.00 315.89 412.59 315.09 418.87 467.53 318.28 468.33
frame00159.jpg 313.11 314.96 414.43 314.89 420.27 466.93 318.95 467.00
frame00160.jpg 314.38 314.15 416.06 314.26 421.02 466.42 319.34 466.31
frame00161.jpg 315.84 312.94 417.06 314.41 420.54 466.73 319.32 465.26
frame00162.jpg 317.29 311.97 417.63 314.77 419.27 466.17 318.93 463.37
frame00163.jpg 318.34 310.83 418.44 315.20 418.80 468.29 318.70 463.91
frame00164.jpg 319.21 310.11 419.52 313.92 418.72 464.88 318.41 461.07
frame00165.jpg 319.66 308.73 419.34 315.41 417.06 469.09 317.38 462.41
frame00166.jpg 320.09 307.84 419.11 313.20 415.11 464.88 316.09 459.52
frame00167.jpg 319.76 306.20 417.76 313.80 414.08 466.88 316.08 459.28
frame00168.jpg 319.08 304.56 418.86 309.70 417.10 462.26 317.32 457.12
frame00169.jpg 318.38 302.72 417.04 307.20 415.80 458.68 317.14 454.20
frame00170.jpg 317.69 300.34 414.92 305.07 413.80 455.51 316.57 450.78
frame00171.jpg 317.14 297.33 412.59 302.51 411.55 453.95 316.10 448.77
frame00172.jpg 316.45 293.95 412.60 297.31 412.80 448.87 316.65 445.51
frame00173.jpg 316.31 290.02 412.35 292.43 413.15 444.12 317.11 441.70
frame00174.jpg 316.46 285.35 412.04 288.19 413.80 440.78 318.22 437.95
frame00175.jpg 317.45 280.33 412.37 282.75 412.57 434.95 317.65 432.53
frame00176.jpg 318.56 274.93 413.37 276.05 414.25 428.77 319.44 427.65
frame00177.jpg 320.17 269.26 415.55 269.61 416.79 421.57 321.41 421.22
frame00178.jpg 322.31 263.60 417.41 262.34 418.97 413.14 323.87 414.40
frame00179.jpg 324.66 257.55 420.35 255.73 422.35 407.05 326.66 408.87
frame00180.jpg 327.47 251.63 423.09 249.00 424.97 399.97 329.35 402.59
frame00181.jpg 330.58 245.73 426.41 242.30 428.53 392.74 332.70 396.17
frame00182.jpg 333.82 239.53 429.93 237.04 432.57 389.33 336.46 391.81
frame00183.jpg 337.16 234.03 433.69 230.32 436.85 382.84 340.32 386.55
frame00184.jpg 340.33 228.67 437.49 224.23 442.45 377.79 345.29 382.23
frame00185.jpg 343.75 224.00 441.09 216.86 447.29 369.50 349.95 376.64
frame00186.jpg 347.07 219.12 444.47 212.12 451.84 366.04 354.43 373.04
frame00187.jpg 350.52 214.64 448.21 206.10 456.93 359.98 359.24 368.52
frame00188.jpg 353.90 210.11 452.74 200.80 462.62 355.88 363.78 365.19
frame00189.jpg 357.38 205.50 457.55 195.31 469.23 351.76 369.06 361.94
frame00190.jpg 361.29 201.13 462.62 190.35 474.73 347.59 373.41 358.37
frame00191.jpg 365.65 196.91 467.19 186.06 479.15 342.90 377.61 353.75
frame00192.jpg 370.33 193.04 472.11 181.98 483.11 338.26 381.33 349.32
frame00193.jpg 374.96 189.28 477.44 178.12 488.84 334.00 386.36 345.16
frame00194.jpg 379.85 185.90 483.06 174.07 494.18 329.35 390.97 341.18
frame00195.jpg 384.89 182.73 487.86 171.60 498.74 327.56 395.77 338.69
frame00196.jpg 389.96 180.12 492.44 169.83 503.20 325.19 400.72 335.48
frame00197.jpg 395.06 177.79 497.75 168.55 508.11 324.67 405.42 333.91
frame00198.jpg 400.18 175.91 502.62 166.92 513.31 322.63 410.86 331.63
frame00199.jpg 405.46 174.20 508.08 165.17 518.72 320.97 416.10 330.00
frame00200.jpg 410.54 172.45 513.72 165.17 524.04 323.01 420.86 330.29
frame00201.jpg 415.75 171.56 518.90 164.32 529.18 321.44 426.03 328.68
frame00202.jpg 421.00 170.52 525.27 163.62 535.51 321.14 431.24 328.04
frame00203.jpg 426.62 169.99 530.81 163.23 539.81 319.36 435.62 326.11
frame00204.jpg 432.19 169.56 535.93 163.44 544.21 319.56 440.47 325.68
frame00205.jpg 437.63 169.29 541.72 163.94 549.72 320.29 445.63 325.65
frame00206.jpg 443.44 169.30 547.00 164.01 554.20 319.77 450.64 325.06
frame00207.jpg 449.05 169.56 552.30 163.82 560.02 319.38 456.77 325.12
frame00208.jpg 454.86 169.79 558.21 164.51 565.65 320.79 462.30 326.07
frame00209.jpg 460.53 170.32 564.24 166.47 571.68 324.43 467.97 328.28
frame00210.jpg 466.62 171.37 570.29 166.86 577.93 322.58 474.26 327.09
frame00211.jpg 472.64 172.33 575.71 168.23 583.15 325.27 480.08 329.37
frame00212.jpg 478.88 174.02 581.11 169.01 588.59 324.25 486.36 329.26
frame00213.jpg 484.89 175.97 586.78 170.58 595.02 325.18 493.13 330.57
frame00214.jpg 490.77 178.17 592.06 173.17 600.18 327.73 498.89 332.73
frame00215.jpg 496.39 180.53 597.86 175.10 605.94 329.54 504.47 334.97
frame00216.jpg 501.45 183.09 602.99 177.10 612.03 331.47 510.49 337.45
frame00217.jpg 506.17 185.99 607.95 177.73 617.47 330.25 515.69 338.51
frame00218.jpg 510.31 188.61 611.50 179.93 621.45 332.77 520.27 341.45
frame00219.jpg 513.82 191.19 614.65 183.24 624.89 336.69 524.06 344.63
frame00220.jpg 516.81 193.95 616.32 185.45 627.00 338.49 527.49 346.99
frame00221.jpg 519.07 196.65 617.98 187.38 629.22 340.05 530.31 349.33
frame00222.jpg 520.78 199.20 618.92 189.16 631.12 341.76 532.98 351.80
frame00223.jpg 522.03 201.51 620.03 191.32 632.91 344.69 534.91 354.87
frame00224.jpg 522.81 203.80 620.77 193.09 634.98 347.37 537.01 358.08
frame00225.jpg 523.45 206.19 621.55 194.89 637.11 349.05 539.01 360.35
frame00226.jpg 524.18 208.60 622.04 197.01 638.32 351.41 540.46 363.00
frame00227.jpg 524.98 211.35 622.70 197.88 639.86 351.63 542.14 365.11
frame00228.jpg 525.86 213.97 623.23 201.27 640.47 355.63 543.10 368.33
frame00229.jpg 526.74 216.97 623.58 204.40 640.70 358.16 543.86 370.73
frame00230.jpg 527.34 220.04 624.67 207.23 642.19 361.43 544.86 374.24
frame00231.jpg 527.86 223.25 625.27 210.20 642.79 364.48 545.38 377.53
frame00232.jpg 528.30 226.47 625.29 214.22 643.29 369.10 546.30 381.35
frame00233.jpg 528.80 230.10 625.23 218.13 643.15 372.61 546.72 384.58
frame00234.jpg 529.54 233.94 625.55 221.24 643.19 374.51 547.18 387.22
frame00235.jpg 530.76 237.81 626.52 225.21 642.80 377.05 547.04 389.65
frame00236.jpg 532.58 241.53 627.67 230.02 640.31 380.62 545.22 392.13
frame00237.jpg 534.00 244.75 630.25 234.46 641.77 385.42 545.52 395.71
frame00238.jpg 535.49 247.80 632.23 238.80 642.15 390.68 545.41 399.68
frame00239.jpg 537.09 250.84 633.44 242.51 641.80 393.27 545.45 401.60
frame00240.jpg 538.39 253.42 635.45 245.75 642.37 397.36 545.31 405.02
frame00241.jpg 539.48 255.88 637.65 248.04 644.13 399.64 545.96 407.48
frame00242.jpg 540.46 258.00 639.65 251.73 645.97 405.05 546.78 411.32
frame00243.jpg 541.84 260.55 641.34 253.86 646.74 406.42 547.24 413.11
frame00244.jpg 543.16 262.94 642.52 257.20 647.40 410.84 548.04 416.58
frame00245.jpg 544.58 265.68 643.88 259.94 648.03 412.82 548.74 418.56
frame00246.jpg 546.01 268.52 644.08 263.30 647.12 415.34 549.05 420.56
frame00247.jpg 547.04 270.94 645.39 266.60 648.15 420.00 549.80 424.34
frame00248.jpg 548.00 273.41 646.56 268.86 649.20 421.98 550.64 426.53
frame00249.jpg 549.01 275.82 647.39 271.62 649.07 424.26 550.69 428.46
frame00250.jpg 549.90 278.08 647.27 274.79 647.47 427.39 550.10 430.68
frame00251.jpg 550.14 280.38 648.32 277.09 648.72 430.05 550.54 433.34
frame00252.jpg 550.30 282.67 648.09 280.22 648.61 433.82 550.82 436.27
frame00253.jpg 550.35 284.93 648.07 283.07 648.67 436.91 550.95 438.77
frame00254.jpg 550.46 287.00 648.25 285.64 648.89 439.88 551.10 441.24
frame00255.jpg 550.95 289.10 649.23 286.12 649.23 439.16 550.95 442.14
frame00256.jpg 551.51 290.76 649.83 289.50 648.83 443.14 550.51 444.40
frame00257.jpg 552.26 292.62 651.56 289.78 650.19 442.38 550.90 445.22
frame00258.jpg 553.22 294.23 652.06 292.86 648.78 445.62 549.94 446.99
frame00259.jpg 554.17 295.90 652.59 295.83 648.23 448.83 549.81 448.90
frame00260.jpg 555.15 297.62 653.57 298.25 648.01 450.85 549.59 450.22
frame00261.jpg 555.77 299.02 654.61 300.77 649.21 453.97 550.37 452.22
frame00262.jpg 556.47 300.50 655.35 302.04 649.35 454.40 550.47 452.86
frame00263.jpg 556.77 301.59 655.22 304.39 648.95 458.43 550.49 455.63
frame00264.jpg 557.04 302.42 656.34 305.22 650.34 458.54 551.04 455.74
frame00265.jpg 557.27 303.48 656.70 305.33 650.62 459.73 551.19 457.88
frame00266.jpg 557.19 304.00 657.50 306.90 652.10 461.66 551.79 458.76
frame00267.jpg 557.19 304.19 657.11 306.92 651.71 460.92 551.79 458.19
frame00268.jpg 557.10 304.25 657.02 306.94 651.58 461.35 551.66 458.65
frame00269.jpg 557.03 304.18 657.34 307.08 652.30 461.88 551.99 458.98
frame00270.jpg 557.03 304.22 657.27 306.95 652.15 461.59 551.91 458.86
frame00271.jpg 556.89 304.18 657.16 306.95 652.32 461.63 552.05 458.86
frame00272.jpg 556.58 304.04 657.34 307.37 652.94 462.64 552.18 459.32
frame00273.jpg 556.48 304.15 656.75 306.99 652.43 461.79 552.16 458.95
frame00274.jpg 556.32 303.99 657.08 307.25 653.32 463.08 552.56 459.83
frame00275.jpg 556.32 303.93 656.84 307.57 652.92 463.53 552.40 459.89
frame00276.jpg 556.28 303.97 657.05 306.91 653.81 462.43 553.04 459.49
frame00277.jpg 556.30 303.98 657.03 307.13 653.35 462.73 552.62 459.58
frame00278.jpg 556.35 304.00 656.94 307.22 653.06 462.90 552.47 459.68
frame00279.jpg 556.50 303.81 657.19 307.45 653.48 463.41 552.78 459.77
frame00280.jpg 556.71 303.78 657.47 306.79 653.51 462.67 552.75 459.66
frame00281.jpg 556.66 303.64 657.46 307.00 653.78 463.24 552.98 459.88
frame00282.jpg 556.40 303.37 657.44 307.64 654.29 464.88 553.24 460.61
frame00283.jpg 556.13 303.27 657.53 307.12 655.12 464.52 553.73 460.67
frame00284.jpg 556.05 303.14 657.41 307.30 655.25 465.02 553.89 460.86
frame00285.jpg 556.14 303.25 657.18 306.93 654.91 464.13 553.86 460.45
frame00286.jpg 556.22 303.25 656.98 307.52 654.46 464.64 553.70 460.37
frame00287.jpg 556.41 303.35 657.14 307.06 654.06 464.10 553.33 460.39
frame00288.jpg 556.43 303.39 657.16 307.28 654.00 464.28 553.27 460.39
frame00289.jpg 556.41 303.34 657.32 307.44 654.32 464.52 553.41 460.42
frame00290.jpg 556.40 303.37 657.38 307.26 654.45 464.26 553.48 460.37
frame00291.jpg 556.44 303.44 657.17 307.05 654.09 463.64 553.36 460.04
frame00292.jpg 556.41 303.34 657.18 307.16 654.18 464.20 553.41 460.38
frame00293.jpg 556.30 303.30 657.31 307.01 654.83 464.29 553.82 460.58
frame00294.jpg 556.36 303.26 657.12 307.42 654.24 464.87 553.48 460.70
frame00295.jpg 556.44 303.35 657.24 306.92 654.16 463.76 553.36 460.19
frame00296.jpg 556.43 303.36 657.05 307.52 653.82 464.64 553.19 460.48
frame00297.jpg 556.52 303.42 656.94 307.48 653.66 464.20 553.24 460.14
frame00298.jpg 556.48 303.34 657.14 307.61 653.82 464.65 553.16 460.38
frame00299.jpg 556.38 303.37 657.39 306.62 654.75 463.38 553.74 460.13
frame00300.jpg 556.32 303.27 657.05 307.33 654.33 464.57 553.60 460.51
frame00301.jpg 556.21 303.25 657.33 307.14 655.08 464.34 553.97 460.45
frame00302.jpg 556.21 303.19 657.36 307.21 654.96 464.81 553.81 460.79
frame00303.jpg 556.27 303.24 657.21 307.13 654.77 464.44 553.83 460.56
frame00304.jpg 556.24 303.25 657.36 307.10 654.99 464.34 553.88 460.49
frame00305.jpg 556.17 303.18 657.28 307.28 655.16 464.80 554.05 460.70
frame00306.jpg 556.15 303.13 657.19 307.36 655.04 464.88 553.99 460.65
frame00307.jpg 556.16 303.17 657.35 307.23 655.35 464.51 554.16 460.45
frame00308.jpg 556.21 303.21 656.94 307.34 654.46 464.78 553.73 460.65
frame00309.jpg 556.18 303.20 657.15 307.33 654.84 464.53 553.86 460.40
frame00310.jpg 556.20 303.27 657.14 306.91 654.78 463.83 553.84 460.19
frame00311.jpg 556.09 303.16 657.38 306.87 655.42 464.27 554.13 460.56
frame00312.jpg 556.03 303.24 657.46 306.50 655.58 463.42 554.15 460.16
frame00313.jpg 555.81 303.12 657.77 305.99 656.65 463.39 554.69 460.52
frame00314.jpg 555.75 303.03 657.77 305.87 656.58 463.31 554.55 460.47
frame00315.jpg 555.66 302.88 657.68 306.20 656.16 464.48 554.14 461.16
frame00316.jpg 555.58 302.80 657.71 306.02 656.39 464.38 554.26 461.16
frame00317.jpg 555.57 302.81 657.45 306.10 656.09 464.14 554.21 460.85
frame00318.jpg 555.62 302.84 657.22 306.27 655.38 464.03 553.78 460.60
frame00319.jpg 555.56 302.79 657.41 306.22 655.77 464.30 553.92 460.87
frame00320.jpg 555.54 302.85 657.53 305.79 656.13 463.51 554.14 460.57
frame00321.jpg 555.54 302.75 657.46 306.11 656.02 464.15 554.10 460.79
frame00322.jpg 555.53 302.77 657.45 305.99 656.01 463.99 554.09 460.77
frame00323.jpg 555.51 302.70 657.46 306.17 656.06 464.37 554.11 460.90
frame00324.jpg 555.50 302.67 657.35 306.20 655.79 464.41 553.94 460.87
frame00325.jpg 555.55 302.63 657.12 306.38 655.24 464.65 553.67 460.91
frame00326.jpg 555.46 302.55 657.27 306.33 655.79 464.77 553.98 460.99
frame00327.jpg 555.40 302.44 657.25 306.57 655.97 465.33 554.12 461.20
frame00328.jpg 555.49 302.56 657.34 306.13 655.78 464.21 553.93 460.64
frame00329.jpg 555.63 302.75 657.23 305.52 655.39 462.92 553.79 460.15
frame00330.jpg 555.58 302.64 657.29 306.25 655.65 464.25 553.94 460.64
frame00331.jpg 555.54 302.67 657.42 306.06 656.07 464.26 554.18 460.87
frame00332.jpg 555.51 302.67 657.68 305.96 656.44 464.08 554.27 460.79
frame00333.jpg 555.61 302.65 657.63 306.12 656.31 464.20 554.29 460.73
frame00334.jpg 555.70 302.77 657.93 305.39 657.09 463.04 554.86 460.41
frame00335.jpg 555.95 302.85 657.42 306.10 656.01 463.42 554.55 460.17
frame00336.jpg 555.99 302.83 657.46 306.33 656.05 463.89 554.59 460.39
frame00337.jpg 556.10 302.88 656.97 306.70 654.97 464.14 554.10 460.32
frame00338.jpg 556.12 302.58 657.52 306.78 655.56 465.14 554.16 460.94
frame00339.jpg 556.27 302.22 657.91 307.12 655.67 466.24 554.03 461.34
frame00340.jpg 556.26 301.75 659.16 306.58 658.04 466.30 555.14 461.47
frame00341.jpg 556.43 301.38 660.07 306.00 659.39 465.16 555.75 460.54
frame00342.jpg 556.93 301.00 658.88 306.56 657.61 465.28 555.65 459.72
frame00343.jpg 557.45 300.26 657.93 305.83 654.85 464.59 554.37 459.02
frame00344.jpg 557.55 298.93 658.39 303.34 655.27 461.54 554.43 457.13
frame00345.jpg 557.73 297.14 657.34 301.06 653.62 457.94 554.01 454.02
frame00346.jpg 557.43 294.45 656.59 299.00 653.47 456.68 554.31 452.13
frame00347.jpg 557.39 291.70 655.78 293.56 652.93 449.12 554.55 447.26
frame00348.jpg 557.33 288.25 654.28 289.48 650.72 443.72 553.77 442.49
frame00349.jpg 556.73 283.99 652.98 285.77 650.46 440.85 554.21 439.07
frame00350.jpg 556.10 279.40 652.74 280.52 651.14 434.88 554.50 433.76
frame00351.jpg 555.38 274.33 651.60 274.05 651.36 429.09 555.14 429.37
frame00352.jpg 554.67 268.83 649.62 269.43 649.79 424.35 554.83 423.75
frame00353.jpg 553.86 262.82 648.11 264.47 648.51 420.87 554.26 419.22
frame00354.jpg 553.12 257.12 647.20 257.09 647.96 412.20 553.88 412.24
frame00355.jpg 552.29 251.13 646.13 250.99 646.89 405.51 553.05 405.65
frame00356.jpg 551.29 245.02 645.51 244.32 646.79 398.68 552.57 399.38
frame00357.jpg 550.01 239.01 644.72 238.56 646.60 393.16 551.89 393.61
frame00358.jpg 548.57 233.44 643.35 231.27 646.15 385.03 551.37 387.20
frame00359.jpg 546.88 227.82 642.25 224.81 645.77 377.65 550.40 380.66
frame00360.jpg 544.87 222.34 640.38 219.19 644.54 371.99 549.03 375.14
frame00361.jpg 542.69 217.32 638.41 212.28 643.41 363.60 547.69 368.64
frame00362.jpg 540.01 212.19 636.40 205.99 642.96 357.23 546.57 363.43
frame00363.jpg 536.95 207.27 634.08 200.20 642.15 351.16 545.03 358.23
frame00364.jpg 533.75 202.50 631.12 195.61 639.44 347.12 542.07 354.02
frame00365.jpg 530.26 198.24 627.60 190.71 636.56 341.23 539.22 348.76
frame00366.jpg 526.10 194.21 624.52 186.23 634.60 337.63 536.18 345.61
frame00367.jpg 521.35 190.56 621.10 182.16 632.18 334.84 532.43 343.24
frame00368.jpg 515.98 187.17 615.90 179.93 628.46 333.88 528.54 341.13
frame00369.jpg 510.48 184.41 610.72 175.94 623.80 328.62 523.56 337.09
frame00370.jpg 504.15 181.70 605.51 174.18 619.79 328.22 518.43 335.74
frame00371.jpg 497.65 179.32 599.89 172.18 614.85 327.34 512.61 334.48
frame00372.jpg 491.00 177.55 593.80 170.13 609.15 325.29 506.36 332.71
frame00373.jpg 484.37 176.12 587.76 168.42 603.40 323.62 500.01 331.32
frame00374.jpg 477.58 175.08 580.90 167.73 596.10 323.89 492.78 331.24
frame00375.jpg 470.49 174.70 574.55 165.04 589.94 319.04 485.89 328.70
frame00376.jpg 462.85 174.32 567.85 164.91 583.09 319.83 478.09 329.24
frame00377.jpg 454.92 174.35 559.78 164.17 575.90 319.21 471.04 329.39
frame00378.jpg 446.68 174.62 552.90 163.84 570.34 318.76 464.12 329.54
frame00379.jpg 438.76 175.78 544.88 162.34 561.28 315.74 455.16 329.18
frame00380.jpg 430.44 176.89 536.52 162.89 553.76 316.13 447.68 330.13
frame00381.jpg 422.00 178.31 529.56 164.20 546.36 318.20 438.80 332.31
frame00382.jpg 413.97 180.38 521.60 165.26 536.67 318.22 429.05 333.34
frame00383.jpg 405.81 183.00 512.80 167.01 528.64 318.76 421.65 334.76
frame00384.jpg 398.34 186.07 503.45 170.00 517.01 321.97 411.90 338.03
frame00385.jpg 390.58 189.69 494.95 174.81 508.43 327.38 404.06 342.25
frame00386.jpg 383.28 193.95 487.20 178.31 500.00 330.47 396.08 346.11
frame00387.jpg 376.30 198.41 480.70 183.75 492.38 336.75 387.98 351.41
frame00388.jpg 370.10 203.38 473.28 188.85 484.40 341.09 381.22 355.62
frame00389.jpg 364.47 208.65 466.43 196.50 476.19 349.46 374.23 361.61
frame00390.jpg 359.70 214.19 460.26 204.67 467.50 357.71 366.94 367.23
frame00391.jpg 355.29 219.94 455.42 211.72 461.82 364.96 361.69 373.18
frame00392.jpg 351.56 226.08 450.47 219.32 455.31 372.97 356.40 379.72
frame00393.jpg 348.42 232.63 446.07 226.58 449.67 378.30 352.02 384.35
frame00394.jpg 345.81 239.32 441.46 234.11 443.98 384.51 348.33 389.72
frame00395.jpg 343.39 245.59 438.70 242.83 441.06 394.02 345.75 396.79
frame00396.jpg 341.72 252.11 435.62 249.49 436.82 399.49 342.92 402.11
frame00397.jpg 340.02 257.95 433.12 258.65 434.28 410.33 341.18 409.63
frame00398.jpg 338.87 263.61 432.56 264.49 432.88 416.80 339.19 415.93
frame00399.jpg 338.22 269.33 430.76 270.84 429.00 421.04 336.46 419.53
frame00400.jpg 337.42 274.27 429.15 277.74 427.23 428.25 335.50 424.79
frame00401.jpg 337.07 279.12 428.18 281.75 425.50 431.10 334.39 428.48
frame00402.jpg 336.34 283.40 428.46 285.85 426.38 433.89 334.26 431.44
frame00403.jpg 336.02 287.26 427.34 289.22 425.06 437.22 333.74 435.26
frame00404.jpg 335.36 290.60 427.37 293.92 426.17 442.68 334.16 439.36
frame00405.jpg 335.25 293.66 427.97 297.89 427.37 447.57 334.65 443.34
frame00406.jpg 336.00 297.38 427.35 300.15 424.79 446.87 333.44 444.10
frame00407.jpg 335.73 300.12 430.30 302.39 429.38 450.47 334.81 448.20
frame00408.jpg 336.00 302.84 430.43 305.92 429.07 453.88 334.64 450.80
frame00409.jpg 336.33 305.26 429.89 310.06 428.01 458.61 334.45 453.82
frame00410.jpg 336.44 307.60 430.34 311.98 428.86 460.89 334.96 456.52
frame00411.jpg 336.27 309.62 430.98 314.17 430.26 463.93 335.55 459.38
frame00412.jpg 335.85 311.49 431.50 314.18 432.34 463.70 336.69 461.01
frame00413.jpg 334.70 312.20 432.88 314.02 436.08 464.86 337.90 463.04
frame00414.jpg 333.89 312.96 432.24 313.00 437.28 461.92 338.93 461.88
frame00415.jpg 333.75 313.23 430.45 314.80 433.97 463.84 337.27 462.27
frame00416.jpg 333.13 313.23 431.10 313.48 436.26 463.59 338.29 463.35
frame00417.jpg 332.64 313.12 431.76 312.80 438.04 464.72 338.92 465.04
frame00418.jpg 332.56 313.32 431.82 312.30 437.70 463.71 338.44 464.72
frame00419.jpg 332.54 313.33 431.80 312.25 437.44 463.49 338.18 464.57
frame00420.jpg 332.56 313.44 431.01 312.92 436.01 463.88 337.56 464.40
frame00421.jpg 332.47 313.40 429.31 314.84 433.91 466.32 337.07 464.88
frame00422.jpg 332.44 313.42 429.74 314.15 434.86 465.39 337.56 464.66
frame00423.jpg 332.62 313.49 430.51 313.42 435.47 463.70 337.58 463.77
frame00424.jpg 332.73 313.43 430.94 312.56 436.26 462.91 338.05 463.79
frame00425.jpg 332.81 313.19 431.37 312.52 437.33 463.04 338.77 463.71
frame00426.jpg 333.10 312.90 431.45 313.15 436.81 463.75 338.46 463.50
frame00427.jpg 333.37 312.73 430.53 314.37 435.25 465.21 338.09 463.57
frame00428.jpg 333.43 312.84 430.49 314.00 434.81 464.52 337.75 463.36
frame00429.jpg 333.29 312.87 430.76 313.81 435.64 464.17 338.17 463.23
frame00430.jpg 333.11 312.96 431.08 313.49 436.32 463.89 338.35 463.36
frame00431.jpg 333.02 313.35 430.71 312.37 436.31 461.45 338.62 462.43
frame00432.jpg 332.87 313.31 431.26 312.23 437.02 462.10 338.63 463.19
frame00433.jpg 332.74 313.36 431.23 312.24 437.11 462.32 338.62 463.44
frame00434.jpg 332.67 313.30 431.34 312.70 437.13 463.34 338.47 463.94
frame00435.jpg 332.68 313.21 431.35 312.69 437.35 463.65 338.68 464.17
frame00436.jpg 332.75 313.15 431.35 312.56 437.35 463.44 338.75 464.03
frame00437.jpg 332.80 313.09 431.50 312.53 437.66 463.21 338.96 463.77
frame00438.jpg 332.95 313.01 430.98 313.15 436.70 463.75 338.67 463.61
frame00439.jpg 333.02 312.99 431.13 313.20 436.65 463.72 338.54 463.51
frame00440.jpg 333.05 313.02 430.98 313.16 436.38 463.48 338.45 463.34
frame00441.jpg 332.98 313.16 431.15 312.35 436.99 462.27 338.82 463.08
frame00442.jpg 332.85 313.14 431.06 312.86 436.90 463.50 338.69 463.78
frame00443.jpg 332.76 313.33 431.25 312.28 437.17 462.40 338.68 463.45
frame00444.jpg 332.71 313.46 431.31 312.34 436.75 462.46 338.15 463.58
frame00445.jpg 332.68 313.55 431.31 312.22 436.67 462.10 338.04 463.43
frame00446.jpg 332.63 313.44 431.26 312.74 436.70 463.38 338.07 464.08
frame00447.jpg 332.56 313.37 431.47 312.81 437.19 463.81 338.28 464.37
frame00448.jpg 332.60 313.38 431.58 312.75 437.22 463.31 338.24 463.94
frame00449.jpg 332.63 313.33 431.47 312.35 437.43 463.03 338.59 464.01
frame00450.jpg 332.69 313.43 431.32 312.31 437.12 462.59 338.49 463.71
frame00451.jpg 332.62 313.37 431.43 312.64 437.43 463.40 338.62 464.13
frame00452.jpg 332.70 313.56 431.15 312.44 436.63 462.68 338.18 463.80
frame00453.jpg 332.62 313.55 431.22 312.99 436.66 463.51 338.06 464.07
frame00454.jpg 332.56 313.50 431.01 313.53 436.42 464.57 337.96 464.54
frame00455.jpg 332.52 313.49 431.22 313.38 436.74 464.58 338.04 464.69
frame00456.jpg 332.57 313.49 431.48 312.79 437.16 463.63 338.25 464.33
frame00457.jpg 332.62 313.36 431.46 312.49 437.50 463.56 338.66 464.44
frame00458.jpg 332.77 313.30 431.30 312.56 437.42 463.36 338.89 464.10
frame00459.jpg 332.79 313.28 431.25 312.69 437.49 463.41 339.03 464.00
frame00460.jpg 332.78 313.39 431.06 312.51 437.18 463.24 338.90 464.11
frame00461.jpg 332.73 313.50 430.98 312.52 437.01 463.20 338.77 464.18
frame00462.jpg 332.72 313.55 431.18 312.71 436.89 463.23 338.44 464.07
frame00463.jpg 332.64 313.65 431.34 312.35 437.22 462.92 338.52 464.21
frame00464.jpg 332.69 313.75 431.00 312.49 436.64 462.61 338.33 463.87
frame00465.jpg 332.55 313.66 431.35 312.79 437.27 463.62 338.47 464.50
frame00466.jpg 332.58 313.67 431.18 313.60 436.62 464.40 338.02 464.47
frame00467.jpg 332.55 313.71 431.11 313.33 436.91 464.21 338.35 464.59
frame00468.jpg 332.50 313.78 430.89 313.64 436.44 464.72 338.06 464.86
frame00469.jpg 332.52 313.88 430.49 313.85 435.93 464.61 337.96 464.64
frame00470.jpg 332.45 313.79 430.62 314.10 436.18 465.42 338.01 465.11
frame00471.jpg 332.49 313.84 430.67 313.98 436.02 464.86 337.85 464.72
frame00472.jpg 332.47 313.83 430.89 313.52 436.57 464.44 338.15 464.75
frame00473.jpg 332.49 313.75 431.09 313.68 436.68 464.96 338.09 465.03
frame00474.jpg 332.46 313.70 431.23 313.42 437.35 464.70 338.58 464.98
frame00475.jpg 332.50 313.70 431.41 313.18 437.37 464.38 338.46 464.90
frame00476.jpg 332.56 313.76 431.23 313.27 436.82 464.19 338.16 464.68
frame00477.jpg 332.57 313.78 431.30 312.87 437.02 463.51 338.29 464.42
frame00478.jpg 332.54 313.69 431.24 313.48 437.08 464.52 338.38 464.73
frame00479.jpg 332.51 313.68 431.66 312.84 437.62 463.96 338.47 464.80
frame00480.jpg 332.56 313.73 431.47 312.61 437.35 463.49 338.44 464.61
frame00481.jpg 332.64 313.74 431.06 312.80 436.78 463.52 338.36 464.46
frame00482.jpg 332.56 313.71 431.68 312.13 437.84 462.98 338.72 464.55
frame00483.jpg 332.64 313.73 431.48 312.05 437.56 462.57 338.72 464.25
frame00484.jpg 332.65 313.71 431.25 312.24 437.37 462.88 338.77 464.35
frame00485.jpg 332.69 313.72 431.25 312.14 437.29 462.74 338.73 464.32
frame00486.jpg 332.62 313.58 431.50 312.39 437.90 463.51 339.02 464.70
frame00487.jpg 332.69 313.52 431.08 313.03 437.08 464.63 338.69 465.12
frame00488.jpg 332.78 313.53 431.03 312.62 437.07 463.54 338.82 464.45
frame00489.jpg 332.88 313.37 431.02 312.95 437.02 464.15 338.88 464.57
frame00490.jpg 333.02 313.23 430.99 313.12 436.99 464.08 339.02 464.19
frame00491.jpg 333.12 313.03 431.05 313.87 436.85 465.27 338.92 464.43
frame00492.jpg 333.36 313.00 430.55 314.65 435.39 465.73 338.20 464.08
frame00493.jpg 333.46 312.96 431.08 314.43 435.96 465.51 338.34 464.04
frame00494.jpg 333.60 313.03 431.53 313.77 436.17 464.05 338.24 463.31
frame00495.jpg 333.55 312.94 432.28 313.61 437.20 464.09 338.47 463.42
frame00496.jpg 333.61 312.95 432.41 313.30 437.41 463.46 338.61 463.11
frame00497.jpg 333.63 312.95 432.65 313.02 437.69 462.98 338.67 462.91
frame00498.jpg 333.66 312.90 432.60 312.69 438.16 462.61 339.22 462.82
frame00499.jpg 333.72 312.88 432.66 312.32 438.22 462.24 339.28 462.80
frame00500.jpg 333.73 312.83 432.64 312.16 438.56 462.12 339.65 462.79
frame00501.jpg 333.81 312.79 432.33 312.68 438.09 462.76 339.57 462.87
frame00502.jpg 333.93 312.76 432.42 312.45 438.06 462.33 339.57 462.64
frame00503.jpg 334.00 312.76 432.39 312.20 438.15 461.92 339.76 462.48
frame00504.jpg 334.16 312.65 431.84 313.18 437.00 463.06 339.32 462.53
frame00505.jpg 334.12 312.40 432.15 313.63 437.47 464.75 339.44 463.52
frame00506.jpg 334.22 312.38 431.76 314.06 436.72 465.46 339.18 463.78
frame00507.jpg 334.25 312.41 431.76 313.74 436.80 464.86 339.29 463.53
frame00508.jpg 334.31 312.56 431.47 313.44 436.27 463.79 339.11 462.92
frame00509.jpg 334.22 312.58 431.73 313.42 436.85 463.70 339.34 462.86
frame00510.jpg 334.16 312.63 431.77 313.23 437.05 463.39 339.44 462.79
frame00511.jpg 334.11 312.76 432.21 312.51 437.49 462.07 339.39 462.32
frame00512.jpg 334.12 312.85 431.98 312.22 437.26 461.54 339.40 462.17
frame00513.jpg 334.05 312.85 432.12 312.46 437.40 461.98 339.33 462.37
frame00514.jpg 333.97 312.90 432.39 312.10 437.79 461.42 339.37 462.22
frame00515.jpg 333.83 313.03 432.43 312.12 437.87 461.24 339.27 462.15
frame00516.jpg 333.81 313.23 431.60 313.09 435.88 461.97 338.09 462.11
frame00517.jpg 333.63 313.26 429.99 314.73 434.23 464.41 337.87 462.94
frame00518.jpg 333.15 313.45 430.69 312.96 436.38 463.20 338.83 463.69
frame00519.jpg 332.75 313.70 430.68 313.28 436.64 464.24 338.71 464.66
frame00520.jpg 332.55 313.88 430.97 313.70 436.77 464.59 338.35 464.76
frame00521.jpg 332.47 313.95 430.26 315.25 435.42 466.45 337.63 465.15
frame00522.jpg 332.25 313.88 430.07 315.91 435.79 468.15 337.97 466.12
frame00523.jpg 332.13 314.06 429.68 315.84 435.27 468.12 337.73 466.34
frame00524.jpg 331.84 314.28 429.84 315.02 436.64 466.78 338.64 466.04
frame00525.jpg 331.67 314.57 429.81 314.43 437.09 465.23 338.95 465.37
frame00526.jpg 331.54 314.97 429.61 314.55 436.73 463.79 338.66 464.21
frame00527.jpg 331.28 315.11 428.79 316.51 434.99 466.47 337.48 465.07
frame00528.jpg 330.81 315.52 429.02 314.82 436.18 464.78 337.97 465.48
frame00529.jpg 330.53 316.04 428.71 314.05 436.15 463.81 337.97 465.80
frame00530.jpg 330.38 316.07 428.73 315.23 435.89 465.51 337.54 466.35
frame00531.jpg 330.27 316.05 429.08 314.75 436.80 465.27 337.99 466.57
frame00532.jpg 330.42 315.96 429.09 314.04 436.61 464.48 337.94 466.40
frame00533.jpg 330.39 315.56 429.79 313.95 438.15 464.95 338.75 466.56
frame00534.jpg 330.54 315.32 429.55 314.93 437.59 466.25 338.58 466.64
frame00535.jpg 330.65 315.25 429.42 315.15 437.26 466.50 338.49 466.61
frame00536.jpg 330.57 315.35 429.34 314.93 437.42 466.05 338.65 466.47
frame00537.jpg 330.54 315.64 429.10 314.28 437.06 464.64 338.50 466.00
frame00538.jpg 330.47 315.84 429.27 313.57 437.39 463.61 338.59 465.88
frame00539.jpg 330.50 315.99 429.02 313.79 436.62 463.58 338.10 465.79
