   -0.031911	   -0.037166	   -0.042451	   -0.047765	   -0.053109	  449.966069	  414.096343	  378.025373	  341.751459	  305.272883
   -0.031918	   -0.037063	   -0.042237	   -0.047441	   -0.052676	  449.968506	  414.065723	  377.954482	  341.632962	  305.099322
   -0.031908	   -0.037084	   -0.042289	   -0.047523	   -0.052787	  449.965010	  414.065331	  377.964594	  341.661107	  305.153157
   -0.031809	   -0.037090	   -0.042401	   -0.047743	   -0.053114	  449.924255	  414.065615	  378.005508	  341.742230	  305.274059
   -0.031805	   -0.036980	   -0.042184	   -0.047418	   -0.052681	  449.933200	  414.033860	  377.931537	  341.624504	  305.111015
   -0.031812	   -0.037035	   -0.042288	   -0.047572	   -0.052887	  449.925311	  414.054909	  377.975799	  341.686155	  305.184128
   -0.031905	   -0.037000	   -0.042124	   -0.047277	   -0.052460	  449.963951	  414.041607	  377.916528	  341.586992	  305.051260
   -0.031805	   -0.036984	   -0.042191	   -0.047427	   -0.052693	  449.933200	  414.034073	  377.935677	  341.636347	  305.134402
   -0.031805	   -0.036985	   -0.042194	   -0.047432	   -0.052698	  449.942882	  414.039015	  377.937861	  341.637789	  305.137150
   -0.031911	   -0.037086	   -0.042290	   -0.047524	   -0.052787	  449.976388	  414.076729	  377.974038	  341.666587	  305.152629
   -0.031809	   -0.037010	   -0.042241	   -0.047502	   -0.052792	  449.934255	  414.045854	  377.954397	  341.658155	  305.155381
   -0.032018	   -0.037065	   -0.042141	   -0.047244	   -0.052376	  450.009255	  414.061165	  377.914442	  341.567437	  305.018479
   -0.031809	   -0.036925	   -0.042071	   -0.047247	   -0.052454	  449.924255	  414.013182	  377.891878	  341.558491	  305.011148
   -0.031915	   -0.037064	   -0.042242	   -0.047450	   -0.052687	  449.967447	  414.057515	  377.944830	  341.627668	  305.104289
   -0.031699	   -0.036853	   -0.042036	   -0.047247	   -0.052487	  449.900012	  413.980737	  377.864207	  341.548791	  305.032841
   -0.031915	   -0.037008	   -0.042131	   -0.047283	   -0.052465	  449.957447	  414.035684	  377.907556	  341.571277	  305.025044
   -0.031805	   -0.036980	   -0.042184	   -0.047418	   -0.052681	  449.932882	  414.031178	  377.926628	  341.617505	  305.102068
   -0.031915	   -0.037040	   -0.042193	   -0.047376	   -0.052587	  449.977447	  414.054388	  377.930474	  341.604016	  305.073305
   -0.031911	   -0.037036	   -0.042189	   -0.047371	   -0.052582	  449.966069	  414.045309	  377.923776	  341.599780	  305.071614
   -0.031692	   -0.036953	   -0.042243	   -0.047562	   -0.052909	  449.907908	  414.023863	  377.945914	  341.672487	  305.201988
   -0.031802	   -0.037013	   -0.042252	   -0.047519	   -0.052815	  449.941826	  414.039027	  377.944533	  341.656805	  305.174285
   -0.031805	   -0.037004	   -0.042233	   -0.047492	   -0.052781	  449.923200	  414.031961	  377.935768	  341.632862	  305.121460
   -0.031699	   -0.036954	   -0.042239	   -0.047553	   -0.052898	  449.900012	  414.023244	  377.945045	  341.663713	  305.177528
   -0.031692	   -0.036979	   -0.042296	   -0.047640	   -0.053014	  449.897591	  414.029157	  377.966737	  341.708754	  305.253613
   -0.031699	   -0.037062	   -0.042455	   -0.047878	   -0.053331	  449.890329	  414.051764	  378.015146	  341.778827	  305.341142
   -0.031805	   -0.037060	   -0.042345	   -0.047659	   -0.053003	  449.933200	  414.053802	  377.973061	  341.689278	  305.200734
   -0.031905	   -0.037110	   -0.042344	   -0.047606	   -0.052898	  449.963632	  414.064974	  377.969092	  341.674355	  305.179115
   -0.031911	   -0.037163	   -0.042444	   -0.047755	   -0.053097	  449.966388	  414.091469	  378.011522	  341.724783	  305.229469
   -0.031699	   -0.036986	   -0.042301	   -0.047646	   -0.053020	  449.900012	  414.024623	  377.953472	  341.684952	  305.217439
   -0.031908	   -0.037116	   -0.042351	   -0.047616	   -0.052909	  449.975010	  414.066773	  377.963102	  341.662399	  305.163046
   -0.031809	   -0.037090	   -0.042401	   -0.047743	   -0.053114	  449.934891	  414.063946	  377.991475	  341.715774	  305.235122
   -0.031702	   -0.037040	   -0.042407	   -0.047804	   -0.053231	  449.901381	  414.050001	  378.000791	  341.752109	  305.302295
   -0.031905	   -0.037194	   -0.042511	   -0.047856	   -0.053231	  449.974270	  414.098210	  378.030138	  341.768510	  305.311762
   -0.031805	   -0.037006	   -0.042237	   -0.047497	   -0.052787	  449.933200	  414.034905	  377.933727	  341.627938	  305.115796
   -0.032008	   -0.037191	   -0.042403	   -0.047642	   -0.052909	  450.006069	  414.091739	  377.985906	  341.687036	  305.193575
   -0.032117	   -0.037279	   -0.042467	   -0.047683	   -0.052926	  450.060311	  414.128094	  378.008245	  341.699290	  305.199740
   -0.032124	   -0.037170	   -0.042244	   -0.047346	   -0.052476	  450.043085	  414.089771	  377.935942	  341.579916	  305.019992
   -0.032014	   -0.037197	   -0.042408	   -0.047647	   -0.052915	  450.018833	  414.099739	  377.987076	  341.679274	  305.174748
   -0.032117	   -0.037273	   -0.042457	   -0.047669	   -0.052909	  450.050632	  414.125366	  378.006726	  341.693147	  305.183046
   -0.032018	   -0.037172	   -0.042354	   -0.047564	   -0.052804	  450.009896	  414.087586	  377.968157	  341.649982	  305.131417
   -0.032011	   -0.037242	   -0.042502	   -0.047791	   -0.053109	  450.007451	  414.106864	  378.008842	  341.711753	  305.213945
   -0.032117	   -0.037279	   -0.042467	   -0.047683	   -0.052926	  450.050953	  414.106479	  377.974368	  341.653147	  305.141327
   -0.032021	   -0.037231	   -0.042470	   -0.047736	   -0.053031	  449.991599	  414.071674	  377.958328	  341.649995	  305.145092
   -0.032018	   -0.037175	   -0.042360	   -0.047573	   -0.052815	  449.989896	  414.046024	  377.909141	  341.577690	  305.050095
   -0.032014	   -0.037182	   -0.042376	   -0.047596	   -0.052843	  449.998833	  414.043152	  377.905739	  341.585214	  305.080181
   -0.031798	   -0.037152	   -0.042533	   -0.047941	   -0.053376	  449.921407	  414.031338	  377.962544	  341.713687	  305.283414
   -0.031908	   -0.037125	   -0.042368	   -0.047639	   -0.052937	  449.975967	  414.039135	  377.916481	  341.606559	  305.107910
   -0.031788	   -0.037034	   -0.042307	   -0.047606	   -0.052931	  449.927925	  414.001509	  377.894816	  341.606487	  305.135148
   -0.031798	   -0.037016	   -0.042261	   -0.047533	   -0.052831	  449.921407	  413.987287	  377.869333	  341.566131	  305.076251
   -0.032018	   -0.037155	   -0.042318	   -0.047508	   -0.052726	  450.000216	  414.036126	  377.884718	  341.544525	  305.014063
   -0.031901	   -0.036965	   -0.042055	   -0.047169	   -0.052310	  449.963530	  413.962388	  377.781730	  341.420211	  304.876471
   -0.031901	   -0.037072	   -0.042268	   -0.047489	   -0.052737	  449.963530	  414.002960	  377.864398	  341.546519	  305.047985
   -0.031901	   -0.037018	   -0.042159	   -0.047327	   -0.052521	  449.973530	  413.991381	  377.829540	  341.486660	  304.961377
   -0.031802	   -0.036991	   -0.042206	   -0.047450	   -0.052720	  449.932780	  413.987930	  377.855560	  341.534201	  305.022366
   -0.032014	   -0.037180	   -0.042373	   -0.047591	   -0.052837	  450.009153	  414.050821	  377.908786	  341.581639	  305.067952
   -0.031905	   -0.037070	   -0.042262	   -0.047481	   -0.052726	  449.974908	  414.019007	  377.879334	  341.554477	  305.043009
   -0.032008	   -0.037144	   -0.042308	   -0.047498	   -0.052715	  450.017029	  414.052309	  377.902041	  341.564785	  305.039088
   -0.032330	   -0.037470	   -0.042637	   -0.047829	   -0.053048	  450.127317	  414.164965	  378.021027	  341.694125	  305.182865
   -0.032220	   -0.037334	   -0.042474	   -0.047640	   -0.052831	  450.092744	  414.114842	  377.955554	  341.613506	  305.087308
   -0.032114	   -0.037361	   -0.042633	   -0.047933	   -0.053259	  450.049887	  414.115993	  378.002007	  341.706572	  305.228316
   -0.032224	   -0.037370	   -0.042541	   -0.047737	   -0.052959	  450.094135	  414.115299	  377.960688	  341.629012	  305.118965
   -0.032231	   -0.037423	   -0.042641	   -0.047887	   -0.053159	  450.086918	  414.129389	  377.988239	  341.662060	  305.149427
   -0.032543	   -0.037554	   -0.042590	   -0.047651	   -0.052737	  450.204006	  414.170609	  377.958140	  341.565262	  304.990622
   -0.032330	   -0.037474	   -0.042643	   -0.047838	   -0.053059	  450.137317	  414.150796	  377.986704	  341.643724	  305.120526
   -0.032327	   -0.037500	   -0.042698	   -0.047921	   -0.053170	  450.156567	  414.173205	  378.015733	  341.682886	  305.173383
   -0.032426	   -0.037602	   -0.042802	   -0.048026	   -0.053276	  450.187271	  414.213396	  378.069212	  341.753508	  305.265060
   -0.032745	   -0.037702	   -0.042683	   -0.047689	   -0.052720	  450.306785	  414.265312	  378.044716	  341.643657	  305.060784
   -0.032646	   -0.037748	   -0.042877	   -0.048035	   -0.053220	  450.276432	  414.308651	  378.147684	  341.791972	  305.239936
   -0.032642	   -0.037766	   -0.042919	   -0.048099	   -0.053308	  450.285023	  414.334874	  378.187720	  341.841938	  305.295885
   -0.032752	   -0.037767	   -0.042810	   -0.047881	   -0.052981	  450.319613	  414.343498	  378.165077	  341.782638	  305.194451
   -0.032635	   -0.037823	   -0.043038	   -0.048279	   -0.053547	  450.302857	  414.357295	  378.227644	  341.912487	  305.410390
   -0.032642	   -0.037822	   -0.043030	   -0.048266	   -0.053530	  450.295676	  414.354944	  378.220760	  341.891560	  305.365760
   -0.032951	   -0.038009	   -0.043092	   -0.048201	   -0.053336	  450.431271	  414.424324	  378.236012	  341.864964	  305.309791
   -0.033372	   -0.038399	   -0.043452	   -0.048530	   -0.053635	  450.604828	  414.585844	  378.381702	  341.990972	  305.412208
   -0.034003	   -0.039022	   -0.044067	   -0.049140	   -0.054239	  450.863962	  414.843060	  378.631402	  342.227471	  305.629731
   -0.035377	   -0.040157	   -0.044962	   -0.049793	   -0.054649	  451.434577	  415.311970	  378.999903	  342.496881	  305.801394
   -0.036750	   -0.041175	   -0.045624	   -0.050098	   -0.054597	  451.985514	  415.736934	  379.287060	  342.634210	  305.776683
   -0.038102	   -0.042193	   -0.046304	   -0.050437	   -0.054591	  452.568972	  416.172983	  379.588597	  342.814347	  305.848750
   -0.039041	   -0.042943	   -0.046866	   -0.050809	   -0.054773	  452.983270	  416.502322	  379.831943	  342.970654	  305.916961
   -0.039245	   -0.043191	   -0.047159	   -0.051148	   -0.055159	  453.140076	  416.666805	  379.996098	  343.126348	  306.055931
   -0.039648	   -0.043539	   -0.047452	   -0.051385	   -0.055340	  453.388428	  416.877776	  380.170114	  343.263843	  306.157347
   -0.039729	   -0.043806	   -0.047905	   -0.052026	   -0.056168	  453.549615	  417.078544	  380.417132	  343.563884	  306.517291
   -0.040877	   -0.044631	   -0.048406	   -0.052201	   -0.056016	  454.104640	  417.494525	  380.687696	  343.682563	  306.477518
   -0.040842	   -0.044760	   -0.048698	   -0.052655	   -0.056633	  454.279945	  417.687126	  380.908438	  343.942463	  306.787766
   -0.041006	   -0.044769	   -0.048549	   -0.052349	   -0.056167	  454.516149	  417.825746	  380.955931	  343.905384	  306.672775
   -0.041170	   -0.044775	   -0.048398	   -0.052038	   -0.055695	  454.781861	  417.991217	  381.025692	  343.884038	  306.564992
   -0.040928	   -0.044506	   -0.048100	   -0.051712	   -0.055341	  454.880781	  418.042228	  381.028909	  343.839578	  306.472975
   -0.040350	   -0.043983	   -0.047632	   -0.051298	   -0.054981	  454.873196	  418.006438	  380.972262	  343.769524	  306.397071
   -0.039693	   -0.043715	   -0.047755	   -0.051815	   -0.055892	  454.832032	  418.071787	  381.144155	  344.047989	  306.782133
   -0.039339	   -0.043453	   -0.047587	   -0.051741	   -0.055915	  454.915666	  418.152159	  381.211036	  344.091007	  306.790770
   -0.039096	   -0.043183	   -0.047290	   -0.051416	   -0.055561	  455.052121	  418.230966	  381.234419	  344.061223	  306.710110
   -0.038958	   -0.042904	   -0.046870	   -0.050856	   -0.054862	  455.212001	  418.311730	  381.227189	  343.956995	  306.499751
   -0.039026	   -0.043020	   -0.047034	   -0.051068	   -0.055122	  455.435715	  418.526003	  381.432041	  344.152447	  306.685824
   -0.038977	   -0.043003	   -0.047047	   -0.051110	   -0.055192	  455.633047	  418.693371	  381.580809	  344.294145	  306.832152
   -0.038832	   -0.042822	   -0.046832	   -0.050861	   -0.054910	  455.818946	  418.827592	  381.657799	  344.308274	  306.777709
   -0.038478	   -0.042593	   -0.046729	   -0.050884	   -0.055060	  455.920820	  418.946938	  381.793885	  344.460353	  306.945026
   -0.038751	   -0.042776	   -0.046821	   -0.050888	   -0.054975	  456.258521	  419.230502	  382.014289	  344.608441	  307.011506
   -0.038610	   -0.042777	   -0.046966	   -0.051178	   -0.055412	  456.466641	  419.466208	  382.267559	  344.869097	  307.269207
   -0.038241	   -0.042704	   -0.047188	   -0.051694	   -0.056222	  456.664594	  419.688629	  382.533737	  345.198616	  307.681951
   -0.038794	   -0.042890	   -0.047007	   -0.051142	   -0.055298	  457.180098	  420.019209	  382.682812	  345.169659	  307.478494
   -0.039489	   -0.043188	   -0.046908	   -0.050650	   -0.054413	  457.721701	  420.392927	  382.850091	  345.091345	  307.114823
   -0.040046	   -0.043710	   -0.047396	   -0.051103	   -0.054831	  458.248349	  420.855204	  383.246074	  345.419084	  307.372336
   -0.041015	   -0.044647	   -0.048300	   -0.051974	   -0.055669	  459.001430	  421.516611	  383.818032	  345.903859	  307.772238
   -0.041968	   -0.045311	   -0.048672	   -0.052053	   -0.055453	  459.777656	  422.114879	  384.237737	  346.144396	  307.833000
   -0.042806	   -0.045866	   -0.048942	   -0.052036	   -0.055147	  460.599082	  422.733537	  384.660310	  346.377686	  307.883934
   -0.043219	   -0.046318	   -0.049434	   -0.052568	   -0.055720	  461.236744	  423.311025	  385.173696	  346.822981	  308.257083
   -0.043634	   -0.046677	   -0.049736	   -0.052812	   -0.055906	  461.876905	  423.842132	  385.597920	  347.142535	  308.474222
   -0.044561	   -0.047561	   -0.050578	   -0.053613	   -0.056665	  462.696466	  424.573575	  386.231811	  347.669284	  308.884081
   -0.045385	   -0.048186	   -0.051002	   -0.053833	   -0.056680	  463.503566	  425.211839	  386.713811	  348.007810	  309.092146
   -0.046303	   -0.048925	   -0.051561	   -0.054211	   -0.056874	  464.333280	  425.884171	  387.235176	  348.384731	  309.331257
   -0.046843	   -0.049386	   -0.051944	   -0.054517	   -0.057105	  464.947189	  426.425614	  387.675341	  348.694329	  309.480510
   -0.047483	   -0.049810	   -0.052152	   -0.054508	   -0.056879	  465.583107	  426.929701	  388.034804	  348.896147	  309.511432
   -0.047503	   -0.050058	   -0.052630	   -0.055220	   -0.057827	  466.002582	  427.383132	  388.501995	  349.356500	  309.943944
   -0.047711	   -0.050166	   -0.052637	   -0.055125	   -0.057629	  466.519766	  427.786754	  388.798178	  349.551500	  310.044148
   -0.047605	   -0.050221	   -0.052853	   -0.055501	   -0.058165	  466.937365	  428.171185	  389.170115	  349.932015	  310.454717
   -0.048003	   -0.050313	   -0.052637	   -0.054975	   -0.057328	  467.533655	  428.582841	  389.394566	  349.966654	  310.296899
   -0.047921	   -0.050480	   -0.053055	   -0.055644	   -0.058250	  467.970218	  429.026934	  389.852775	  350.445683	  310.803575
   -0.048528	   -0.050788	   -0.053062	   -0.055349	   -0.057648	  468.671111	  429.532374	  390.168106	  350.576353	  310.755137
   -0.048942	   -0.050959	   -0.052989	   -0.055031	   -0.057086	  469.305663	  430.008410	  390.465125	  350.673491	  310.631160
   -0.049330	   -0.051341	   -0.053365	   -0.055401	   -0.057451	  469.961558	  430.571063	  390.934394	  351.049238	  310.913250
   -0.049925	   -0.051703	   -0.053493	   -0.055294	   -0.057106	  470.692431	  431.136380	  391.325354	  351.256879	  310.928451
   -0.049019	   -0.051349	   -0.053696	   -0.056058	   -0.058436	  470.861555	  431.434662	  391.742940	  351.783715	  311.554271
   -0.049493	   -0.051547	   -0.053614	   -0.055695	   -0.057790	  471.565391	  431.945261	  392.057485	  351.899340	  311.468068
   -0.048592	   -0.050997	   -0.053417	   -0.055853	   -0.058305	  471.795940	  432.195596	  392.343511	  352.237276	  311.874454
   -0.048660	   -0.050773	   -0.052899	   -0.055038	   -0.057190	  472.387861	  432.578666	  392.524859	  352.224177	  311.674331
   -0.048047	   -0.050198	   -0.052364	   -0.054543	   -0.056736	  472.703708	  432.831907	  392.707675	  352.328608	  311.692269
   -0.047413	   -0.049586	   -0.051773	   -0.053973	   -0.056187	  473.092233	  433.106984	  392.870975	  352.381840	  311.637184
   -0.045816	   -0.048517	   -0.051236	   -0.053972	   -0.056725	  473.135091	  433.229912	  393.073671	  352.663990	  311.998463
   -0.044921	   -0.047823	   -0.050744	   -0.053685	   -0.056646	  473.439248	  433.511067	  393.317205	  352.855002	  312.121762
   -0.042753	   -0.046204	   -0.049678	   -0.053176	   -0.056697	  473.300811	  433.461912	  393.356798	  352.982793	  312.337183
   -0.041825	   -0.045398	   -0.048995	   -0.052614	   -0.056255	  473.619275	  433.715946	  393.561244	  353.152786	  312.488160
   -0.041893	   -0.045245	   -0.048619	   -0.052013	   -0.055428	  474.309410	  434.203687	  393.851222	  353.249731	  312.396903
   -0.040731	   -0.044225	   -0.047743	   -0.051284	   -0.054849	  474.535187	  434.388048	  393.968399	  353.273458	  312.300401
   -0.039552	   -0.043209	   -0.046891	   -0.050596	   -0.054327	  474.743627	  434.547119	  394.082855	  353.348153	  312.340292
   -0.039835	   -0.043513	   -0.047217	   -0.050948	   -0.054706	  475.478158	  435.186107	  394.607209	  353.738388	  312.576528
   -0.040611	   -0.044154	   -0.047723	   -0.051318	   -0.054940	  476.370305	  435.944968	  395.223719	  354.203296	  312.880389
   -0.040590	   -0.044349	   -0.048133	   -0.051944	   -0.055781	  477.032805	  436.543196	  395.775798	  354.727742	  313.396120
   -0.041635	   -0.045019	   -0.048428	   -0.051862	   -0.055320	  478.042135	  437.329422	  396.324968	  355.025625	  313.428202
   -0.042353	   -0.045693	   -0.049055	   -0.052440	   -0.055848	  479.027177	  438.142565	  396.985768	  355.554057	  313.844671
   -0.042587	   -0.045574	   -0.048580	   -0.051605	   -0.054649	  479.862836	  438.702069	  397.278428	  355.589387	  313.632388
   -0.042281	   -0.045577	   -0.048895	   -0.052235	   -0.055597	  480.466056	  439.307070	  397.874046	  356.164238	  314.174865
   -0.042814	   -0.045858	   -0.048922	   -0.052008	   -0.055116	  481.419691	  440.040473	  398.374746	  356.419521	  314.171772
   -0.042971	   -0.046093	   -0.049237	   -0.052403	   -0.055592	  482.266622	  440.775687	  398.992070	  356.912663	  314.534315
   -0.043870	   -0.046904	   -0.049961	   -0.053040	   -0.056141	  483.356850	  441.723552	  399.790413	  357.554181	  315.011559
   -0.045590	   -0.048063	   -0.050553	   -0.053061	   -0.055586	  484.785127	  442.825587	  400.568476	  358.010618	  315.148791
   -0.045738	   -0.048267	   -0.050814	   -0.053380	   -0.055964	  485.613075	  443.550305	  401.184008	  358.510888	  315.527600
   -0.045294	   -0.047977	   -0.050679	   -0.053400	   -0.056141	  486.216781	  444.074426	  401.631747	  358.885522	  315.832484
   -0.044714	   -0.047676	   -0.050661	   -0.053668	   -0.056697	  486.722375	  444.568720	  402.101686	  359.317767	  316.213402
   -0.044615	   -0.047527	   -0.050462	   -0.053421	   -0.056405	  487.345438	  445.088268	  402.489354	  359.544534	  316.249578
   -0.044584	   -0.047286	   -0.050011	   -0.052757	   -0.055525	  487.997929	  445.549895	  402.760918	  359.626873	  316.143571
   -0.044381	   -0.047334	   -0.050310	   -0.053308	   -0.056330	  488.577776	  446.105748	  403.305013	  360.171739	  316.702036
   -0.045159	   -0.047756	   -0.050372	   -0.053007	   -0.055661	  489.577197	  446.820506	  403.753856	  360.373864	  316.677097
   -0.045583	   -0.048090	   -0.050615	   -0.053161	   -0.055726	  490.450212	  447.555715	  404.330379	  360.770361	  316.871759
   -0.044710	   -0.047448	   -0.050208	   -0.052990	   -0.055795	  490.878597	  447.969754	  404.719502	  361.123752	  317.178346
   -0.044220	   -0.047162	   -0.050129	   -0.053120	   -0.056137	  491.497569	  448.544224	  405.233112	  361.559744	  317.519557
   -0.044825	   -0.047675	   -0.050550	   -0.053451	   -0.056377	  492.409984	  449.347070	  405.905632	  362.080655	  317.867039
   -0.044888	   -0.047776	   -0.050692	   -0.053635	   -0.056605	  493.221093	  450.082131	  406.537581	  362.581697	  318.208622
   -0.044339	   -0.047101	   -0.049887	   -0.052699	   -0.055536	  493.924457	  450.537811	  406.765101	  362.601152	  318.040693
   -0.044293	   -0.047086	   -0.049905	   -0.052749	   -0.055619	  494.729796	  451.211673	  407.301438	  362.993765	  318.283236
   -0.044294	   -0.046783	   -0.049293	   -0.051825	   -0.054379	  495.563785	  451.760345	  407.579851	  363.017413	  318.068056
   -0.043358	   -0.046320	   -0.049308	   -0.052321	   -0.055361	  496.061652	  452.278864	  408.118854	  363.576726	  318.647498
   -0.043845	   -0.046488	   -0.049154	   -0.051843	   -0.054557	  497.141433	  453.087167	  408.647292	  363.816723	  318.590285
   -0.043674	   -0.046923	   -0.050198	   -0.053501	   -0.056832	  498.016863	  454.005592	  409.625028	  364.870505	  319.737275
   -0.044826	   -0.047754	   -0.050707	   -0.053684	   -0.056687	  499.359768	  455.073642	  410.413260	  365.373859	  319.950591
   -0.045558	   -0.048268	   -0.051002	   -0.053761	   -0.056544	  500.587807	  456.065499	  411.150636	  365.838004	  320.122295
   -0.045105	   -0.047862	   -0.050642	   -0.053445	   -0.056273	  501.436038	  456.733514	  411.657034	  366.201886	  320.363278
   -0.044342	   -0.047320	   -0.050326	   -0.053360	   -0.056421	  502.111153	  457.352918	  412.182904	  366.595404	  320.584602
   -0.042516	   -0.046041	   -0.049599	   -0.053188	   -0.056811	  502.451913	  457.720067	  412.579956	  367.025967	  321.052381
   -0.040702	   -0.044373	   -0.048076	   -0.051813	   -0.055584	  502.787413	  457.920549	  412.652442	  366.977688	  320.890780
   -0.039180	   -0.043078	   -0.047011	   -0.050979	   -0.054981	  503.128782	  458.194228	  412.863016	  367.129871	  320.989423
   -0.039763	   -0.043585	   -0.047443	   -0.051338	   -0.055270	  504.189523	  459.111932	  413.606793	  367.667996	  321.289311
   -0.039822	   -0.043984	   -0.048189	   -0.052436	   -0.056727	  504.977434	  459.974276	  414.513308	  368.587509	  322.189713
   -0.040898	   -0.044791	   -0.048723	   -0.052696	   -0.056710	  506.217487	  461.024724	  415.367965	  369.240027	  322.633579
   -0.040157	   -0.044150	   -0.048183	   -0.052257	   -0.056372	  506.843827	  461.509271	  415.721363	  369.473268	  322.758014
   -0.039182	   -0.043423	   -0.047707	   -0.052036	   -0.056411	  507.381237	  461.965062	  416.079030	  369.715811	  322.867923
   -0.038715	   -0.042827	   -0.046983	   -0.051185	   -0.055431	  508.153758	  462.505853	  416.367610	  369.731084	  322.588161
   -0.037642	   -0.042171	   -0.046746	   -0.051368	   -0.056038	  508.709003	  463.018175	  416.863303	  370.237283	  323.132861
   -0.037845	   -0.041973	   -0.046143	   -0.050354	   -0.054608	  509.725982	  463.720221	  417.253072	  370.317560	  322.906568
   -0.037371	   -0.041657	   -0.045984	   -0.050354	   -0.054766	  510.526363	  464.407235	  417.836910	  370.808735	  323.315924
   -0.036877	   -0.041145	   -0.045455	   -0.049807	   -0.054202	  511.394732	  465.065949	  418.284168	  371.042713	  323.334775
   -0.035913	   -0.040230	   -0.044590	   -0.048992	   -0.053438	  512.188283	  465.650388	  418.659279	  371.208301	  323.290671
   -0.034582	   -0.039285	   -0.044030	   -0.048819	   -0.053653	  512.859468	  466.225224	  419.164313	  371.670852	  323.738850
   -0.034128	   -0.038597	   -0.043109	   -0.047665	   -0.052266	  513.851340	  466.936317	  419.567400	  371.737970	  323.441279
   -0.033718	   -0.038353	   -0.043028	   -0.047745	   -0.052504	  514.933914	  467.812785	  420.275078	  372.315242	  323.927629
   -0.033102	   -0.037816	   -0.042575	   -0.047380	   -0.052231	  515.857625	  468.588938	  420.866871	  372.684869	  324.036253
   -0.033763	   -0.038145	   -0.042567	   -0.047030	   -0.051536	  517.290089	  469.668345	  421.602158	  373.085278	  324.111335
   -0.033401	   -0.038024	   -0.042691	   -0.047400	   -0.052155	  518.299448	  470.565495	  422.387971	  373.760666	  324.677251
   -0.033664	   -0.038024	   -0.042428	   -0.046877	   -0.051371	  519.490049	  471.510580	  423.045077	  374.086116	  324.626123
   -0.033448	   -0.038062	   -0.042720	   -0.047423	   -0.052171	  520.559702	  472.438509	  423.857319	  374.809505	  325.288312
   -0.034441	   -0.038748	   -0.043095	   -0.047483	   -0.051912	  522.014883	  473.575928	  424.683386	  375.330858	  325.511821
   -0.034799	   -0.038860	   -0.042961	   -0.047103	   -0.051286	  523.214890	  474.523365	  425.352478	  375.695112	  325.544015
   -0.034737	   -0.039021	   -0.043347	   -0.047714	   -0.052123	  524.285951	  475.500897	  426.248667	  376.522520	  326.315580
   -0.035251	   -0.039227	   -0.043244	   -0.047303	   -0.051403	  525.581364	  476.532125	  426.979445	  376.915534	  326.332440
   -0.034719	   -0.039047	   -0.043419	   -0.047836	   -0.052298	  526.619204	  477.469330	  427.819300	  377.661439	  326.987917
   -0.035513	   -0.039436	   -0.043400	   -0.047404	   -0.051450	  528.066943	  478.602272	  428.631946	  378.148171	  327.142992
   -0.034970	   -0.039160	   -0.043393	   -0.047669	   -0.051991	  529.098773	  479.533151	  429.456616	  378.861229	  327.738882
   -0.034745	   -0.038766	   -0.042828	   -0.046932	   -0.051079	  530.283883	  480.434475	  430.069530	  379.181010	  327.760707
   -0.034208	   -0.038150	   -0.042133	   -0.046159	   -0.050228	  531.356299	  481.271902	  430.658634	  379.508075	  327.811622
   -0.033302	   -0.037810	   -0.042365	   -0.046968	   -0.051621	  532.335291	  482.230269	  431.594153	  380.418456	  328.694506
   -0.033594	   -0.037652	   -0.041752	   -0.045895	   -0.050083	  533.766148	  483.282246	  432.267203	  380.712594	  328.609812
   -0.032544	   -0.037062	   -0.041630	   -0.046246	   -0.050913	  534.703739	  484.192726	  433.136698	  381.526788	  329.353932
   -0.034320	   -0.038319	   -0.042363	   -0.046453	   -0.050589	  536.595595	  485.732342	  434.297857	  382.282465	  329.676267
   -0.035149	   -0.039154	   -0.043206	   -0.047304	   -0.051449	  538.166711	  487.129687	  435.508274	  383.292374	  330.471661
   -0.037451	   -0.040800	   -0.044190	   -0.047623	   -0.051099	  540.246584	  488.803634	  436.721968	  383.989616	  330.594308
   -0.036511	   -0.040252	   -0.044036	   -0.047865	   -0.051738	  541.264888	  489.688350	  437.512670	  384.727347	  331.321633
   -0.036292	   -0.040081	   -0.043915	   -0.047796	   -0.051723	  542.382378	  490.637144	  438.276011	  385.287916	  331.661531
   -0.036482	   -0.040042	   -0.043645	   -0.047291	   -0.050981	  543.597863	  491.587562	  438.958370	  385.699175	  331.798597
   -0.036718	   -0.040233	   -0.043792	   -0.047394	   -0.051042	  544.789047	  492.605943	  439.781379	  386.303454	  332.159972
   -0.036154	   -0.040083	   -0.044064	   -0.048097	   -0.052183	  545.653506	  493.488519	  440.644830	  387.109105	  332.867663
   -0.035282	   -0.039159	   -0.043085	   -0.047061	   -0.051088	  546.428379	  494.030065	  440.967943	  387.229319	  332.801174
   -0.034726	   -0.038608	   -0.042538	   -0.046520	   -0.050553	  547.211424	  494.657299	  441.431322	  387.520527	  332.911611
   -0.033722	   -0.037613	   -0.041552	   -0.045538	   -0.049574	  547.948430	  495.144680	  441.699538	  387.601244	  332.837752
   -0.033628	   -0.037643	   -0.041708	   -0.045823	   -0.049989	  548.893201	  495.992723	  442.438856	  388.219421	  333.321931
   -0.033433	   -0.037749	   -0.042118	   -0.046542	   -0.051021	  549.844855	  496.880832	  443.262662	  388.978151	  334.014800
   -0.033641	   -0.037849	   -0.042109	   -0.046424	   -0.050795	  550.912515	  497.759190	  443.935042	  389.427291	  334.222829
   -0.033649	   -0.037828	   -0.042056	   -0.046335	   -0.050665	  551.931304	  498.540815	  444.517166	  389.849026	  334.524795
   -0.033567	   -0.037779	   -0.042044	   -0.046364	   -0.050740	  552.744481	  499.265858	  445.109292	  390.261810	  334.710106
   -0.033684	   -0.037700	   -0.041767	   -0.045884	   -0.050053	  553.783715	  500.052340	  445.655373	  390.580372	  334.814579
   -0.034146	   -0.037682	   -0.041261	   -0.044884	   -0.048553	  555.002195	  500.889799	  446.109727	  390.649545	  334.496508
   -0.033448	   -0.037652	   -0.041905	   -0.046207	   -0.050559	  555.880815	  501.785464	  447.066455	  391.712941	  335.713821
   -0.033051	   -0.036882	   -0.040763	   -0.044692	   -0.048672	  556.925186	  502.501812	  447.390382	  391.577763	  335.050488
   -0.033847	   -0.037644	   -0.041487	   -0.045377	   -0.049313	  558.444560	  503.789295	  448.480365	  392.505971	  335.854032
   -0.035156	   -0.038697	   -0.042284	   -0.045918	   -0.049600	  560.068747	  505.220089	  449.654567	  393.358034	  336.315969
   -0.036447	   -0.039863	   -0.043324	   -0.046831	   -0.050385	  561.775860	  506.688337	  450.876691	  394.326549	  337.023156
   -0.036787	   -0.040223	   -0.043703	   -0.047229	   -0.050801	  563.078978	  507.790851	  451.781215	  395.035851	  337.540168
   -0.037665	   -0.041009	   -0.044398	   -0.047833	   -0.051314	  564.546514	  509.045966	  452.806921	  395.814540	  338.053584
   -0.039609	   -0.042419	   -0.045266	   -0.048150	   -0.051071	  566.380934	  510.507715	  453.909391	  396.571756	  338.480228
   -0.039505	   -0.042181	   -0.044895	   -0.047646	   -0.050437	  567.384953	  511.344978	  454.527451	  396.916077	  338.494101
   -0.039011	   -0.041678	   -0.044380	   -0.047119	   -0.049895	  568.351190	  512.058612	  455.014357	  397.203269	  338.609780
   -0.038746	   -0.041614	   -0.044519	   -0.047462	   -0.050445	  569.310094	  512.875149	  455.707087	  397.791529	  339.113717
   -0.038131	   -0.040850	   -0.043606	   -0.046398	   -0.049229	  570.107824	  513.487019	  456.111135	  397.964965	  339.032892
   -0.037421	   -0.040267	   -0.043151	   -0.046074	   -0.049037	  570.889333	  514.142814	  456.635189	  398.351042	  339.274538
   -0.036066	   -0.039199	   -0.042374	   -0.045593	   -0.048857	  571.492820	  514.670729	  457.073362	  398.684743	  339.488456
   -0.036223	   -0.039236	   -0.042290	   -0.045384	   -0.048521	  572.628408	  515.589428	  457.784854	  399.199168	  339.816431
   -0.036115	   -0.038925	   -0.041774	   -0.044664	   -0.047594	  573.673660	  516.396971	  458.321465	  399.430314	  339.706214
   -0.035714	   -0.038595	   -0.041514	   -0.044472	   -0.047471	  574.773214	  517.270999	  458.996155	  399.933005	  340.065446
   -0.035924	   -0.038848	   -0.041811	   -0.044812	   -0.047854	  575.908041	  518.249008	  459.830913	  400.638667	  340.656780
   -0.036296	   -0.039218	   -0.042179	   -0.045180	   -0.048222	  577.092348	  519.268072	  460.667764	  401.275697	  341.075716
   -0.036314	   -0.039225	   -0.042176	   -0.045167	   -0.048198	  578.081587	  520.076785	  461.294282	  401.718331	  341.332759
   -0.036066	   -0.038993	   -0.041960	   -0.044965	   -0.048010	  579.049246	  520.851101	  461.889886	  402.150496	  341.617421
   -0.037299	   -0.039795	   -0.042324	   -0.044887	   -0.047483	  580.525640	  522.009941	  462.729092	  402.667986	  341.811117
   -0.037399	   -0.039881	   -0.042395	   -0.044944	   -0.047526	  581.645650	  522.934657	  463.440960	  403.148800	  342.041995
   -0.039735	   -0.041551	   -0.043393	   -0.045259	   -0.047152	  583.461859	  524.385883	  464.509365	  403.815920	  342.288716
   -0.041135	   -0.042938	   -0.044764	   -0.046614	   -0.048488	  585.031630	  525.746521	  465.696460	  404.866545	  343.241487
   -0.042406	   -0.043719	   -0.045051	   -0.046401	   -0.047769	  586.609187	  526.960623	  466.502347	  405.217759	  343.089800
   -0.042067	   -0.043471	   -0.044894	   -0.046336	   -0.047799	  587.617342	  527.793229	  467.155374	  405.687058	  343.371104
   -0.041317	   -0.042868	   -0.044439	   -0.046029	   -0.047640	  588.706185	  528.627930	  467.786321	  406.166715	  343.754093
   -0.039815	   -0.041533	   -0.043274	   -0.045038	   -0.046825	  589.331632	  529.118167	  468.121778	  406.327095	  343.718345
   -0.038279	   -0.040120	   -0.041982	   -0.043867	   -0.045775	  589.986576	  529.561563	  468.416820	  406.539409	  343.916084
   -0.036624	   -0.039002	   -0.041412	   -0.043852	   -0.046325	  590.483808	  530.139170	  469.012881	  407.089654	  344.353802
   -0.034777	   -0.037491	   -0.040239	   -0.043022	   -0.045841	  590.907761	  530.479364	  469.281345	  407.298907	  344.516871
   -0.033108	   -0.035879	   -0.038686	   -0.041529	   -0.044410	  591.290363	  530.739989	  469.409323	  407.283182	  344.345990
   -0.032731	   -0.035532	   -0.038370	   -0.041246	   -0.044162	  591.995629	  531.355587	  469.900619	  407.614185	  344.479297
   -0.031667	   -0.034988	   -0.038352	   -0.041759	   -0.045210	  592.573883	  531.879262	  470.408156	  408.145570	  345.076117
   -0.031790	   -0.034793	   -0.037833	   -0.040911	   -0.044027	  593.449273	  532.453461	  470.705573	  408.191611	  344.897232
   -0.031573	   -0.034344	   -0.037151	   -0.039993	   -0.042872	  594.211521	  533.009326	  471.030270	  408.259467	  344.681648
   -0.031202	   -0.034129	   -0.037091	   -0.040092	   -0.043130	  594.917182	  533.618431	  471.553316	  408.707373	  345.065774
   -0.029429	   -0.032865	   -0.036346	   -0.039873	   -0.043446	  595.001020	  533.785684	  471.774174	  408.950856	  345.299683
   -0.029591	   -0.032894	   -0.036237	   -0.039619	   -0.043042	  595.958206	  534.465874	  472.247443	  409.289975	  345.580224
   -0.030641	   -0.033569	   -0.036537	   -0.039546	   -0.042596	  596.943370	  535.326542	  472.869385	  409.554592	  345.364376
   -0.031212	   -0.033772	   -0.036367	   -0.038996	   -0.041662	  597.848920	  535.992846	  473.303193	  409.762995	  345.354825
   -0.030137	   -0.033303	   -0.036510	   -0.039758	   -0.043048	  598.255046	  536.420261	  473.792701	  410.357022	  346.097482
   -0.030833	   -0.034053	   -0.037313	   -0.040615	   -0.043959	  599.154923	  537.278574	  474.618205	  411.158819	  346.885034
   -0.031399	   -0.033918	   -0.036470	   -0.039056	   -0.041677	  600.056750	  537.839334	  474.801747	  410.927664	  346.200324
   -0.030136	   -0.032974	   -0.035848	   -0.038761	   -0.041712	  600.454363	  538.165710	  475.061760	  411.126401	  346.343092
   -0.029778	   -0.032983	   -0.036230	   -0.039520	   -0.042855	  601.034275	  538.788789	  475.716349	  411.800367	  347.023804
   -0.031299	   -0.034137	   -0.037013	   -0.039929	   -0.042886	  602.175183	  539.793308	  476.560873	  412.460362	  347.473777
   -0.030745	   -0.033845	   -0.036990	   -0.040184	   -0.043426	  602.810081	  540.473260	  477.202120	  412.975496	  347.771580
   -0.029194	   -0.032440	   -0.035731	   -0.039067	   -0.042450	  603.224554	  540.660461	  477.233587	  412.925959	  347.719104
   -0.028702	   -0.031875	   -0.035091	   -0.038352	   -0.041657	  603.900166	  541.057174	  477.359689	  412.790162	  347.330563
   -0.027711	   -0.031335	   -0.035003	   -0.038716	   -0.042475	  604.383160	  541.421155	  477.695556	  413.192384	  347.897322
   -0.028007	   -0.031182	   -0.034395	   -0.037646	   -0.040936	  605.220824	  541.953874	  477.938213	  413.160471	  347.606959
   -0.028161	   -0.031412	   -0.034700	   -0.038027	   -0.041393	  605.991724	  542.623725	  478.521671	  413.672732	  348.063778
   -0.027694	   -0.031009	   -0.034366	   -0.037764	   -0.041206	  606.376207	  542.991146	  478.814942	  413.832690	  348.029109
   -0.028152	   -0.031496	   -0.034883	   -0.038314	   -0.041789	  606.913675	  543.494269	  479.262979	  414.204114	  348.301578
   -0.028803	   -0.031774	   -0.034782	   -0.037826	   -0.040907	  607.216897	  543.642536	  479.297288	  414.167045	  348.237355
   -0.028025	   -0.031298	   -0.034612	   -0.037969	   -0.041369	  606.821713	  543.406894	  479.183563	  414.136160	  348.248721
   -0.028384	   -0.031492	   -0.034636	   -0.037816	   -0.041033	  606.950661	  543.361878	  479.041027	  413.975394	  348.151966
   -0.028719	   -0.031497	   -0.034309	   -0.037156	   -0.040038	  606.966489	  543.309535	  478.864444	  413.616490	  347.550574
   -0.029148	   -0.031951	   -0.034788	   -0.037662	   -0.040571	  607.138532	  543.519768	  479.109007	  413.891365	  347.851587
   -0.028784	   -0.032240	   -0.035740	   -0.039283	   -0.042870	  607.096687	  543.710719	  479.538718	  414.565971	  348.777398
   -0.028989	   -0.032261	   -0.035573	   -0.038923	   -0.042314	  607.250866	  543.760250	  479.516473	  414.506054	  348.715187
   -0.030016	   -0.032929	   -0.035879	   -0.038866	   -0.041892	  607.535442	  543.999484	  479.663838	  414.513310	  348.532320
   -0.029802	   -0.032940	   -0.036114	   -0.039327	   -0.042577	  607.513211	  543.994894	  479.725585	  414.691887	  348.880081
   -0.029947	   -0.032704	   -0.035499	   -0.038331	   -0.041203	  607.444981	  543.899218	  479.493870	  414.211375	  348.033694
   -0.030236	   -0.032915	   -0.035626	   -0.038368	   -0.041144	  607.647021	  543.940607	  479.486227	  414.270631	  348.280253
   -0.029726	   -0.033025	   -0.036359	   -0.039729	   -0.043136	  607.510423	  543.935084	  479.680775	  414.736561	  349.091271
   -0.029023	   -0.032589	   -0.036197	   -0.039846	   -0.043538	  607.156867	  543.749505	  479.611955	  414.731530	  349.095250
   -0.029748	   -0.033057	   -0.036403	   -0.039789	   -0.043214	  607.421110	  543.918998	  479.683909	  414.703080	  348.963448
   -0.030610	   -0.033209	   -0.035839	   -0.038500	   -0.041194	  607.765180	  544.032101	  479.537269	  414.266944	  348.207053
   -0.030474	   -0.033976	   -0.037518	   -0.041099	   -0.044722	  607.766230	  544.350257	  480.216120	  415.351550	  349.743996
   -0.031002	   -0.034056	   -0.037148	   -0.040280	   -0.043452	  607.918297	  544.438607	  480.155984	  415.055096	  349.120221
   -0.031828	   -0.034809	   -0.037826	   -0.040881	   -0.043974	  608.199140	  544.707415	  480.434758	  415.366671	  349.488296
   -0.031855	   -0.035210	   -0.038607	   -0.042048	   -0.045534	  608.238515	  544.919812	  480.792674	  415.841520	  350.050364
   -0.032318	   -0.035655	   -0.039034	   -0.042457	   -0.045923	  608.436884	  545.152479	  481.067994	  416.168158	  350.437313
   -0.032887	   -0.035753	   -0.038657	   -0.041599	   -0.044580	  608.702768	  545.253790	  480.972497	  415.842402	  349.846583
   -0.033366	   -0.036222	   -0.039114	   -0.042043	   -0.045010	  608.894973	  545.438277	  481.169085	  416.071689	  350.129978
   -0.033874	   -0.037001	   -0.040168	   -0.043377	   -0.046629	  608.982006	  545.671682	  481.533116	  416.549947	  350.705384
   -0.035284	   -0.038247	   -0.041246	   -0.044282	   -0.047356	  609.384535	  545.937117	  481.710204	  416.689344	  350.859723
   -0.036832	   -0.039147	   -0.041490	   -0.043861	   -0.046260	  609.854360	  546.110846	  481.609920	  416.338001	  350.281184
   -0.037231	   -0.039327	   -0.041450	   -0.043599	   -0.045774	  609.858006	  546.047598	  481.451756	  416.055887	  349.845037
   -0.036900	   -0.039285	   -0.041696	   -0.044134	   -0.046598	  609.683395	  545.892235	  481.404425	  416.208491	  350.292706
   -0.037564	   -0.039607	   -0.041672	   -0.043760	   -0.045871	  609.784530	  545.882090	  481.281720	  415.971923	  349.940949
   -0.037135	   -0.039452	   -0.041796	   -0.044166	   -0.046563	  609.502686	  545.731510	  481.238785	  416.012195	  350.039142
   -0.037841	   -0.039841	   -0.041862	   -0.043903	   -0.045965	  609.701148	  545.721859	  481.092639	  415.803533	  349.844383
   -0.038050	   -0.040136	   -0.042243	   -0.044373	   -0.046524	  609.709483	  545.748844	  481.130244	  415.843478	  349.878128
   -0.038566	   -0.040342	   -0.042137	   -0.043952	   -0.045786	  609.778471	  545.768965	  481.073697	  415.681586	  349.581314
   -0.039367	   -0.040502	   -0.041650	   -0.042810	   -0.043982	  610.030532	  545.794982	  480.879937	  415.274559	  348.967777
   -0.037375	   -0.040110	   -0.042873	   -0.045665	   -0.048484	  609.271846	  545.642378	  481.369995	  416.444904	  350.857111
   -0.039914	   -0.042142	   -0.044397	   -0.046677	   -0.048984	  609.837845	  546.256352	  481.946195	  416.894776	  351.089205
   -0.042431	   -0.044260	   -0.046111	   -0.047986	   -0.049886	  610.415249	  546.912843	  482.607871	  417.485021	  351.528589
   -0.044269	   -0.046334	   -0.048427	   -0.050548	   -0.052698	  610.717067	  547.528131	  483.492887	  418.594221	  352.814549
   -0.046532	   -0.048087	   -0.049665	   -0.051265	   -0.052888	  611.237359	  548.052353	  483.969450	  418.969375	  353.032296
   -0.046389	   -0.047548	   -0.048724	   -0.049916	   -0.051126	  610.960510	  547.640386	  483.421179	  418.283602	  352.207815
   -0.045857	   -0.047442	   -0.049049	   -0.050678	   -0.052330	  610.471001	  547.293114	  483.233501	  418.273572	  352.394214
   -0.045874	   -0.046949	   -0.048038	   -0.049143	   -0.050262	  610.146773	  546.778087	  482.544118	  417.427019	  351.408452
   -0.044542	   -0.045923	   -0.047323	   -0.048743	   -0.050184	  609.182130	  546.020665	  481.954638	  416.964477	  351.030040
   -0.043654	   -0.044991	   -0.046347	   -0.047722	   -0.049117	  608.404842	  545.276955	  481.265110	  416.350611	  350.514229
   -0.040824	   -0.043024	   -0.045252	   -0.047509	   -0.049794	  607.000742	  544.146228	  480.503245	  416.056862	  350.791771
   -0.040434	   -0.042290	   -0.044169	   -0.046073	   -0.048001	  606.386303	  543.433186	  479.677453	  415.103655	  349.695947
   -0.039960	   -0.041837	   -0.043738	   -0.045661	   -0.047607	  605.849039	  542.831203	  479.051975	  414.497473	  349.153475
   -0.040439	   -0.042235	   -0.044051	   -0.045887	   -0.047744	  605.647124	  542.520086	  478.687955	  414.138850	  348.860625
   -0.041206	   -0.042868	   -0.044546	   -0.046243	   -0.047957	  605.515642	  542.300118	  478.426219	  413.883608	  348.661727
   -0.040918	   -0.042742	   -0.044584	   -0.046445	   -0.048326	  604.622943	  541.640311	  478.014142	  413.734522	  348.791333
   -0.041015	   -0.043214	   -0.045440	   -0.047691	   -0.049969	  603.613282	  541.147837	  477.949520	  414.005356	  349.302065
   -0.041320	   -0.043702	   -0.046113	   -0.048554	   -0.051027	  602.743953	  540.687889	  477.859630	  414.244673	  349.828150
   -0.042282	   -0.044398	   -0.046540	   -0.048710	   -0.050908	  602.275689	  540.310806	  477.557893	  414.001823	  349.627075
   -0.043495	   -0.045256	   -0.047041	   -0.048848	   -0.050678	  601.871640	  539.906185	  477.148175	  413.582306	  349.192879
   -0.043917	   -0.045708	   -0.047522	   -0.049360	   -0.051222	  601.083303	  539.274032	  476.659430	  413.223656	  348.950448
   -0.044142	   -0.046319	   -0.048525	   -0.050760	   -0.053023	  600.184553	  538.666118	  476.350852	  413.223173	  349.267088
   -0.046835	   -0.048133	   -0.049447	   -0.050779	   -0.052127	  599.942111	  538.286023	  475.834553	  412.572210	  348.483098
   -0.047936	   -0.048902	   -0.049880	   -0.050870	   -0.051872	  599.223891	  537.539643	  475.113855	  411.933076	  347.983525
   -0.049047	   -0.049620	   -0.050200	   -0.050787	   -0.051380	  598.522007	  536.805234	  474.372955	  411.212656	  347.311527
   -0.048058	   -0.049061	   -0.050076	   -0.051103	   -0.052141	  597.033383	  535.642917	  473.546388	  410.731544	  347.185849
   -0.047204	   -0.048383	   -0.049575	   -0.050781	   -0.052000	  595.678958	  534.496520	  472.638179	  410.092674	  346.848491
   -0.047530	   -0.048511	   -0.049503	   -0.050507	   -0.051521	  594.777388	  533.669453	  471.893982	  409.439974	  346.296190
   -0.047935	   -0.048794	   -0.049664	   -0.050542	   -0.051430	  593.829903	  532.867425	  471.243786	  408.948171	  345.969528
   -0.048292	   -0.048948	   -0.049610	   -0.050281	   -0.050959	  592.895775	  532.053989	  470.511156	  408.255088	  345.273314
   -0.048357	   -0.048977	   -0.049603	   -0.050237	   -0.050877	  591.821766	  531.098241	  469.735370	  407.723003	  345.050771
   -0.047844	   -0.048610	   -0.049385	   -0.050168	   -0.050960	  590.510780	  530.016019	  468.881258	  407.096288	  344.650680
   -0.046043	   -0.046944	   -0.047853	   -0.048771	   -0.049697	  588.914139	  528.446122	  467.441448	  405.892941	  343.793295
   -0.045260	   -0.046649	   -0.048051	   -0.049467	   -0.050897	  587.257052	  527.219124	  466.609101	  405.418766	  343.639745
   -0.045795	   -0.047173	   -0.048565	   -0.049973	   -0.051395	  585.985982	  526.331903	  466.038769	  405.096254	  343.493812
   -0.046488	   -0.047794	   -0.049114	   -0.050449	   -0.051799	  584.964988	  525.539088	  465.455502	  404.703252	  343.271113
   -0.046622	   -0.047922	   -0.049235	   -0.050562	   -0.051902	  583.891539	  524.573902	  464.648334	  404.105440	  342.935632
   -0.047358	   -0.048508	   -0.049669	   -0.050841	   -0.052023	  582.990395	  523.736778	  463.935765	  403.579735	  342.660925
   -0.047497	   -0.048612	   -0.049738	   -0.050874	   -0.052021	  581.764177	  522.718351	  463.109562	  402.929720	  342.170580
   -0.047234	   -0.048201	   -0.049176	   -0.050161	   -0.051155	  580.418051	  521.469207	  461.981351	  401.947054	  341.358754
   -0.046048	   -0.047210	   -0.048382	   -0.049563	   -0.050755	  578.714120	  519.992367	  460.781064	  401.074065	  340.865118
   -0.044322	   -0.045720	   -0.047128	   -0.048548	   -0.049980	  576.733290	  518.290278	  459.377927	  399.990561	  340.122412
   -0.042317	   -0.044139	   -0.045973	   -0.047820	   -0.049681	  574.702179	  516.515454	  457.921593	  398.916308	  339.495251
   -0.040752	   -0.042455	   -0.044169	   -0.045893	   -0.047629	  572.749876	  514.652530	  456.193218	  397.368547	  338.175081
   -0.037989	   -0.040414	   -0.042855	   -0.045312	   -0.047784	  570.308693	  512.695841	  454.719397	  396.375908	  337.661877
   -0.036904	   -0.039464	   -0.042039	   -0.044631	   -0.047239	  568.437632	  511.125601	  453.455623	  395.424335	  337.028331
   -0.036049	   -0.039200	   -0.042373	   -0.045568	   -0.048785	  566.599640	  509.822909	  452.652167	  395.083301	  337.112135
   -0.036478	   -0.038940	   -0.041420	   -0.043917	   -0.046432	  565.228150	  508.476051	  451.325254	  393.771543	  335.810644
   -0.035739	   -0.039172	   -0.042627	   -0.046105	   -0.049606	  563.454716	  507.287217	  450.751199	  393.843023	  336.559001
   -0.038537	   -0.040656	   -0.042790	   -0.044939	   -0.047104	  562.824979	  506.497239	  449.770114	  392.639342	  335.100599
   -0.039853	   -0.042460	   -0.045085	   -0.047730	   -0.050394	  561.607812	  505.797378	  449.584870	  392.965927	  335.936125
   -0.041755	   -0.044007	   -0.046276	   -0.048563	   -0.050868	  560.662855	  505.043999	  448.995316	  392.511802	  335.588379
   -0.042561	   -0.044552	   -0.046556	   -0.048574	   -0.050605	  559.573694	  504.012217	  448.079314	  391.771249	  335.084235
   -0.042049	   -0.044156	   -0.046277	   -0.048412	   -0.050562	  557.981824	  502.700407	  447.046317	  391.015774	  334.604944
   -0.042841	   -0.044593	   -0.046357	   -0.048132	   -0.049918	  556.907481	  501.712312	  446.166228	  390.265870	  334.007840
   -0.042988	   -0.045109	   -0.047246	   -0.049398	   -0.051567	  555.503605	  500.789013	  445.667504	  390.134521	  334.185439
   -0.044580	   -0.046482	   -0.048397	   -0.050326	   -0.052270	  554.803899	  500.223729	  445.248693	  389.874489	  334.096755
   -0.045981	   -0.047718	   -0.049467	   -0.051230	   -0.053006	  554.013190	  499.618074	  444.815348	  389.600414	  333.968604
   -0.048559	   -0.049849	   -0.051148	   -0.052455	   -0.053771	  553.669671	  499.285224	  444.532609	  389.408074	  333.907817
   -0.050051	   -0.051257	   -0.052472	   -0.053695	   -0.054928	  552.773758	  498.648807	  444.130981	  389.215987	  333.899470
   -0.051008	   -0.051822	   -0.052643	   -0.053470	   -0.054302	  551.814359	  497.754939	  443.310508	  388.476939	  333.250044
   -0.051649	   -0.052417	   -0.053190	   -0.053968	   -0.054750	  550.768088	  496.845692	  442.585470	  387.984240	  333.038776
   -0.052220	   -0.053195	   -0.054177	   -0.055165	   -0.056160	  549.565187	  495.992616	  442.055378	  387.749739	  333.071911
   -0.054076	   -0.054820	   -0.055569	   -0.056323	   -0.057082	  548.861773	  495.429809	  441.650325	  387.519919	  333.035144
   -0.054653	   -0.055251	   -0.055853	   -0.056460	   -0.057071	  547.643017	  494.445335	  440.865418	  386.899134	  332.542286
   -0.055337	   -0.056093	   -0.056854	   -0.057619	   -0.058389	  546.643609	  493.664130	  440.352532	  386.705680	  332.720403
   -0.055568	   -0.055940	   -0.056315	   -0.056692	   -0.057072	  545.346009	  492.500058	  439.296805	  385.732616	  331.803805
   -0.055095	   -0.055964	   -0.056839	   -0.057720	   -0.058607	  543.933381	  491.456492	  438.639081	  385.477824	  331.969350
   -0.055016	   -0.055494	   -0.055975	   -0.056459	   -0.056947	  542.689136	  490.258000	  437.482570	  384.359442	  330.885171
   -0.053847	   -0.054493	   -0.055144	   -0.055798	   -0.056457	  541.108177	  488.880272	  436.330511	  383.455908	  330.253443
   -0.053596	   -0.054330	   -0.055068	   -0.055811	   -0.056558	  539.803170	  487.801929	  435.494242	  382.877395	  329.948636
   -0.052282	   -0.053205	   -0.054133	   -0.055065	   -0.056002	  538.207214	  486.397570	  434.337538	  382.025300	  329.459018
   -0.052652	   -0.053370	   -0.054093	   -0.054820	   -0.055551	  537.086174	  485.493734	  433.584840	  381.356572	  328.805973
   -0.053612	   -0.054076	   -0.054542	   -0.055011	   -0.055483	  536.310595	  484.787400	  432.973033	  380.865018	  328.460853
   -0.054039	   -0.054836	   -0.055637	   -0.056443	   -0.057253	  535.306062	  484.112946	  432.638673	  380.880921	  328.837342
   -0.055281	   -0.055742	   -0.056206	   -0.056672	   -0.057141	  534.666742	  483.527943	  432.129672	  380.469949	  328.546775
   -0.056339	   -0.056994	   -0.057653	   -0.058314	   -0.058980	  533.969210	  483.084402	  431.940927	  380.536806	  328.870044
   -0.058134	   -0.058284	   -0.058435	   -0.058588	   -0.058741	  533.493090	  482.720042	  431.628035	  380.214052	  328.475042
   -0.058814	   -0.058976	   -0.059140	   -0.059304	   -0.059470	  532.710690	  482.142149	  431.244811	  380.015460	  328.450835
   -0.059335	   -0.059420	   -0.059506	   -0.059593	   -0.059680	  531.950089	  481.513580	  430.752631	  379.664103	  328.244812
   -0.059600	   -0.059622	   -0.059644	   -0.059666	   -0.059689	  531.077804	  480.734828	  430.093404	  379.150869	  327.904530
   -0.059258	   -0.059548	   -0.059839	   -0.060133	   -0.060428	  529.953342	  479.896118	  429.524926	  378.836802	  327.828745
   -0.059956	   -0.059838	   -0.059719	   -0.059600	   -0.059479	  529.210561	  479.174926	  428.839671	  378.202095	  327.259467
   -0.060359	   -0.060215	   -0.060070	   -0.059924	   -0.059778	  528.380188	  478.488734	  428.323855	  377.883298	  327.164785
   -0.060557	   -0.060487	   -0.060417	   -0.060347	   -0.060276	  527.462593	  477.821686	  427.867030	  377.595639	  327.004492
   -0.060068	   -0.060158	   -0.060247	   -0.060337	   -0.060428	  526.372232	  476.901569	  427.145925	  377.102831	  326.769788
   -0.060403	   -0.060265	   -0.060126	   -0.059986	   -0.059845	  525.633321	  476.185251	  426.475352	  376.501540	  326.261707
   -0.060134	   -0.060417	   -0.060701	   -0.060987	   -0.061274	  524.555189	  475.452712	  426.083836	  376.446386	  326.538167
   -0.060763	   -0.060579	   -0.060393	   -0.060207	   -0.060020	  523.867308	  474.749026	  425.363144	  375.707470	  325.779785
   -0.059774	   -0.059904	   -0.060034	   -0.060165	   -0.060297	  522.623215	  473.751327	  424.623853	  375.238784	  325.594089
   -0.059874	   -0.060075	   -0.060277	   -0.060479	   -0.060683	  521.712196	  473.026579	  424.100951	  374.933535	  325.522532
   -0.060578	   -0.060650	   -0.060722	   -0.060795	   -0.060867	  520.973651	  472.461306	  423.667825	  374.590758	  325.227624
   -0.060975	   -0.060723	   -0.060469	   -0.060215	   -0.059959	  520.222738	  471.708402	  422.954877	  373.960389	  324.723149
   -0.061141	   -0.061238	   -0.061336	   -0.061434	   -0.061533	  519.283991	  471.129994	  422.704870	  374.006321	  325.032025
   -0.061142	   -0.061381	   -0.061622	   -0.061863	   -0.062106	  518.389947	  470.423809	  422.213573	  373.757370	  325.053315
   -0.061800	   -0.061803	   -0.061806	   -0.061810	   -0.061813	  517.731230	  469.825256	  421.664490	  373.246896	  324.570413
   -0.060903	   -0.061033	   -0.061164	   -0.061296	   -0.061428	  516.680548	  468.847118	  420.823780	  372.609400	  324.202836
   -0.060680	   -0.060645	   -0.060609	   -0.060573	   -0.060537	  515.827655	  468.032491	  420.048241	  371.873783	  323.507982
   -0.060596	   -0.060582	   -0.060569	   -0.060556	   -0.060542	  515.027449	  467.343390	  419.471995	  371.412158	  323.162765
   -0.061191	   -0.060787	   -0.060381	   -0.059973	   -0.059564	  514.442518	  466.748436	  418.883579	  370.847030	  322.637862
   -0.062351	   -0.061967	   -0.061582	   -0.061195	   -0.060806	  514.004059	  466.539366	  418.875820	  371.012167	  322.947144
   -0.063753	   -0.063069	   -0.062381	   -0.061691	   -0.060997	  513.688576	  466.321296	  418.755318	  370.989388	  323.022242
   -0.064139	   -0.063794	   -0.063448	   -0.063100	   -0.062750	  513.011965	  465.990916	  418.743291	  371.267450	  323.561734
   -0.064430	   -0.064025	   -0.063619	   -0.063210	   -0.062799	  512.343758	  465.482741	  418.371761	  371.008810	  323.391863
   -0.064318	   -0.064150	   -0.063980	   -0.063810	   -0.063639	  511.484405	  464.893780	  418.025887	  370.878242	  323.448335
   -0.063173	   -0.063406	   -0.063641	   -0.063877	   -0.064115	  510.280923	  463.947047	  417.357411	  370.509892	  323.402343
   -0.062734	   -0.062584	   -0.062433	   -0.062281	   -0.062128	  509.328295	  462.954267	  416.356571	  369.533583	  322.483667
   -0.060662	   -0.060761	   -0.060861	   -0.060961	   -0.061062	  507.754381	  461.594836	  415.223984	  368.640369	  321.842524
   -0.060426	   -0.060350	   -0.060273	   -0.060197	   -0.060120	  506.820483	  460.734934	  414.433044	  367.913283	  321.174112
   -0.058157	   -0.058696	   -0.059238	   -0.059782	   -0.060329	  505.111744	  459.388301	  413.452937	  367.304177	  320.940530
   -0.055927	   -0.056645	   -0.057365	   -0.058087	   -0.058813	  503.540614	  457.927207	  412.130508	  366.149410	  319.982796
   -0.052683	   -0.053862	   -0.055044	   -0.056230	   -0.057419	  501.683091	  456.217945	  410.628637	  364.914657	  319.075494
   -0.050150	   -0.051406	   -0.052665	   -0.053925	   -0.055188	  500.002270	  454.600424	  409.115982	  363.548720	  317.898410
   -0.049237	   -0.050570	   -0.051905	   -0.053243	   -0.054582	  498.783686	  453.558456	  408.260283	  362.888992	  317.444405
   -0.049363	   -0.050860	   -0.052361	   -0.053865	   -0.055373	  497.899335	  452.960704	  407.920133	  362.777275	  317.531780
   -0.050067	   -0.051610	   -0.053158	   -0.054708	   -0.056263	  497.241153	  452.535171	  407.722962	  362.804149	  317.778350
   -0.050507	   -0.051986	   -0.053468	   -0.054954	   -0.056444	  496.571164	  451.999838	  407.318646	  362.527182	  317.625035
   -0.050864	   -0.052248	   -0.053635	   -0.055026	   -0.056421	  495.845851	  451.398027	  406.824984	  362.126190	  317.301112
   -0.051643	   -0.052800	   -0.053959	   -0.055121	   -0.056285	  495.337981	  450.914991	  406.391982	  361.768615	  317.044551
   -0.052088	   -0.053088	   -0.054090	   -0.055095	   -0.056102	  494.717184	  450.372423	  405.924706	  361.373674	  316.718966
   -0.053924	   -0.054797	   -0.055672	   -0.056549	   -0.057430	  494.501717	  450.311282	  405.994661	  361.551313	  316.980692
   -0.055865	   -0.056635	   -0.057409	   -0.058184	   -0.058962	  494.369350	  450.348643	  406.184382	  361.875864	  317.422382
   -0.058414	   -0.058874	   -0.059336	   -0.059801	   -0.060267	  494.416943	  450.539452	  406.466387	  362.196436	  317.728277
   -0.061155	   -0.061268	   -0.061382	   -0.061496	   -0.061610	  494.598348	  450.751158	  406.738438	  362.559248	  318.212642
   -0.063036	   -0.062792	   -0.062547	   -0.062301	   -0.062054	  494.410701	  450.622715	  406.653401	  362.501631	  318.166266
   -0.063850	   -0.063429	   -0.063006	   -0.062582	   -0.062156	  493.814389	  450.139622	  406.264487	  362.187601	  317.907571
   -0.063958	   -0.063563	   -0.063167	   -0.062768	   -0.062368	  492.989293	  449.465638	  405.747514	  361.833613	  317.722618
   -0.063556	   -0.063358	   -0.063160	   -0.062960	   -0.062760	  491.909366	  448.643916	  405.170945	  361.488956	  317.596438
   -0.063718	   -0.063400	   -0.063080	   -0.062759	   -0.062436	  491.034640	  447.896637	  404.545735	  360.980355	  317.198901
   -0.061906	   -0.061986	   -0.062065	   -0.062146	   -0.062226	  489.369511	  446.577566	  403.572746	  360.353458	  316.918093
   -0.061639	   -0.061411	   -0.061181	   -0.060951	   -0.060719	  488.238675	  445.563429	  402.667378	  359.548805	  316.205974
   -0.061155	   -0.060960	   -0.060763	   -0.060566	   -0.060367	  487.067635	  444.617419	  401.926459	  358.992701	  315.814068
   -0.059888	   -0.060111	   -0.060335	   -0.060561	   -0.060789	  485.602833	  443.505393	  401.159363	  358.562535	  315.712673
   -0.059279	   -0.059649	   -0.060021	   -0.060395	   -0.060772	  484.392806	  442.563335	  400.457173	  358.071568	  315.403727
   -0.059061	   -0.059400	   -0.059743	   -0.060087	   -0.060434	  483.283489	  441.661244	  399.750874	  357.549377	  315.053709
   -0.058875	   -0.059341	   -0.059810	   -0.060283	   -0.060759	  482.244043	  440.861882	  399.201283	  357.259426	  315.033453
   -0.058340	   -0.058903	   -0.059470	   -0.060040	   -0.060615	  481.033500	  439.897558	  398.481095	  356.781232	  314.795051
   -0.058098	   -0.058680	   -0.059267	   -0.059857	   -0.060452	  479.995280	  439.043867	  397.802122	  356.266948	  314.435201
   -0.057957	   -0.058480	   -0.059007	   -0.059538	   -0.060073	  478.990678	  438.215699	  397.131219	  355.733702	  314.019555
   -0.057095	   -0.057941	   -0.058793	   -0.059651	   -0.060515	  477.712345	  437.254517	  396.496195	  355.434018	  314.064577
   -0.056151	   -0.057304	   -0.058466	   -0.059637	   -0.060817	  476.423859	  436.293003	  395.847350	  355.083182	  313.996721
   -0.055577	   -0.056471	   -0.057373	   -0.058283	   -0.059200	  475.287955	  435.287145	  394.940061	  354.242186	  313.188927
   -0.054900	   -0.055871	   -0.056850	   -0.057838	   -0.058835	  474.125279	  434.361901	  394.250512	  353.786522	  312.965262
   -0.054428	   -0.055475	   -0.056532	   -0.057598	   -0.058674	  473.033743	  433.483114	  393.582681	  353.327782	  312.713673
   -0.053231	   -0.054593	   -0.055967	   -0.057354	   -0.058754	  471.738388	  432.464001	  392.827447	  352.823694	  312.447615
   -0.052516	   -0.054173	   -0.055846	   -0.057535	   -0.059240	  470.663554	  431.628956	  392.227611	  352.454327	  312.303812
   -0.051398	   -0.053147	   -0.054913	   -0.056694	   -0.058492	  469.444471	  430.550635	  391.299160	  351.685093	  311.703384
   -0.049823	   -0.051702	   -0.053595	   -0.055504	   -0.057427	  468.137357	  429.325338	  390.210598	  350.789583	  311.058680
   -0.049499	   -0.051315	   -0.053144	   -0.054988	   -0.056847	  467.233249	  428.483173	  389.434098	  350.082552	  310.425004
   -0.048253	   -0.050388	   -0.052540	   -0.054707	   -0.056891	  466.004755	  427.449846	  388.610021	  349.482108	  310.062893
   -0.048696	   -0.050566	   -0.052448	   -0.054342	   -0.056249	  465.465434	  426.841377	  387.967585	  348.841629	  309.461047
   -0.049392	   -0.051147	   -0.052914	   -0.054692	   -0.056482	  464.937495	  426.405365	  387.631665	  348.614116	  309.350411
   -0.050267	   -0.051914	   -0.053571	   -0.055238	   -0.056914	  464.554208	  426.088294	  387.398727	  348.483549	  309.340782
   -0.050854	   -0.052768	   -0.054692	   -0.056626	   -0.058572	  464.100185	  425.840038	  387.366909	  348.679014	  309.774550
   -0.053409	   -0.054670	   -0.055939	   -0.057215	   -0.058499	  464.312250	  425.965048	  387.384010	  348.566990	  309.511816
   -0.053586	   -0.054884	   -0.056190	   -0.057506	   -0.058830	  463.662220	  425.488300	  387.059048	  348.371894	  309.424232
   -0.054077	   -0.055175	   -0.056281	   -0.057395	   -0.058516	  463.199068	  425.051901	  386.651973	  347.996763	  309.083717
   -0.053531	   -0.054855	   -0.056187	   -0.057526	   -0.058872	  462.483535	  424.430285	  386.177976	  347.725040	  309.069895
   -0.051791	   -0.053701	   -0.055620	   -0.057549	   -0.059487	  461.355271	  423.538125	  385.534848	  347.344060	  308.964372
   -0.050622	   -0.052632	   -0.054650	   -0.056677	   -0.058714	  460.534205	  422.734000	  384.766275	  346.629913	  308.323788
   -0.048826	   -0.051205	   -0.053593	   -0.055990	   -0.058395	  459.457659	  421.808228	  384.020815	  346.094660	  308.028998
   -0.047034	   -0.049633	   -0.052241	   -0.054859	   -0.057486	  458.388792	  420.869541	  383.217024	  345.430531	  307.509346
   -0.046473	   -0.048880	   -0.051295	   -0.053718	   -0.056148	  457.758397	  420.219876	  382.562667	  344.786207	  306.889928
   -0.045196	   -0.048230	   -0.051274	   -0.054329	   -0.057394	  456.867168	  419.647282	  382.300098	  344.824960	  307.221211
   -0.044620	   -0.047814	   -0.051016	   -0.054226	   -0.057446	  456.296959	  419.172622	  381.947433	  344.620979	  307.192847
   -0.044273	   -0.047558	   -0.050851	   -0.054152	   -0.057462	  455.838699	  418.787330	  381.642472	  344.403771	  307.070871
   -0.044853	   -0.047771	   -0.050696	   -0.053628	   -0.056568	  455.764593	  418.608893	  381.357530	  344.010133	  306.566330
   -0.044694	   -0.047890	   -0.051092	   -0.054302	   -0.057520	  455.435965	  418.408960	  381.298507	  344.104324	  306.826127
   -0.044558	   -0.047952	   -0.051353	   -0.054761	   -0.058176	  455.116155	  418.197924	  381.204838	  344.136668	  306.993186
   -0.045146	   -0.048160	   -0.051183	   -0.054212	   -0.057249	  455.064967	  418.059564	  380.965763	  343.783248	  306.511698
   -0.045411	   -0.048076	   -0.050748	   -0.053428	   -0.056114	  454.935204	  417.841658	  380.649661	  343.358820	  305.968740
   -0.042988	   -0.046138	   -0.049297	   -0.052464	   -0.055638	  453.900438	  416.978416	  379.963591	  342.855614	  305.654132
   -0.040332	   -0.043923	   -0.047522	   -0.051128	   -0.054742	  452.813174	  416.048835	  379.207442	  342.288752	  305.292521
   -0.038118	   -0.041994	   -0.045881	   -0.049776	   -0.053681	  451.907883	  415.278935	  378.561926	  341.756537	  304.862449
   -0.036418	   -0.040883	   -0.045358	   -0.049844	   -0.054341	  451.246762	  414.838481	  378.345174	  341.766543	  305.102288
   -0.036433	   -0.040712	   -0.045001	   -0.049300	   -0.053609	  451.222081	  414.749991	  378.190038	  341.541905	  304.805271
   -0.035885	   -0.040471	   -0.045065	   -0.049669	   -0.054281	  451.006780	  414.622594	  378.168626	  341.644673	  305.050535
   -0.035136	   -0.039662	   -0.044194	   -0.048732	   -0.053275	  450.707259	  414.260554	  377.766067	  341.223705	  304.633374
   -0.034281	   -0.038822	   -0.043368	   -0.047916	   -0.052469	  450.354161	  413.872994	  377.362038	  340.821258	  304.250617
   -0.033869	   -0.038257	   -0.042648	   -0.047041	   -0.051438	  450.124168	  413.573907	  376.998935	  340.399224	  303.774751
   -0.033113	   -0.037378	   -0.041645	   -0.045912	   -0.050181	  449.822411	  413.190873	  376.549190	  339.897356	  303.235367
   -0.032478	   -0.036883	   -0.041289	   -0.045695	   -0.050101	  449.560520	  412.973284	  376.383087	  339.789926	  303.193802
   -0.032492	   -0.036816	   -0.041140	   -0.045466	   -0.049792	  449.555264	  412.942861	  376.324051	  339.698833	  303.067205
   -0.032705	   -0.037062	   -0.041419	   -0.045776	   -0.050133	  449.652644	  413.051478	  376.451712	  339.853345	  303.256379
   -0.032152	   -0.036887	   -0.041622	   -0.046356	   -0.051088	  449.486650	  413.025133	  376.572291	  340.128120	  303.692617
   -0.032804	   -0.037230	   -0.041658	   -0.046087	   -0.050517	  449.724756	  413.180397	  376.624953	  340.058418	  303.480789
   -0.032907	   -0.037323	   -0.041741	   -0.046162	   -0.050586	  449.777316	  413.244611	  376.689149	  340.110910	  303.509872
   -0.032904	   -0.037427	   -0.041952	   -0.046481	   -0.051012	  449.786197	  413.297424	  376.787157	  340.255378	  303.702067
   -0.033028	   -0.037516	   -0.042009	   -0.046506	   -0.051006	  449.826473	  413.339525	  376.819723	  340.267024	  303.681382
   -0.033010	   -0.037505	   -0.042003	   -0.046503	   -0.051006	  449.840528	  413.345360	  376.826788	  340.284789	  303.719342
   -0.033014	   -0.037567	   -0.042123	   -0.046681	   -0.051241	  449.841321	  413.361536	  376.864167	  340.349201	  303.816624
   -0.032694	   -0.037238	   -0.041784	   -0.046335	   -0.050889	  449.699635	  413.222186	  376.715462	  340.179426	  303.614045
   -0.032687	   -0.037132	   -0.041579	   -0.046028	   -0.050479	  449.676758	  413.150644	  376.605818	  340.042266	  303.459974
   -0.032361	   -0.036683	   -0.041006	   -0.045330	   -0.049654	  449.572246	  412.971478	  376.366307	  339.756732	  303.142752
   -0.032152	   -0.036528	   -0.040904	   -0.045281	   -0.049659	  449.456328	  412.875607	  376.290131	  339.699899	  303.104910
   -0.031623	   -0.036274	   -0.040924	   -0.045574	   -0.050224	  449.247431	  412.764028	  376.284547	  339.808986	  303.337345
   -0.031733	   -0.036261	   -0.040791	   -0.045322	   -0.049856	  449.283460	  412.777283	  376.255877	  339.719230	  303.167335
   -0.032055	   -0.036511	   -0.040967	   -0.045425	   -0.049883	  449.415923	  412.876731	  376.330626	  339.777608	  303.217674
   -0.032584	   -0.036973	   -0.041364	   -0.045758	   -0.050154	  449.624521	  413.081587	  376.516366	  339.928839	  303.318984
   -0.032584	   -0.037104	   -0.041627	   -0.046153	   -0.050681	  449.644196	  413.166305	  376.663485	  340.135711	  303.582956
   -0.033017	   -0.037607	   -0.042202	   -0.046801	   -0.051405	  449.823434	  413.390012	  376.919334	  340.411344	  303.865983
   -0.033010	   -0.037620	   -0.042236	   -0.046857	   -0.051484	  449.851188	  413.440237	  376.985800	  340.487800	  303.946158
   -0.033223	   -0.038104	   -0.042990	   -0.047881	   -0.052777	  449.949528	  413.641359	  377.294091	  340.907662	  304.482009
   -0.033649	   -0.038100	   -0.042556	   -0.047017	   -0.051484	  450.114875	  413.654151	  377.150669	  340.604353	  304.015128
   -0.033227	   -0.037956	   -0.042693	   -0.047437	   -0.052190	  449.940326	  413.593536	  377.187238	  340.721289	  304.195539
   -0.032914	   -0.037754	   -0.042601	   -0.047456	   -0.052318	  449.811200	  413.514564	  377.161724	  340.752552	  304.286916
   -0.033127	   -0.037782	   -0.042443	   -0.047111	   -0.051786	  449.898572	  413.519526	  377.085265	  340.595663	  304.050595
   -0.032911	   -0.037568	   -0.042232	   -0.046902	   -0.051579	  449.809423	  413.430860	  377.001029	  340.519821	  303.987126
   -0.032801	   -0.037488	   -0.042181	   -0.046880	   -0.051585	  449.754624	  413.382155	  376.962012	  340.494103	  303.978332
   -0.032794	   -0.037540	   -0.042291	   -0.047047	   -0.051809	  449.771738	  413.414018	  377.016216	  340.578266	  304.100101
   -0.033124	   -0.037705	   -0.042292	   -0.046885	   -0.051484	  449.897445	  413.487975	  377.031332	  340.527423	  303.976158
   -0.033113	   -0.037684	   -0.042262	   -0.046848	   -0.051440	  449.894066	  413.490927	  377.030848	  340.513695	  303.939335
   -0.033127	   -0.037727	   -0.042333	   -0.046947	   -0.051568	  449.888572	  413.499892	  377.054348	  340.551808	  303.992137
   -0.032790	   -0.037695	   -0.042605	   -0.047520	   -0.052441	  449.780951	  413.481596	  377.141217	  340.759744	  304.337107
   -0.032794	   -0.037564	   -0.042340	   -0.047122	   -0.051909	  449.772394	  413.425303	  377.035784	  340.603761	  304.129161
   -0.032584	   -0.037279	   -0.041979	   -0.046684	   -0.051394	  449.695499	  413.308650	  376.883735	  340.420693	  303.919466
   -0.032698	   -0.037117	   -0.041541	   -0.045972	   -0.050409	  449.692055	  413.219504	  376.696714	  340.123579	  303.499996
   -0.032481	   -0.037060	   -0.041646	   -0.046237	   -0.050835	  449.612599	  413.191605	  376.721659	  340.202662	  303.634515
   -0.032272	   -0.036934	   -0.041603	   -0.046277	   -0.050957	  449.536002	  413.143866	  376.706298	  340.223212	  303.694523
   -0.032272	   -0.037023	   -0.041778	   -0.046539	   -0.051304	  449.545356	  413.174551	  376.767815	  340.325097	  303.846342
   -0.032072	   -0.036815	   -0.041564	   -0.046319	   -0.051080	  449.453301	  413.090307	  376.679582	  340.221033	  303.714564
   -0.032488	   -0.036919	   -0.041355	   -0.045795	   -0.050239	  449.604808	  413.111262	  376.581345	  340.015005	  303.412185
   -0.032162	   -0.036861	   -0.041564	   -0.046272	   -0.050985	  449.490573	  413.087725	  376.651061	  340.180533	  303.676095
   -0.032169	   -0.036680	   -0.041195	   -0.045715	   -0.050239	  449.483404	  413.018350	  376.516415	  339.977545	  303.401683
   -0.032275	   -0.036701	   -0.041133	   -0.045569	   -0.050011	  449.507099	  413.016083	  376.482833	  339.907277	  303.289340
   -0.032055	   -0.036618	   -0.041186	   -0.045758	   -0.050335	  449.426885	  412.974024	  376.484251	  339.957511	  303.393747
   -0.032162	   -0.036652	   -0.041146	   -0.045643	   -0.050144	  449.450895	  412.960125	  376.440597	  339.892276	  303.315129
   -0.031952	   -0.036478	   -0.041006	   -0.045536	   -0.050069	  449.373643	  412.880086	  376.367594	  339.836153	  303.285748
   -0.031530	   -0.036316	   -0.041107	   -0.045900	   -0.050698	  449.199612	  412.816963	  376.408095	  339.972980	  303.511589
   -0.031530	   -0.036155	   -0.040784	   -0.045417	   -0.050053	  449.199612	  412.757970	  376.288878	  339.792305	  303.268222
   -0.031420	   -0.036023	   -0.040630	   -0.045239	   -0.049851	  449.154210	  412.696832	  376.218045	  339.717829	  303.196165
   -0.031633	   -0.036130	   -0.040630	   -0.045133	   -0.049638	  449.212239	  412.713029	  376.193055	  339.652301	  303.090748
   -0.031420	   -0.035919	   -0.040420	   -0.044924	   -0.049430	  449.133896	  412.630252	  376.107976	  339.567051	  303.007466
   -0.031523	   -0.035892	   -0.040263	   -0.044635	   -0.049009	  449.166837	  412.607676	  376.034363	  339.446890	  302.845248
   -0.031423	   -0.035973	   -0.040525	   -0.045080	   -0.049638	  449.125279	  412.641366	  376.134734	  339.605362	  303.053230
   -0.031303	   -0.035924	   -0.040545	   -0.045166	   -0.049787	  449.106689	  412.622631	  376.138749	  339.655043	  303.171513
   -0.031426	   -0.035902	   -0.040379	   -0.044858	   -0.049339	  449.136034	  412.619400	  376.086345	  339.536858	  302.970928
   -0.030887	   -0.035746	   -0.040605	   -0.045465	   -0.050325	  448.944139	  412.548497	  376.148291	  339.743522	  303.334189
   -0.030884	   -0.035437	   -0.039993	   -0.044551	   -0.049110	  448.922471	  412.424427	  375.909760	  339.378458	  302.830510
   -0.031004	   -0.035619	   -0.040236	   -0.044853	   -0.049472	  448.931317	  412.451523	  375.962812	  339.465180	  302.958626
   -0.030255	   -0.034843	   -0.039432	   -0.044023	   -0.048614	  448.632111	  412.129714	  375.618708	  339.099092	  302.570861
   -0.029822	   -0.034552	   -0.039282	   -0.044012	   -0.048741	  448.454294	  411.980513	  375.509256	  339.040524	  302.574317
   -0.029941	   -0.034407	   -0.038873	   -0.043338	   -0.047802	  448.472084	  411.891106	  375.314466	  338.742163	  302.174195
   -0.029418	   -0.033952	   -0.038488	   -0.043025	   -0.047563	  448.236120	  411.694083	  375.140333	  338.574864	  301.997671
   -0.029518	   -0.034031	   -0.038545	   -0.043059	   -0.047573	  448.266974	  411.701418	  375.132436	  338.560027	  301.984192
   -0.029518	   -0.034115	   -0.038711	   -0.043307	   -0.047904	  448.267564	  411.730360	  375.193201	  338.656088	  302.119021
   -0.029308	   -0.034048	   -0.038787	   -0.043524	   -0.048260	  448.200785	  411.707336	  375.225048	  338.753917	  302.293938
   -0.029622	   -0.034223	   -0.038823	   -0.043422	   -0.048020	  448.330294	  411.790342	  375.256198	  338.727859	  302.205325
   -0.030058	   -0.034572	   -0.039086	   -0.043601	   -0.048117	  448.489783	  411.936244	  375.379058	  338.818222	  302.253737
   -0.029838	   -0.034428	   -0.039018	   -0.043610	   -0.048203	  448.429668	  411.916312	  375.394746	  338.864965	  302.326967
   -0.030577	   -0.034920	   -0.039265	   -0.043611	   -0.047959	  448.715216	  412.125626	  375.521049	  338.901475	  302.266894
   -0.030158	   -0.034846	   -0.039536	   -0.044228	   -0.048923	  448.582073	  412.124383	  375.647918	  339.152663	  302.638604
   -0.030568	   -0.035082	   -0.039596	   -0.044110	   -0.048624	  448.762096	  412.225815	  375.688897	  339.151341	  302.613148
   -0.030371	   -0.035009	   -0.039649	   -0.044290	   -0.048934	  448.680144	  412.212471	  375.729965	  339.232616	  302.720415
   -0.030687	   -0.035187	   -0.039689	   -0.044193	   -0.048700	  448.810899	  412.296988	  375.762952	  339.208773	  302.634435
   -0.030794	   -0.035184	   -0.039576	   -0.043972	   -0.048370	  448.854930	  412.298922	  375.719326	  339.116119	  302.489278
   -0.030568	   -0.035130	   -0.039693	   -0.044257	   -0.048822	  448.771790	  412.265076	  375.751752	  339.231818	  302.705270
   -0.030787	   -0.035294	   -0.039802	   -0.044311	   -0.048822	  448.851911	  412.323040	  375.783979	  339.234724	  302.675270
   -0.030581	   -0.035080	   -0.039582	   -0.044087	   -0.048593	  448.766563	  412.248026	  375.709579	  339.151206	  302.572890
   -0.030471	   -0.035133	   -0.039797	   -0.044463	   -0.049131	  448.721191	  412.261632	  375.785337	  339.292294	  302.782493
   -0.030368	   -0.035108	   -0.039851	   -0.044597	   -0.049345	  448.688807	  412.265050	  375.822090	  339.359912	  302.878502
   -0.030681	   -0.035262	   -0.039846	   -0.044432	   -0.049020	  448.838504	  412.342492	  375.829814	  339.300458	  302.754412
   -0.031110	   -0.035717	   -0.040327	   -0.044938	   -0.049552	  449.005653	  412.527724	  376.031041	  339.515589	  302.981355
   -0.030994	   -0.035716	   -0.040439	   -0.045163	   -0.049888	  448.998773	  412.552242	  376.097660	  339.635024	  303.164333
   -0.031323	   -0.036051	   -0.040783	   -0.045520	   -0.050261	  449.123079	  412.724131	  376.291991	  339.826612	  303.327950
   -0.031959	   -0.036686	   -0.041418	   -0.046154	   -0.050894	  449.396775	  413.006183	  376.581863	  340.123769	  303.631853
   -0.032059	   -0.037001	   -0.041947	   -0.046898	   -0.051853	  449.478937	  413.168537	  376.826884	  340.453937	  304.049655
   -0.032485	   -0.037515	   -0.042552	   -0.047597	   -0.052648	  449.655003	  413.414091	  377.121887	  340.778281	  304.383165
