  2.00000000	  0.00015237	 -0.00174290	  0.00203692	  0.00039361	 -0.00123128	 -0.00258981	  0.00031646	 -0.00123639
  3.00000000	  0.00016796	 -0.00014706	  0.00005306	  0.00006169	 -0.00021120	 -0.00004014	  0.00029282	 -0.00010901
  4.00000000	 -0.00002219	  0.00006544	  0.00014709	  0.00000427	 -0.00001134	 -0.00005436	 -0.00004009	  0.00004690
  5.00000000	  0.00005280	  0.00005405	  0.00009905	  0.00003566	 -0.00011873	 -0.00006383	  0.00008900	  0.00003654
  6.00000000	  0.00001833	 -0.00012440	  0.00005507	 -0.00005918	  0.00020144	  0.00000723	  0.00003528	 -0.00008841
  7.00000000	 -0.00005897	  0.00031497	  0.00015655	 -0.00002107	  0.00008148	 -0.00012646	 -0.00011088	  0.00022427
  8.00000000	  0.00004684	 -0.00006864	  0.00011181	  0.00010205	 -0.00035158	  0.00001934	  0.00008254	 -0.00004990
  9.00000000	  0.00003462	  0.00018081	  0.00004684	 -0.00001378	  0.00005304	 -0.00008494	  0.00005392	  0.00012662
 10.00000000	  0.00007994	 -0.00037871	  0.00010931	 -0.00005540	  0.00019153	 -0.00010816	  0.00014879	 -0.00026988
 11.00000000	 -0.00015301	 -0.00004258	  0.00001059	 -0.00001327	  0.00004405	  0.00002608	 -0.00026136	 -0.00002540
 12.00000000	  0.00012246	  0.00041558	  0.00009301	 -0.00001354	  0.00005661	 -0.00013400	  0.00019755	  0.00028977
 13.00000000	 -0.00013873	 -0.00022899	  0.00026483	  0.00001283	 -0.00004292	 -0.00006176	 -0.00023122	 -0.00015746
 14.00000000	  0.00006310	  0.00023875	  0.00000911	 -0.00000216	  0.00000939	  0.00000225	  0.00010102	  0.00016669
 15.00000000	 -0.00009154	 -0.00029672	  0.00005917	  0.00003053	 -0.00010009	 -0.00014923	 -0.00014809	 -0.00020677
 16.00000000	  0.00020325	  0.00003498	  0.00010805	  0.00000045	 -0.00000854	  0.00014125	  0.00034787	  0.00001853
 17.00000000	 -0.00003016	  0.00037384	  0.00000458	 -0.00001917	  0.00007257	 -0.00006907	 -0.00006317	  0.00026493
 18.00000000	 -0.00001326	 -0.00024530	  0.00000611	  0.00009759	 -0.00033757	  0.00001350	 -0.00001532	 -0.00017282
 19.00000000	 -0.00006687	 -0.00029774	  0.00021402	 -0.00006830	  0.00024055	 -0.00018355	 -0.00010584	 -0.00020821
 20.00000000	  0.00003822	  0.00023973	  0.00005276	  0.00004014	 -0.00013504	 -0.00000902	  0.00005835	  0.00016814
 21.00000000	  0.00001495	 -0.00018644	  0.00005504	 -0.00001007	  0.00004010	 -0.00015140	  0.00003130	 -0.00013210
 22.00000000	  0.00002732	 -0.00043303	  0.00010381	 -0.00002249	  0.00005978	  0.00026686	  0.00005992	 -0.00030662
 23.00000000	 -0.00008054	  0.00037732	  0.00010154	  0.00008372	 -0.00027546	 -0.00016110	 -0.00014972	  0.00026887
 24.00000000	 -0.00002357	  0.00049657	  0.00001040	 -0.00001423	  0.00005030	  0.00006441	 -0.00005546	  0.00035133
 25.00000000	  0.00008604	 -0.00025779	  0.00021802	 -0.00006462	  0.00022315	 -0.00008194	  0.00015551	 -0.00018466
 26.00000000	 -0.00003634	  0.00025195	  0.00010737	 -0.00002184	  0.00007562	  0.00003375	 -0.00007006	  0.00017902
 27.00000000	  0.00001832	 -0.00012449	  0.00006097	 -0.00009922	  0.00033578	  0.00006698	  0.00003521	 -0.00008849
 28.00000000	 -0.00014014	  0.00020307	  0.00010464	 -0.00000926	  0.00004384	 -0.00020665	 -0.00024664	  0.00014768
 29.00000000	  0.00002527	 -0.00000556	  0.00016132	  0.00013705	 -0.00047185	  0.00004121	  0.00004354	 -0.00000468
 30.00000000	  0.00002026	 -0.00055548	  0.00000405	  0.00003420	 -0.00012134	 -0.00002631	  0.00005153	 -0.00039286
 31.00000000	  0.00006539	 -0.00019406	  0.00015937	  0.00006837	 -0.00024622	  0.00019854	  0.00011817	 -0.00013899
 32.00000000	 -0.00002180	  0.00006383	  0.00005895	 -0.00003233	  0.00011280	 -0.00002459	 -0.00003937	  0.00004573
 33.00000000	 -0.00010305	 -0.00004737	  0.00000134	 -0.00001394	  0.00004928	 -0.00003714	 -0.00017556	 -0.00003033
 34.00000000	  0.00013512	  0.00016694	  0.00015683	 -0.00000472	  0.00001797	 -0.00000776	  0.00022700	  0.00011383
 35.00000000	  0.00007828	  0.00005075	  0.00005078	  0.00000492	 -0.00001755	  0.00002059	  0.00013291	  0.00003348
 36.00000000	  0.00003488	  0.00017975	  0.00005566	  0.00000644	 -0.00003427	  0.00028387	  0.00005451	  0.00012585
 37.00000000	  0.00003352	 -0.00031251	  0.00000747	 -0.00001035	  0.00003728	 -0.00009982	  0.00006708	 -0.00022167
 38.00000000	 -0.00011507	  0.00020126	  0.00004319	 -0.00000867	  0.00002974	  0.00004468	 -0.00020372	  0.00014561
 39.00000000	  0.00009689	 -0.00007428	  0.00009821	 -0.00001989	  0.00007353	 -0.00012865	  0.00016865	 -0.00005536
 40.00000000	 -0.00010600	 -0.00010978	  0.00009559	 -0.00001260	  0.00003443	  0.00016383	 -0.00017871	 -0.00007432
 41.00000000	  0.00004156	  0.00030261	  0.00004689	 -0.00007703	  0.00026018	  0.00014015	  0.00006218	  0.00021244
 42.00000000	  0.00000919	  0.00018407	  0.00019954	 -0.00000214	  0.00001745	 -0.00017226	  0.00001020	  0.00012972
 43.00000000	  0.00007066	 -0.00056267	  0.00009894	  0.00000758	 -0.00002882	 -0.00005850	  0.00013842	 -0.00039951
 44.00000000	 -0.00008721	  0.00025687	  0.00009277	  0.00007768	 -0.00026233	 -0.00002830	 -0.00015747	  0.00018404
 45.00000000	  0.00001850	 -0.00012677	  0.00005034	  0.00005043	 -0.00017390	 -0.00000771	  0.00003561	 -0.00009007
 46.00000000	 -0.00012818	 -0.00004513	  0.00005725	 -0.00001676	  0.00005203	  0.00010736	 -0.00021879	 -0.00002797
 47.00000000	  0.00004993	 -0.00000551	  0.00000358	 -0.00000374	  0.00002543	 -0.00026220	  0.00008593	 -0.00000539
 48.00000000	  0.00011814	 -0.00013764	  0.00005369	 -0.00006296	  0.00020751	  0.00014115	  0.00020697	 -0.00010077
 49.00000000	  0.00001627	  0.00030377	  0.00000528	  0.00008776	 -0.00029067	 -0.00015351	  0.00001875	  0.00021400
 50.00000000	 -0.00011867	  0.00013988	  0.00014845	 -0.00000954	  0.00003872	 -0.00009151	 -0.00020800	  0.00010233
 51.00000000	 -0.00002332	 -0.00042950	  0.00011361	  0.00003269	 -0.00010668	 -0.00019924	 -0.00002722	 -0.00030254
 52.00000000	  0.00023784	  0.00021823	  0.00006713	 -0.00007001	  0.00022964	  0.00024840	  0.00040198	  0.00014694
 53.00000000	  0.00011143	 -0.00026067	  0.00005044	  0.00002624	 -0.00008126	 -0.00024223	  0.00019919	 -0.00018737
 54.00000000	 -0.00026595	 -0.00027511	  0.00000585	  0.00008456	 -0.00029408	  0.00003692	 -0.00044865	 -0.00018631
 55.00000000	  0.00004000	 -0.00018891	  0.00000975	  0.00004466	 -0.00015101	 -0.00008989	  0.00007435	 -0.00013454
 56.00000000	  0.00018112	  0.00009763	  0.00005802	  0.00009201	 -0.00030923	 -0.00012958	  0.00030841	  0.00006360
 57.00000000	  0.00000627	 -0.00036936	  0.00026200	  0.00002187	 -0.00009167	  0.00026246	  0.00002169	 -0.00026085
 58.00000000	 -0.00004519	 -0.00036276	  0.00014037	  0.00013288	 -0.00042881	 -0.00066178	 -0.00006705	 -0.00025467
 59.00000000	  0.00008432	 -0.00032011	  0.00033024	  0.00020582	 -0.00071669	  0.00011081	  0.00015435	 -0.00022816
 60.00000000	 -0.00002069	 -0.00092365	  0.00068543	  0.00027259	 -0.00094426	 -0.00011450	 -0.00000896	 -0.00065059
 61.00000000	  0.00002426	 -0.00055920	  0.00074347	  0.00025612	 -0.00089316	  0.00006783	  0.00005756	 -0.00039463
 62.00000000	 -0.00008896	 -0.00030307	  0.00038237	  0.00040904	 -0.00137428	 -0.00093663	 -0.00014551	 -0.00021119
 63.00000000	 -0.00016729	 -0.00090707	  0.00036907	  0.00017946	 -0.00061745	 -0.00037456	 -0.00026672	 -0.00063424
 64.00000000	 -0.00003865	  0.00018701	  0.00052908	  0.00019063	 -0.00065589	 -0.00002074	 -0.00007148	  0.00013240
 65.00000000	  0.00002206	 -0.00062454	  0.00031630	  0.00019389	 -0.00066818	 -0.00032190	  0.00005295	 -0.00043953
 66.00000000	  0.00000363	 -0.00043615	  0.00027077	 -0.00003529	  0.00010877	  0.00016307	  0.00001598	 -0.00030664
 67.00000000	 -0.00009146	  0.00019468	  0.00022759	 -0.00011786	  0.00041175	  0.00000125	 -0.00016303	  0.00013900
 68.00000000	 -0.00017614	 -0.00047049	  0.00084581	 -0.00018285	  0.00064804	 -0.00052756	 -0.00029454	 -0.00032667
 69.00000000	  0.00005689	  0.00067411	  0.00005311	 -0.00010299	  0.00033216	  0.00082419	  0.00008290	  0.00047280
 70.00000000	  0.00027502	  0.00003265	  0.00025549	 -0.00013644	  0.00046722	  0.00009846	  0.00047511	  0.00001603
 71.00000000	  0.00016176	 -0.00026450	  0.00005393	 -0.00011981	  0.00038883	  0.00046723	  0.00028637	 -0.00019037
 72.00000000	 -0.00014203	  0.00069809	  0.00036988	 -0.00009702	  0.00035589	 -0.00021792	 -0.00026340	  0.00049518
 73.00000000	  0.00015364	  0.00054044	  0.00036815	 -0.00009953	  0.00032502	  0.00058456	  0.00025129	  0.00037652
 74.00000000	  0.00006605	 -0.00013127	  0.00045354	  0.00005739	 -0.00017993	 -0.00045219	  0.00011755	 -0.00009420
 75.00000000	  0.00006137	  0.00023972	  0.00021944	 -0.00012130	  0.00042882	 -0.00015667	  0.00009974	  0.00016720
 76.00000000	  0.00016521	  0.00084499	  0.00056699	 -0.00012133	  0.00044327	 -0.00031707	  0.00026341	  0.00059084
 77.00000000	 -0.00009358	  0.00019929	  0.00094452	 -0.00024729	  0.00086204	 -0.00014251	 -0.00016646	  0.00014303
 78.00000000	  0.00017531	  0.00053737	  0.00083539	 -0.00031183	  0.00109637	 -0.00036862	  0.00028776	  0.00037406
 79.00000000	 -0.00008822	  0.00075068	  0.00078779	 -0.00016406	  0.00059533	 -0.00047306	 -0.00017167	  0.00053204
 80.00000000	  0.00009525	  0.00042286	  0.00065295	 -0.00013481	  0.00047592	 -0.00018736	  0.00015243	  0.00029577
 81.00000000	  0.00024978	  0.00003474	  0.00057998	  0.00001729	 -0.00002152	 -0.00082980	  0.00042818	  0.00001778
 82.00000000	  0.00011884	 -0.00006966	  0.00042244	  0.00004761	 -0.00012479	 -0.00086981	  0.00020601	 -0.00005223
 83.00000000	  0.00028998	  0.00033754	  0.00072849	  0.00004228	 -0.00008615	 -0.00127377	  0.00048983	  0.00023106
 84.00000000	  0.00003661	  0.00024661	  0.00012099	 -0.00010627	  0.00035346	  0.00030211	  0.00005698	  0.00017312
 85.00000000	 -0.00003069	 -0.00053774	  0.00026774	  0.00003756	 -0.00015522	  0.00046013	 -0.00003934	 -0.00037875
 86.00000000	 -0.00034528	  0.00005911	  0.00108909	  0.00005870	 -0.00022697	  0.00064736	 -0.00059481	  0.00005016
 87.00000000	 -0.00003197	 -0.00017021	  0.00113225	  0.00008187	 -0.00033308	  0.00113133	 -0.00005052	 -0.00011929
 88.00000000	 -0.00060543	 -0.00063624	  0.00072812	 -0.00010062	  0.00028132	  0.00130947	 -0.00102394	 -0.00043256
 89.00000000	 -0.00031257	  0.00017953	  0.00064226	  0.00007407	 -0.00025711	  0.00012347	 -0.00054240	  0.00013502
 90.00000000	  0.00023151	 -0.00031434	  0.00039564	 -0.00002158	  0.00004695	  0.00049355	  0.00040670	 -0.00022812
 91.00000000	 -0.00003178	  0.00080845	  0.00043547	 -0.00000543	 -0.00000581	  0.00072565	 -0.00007720	  0.00057135
 92.00000000	 -0.00012073	  0.00009536	  0.00028551	 -0.00016469	  0.00057957	 -0.00026546	 -0.00021021	  0.00007073
 93.00000000	  0.00001688	 -0.00016975	  0.00062723	  0.00004427	 -0.00017313	  0.00041583	  0.00003388	 -0.00012029
 94.00000000	 -0.00005077	 -0.00004186	  0.00046897	  0.00003393	 -0.00015607	  0.00083992	 -0.00008606	 -0.00002807
 95.00000000	  0.00011413	 -0.00017883	  0.00041345	 -0.00011734	  0.00038544	  0.00032203	  0.00020143	 -0.00012955
 96.00000000	 -0.00024725	 -0.00001678	  0.00005935	  0.00006434	 -0.00022265	  0.00004477	 -0.00042437	 -0.00000458
 97.00000000	  0.00006995	  0.00042569	  0.00013700	 -0.00005251	  0.00018330	  0.00003048	  0.00010771	  0.00029841
 98.00000000	 -0.00021236	 -0.00031749	  0.00027131	  0.00003061	 -0.00012151	  0.00027716	 -0.00035545	 -0.00021782
 99.00000000	 -0.00001557	  0.00061731	  0.00047939	 -0.00004027	  0.00011003	  0.00072846	 -0.00004538	  0.00043624
100.00000000	 -0.00016404	 -0.00038206	  0.00078063	  0.00009902	 -0.00037697	  0.00068912	 -0.00027005	 -0.00026469
101.00000000	 -0.00001167	 -0.00022314	  0.00007372	  0.00008883	 -0.00029943	 -0.00016928	 -0.00001313	 -0.00015712
102.00000000	  0.00012133	  0.00000380	  0.00001131	 -0.00019786	  0.00066744	  0.00025801	  0.00020848	 -0.00000109
103.00000000	  0.00008392	  0.00024557	  0.00027106	 -0.00007246	  0.00026490	 -0.00027967	  0.00013660	  0.00017077
104.00000000	  0.00001154	  0.00025128	  0.00021252	  0.00008559	 -0.00026567	 -0.00052786	  0.00001211	  0.00017705
105.00000000	 -0.00034902	 -0.00017479	  0.00031512	  0.00002664	 -0.00006896	 -0.00051395	 -0.00059453	 -0.00011297
106.00000000	  0.00001291	 -0.00021716	  0.00004784	  0.00002253	 -0.00005766	 -0.00047089	  0.00002863	 -0.00015365
107.00000000	  0.00010995	 -0.00022915	  0.00043670	 -0.00001752	  0.00002021	  0.00080490	  0.00019563	 -0.00016497
108.00000000	  0.00018452	  0.00034973	  0.00025041	 -0.00002113	  0.00008568	 -0.00020024	  0.00030678	  0.00024137
109.00000000	 -0.00029472	 -0.00012304	  0.00010562	  0.00015489	 -0.00053864	  0.00011359	 -0.00050300	 -0.00007801
110.00000000	  0.00012959	  0.00064886	  0.00021436	  0.00008865	 -0.00027615	 -0.00046339	  0.00020338	  0.00045411
111.00000000	 -0.00026454	 -0.00005872	  0.00015792	 -0.00006278	  0.00021225	  0.00005587	 -0.00045335	 -0.00003383
112.00000000	  0.00045425	 -0.00090670	  0.00043875	 -0.00009247	  0.00028344	  0.00051658	  0.00080753	 -0.00065299
113.00000000	 -0.00001384	  0.00026064	  0.00061557	 -0.00004980	  0.00019590	 -0.00046674	 -0.00003130	  0.00018436
114.00000000	  0.00001038	 -0.00020762	  0.00042061	 -0.00001510	  0.00006485	 -0.00032702	  0.00002381	 -0.00014685
115.00000000	  0.00048300	  0.00077576	  0.00075565	  0.00011463	 -0.00035213	 -0.00073849	  0.00080818	  0.00053351
116.00000000	  0.00001626	 -0.00003033	  0.00076124	  0.00007775	 -0.00020826	 -0.00127241	  0.00002880	 -0.00002185
117.00000000	  0.00000223	 -0.00031780	  0.00058329	 -0.00000286	  0.00002105	 -0.00031888	  0.00001228	 -0.00022429
118.00000000	 -0.00010551	 -0.00058834	  0.00058051	  0.00008623	 -0.00025369	 -0.00107252	 -0.00016578	 -0.00041230
119.00000000	  0.00053076	  0.00042850	  0.00016774	 -0.00019706	  0.00068552	 -0.00015066	  0.00090142	  0.00028892
120.00000000	  0.00015588	  0.00001398	  0.00054300	 -0.00002616	  0.00010777	 -0.00042417	  0.00026750	  0.00000588
121.00000000	  0.00058753	  0.00080523	  0.00027042	  0.00015943	 -0.00053125	 -0.00030070	  0.00098974	  0.00055342
122.00000000	 -0.00045112	 -0.00013265	  0.00006072	 -0.00004435	  0.00017389	 -0.00044256	 -0.00077227	 -0.00008264
123.00000000	 -0.00004013	  0.00026233	  0.00047315	 -0.00008725	  0.00030068	  0.00004253	 -0.00007524	  0.00018611
124.00000000	  0.00007082	 -0.00025218	  0.00017489	  0.00001135	 -0.00001918	 -0.00052295	  0.00012791	 -0.00017967
125.00000000	 -0.00013933	 -0.00083100	  0.00038511	 -0.00011992	  0.00037795	  0.00058795	 -0.00021913	 -0.00058307
126.00000000	 -0.00021516	  0.00034921	  0.00005697	  0.00000757	  0.00000553	 -0.00060704	 -0.00037810	  0.00025158
127.00000000	  0.00022465	  0.00056360	  0.00010405	  0.00002232	 -0.00009502	  0.00052524	  0.00037243	  0.00039229
128.00000000	 -0.00003591	 -0.00055316	  0.00005458	 -0.00015454	  0.00051791	  0.00015208	 -0.00004813	 -0.00038958
129.00000000	  0.00006537	  0.00101848	  0.00051793	 -0.00004232	  0.00018104	 -0.00059563	  0.00008731	  0.00071747
130.00000000	  0.00018819	 -0.00003493	  0.00033834	 -0.00012900	  0.00044187	 -0.00003550	  0.00032364	 -0.00002934
131.00000000	 -0.00007861	 -0.00000145	  0.00134309	 -0.00022698	  0.00081496	 -0.00081745	 -0.00013467	  0.00000098
132.00000000	  0.00055578	  0.00034159	  0.00077993	 -0.00012857	  0.00046389	 -0.00059003	  0.00094338	  0.00022760
133.00000000	 -0.00021683	  0.00070304	  0.00119888	  0.00012369	 -0.00035999	 -0.00121045	 -0.00038767	  0.00050210
134.00000000	  0.00040726	  0.00050798	  0.00110177	 -0.00031870	  0.00112453	 -0.00078114	  0.00068529	  0.00034930
135.00000000	 -0.00031309	 -0.00035004	  0.00087138	 -0.00019683	  0.00067388	 -0.00003580	 -0.00052708	 -0.00023986
136.00000000	  0.00058616	  0.00104967	  0.00046858	 -0.00020123	  0.00068842	 -0.00003316	  0.00097575	  0.00072820
137.00000000	  0.00013038	 -0.00009740	  0.00110452	 -0.00007091	  0.00028055	 -0.00088762	  0.00022470	 -0.00007216
138.00000000	  0.00018401	  0.00087645	  0.00123588	 -0.00002856	  0.00013249	 -0.00068237	  0.00029354	  0.00061581
139.00000000	  0.00027200	 -0.00012767	  0.00267353	 -0.00002508	  0.00016488	 -0.00173733	  0.00046650	 -0.00009735
140.00000000	  0.00049019	 -0.00035850	  0.00078760	 -0.00004840	  0.00018130	 -0.00058533	  0.00084366	 -0.00026561
141.00000000	  0.00006592	  0.00108316	  0.00134627	  0.00013219	 -0.00037924	 -0.00135477	  0.00008791	  0.00076526
142.00000000	  0.00020505	  0.00023454	  0.00063736	 -0.00018603	  0.00061760	  0.00026817	  0.00034421	  0.00016111
143.00000000	  0.00000207	  0.00001744	  0.00036454	 -0.00008810	  0.00027176	  0.00057911	  0.00000311	  0.00001230
144.00000000	 -0.00057456	 -0.00024280	  0.00033313	 -0.00004739	  0.00014455	  0.00051123	 -0.00097220	 -0.00015787
145.00000000	 -0.00013509	  0.00009794	  0.00033402	 -0.00014236	  0.00049637	 -0.00020337	 -0.00023233	  0.00007261
146.00000000	 -0.00017802	  0.00004878	  0.00153120	 -0.00012490	  0.00033101	  0.00201643	 -0.00030400	  0.00003901
147.00000000	 -0.00032606	  0.00090178	  0.00100220	 -0.00036148	  0.00112511	  0.00222107	 -0.00057813	  0.00064857
148.00000000	 -0.00061667	 -0.00056426	  0.00117454	 -0.00026952	  0.00086718	  0.00098627	 -0.00102973	 -0.00038277
149.00000000	 -0.00004540	  0.00171695	  0.00141346	 -0.00005794	  0.00007351	  0.00248729	 -0.00012908	  0.00122008
150.00000000	 -0.00030393	 -0.00051384	  0.00091160	  0.00003139	 -0.00013007	  0.00046159	 -0.00049865	 -0.00035519
151.00000000	 -0.00010164	  0.00012634	  0.00025985	 -0.00009933	  0.00029601	  0.00077514	 -0.00017646	  0.00009303
152.00000000	 -0.00032081	  0.00129287	  0.00077243	 -0.00018049	  0.00057775	  0.00069875	 -0.00058730	  0.00092864
153.00000000	  0.00010583	 -0.00038249	  0.00039461	 -0.00034778	  0.00114995	  0.00046994	  0.00019210	 -0.00027531
154.00000000	 -0.00053158	  0.00092545	  0.00040476	 -0.00005284	  0.00019024	 -0.00016628	 -0.00093030	  0.00067603
155.00000000	  0.00028063	  0.00023709	  0.00036991	 -0.00008217	  0.00024317	  0.00060979	  0.00046641	  0.00015887
156.00000000	 -0.00043637	 -0.00016124	  0.00010905	 -0.00018282	  0.00058201	  0.00064552	 -0.00073191	 -0.00009895
157.00000000	  0.00036529	  0.00040187	  0.00064986	 -0.00012747	  0.00049365	 -0.00115236	  0.00060264	  0.00027306
158.00000000	  0.00017009	  0.00096478	  0.00031079	 -0.00011220	  0.00039281	 -0.00028835	  0.00025390	  0.00068054
159.00000000	  0.00030753	 -0.00009608	  0.00052803	  0.00005652	 -0.00012058	 -0.00130570	  0.00052214	 -0.00007854
160.00000000	  0.00036517	 -0.00028387	  0.00034106	  0.00026184	 -0.00086987	 -0.00027947	  0.00062575	 -0.00021388
161.00000000	 -0.00004674	  0.00057811	  0.00047012	 -0.00021712	  0.00079044	 -0.00108806	 -0.00009755	  0.00041263
162.00000000	  0.00045798	 -0.00073007	  0.00095873	  0.00023633	 -0.00079191	 -0.00017276	  0.00079651	 -0.00053258
163.00000000	  0.00013933	  0.00010846	  0.00022393	 -0.00001179	  0.00007686	 -0.00076133	  0.00023211	  0.00007306
164.00000000	 -0.00014947	 -0.00015123	  0.00027609	  0.00019642	 -0.00060119	 -0.00121006	 -0.00024823	 -0.00010340
165.00000000	  0.00051541	  0.00039901	  0.00080118	  0.00006448	 -0.00014961	 -0.00154415	  0.00086073	  0.00027016
166.00000000	  0.00014380	  0.00057186	  0.00016451	 -0.00003410	  0.00011448	 -0.00003776	  0.00022856	  0.00040270
167.00000000	  0.00004194	 -0.00048443	  0.00041158	  0.00000724	 -0.00004808	  0.00050092	  0.00008319	 -0.00034523
168.00000000	 -0.00017990	  0.00027551	  0.00103425	 -0.00003962	  0.00013516	  0.00001577	 -0.00031134	  0.00020003
169.00000000	 -0.00036699	 -0.00150256	  0.00118124	 -0.00003620	  0.00009323	  0.00072359	 -0.00058217	 -0.00105884
170.00000000	  0.00005701	  0.00037104	  0.00160496	  0.00031328	 -0.00109334	  0.00080386	  0.00008688	  0.00026221
171.00000000	 -0.00043685	 -0.00076290	  0.00139950	  0.00001475	 -0.00006137	  0.00034386	 -0.00072020	 -0.00053178
172.00000000	  0.00000262	  0.00058394	  0.00125037	  0.00008399	 -0.00026567	 -0.00043943	 -0.00000987	  0.00041446
173.00000000	 -0.00030127	 -0.00032827	  0.00095980	  0.00017060	 -0.00061663	  0.00102837	 -0.00050318	 -0.00022640
174.00000000	  0.00005924	  0.00035979	  0.00041262	 -0.00008227	  0.00027186	  0.00016091	  0.00009223	  0.00025400
175.00000000	  0.00019444	 -0.00026628	  0.00059608	 -0.00015845	  0.00048906	  0.00111468	  0.00033546	 -0.00019351
176.00000000	 -0.00021231	 -0.00036575	  0.00029682	  0.00013327	 -0.00038069	 -0.00169209	 -0.00035110	 -0.00025509
177.00000000	 -0.00008374	  0.00017494	  0.00019578	 -0.00021520	  0.00074062	 -0.00029077	 -0.00014551	  0.00012586
178.00000000	 -0.00026569	  0.00046775	  0.00192361	 -0.00001949	  0.00000311	  0.00173174	 -0.00045989	  0.00033739
179.00000000	 -0.00044206	 -0.00088203	  0.00089796	  0.00034548	 -0.00113958	 -0.00076884	 -0.00072948	 -0.00061775
180.00000000	  0.00048852	 -0.00054554	  0.00278366	  0.00026107	 -0.00090434	  0.00047268	  0.00084040	 -0.00039434
181.00000000	  0.00017601	 -0.00024340	  0.00047345	 -0.00009404	  0.00027817	  0.00116016	  0.00030306	 -0.00017581
182.00000000	 -0.00022462	  0.00014823	  0.00151578	 -0.00047892	  0.00167434	 -0.00136628	 -0.00038338	  0.00010943
183.00000000	  0.00043716	  0.00098885	  0.00042317	 -0.00019090	  0.00063676	  0.00019734	  0.00072239	  0.00069370
184.00000000	 -0.00000671	  0.00110433	  0.00037366	 -0.00006898	  0.00026037	 -0.00077273	 -0.00003168	  0.00078432
185.00000000	  0.00014094	 -0.00054436	  0.00006340	 -0.00007283	  0.00025197	 -0.00021366	  0.00024795	 -0.00038904
186.00000000	 -0.00004354	  0.00097867	  0.00001181	  0.00002898	 -0.00009971	  0.00005062	 -0.00009055	  0.00069584
187.00000000	  0.00055115	 -0.00044183	  0.00052548	 -0.00042346	  0.00141323	  0.00032027	  0.00093834	 -0.00032432
188.00000000	  0.00022627	  0.00116096	  0.00012669	  0.00026201	 -0.00086847	 -0.00055345	  0.00036043	  0.00082110
189.00000000	  0.00018794	 -0.00051184	  0.00118531	 -0.00030004	  0.00102293	 -0.00034559	  0.00032571	 -0.00036728
190.00000000	 -0.00026744	  0.00013146	  0.00033234	 -0.00033556	  0.00111296	  0.00060224	 -0.00045315	  0.00009842
191.00000000	 -0.00026369	  0.00149126	  0.00032466	  0.00018023	 -0.00058187	 -0.00074192	 -0.00047248	  0.00106508
192.00000000	  0.00017372	 -0.00108442	  0.00024106	  0.00008565	 -0.00029711	  0.00025507	  0.00031161	 -0.00077403
193.00000000	 -0.00036933	  0.00043200	  0.00057600	 -0.00030898	  0.00102200	  0.00064726	 -0.00062997	  0.00031367
194.00000000	  0.00041777	 -0.00041290	  0.00057982	 -0.00002774	  0.00007253	  0.00049420	  0.00071096	 -0.00030114
195.00000000	  0.00052061	 -0.00013063	  0.00073601	  0.00010595	 -0.00038391	  0.00059837	  0.00087923	 -0.00010223
196.00000000	 -0.00064856	 -0.00047829	  0.00019688	 -0.00021275	  0.00071482	  0.00026813	 -0.00108334	 -0.00032784
197.00000000	  0.00046081	  0.00149205	  0.00064322	 -0.00020265	  0.00067782	 -0.00016003	  0.00074744	  0.00105283
198.00000000	  0.00015184	 -0.00019672	  0.00047210	  0.00017048	 -0.00053304	 -0.00117506	  0.00025914	 -0.00014278
199.00000000	 -0.00031396	  0.00017547	  0.00055405	  0.00031036	 -0.00101737	 -0.00065617	 -0.00053168	  0.00013039
200.00000000	 -0.00013038	 -0.00020565	  0.00105882	 -0.00031963	  0.00111231	 -0.00098889	 -0.00021611	 -0.00014403
201.00000000	  0.00071750	  0.00027193	  0.00084837	  0.00002513	 -0.00007680	 -0.00055560	  0.00120265	  0.00018120
202.00000000	 -0.00000149	 -0.00061565	  0.00010684	 -0.00031746	  0.00104447	  0.00069628	  0.00000773	 -0.00043823
203.00000000	 -0.00017303	  0.00001912	  0.00020058	  0.00039316	 -0.00129257	 -0.00071451	 -0.00029126	  0.00001651
204.00000000	  0.00040414	  0.00013538	  0.00024696	 -0.00015476	  0.00054454	 -0.00094158	  0.00067761	  0.00009043
205.00000000	  0.00009312	  0.00047987	  0.00063250	  0.00007865	 -0.00026179	 -0.00015938	  0.00014973	  0.00034005
206.00000000	 -0.00044911	  0.00056721	  0.00157518	 -0.00046416	  0.00156748	 -0.00007537	 -0.00076260	  0.00041177
207.00000000	  0.00035284	 -0.00002017	  0.00060671	 -0.00047375	  0.00154168	  0.00119189	  0.00059194	 -0.00002057
208.00000000	 -0.00048047	  0.00107562	  0.00073909	  0.00035433	 -0.00118566	  0.00005381	 -0.00082531	  0.00077471
209.00000000	  0.00013457	 -0.00205502	  0.00074787	  0.00007441	 -0.00023481	 -0.00033536	  0.00026254	 -0.00146610
210.00000000	 -0.00065484	 -0.00013731	  0.00128610	  0.00038753	 -0.00129814	  0.00020083	 -0.00109768	 -0.00008847
211.00000000	  0.00035471	  0.00016776	  0.00066258	  0.00022711	 -0.00078702	  0.00059587	  0.00059411	  0.00011404
212.00000000	  0.00030491	 -0.00066211	  0.00057984	 -0.00008798	  0.00029399	 -0.00004935	  0.00052369	 -0.00047548
213.00000000	 -0.00054708	  0.00071970	  0.00050179	 -0.00000338	  0.00004834	 -0.00101908	 -0.00093091	  0.00051974
214.00000000	  0.00038480	 -0.00091777	  0.00038686	 -0.00016929	  0.00056127	  0.00012292	  0.00065939	 -0.00065870
215.00000000	  0.00018548	  0.00056150	  0.00082833	 -0.00039011	  0.00129892	  0.00024248	  0.00030389	  0.00039686
216.00000000	 -0.00054794	 -0.00077815	  0.00123208	 -0.00018907	  0.00066593	 -0.00072667	 -0.00090772	 -0.00054553
217.00000000	  0.00015073	  0.00133835	  0.00012650	 -0.00001711	  0.00005114	  0.00004000	  0.00023221	  0.00095144
218.00000000	  0.00050364	 -0.00019297	  0.00031154	  0.00034880	 -0.00117960	  0.00012100	  0.00084800	 -0.00014516
219.00000000	 -0.00017229	 -0.00025807	  0.00006524	 -0.00027399	  0.00093038	 -0.00024803	 -0.00028509	 -0.00018126
220.00000000	  0.00042759	  0.00037348	  0.00060195	  0.00037493	 -0.00128055	  0.00050568	  0.00071190	  0.00025968
221.00000000	 -0.00007454	 -0.00072401	  0.00034584	 -0.00036434	  0.00123520	 -0.00030089	 -0.00011425	 -0.00051455
222.00000000	 -0.00021770	  0.00071709	  0.00078498	 -0.00003503	  0.00014158	 -0.00068291	 -0.00037546	  0.00051429
223.00000000	  0.00001339	 -0.00066502	  0.00015179	  0.00000675	 -0.00004224	  0.00063154	  0.00003230	 -0.00047409
224.00000000	  0.00008850	  0.00193588	  0.00016303	  0.00008177	 -0.00027217	 -0.00029437	  0.00011838	  0.00137802
225.00000000	 -0.00042123	 -0.00116435	  0.00020849	  0.00018506	 -0.00058992	 -0.00065315	 -0.00068920	 -0.00082328
226.00000000	 -0.00012031	 -0.00099428	  0.00006589	  0.00013439	 -0.00044028	 -0.00023100	 -0.00018776	 -0.00070633
227.00000000	  0.00027820	 -0.00006526	  0.00028477	 -0.00014766	  0.00050019	 -0.00026720	  0.00046804	 -0.00005039
228.00000000	 -0.00001241	  0.00003298	  0.00001620	 -0.00019049	  0.00062600	  0.00040736	 -0.00002128	  0.00002367
229.00000000	  0.00016297	  0.00033494	  0.00017571	  0.00017837	 -0.00057605	 -0.00077312	  0.00026859	  0.00023639
230.00000000	  0.00009188	 -0.00057220	  0.00017409	 -0.00006658	  0.00019261	  0.00093694	  0.00016195	 -0.00040892
231.00000000	 -0.00032789	  0.00055850	  0.00046212	  0.00008858	 -0.00027611	 -0.00051869	 -0.00055841	  0.00040264
232.00000000	  0.00043710	  0.00022906	  0.00061627	  0.00002357	 -0.00010995	  0.00072873	  0.00073039	  0.00015676
233.00000000	 -0.00051929	 -0.00011371	  0.00006298	 -0.00033724	  0.00115740	 -0.00057930	 -0.00086942	 -0.00007375
234.00000000	  0.00008459	 -0.00105558	  0.00020309	  0.00009472	 -0.00033131	  0.00042281	  0.00015644	 -0.00075347
235.00000000	  0.00042240	  0.00182694	  0.00016048	  0.00016758	 -0.00059755	  0.00076189	  0.00068120	  0.00129482
236.00000000	 -0.00066748	 -0.00107396	  0.00031486	 -0.00017184	  0.00059274	 -0.00017138	 -0.00110287	 -0.00075426
237.00000000	 -0.00015538	  0.00012306	  0.00074122	 -0.00000020	  0.00003331	 -0.00090839	 -0.00026246	  0.00009013
238.00000000	  0.00084870	  0.00084371	  0.00115810	  0.00000028	 -0.00004782	  0.00096674	  0.00140968	  0.00058852
239.00000000	 -0.00087658	 -0.00049180	  0.00019896	 -0.00014097	  0.00050004	 -0.00047506	 -0.00146187	 -0.00033708
240.00000000	  0.00054426	 -0.00064902	  0.00012666	  0.00026144	 -0.00087064	 -0.00036082	  0.00092241	 -0.00047048
241.00000000	 -0.00035366	  0.00000596	  0.00000101	  0.00001706	 -0.00004342	 -0.00028321	 -0.00059350	  0.00000926
242.00000000	 -0.00011531	  0.00036249	  0.00021513	  0.00007963	 -0.00025354	 -0.00039474	 -0.00019860	  0.00025979
243.00000000	  0.00045095	 -0.00012517	  0.00049792	 -0.00024876	  0.00078971	  0.00120077	  0.00075829	 -0.00009589
244.00000000	 -0.00029066	  0.00072432	  0.00034959	  0.00019171	 -0.00065579	  0.00046517	 -0.00049846	  0.00052088
245.00000000	 -0.00000441	 -0.00135022	  0.00022341	  0.00009021	 -0.00027435	 -0.00080175	  0.00001492	 -0.00096164
246.00000000	 -0.00025751	  0.00047956	  0.00061741	 -0.00018548	  0.00064128	 -0.00050336	 -0.00043902	  0.00034546
247.00000000	  0.00086274	 -0.00016110	  0.00067096	  0.00017949	 -0.00062234	  0.00022923	  0.00145021	 -0.00012667
248.00000000	 -0.00068605	  0.00010736	  0.00093715	 -0.00018022	  0.00062977	 -0.00049687	 -0.00115273	  0.00008679
249.00000000	  0.00068502	 -0.00025413	  0.00041985	 -0.00015275	  0.00049658	  0.00014319	  0.00115219	 -0.00019157
250.00000000	 -0.00023929	  0.00114244	  0.00072810	  0.00002689	 -0.00006707	 -0.00064342	 -0.00041767	  0.00081779
251.00000000	  0.00078603	 -0.00006286	  0.00007683	 -0.00032986	  0.00105179	  0.00113859	  0.00131758	 -0.00005773
252.00000000	 -0.00075011	  0.00009381	  0.00056440	  0.00034991	 -0.00112335	 -0.00102036	 -0.00125806	  0.00007866
253.00000000	 -0.00062082	 -0.00007047	  0.00084405	 -0.00057094	  0.00193464	 -0.00042692	 -0.00103831	 -0.00004031
254.00000000	  0.00068506	 -0.00000861	  0.00043020	  0.00029496	 -0.00102263	  0.00078809	  0.00114630	 -0.00001710
255.00000000	  0.00019538	  0.00120966	  0.00005964	  0.00020626	 -0.00067695	 -0.00058591	  0.00030748	  0.00085937
256.00000000	 -0.00037307	 -0.00072793	  0.00019017	 -0.00004747	  0.00012734	  0.00112749	 -0.00061394	 -0.00051257
257.00000000	  0.00007595	  0.00023746	  0.00027173	 -0.00026313	  0.00085949	  0.00054731	  0.00012311	  0.00016799
258.00000000	  0.00008301	  0.00006590	  0.00005207	  0.00006741	 -0.00022991	  0.00008409	  0.00013778	  0.00004551
259.00000000	 -0.00054493	 -0.00111631	  0.00012509	  0.00034887	 -0.00111380	 -0.00124475	 -0.00089300	 -0.00078730
260.00000000	  0.00045607	 -0.00103841	  0.00138747	  0.00067859	 -0.00232566	  0.00136658	  0.00078325	 -0.00074655
261.00000000	 -0.00047430	 -0.00022039	  0.00099146	  0.00062794	 -0.00210113	 -0.00011287	 -0.00079531	 -0.00014975
262.00000000	  0.00009481	 -0.00184639	  0.00105549	  0.00009631	 -0.00031532	 -0.00042086	  0.00018988	 -0.00131327
263.00000000	  0.00047725	 -0.00044937	  0.00015996	  0.00013785	 -0.00048967	  0.00050137	  0.00081202	 -0.00032630
264.00000000	 -0.00023252	  0.00193265	  0.00133737	 -0.00061683	  0.00205811	  0.00081061	 -0.00041874	  0.00137798
265.00000000	  0.00016575	  0.00132655	  0.00244339	 -0.00057211	  0.00196050	 -0.00104715	  0.00025809	  0.00094084
266.00000000	  0.00048240	  0.00129046	  0.00182953	 -0.00043380	  0.00147607	 -0.00083841	  0.00078787	  0.00090992
267.00000000	  0.00035783	 -0.00074858	  0.00010714	  0.00018823	 -0.00061153	 -0.00063950	  0.00061368	 -0.00053971
268.00000000	 -0.00056452	 -0.00098969	  0.00066736	  0.00024675	 -0.00074258	 -0.00203623	 -0.00093070	 -0.00069644
269.00000000	  0.00028776	 -0.00068135	  0.00026805	  0.00006733	 -0.00025848	  0.00078921	  0.00049335	 -0.00048961
270.00000000	  0.00010364	  0.00070162	  0.00034154	  0.00001617	 -0.00006618	  0.00026437	  0.00016328	  0.00049784
271.00000000	  0.00070385	  0.00028471	  0.00079349	  0.00012609	 -0.00043557	 -0.00009204	  0.00117795	  0.00019216
272.00000000	 -0.00027454	 -0.00017440	  0.00008782	  0.00018151	 -0.00059296	 -0.00030674	 -0.00045897	 -0.00012003
273.00000000	 -0.00050794	 -0.00119523	  0.00067962	  0.00027882	 -0.00093396	  0.00017521	 -0.00083670	 -0.00084306
274.00000000	  0.00015686	  0.00081352	  0.00086325	  0.00009801	 -0.00037975	  0.00136780	  0.00025198	  0.00057605
275.00000000	 -0.00036930	 -0.00028603	  0.00050624	 -0.00006191	  0.00016854	  0.00130518	 -0.00061774	 -0.00019697
276.00000000	 -0.00035770	 -0.00027541	  0.00068767	  0.00033791	 -0.00112222	 -0.00028122	 -0.00059827	 -0.00019003
277.00000000	 -0.00035328	 -0.00054275	  0.00013637	  0.00016100	 -0.00052734	 -0.00031138	 -0.00058758	 -0.00037987
278.00000000	 -0.00029914	 -0.00063013	  0.00012892	  0.00008559	 -0.00029345	  0.00021503	 -0.00049515	 -0.00044271
279.00000000	  0.00056800	  0.00059932	  0.00061548	  0.00024887	 -0.00086777	  0.00055689	  0.00095033	  0.00041630
280.00000000	 -0.00024415	 -0.00082985	  0.00035503	  0.00003138	 -0.00009167	 -0.00034217	 -0.00039941	 -0.00058500
281.00000000	  0.00023736	 -0.00149959	  0.00003929	  0.00027145	 -0.00094320	  0.00047166	  0.00042667	 -0.00106835
282.00000000	 -0.00035552	  0.00074636	  0.00086345	 -0.00016758	  0.00060250	 -0.00076493	 -0.00061462	  0.00053586
283.00000000	  0.00009747	  0.00069475	  0.00063322	 -0.00016487	  0.00054385	  0.00036895	  0.00015350	  0.00049137
284.00000000	 -0.00008076	  0.00000218	  0.00052512	  0.00010628	 -0.00035453	 -0.00009245	 -0.00013668	  0.00000307
285.00000000	  0.00016307	 -0.00056081	  0.00020757	 -0.00001055	  0.00003461	 -0.00006995	  0.00028646	 -0.00040104
286.00000000	 -0.00031565	  0.00014742	  0.00018191	  0.00018725	 -0.00061253	 -0.00042674	 -0.00053708	  0.00011024
287.00000000	  0.00028402	 -0.00042939	  0.00006665	  0.00006076	 -0.00020079	 -0.00027002	  0.00048870	 -0.00030959
288.00000000	 -0.00023036	 -0.00002647	  0.00015204	  0.00038595	 -0.00133227	  0.00076738	 -0.00039021	 -0.00001456
289.00000000	  0.00028379	 -0.00026788	  0.00169940	 -0.00008330	  0.00029205	 -0.00040908	  0.00048690	 -0.00019414
290.00000000	 -0.00053241	  0.00092298	  0.00036418	 -0.00019238	  0.00067576	 -0.00042388	 -0.00091755	  0.00066304
291.00000000	  0.00059919	 -0.00099146	  0.00016726	 -0.00009497	  0.00031331	 -0.00010202	  0.00103119	 -0.00071243
292.00000000	 -0.00020289	  0.00060830	  0.00041336	 -0.00002767	  0.00009329	  0.00013911	 -0.00035291	  0.00043487
293.00000000	  0.00018230	  0.00029323	  0.00052684	  0.00004084	 -0.00011714	 -0.00065286	  0.00030430	  0.00020515
294.00000000	 -0.00014203	 -0.00010858	  0.00066252	  0.00003661	 -0.00013148	  0.00027235	 -0.00023896	 -0.00007493
295.00000000	  0.00044486	 -0.00025522	  0.00120262	  0.00031281	 -0.00107114	  0.00011689	  0.00075863	 -0.00018693
296.00000000	 -0.00033071	 -0.00091933	  0.00057520	 -0.00012804	  0.00044129	 -0.00015688	 -0.00054847	 -0.00064683
297.00000000	  0.00043653	  0.00017797	  0.00157555	  0.00017189	 -0.00055749	 -0.00091011	  0.00073839	  0.00011934
298.00000000	  0.00033442	  0.00044615	  0.00093929	  0.00011649	 -0.00036852	 -0.00090184	  0.00056166	  0.00031133
299.00000000	  0.00021773	  0.00016364	  0.00198272	 -0.00005479	  0.00021153	 -0.00081693	  0.00036769	  0.00011251
300.00000000	  0.00020340	 -0.00089242	  0.00217160	 -0.00012101	  0.00041621	 -0.00035778	  0.00035680	 -0.00063620
301.00000000	 -0.00019000	  0.00067100	  0.00242557	  0.00015386	 -0.00048927	 -0.00063646	 -0.00033209	  0.00047931
302.00000000	  0.00066693	 -0.00076326	  0.00211418	  0.00005570	 -0.00020938	  0.00004028	  0.00114457	 -0.00055504
303.00000000	 -0.00031832	  0.00052486	  0.00180673	 -0.00012906	  0.00042770	  0.00041425	 -0.00054998	  0.00037952
304.00000000	 -0.00020318	 -0.00021310	  0.00050629	  0.00004301	 -0.00020000	  0.00120152	 -0.00034027	 -0.00014606
305.00000000	 -0.00029963	 -0.00052309	  0.00158184	  0.00031127	 -0.00108851	  0.00077398	 -0.00049565	 -0.00036388
306.00000000	 -0.00026852	 -0.00058002	  0.00010893	  0.00015209	 -0.00048168	 -0.00068771	 -0.00044259	 -0.00040481
307.00000000	  0.00008846	  0.00084694	  0.00093172	  0.00023187	 -0.00082981	  0.00094604	  0.00013054	  0.00059780
308.00000000	 -0.00027200	 -0.00182941	  0.00000342	  0.00014928	 -0.00048219	 -0.00067637	 -0.00042014	 -0.00128902
309.00000000	  0.00000306	  0.00095121	  0.00032693	 -0.00010453	  0.00034947	  0.00024423	 -0.00001602	  0.00067332
310.00000000	  0.00008543	 -0.00016848	  0.00015576	 -0.00003990	  0.00012274	  0.00022440	  0.00014950	 -0.00012129
311.00000000	 -0.00030300	 -0.00128281	  0.00042709	  0.00017318	 -0.00057775	 -0.00031099	 -0.00048659	 -0.00090099
312.00000000	  0.00020205	  0.00053779	  0.00121111	  0.00018683	 -0.00065149	  0.00033238	  0.00033158	  0.00037616
313.00000000	  0.00004785	 -0.00048050	  0.00079053	  0.00019001	 -0.00064034	 -0.00025200	  0.00009292	 -0.00034090
314.00000000	 -0.00026750	 -0.00100396	  0.00023133	 -0.00003163	  0.00006746	  0.00080747	 -0.00043543	 -0.00070383
315.00000000	  0.00011382	 -0.00023903	  0.00017497	  0.00026113	 -0.00092413	  0.00062237	  0.00020003	 -0.00017182
316.00000000	 -0.00041364	  0.00012587	  0.00054422	  0.00022198	 -0.00075292	  0.00004669	 -0.00071093	  0.00009871
317.00000000	  0.00016157	 -0.00084743	  0.00082242	 -0.00022811	  0.00074352	  0.00055965	  0.00029726	 -0.00060276
318.00000000	 -0.00032837	  0.00066431	  0.00016488	 -0.00010529	  0.00032240	  0.00099893	 -0.00057757	  0.00047808
319.00000000	 -0.00024982	  0.00014010	  0.00035426	  0.00017821	 -0.00062044	  0.00033319	 -0.00043084	  0.00010575
320.00000000	  0.00003158	  0.00024479	  0.00012804	 -0.00028584	  0.00097386	  0.00008539	  0.00004753	  0.00017225
321.00000000	  0.00044091	 -0.00004902	  0.00002856	  0.00007611	 -0.00026909	  0.00004658	  0.00075486	 -0.00004655
322.00000000	  0.00003018	 -0.00042139	  0.00040608	  0.00009155	 -0.00028251	 -0.00067870	  0.00006282	 -0.00029880
323.00000000	  0.00013113	  0.00027989	  0.00108187	  0.00019014	 -0.00059257	 -0.00112728	  0.00021721	  0.00019445
324.00000000	  0.00053912	 -0.00026765	  0.00103719	  0.00002939	 -0.00007990	 -0.00066007	  0.00092924	 -0.00020317
325.00000000	 -0.00023684	 -0.00122191	  0.00071337	  0.00025415	 -0.00081154	 -0.00130593	 -0.00037536	 -0.00085767
326.00000000	  0.00049838	 -0.00011723	  0.00058427	  0.00019386	 -0.00068155	  0.00014142	  0.00085713	 -0.00009422
327.00000000	 -0.00016985	 -0.00116414	  0.00026182	  0.00042049	 -0.00145624	  0.00013375	 -0.00026420	 -0.00081773
328.00000000	 -0.00029625	  0.00005116	  0.00099036	  0.00002475	 -0.00009142	  0.00027341	 -0.00051039	  0.00004263
329.00000000	 -0.00012851	 -0.00021900	  0.00135517	 -0.00015175	  0.00052006	  0.00001323	 -0.00021561	 -0.00015188
330.00000000	 -0.00015353	 -0.00023849	  0.00011112	 -0.00013458	  0.00045086	  0.00023588	 -0.00025850	 -0.00016498
331.00000000	 -0.00025999	  0.00053373	  0.00085825	 -0.00019579	  0.00068488	 -0.00007452	 -0.00045732	  0.00038279
332.00000000	  0.00022236	  0.00098976	  0.00036919	 -0.00008086	  0.00028527	 -0.00003861	  0.00035925	  0.00069382
333.00000000	  0.00011591	 -0.00087840	  0.00075260	  0.00001598	 -0.00008330	  0.00036749	  0.00021918	 -0.00062290
334.00000000	  0.00006609	  0.00040501	  0.00032443	 -0.00000401	 -0.00000878	  0.00055737	  0.00010405	  0.00028449
335.00000000	  0.00002807	 -0.00020420	  0.00008828	  0.00014787	 -0.00048803	 -0.00045207	  0.00005288	 -0.00014482
336.00000000	 -0.00008435	 -0.00034945	  0.00055911	  0.00017094	 -0.00060098	  0.00028144	 -0.00013674	 -0.00024480
337.00000000	 -0.00013395	 -0.00008613	  0.00013455	 -0.00009260	  0.00031641	  0.00005249	 -0.00022803	 -0.00005773
338.00000000	  0.00012202	  0.00060898	  0.00079341	 -0.00002728	  0.00012745	 -0.00063066	  0.00019590	  0.00042707
339.00000000	 -0.00009077	 -0.00009378	  0.00008496	 -0.00033368	  0.00110985	  0.00072715	 -0.00015353	 -0.00006406
340.00000000	  0.00018194	 -0.00023858	  0.00026648	  0.00007400	 -0.00023251	 -0.00056315	  0.00031738	 -0.00017275
341.00000000	  0.00005298	  0.00053435	  0.00025810	  0.00000110	  0.00001228	 -0.00023987	  0.00007857	  0.00037619
342.00000000	  0.00017786	 -0.00067158	  0.00015749	  0.00031629	 -0.00108242	 -0.00023631	  0.00032036	 -0.00047824
343.00000000	  0.00021092	 -0.00095330	  0.00010714	  0.00015415	 -0.00050799	 -0.00079251	  0.00038368	 -0.00067730
344.00000000	  0.00006482	  0.00104090	  0.00043467	  0.00008661	 -0.00026550	 -0.00046691	  0.00008875	  0.00073308
345.00000000	 -0.00019117	 -0.00029462	  0.00078033	 -0.00005516	  0.00018849	  0.00002799	 -0.00032232	 -0.00020423
346.00000000	  0.00034440	  0.00039809	  0.00024239	 -0.00036916	  0.00125129	  0.00027743	  0.00058342	  0.00027395
347.00000000	 -0.00011590	  0.00034977	  0.00107711	 -0.00030220	  0.00103370	  0.00016045	 -0.00020537	  0.00024961
348.00000000	 -0.00038688	  0.00086242	  0.00092691	  0.00016223	 -0.00054941	  0.00024050	 -0.00068181	  0.00061706
349.00000000	 -0.00013686	 -0.00115123	  0.00121810	  0.00012180	 -0.00048432	  0.00130685	 -0.00020942	 -0.00081007
350.00000000	 -0.00030823	 -0.00091087	  0.00151968	  0.00015067	 -0.00058180	  0.00135980	 -0.00050776	 -0.00063636
351.00000000	 -0.00055981	  0.00013928	  0.00067477	  0.00046594	 -0.00162721	  0.00086898	 -0.00096521	  0.00011124
352.00000000	 -0.00023968	  0.00004309	  0.00096182	  0.00004524	 -0.00024251	  0.00195083	 -0.00041347	  0.00003647
353.00000000	 -0.00024036	 -0.00122836	  0.00157058	  0.00007243	 -0.00034150	  0.00167674	 -0.00038041	 -0.00085991
354.00000000	 -0.00028786	 -0.00076255	  0.00127790	  0.00013377	 -0.00050925	  0.00086688	 -0.00047433	 -0.00052995
355.00000000	 -0.00000155	 -0.00016919	  0.00010537	  0.00027002	 -0.00089668	 -0.00073191	  0.00000198	 -0.00011919
356.00000000	 -0.00025683	  0.00033448	  0.00006702	 -0.00014943	  0.00052345	 -0.00003272	 -0.00045182	  0.00024249
357.00000000	  0.00034503	  0.00002988	  0.00030591	  0.00000606	 -0.00001560	 -0.00017854	  0.00059413	  0.00001222
358.00000000	  0.00000520	 -0.00046328	  0.00045010	  0.00006286	 -0.00021077	 -0.00026304	  0.00002078	 -0.00032658
359.00000000	 -0.00011730	 -0.00044368	  0.00088079	  0.00005589	 -0.00015515	 -0.00090110	 -0.00019116	 -0.00030958
360.00000000	  0.00045527	  0.00067210	  0.00032874	  0.00023896	 -0.00083281	  0.00029018	  0.00076876	  0.00046199
361.00000000	 -0.00031896	 -0.00106915	  0.00000267	  0.00015736	 -0.00054944	 -0.00013082	 -0.00052402	 -0.00074476
362.00000000	  0.00008745	  0.00007924	  0.00092493	  0.00007493	 -0.00025861	  0.00000267	  0.00014915	  0.00005372
363.00000000	 -0.00021144	 -0.00096063	  0.00114765	  0.00019960	 -0.00069859	 -0.00009796	 -0.00034180	 -0.00067129
364.00000000	  0.00005024	  0.00032989	  0.00120329	  0.00031584	 -0.00110886	  0.00050540	  0.00007923	  0.00023091
365.00000000	 -0.00028409	  0.00006432	  0.00001869	 -0.00001055	  0.00002276	  0.00040422	 -0.00049395	  0.00005181
366.00000000	  0.00008230	  0.00014330	  0.00068049	 -0.00023670	  0.00081586	  0.00011895	  0.00013934	  0.00009875
367.00000000	  0.00003676	  0.00021004	  0.00089660	 -0.00030776	  0.00106440	  0.00006437	  0.00005869	  0.00014685
368.00000000	  0.00025021	  0.00091722	  0.00001411	 -0.00002965	  0.00012168	 -0.00018563	  0.00040953	  0.00063943
369.00000000	 -0.00019378	 -0.00096980	  0.00063967	  0.00024976	 -0.00087010	 -0.00012127	 -0.00031071	 -0.00067792
370.00000000	 -0.00027269	 -0.00022644	  0.00151071	  0.00021704	 -0.00075530	  0.00008324	 -0.00046658	 -0.00015342
371.00000000	  0.00016506	  0.00013613	  0.00134495	  0.00007302	 -0.00030168	  0.00118740	  0.00028287	  0.00009204
372.00000000	 -0.00034262	 -0.00004780	  0.00018352	 -0.00007366	  0.00024493	  0.00028323	 -0.00059274	 -0.00002560
373.00000000	 -0.00027677	 -0.00066290	  0.00021264	 -0.00007820	  0.00024046	  0.00049375	 -0.00046386	 -0.00045952
374.00000000	 -0.00000176	  0.00041265	  0.00009693	 -0.00001960	  0.00005292	  0.00049240	 -0.00001305	  0.00029027
375.00000000	 -0.00001524	 -0.00032265	  0.00007719	  0.00027540	 -0.00093119	 -0.00062353	 -0.00001836	 -0.00022650
376.00000000	 -0.00011126	  0.00018659	  0.00054128	  0.00016127	 -0.00055597	  0.00001556	 -0.00019757	  0.00013367
377.00000000	 -0.00002896	 -0.00111738	  0.00013368	  0.00013839	 -0.00049229	 -0.00015910	 -0.00002420	 -0.00078436
378.00000000	 -0.00010274	 -0.00011927	  0.00027724	 -0.00001348	  0.00003837	  0.00016400	 -0.00017572	 -0.00008146
379.00000000	  0.00008404	 -0.00032257	  0.00001666	 -0.00006428	  0.00020755	  0.00022209	  0.00015331	 -0.00022856
380.00000000	 -0.00017339	  0.00001808	  0.00005441	  0.00007027	 -0.00024052	 -0.00005157	 -0.00030156	  0.00001673
381.00000000	  0.00007429	 -0.00007469	  0.00056610	  0.00009716	 -0.00033721	 -0.00004165	  0.00013084	 -0.00005411
382.00000000	  0.00029050	 -0.00071964	  0.00036936	  0.00016110	 -0.00056034	 -0.00035737	  0.00052148	 -0.00051149
383.00000000	 -0.00011161	  0.00019293	  0.00056612	  0.00016713	 -0.00057235	 -0.00010888	 -0.00019844	  0.00013769
384.00000000	 -0.00012921	 -0.00017609	  0.00032308	 -0.00014027	  0.00046850	  0.00042931	 -0.00022116	 -0.00012089
385.00000000	 -0.00008080	  0.00042922	  0.00047484	 -0.00026402	  0.00087344	  0.00127350	 -0.00014941	  0.00030336
386.00000000	 -0.00017903	  0.00094362	  0.00032096	 -0.00029880	  0.00104407	  0.00023864	 -0.00033315	  0.00066750
387.00000000	 -0.00050592	  0.00036815	  0.00008888	 -0.00012864	  0.00042944	  0.00052849	 -0.00088656	  0.00027183
388.00000000	 -0.00000718	 -0.00017973	  0.00030370	 -0.00017307	  0.00054085	  0.00124310	 -0.00000780	 -0.00012620
389.00000000	 -0.00009565	  0.00050478	  0.00069291	  0.00021682	 -0.00073534	 -0.00015848	 -0.00017996	  0.00035746
390.00000000	  0.00024697	 -0.00015150	  0.00095233	  0.00011511	 -0.00038364	 -0.00042221	  0.00043262	 -0.00011245
391.00000000	  0.00015030	  0.00040924	  0.00120730	  0.00027027	 -0.00094784	  0.00040438	  0.00025052	  0.00028401
392.00000000	  0.00000768	 -0.00049947	  0.00109036	  0.00017432	 -0.00060287	 -0.00027213	  0.00002586	 -0.00035091
393.00000000	 -0.00007841	 -0.00024530	  0.00130171	  0.00023969	 -0.00086508	  0.00072507	 -0.00013070	 -0.00017048
394.00000000	 -0.00000424	 -0.00074728	  0.00057295	  0.00014987	 -0.00052965	 -0.00013498	  0.00000981	 -0.00052420
395.00000000	 -0.00012538	  0.00057249	  0.00010279	 -0.00000134	  0.00002256	 -0.00020836	 -0.00023095	  0.00040430
396.00000000	  0.00006205	 -0.00031670	  0.00015093	 -0.00003650	  0.00011453	  0.00018664	  0.00011499	 -0.00022351
397.00000000	  0.00014655	  0.00054630	  0.00015858	 -0.00015038	  0.00053272	 -0.00000255	  0.00024352	  0.00038008
398.00000000	 -0.00001978	  0.00012565	  0.00005362	 -0.00001095	  0.00003731	  0.00007680	 -0.00003718	  0.00008862
399.00000000	 -0.00014449	 -0.00048094	  0.00004068	 -0.00003927	  0.00012460	  0.00010674	 -0.00024096	 -0.00033432
400.00000000	 -0.00008687	  0.00032202	  0.00020427	 -0.00003672	  0.00013266	  0.00001567	 -0.00015832	  0.00022797
401.00000000	  0.00002755	  0.00005534	  0.00005094	  0.00006591	 -0.00022685	 -0.00003959	  0.00004672	  0.00003822
402.00000000	  0.00006007	  0.00024237	  0.00001080	  0.00004447	 -0.00015371	  0.00007431	  0.00009920	  0.00016874
403.00000000	  0.00024012	 -0.00021204	  0.00009960	 -0.00006403	  0.00021334	  0.00013862	  0.00042289	 -0.00015420
404.00000000	 -0.00014410	  0.00014180	  0.00022253	 -0.00015299	  0.00053631	 -0.00003487	 -0.00025397	  0.00010283
405.00000000	 -0.00006287	  0.00031828	  0.00035464	  0.00003710	 -0.00009571	 -0.00072065	 -0.00011653	  0.00022482
406.00000000	 -0.00006012	 -0.00024123	  0.00000589	 -0.00005245	  0.00015333	  0.00064813	 -0.00009933	 -0.00016797
407.00000000	  0.00010240	  0.00005293	  0.00010548	 -0.00004295	  0.00015237	 -0.00006075	  0.00017690	  0.00003484
408.00000000	 -0.00010458	 -0.00011655	  0.00000717	  0.00005127	 -0.00017997	 -0.00000028	 -0.00017926	 -0.00007945
409.00000000	  0.00009228	  0.00042349	  0.00015468	 -0.00002126	  0.00008539	 -0.00012207	  0.00015094	  0.00029522
410.00000000	  0.00012582	  0.00004997	  0.00015574	 -0.00007497	  0.00025830	  0.00007138	  0.00021770	  0.00003218
411.00000000	 -0.00019099	  0.00020959	  0.00021366	 -0.00009180	  0.00032496	 -0.00006106	 -0.00033680	  0.00015163
412.00000000	  0.00008305	 -0.00037729	  0.00001243	 -0.00017774	  0.00060393	  0.00018014	  0.00015298	 -0.00026698
413.00000000	  0.00007919	  0.00067227	  0.00010283	 -0.00005244	  0.00017670	  0.00038495	  0.00012182	  0.00047045
414.00000000	  0.00004224	  0.00043412	  0.00047295	 -0.00023039	  0.00080556	  0.00000185	  0.00006295	  0.00030407
415.00000000	 -0.00005736	  0.00044018	  0.00057794	 -0.00010326	  0.00037913	 -0.00035476	 -0.00011011	  0.00031094
416.00000000	 -0.00027855	 -0.00002822	  0.00057875	 -0.00009900	  0.00033270	  0.00023142	 -0.00048196	 -0.00001259
417.00000000	  0.00019658	  0.00047634	  0.00015515	 -0.00018103	  0.00062610	  0.00015946	  0.00032823	  0.00032996
418.00000000	  0.00009930	 -0.00001310	  0.00000197	  0.00002317	 -0.00009218	  0.00026908	  0.00017222	 -0.00001185
419.00000000	 -0.00006086	  0.00031746	  0.00026318	 -0.00006112	  0.00023753	 -0.00049893	 -0.00011370	  0.00022498
420.00000000	 -0.00010528	 -0.00011087	  0.00000612	  0.00005835	 -0.00020052	 -0.00006098	 -0.00017933	 -0.00007529
421.00000000	  0.00013390	 -0.00032584	  0.00010771	 -0.00001000	  0.00003563	 -0.00013325	  0.00024016	 -0.00023272
422.00000000	 -0.00013724	  0.00026506	  0.00000586	 -0.00008405	  0.00028372	  0.00024758	 -0.00024429	  0.00019011
423.00000000	  0.00001437	 -0.00018744	  0.00037169	 -0.00007166	  0.00024552	 -0.00000896	  0.00002972	 -0.00013231
424.00000000	 -0.00007767	 -0.00005052	  0.00006230	 -0.00010578	  0.00037508	 -0.00023249	 -0.00013296	 -0.00003353
425.00000000	 -0.00009744	  0.00007378	  0.00021593	 -0.00008891	  0.00027845	  0.00066673	 -0.00017032	  0.00005465
426.00000000	  0.00010683	  0.00017368	  0.00042061	 -0.00011027	  0.00040366	 -0.00045709	  0.00017979	  0.00011938
427.00000000	 -0.00011299	  0.00026026	  0.00016366	 -0.00005498	  0.00017985	  0.00029390	 -0.00020214	  0.00018649
428.00000000	  0.00004698	 -0.00006235	  0.00000451	 -0.00018471	  0.00061451	  0.00047339	  0.00008281	 -0.00004528
429.00000000	 -0.00002605	  0.00000321	  0.00026445	 -0.00004993	  0.00016916	  0.00006345	 -0.00004503	  0.00000302
430.00000000	  0.00015966	  0.00066035	  0.00016599	 -0.00000144	  0.00002261	 -0.00020194	  0.00025607	  0.00046089
431.00000000	 -0.00009145	 -0.00029929	  0.00026236	  0.00004738	 -0.00016282	 -0.00009063	 -0.00014923	 -0.00020830
432.00000000	 -0.00002959	 -0.00012062	  0.00034995	 -0.00004693	  0.00014077	  0.00041880	 -0.00004755	 -0.00008416
433.00000000	  0.00010365	  0.00004915	  0.00021570	  0.00003310	 -0.00013119	  0.00037961	  0.00017733	  0.00003160
434.00000000	 -0.00017758	 -0.00003772	  0.00005874	 -0.00007270	  0.00025160	 -0.00003380	 -0.00030515	 -0.00002135
435.00000000	 -0.00002559	  0.00000320	  0.00016154	 -0.00004390	  0.00015888	 -0.00016195	 -0.00004422	  0.00000301
436.00000000	  0.00036738	  0.00081686	  0.00003618	  0.00002848	 -0.00010556	  0.00035908	  0.00060944	  0.00056482
437.00000000	 -0.00016519	 -0.00078126	  0.00002670	 -0.00011167	  0.00038736	 -0.00026527	 -0.00026131	 -0.00054593
438.00000000	  0.00012214	 -0.00007633	  0.00016887	  0.00006765	 -0.00024046	  0.00013615	  0.00021277	 -0.00005741
439.00000000	 -0.00041171	 -0.00019600	  0.00010750	  0.00006149	 -0.00019097	 -0.00050415	 -0.00070400	 -0.00012628
440.00000000	  0.00008112	  0.00011196	  0.00005424	  0.00003653	 -0.00013013	  0.00012454	  0.00013666	  0.00007657
441.00000000	  0.00000353	  0.00006057	  0.00010830	  0.00005984	 -0.00019378	 -0.00025115	  0.00000433	  0.00004259
442.00000000	  0.00009659	 -0.00007302	  0.00000356	 -0.00006071	  0.00019476	  0.00029180	  0.00016867	 -0.00005426
443.00000000	 -0.00003152	  0.00037677	  0.00009840	 -0.00004830	  0.00017634	 -0.00010958	 -0.00006523	  0.00026648
444.00000000	 -0.00004077	 -0.00030561	  0.00005595	  0.00004252	 -0.00015587	  0.00011653	 -0.00006150	 -0.00021422
445.00000000	 -0.00015300	 -0.00004189	  0.00010293	  0.00000408	 -0.00001435	 -0.00000847	 -0.00026263	 -0.00002505
446.00000000	  0.00009283	  0.00035895	  0.00015407	 -0.00002512	  0.00011683	 -0.00055043	  0.00014963	  0.00025036
447.00000000	  0.00020293	  0.00003782	  0.00010646	 -0.00005992	  0.00017909	  0.00059681	  0.00034877	  0.00002073
448.00000000	 -0.00026547	 -0.00077351	  0.00007328	  0.00003451	 -0.00013753	  0.00017255	 -0.00043502	 -0.00053739
449.00000000	  0.00019406	  0.00084032	  0.00012780	  0.00010143	 -0.00032593	 -0.00027090	  0.00030964	  0.00058667
450.00000000	  0.00016844	 -0.00014209	  0.00005327	 -0.00007080	  0.00023975	  0.00004890	  0.00029464	 -0.00010504
451.00000000	 -0.00012344	  0.00007632	  0.00046918	 -0.00001857	  0.00005763	  0.00015453	 -0.00021504	  0.00005753
452.00000000	  0.00028004	  0.00107940	  0.00035522	 -0.00020655	  0.00071007	  0.00027944	  0.00045066	  0.00075240
453.00000000	  0.00020473	  0.00009628	  0.00031919	 -0.00009673	  0.00033284	  0.00001172	  0.00034963	  0.00006151
454.00000000	 -0.00008281	  0.00081649	  0.00029267	 -0.00040652	  0.00142086	 -0.00028581	 -0.00016756	  0.00057877
455.00000000	 -0.00002220	  0.00006612	  0.00015022	 -0.00005353	  0.00017128	  0.00026753	 -0.00004017	  0.00004738
456.00000000	 -0.00002997	  0.00037355	  0.00010991	  0.00002547	 -0.00008889	  0.00010553	 -0.00006325	  0.00026469
457.00000000	  0.00013178	  0.00010587	  0.00016255	  0.00004911	 -0.00016622	 -0.00003320	  0.00022308	  0.00007064
