frame	ulx	uly	urx	ury	lrx	lry	llx	lly
frame00001.jpg	372.00	430.00	421.00	427.00	424.00	481.00	372.00	482.00
frame00002.jpg	371.87	429.85	421.01	426.95	423.94	480.98	371.95	482.11
frame00003.jpg	371.87	429.84	421.02	426.94	423.93	480.98	371.95	482.10
frame00004.jpg	371.85	429.81	421.04	426.93	423.92	480.98	371.95	482.11
frame00005.jpg	371.85	429.81	421.04	426.95	423.92	480.97	371.94	482.11
frame00006.jpg	371.85	429.82	421.03	426.95	423.93	480.97	371.94	482.12
frame00007.jpg	371.84	429.81	421.03	426.95	423.92	480.98	371.95	482.10
frame00008.jpg	371.85	429.83	421.02	426.95	423.94	480.98	371.95	482.11
frame00009.jpg	371.85	429.83	421.03	426.92	423.92	480.97	371.96	482.10
frame00010.jpg	371.88	429.83	421.01	426.97	423.94	480.98	371.93	482.11
frame00011.jpg	371.87	429.84	421.03	426.95	423.94	480.98	371.94	482.09
frame00012.jpg	371.83	429.82	421.03	426.92	423.93	480.97	371.96	482.10
frame00013.jpg	371.88	429.83	421.03	426.96	423.93	480.99	371.94	482.11
frame00014.jpg	371.84	429.82	421.02	426.95	423.92	480.97	371.95	482.11
frame00015.jpg	371.84	429.83	421.05	426.92	423.92	480.96	371.97	482.09
frame00016.jpg	371.86	429.85	421.04	426.93	423.92	480.97	371.96	482.09
frame00017.jpg	371.86	429.81	421.04	426.93	423.92	480.97	371.96	482.09
frame00018.jpg	371.86	429.82	421.03	426.94	423.92	480.96	371.95	482.09
frame00019.jpg	371.87	429.83	421.04	426.94	423.93	480.97	371.95	482.10
frame00020.jpg	371.87	429.82	421.03	426.95	423.92	480.99	371.95	482.08
frame00021.jpg	371.85	429.83	421.04	426.93	423.92	480.96	371.95	482.11
frame00022.jpg	371.86	429.83	421.03	426.94	423.93	480.98	371.95	482.10
frame00023.jpg	371.87	429.82	421.04	426.93	423.93	480.99	371.95	482.09
frame00024.jpg	371.85	429.82	421.03	426.93	423.92	480.96	371.95	482.11
frame00025.jpg	371.85	429.84	421.01	426.94	423.94	480.98	371.95	482.11
frame00026.jpg	371.87	429.82	421.03	426.94	423.93	480.98	371.95	482.11
frame00027.jpg	371.86	429.83	421.04	426.93	423.93	480.98	371.96	482.10
frame00028.jpg	371.86	429.82	421.03	426.95	423.93	480.97	371.94	482.12
frame00029.jpg	371.86	429.82	421.03	426.92	423.92	480.98	371.96	482.10
frame00030.jpg	371.86	429.80	421.03	426.94	423.92	480.98	371.95	482.11
frame00031.jpg	371.86	429.82	421.05	426.93	423.92	480.98	371.95	482.10
frame00032.jpg	371.85	429.82	421.04	426.93	423.92	480.97	371.96	482.10
frame00033.jpg	371.88	429.83	421.04	426.93	423.92	480.98	371.95	482.09
frame00034.jpg	371.87	429.83	421.01	426.94	423.93	480.98	371.95	482.10
frame00035.jpg	371.84	429.80	421.04	426.90	423.92	480.97	371.96	482.12
frame00036.jpg	371.84	429.81	421.04	426.92	423.92	480.97	371.96	482.11
frame00037.jpg	371.84	429.80	421.03	426.92	423.91	480.97	371.98	482.10
frame00038.jpg	371.83	429.79	421.04	426.95	423.91	480.94	371.94	482.11
frame00039.jpg	371.87	429.82	421.01	426.95	423.93	480.97	371.94	482.11
frame00040.jpg	371.84	429.82	421.03	426.93	423.92	480.95	371.96	482.10
frame00041.jpg	371.84	429.81	421.04	426.92	423.92	480.96	371.96	482.09
frame00042.jpg	371.89	429.81	421.04	426.96	423.92	480.98	371.93	482.10
frame00043.jpg	371.86	429.81	421.04	426.93	423.91	480.98	371.96	482.10
frame00044.jpg	371.86	429.82	421.04	426.95	423.92	480.98	371.94	482.11
frame00045.jpg	371.86	429.81	421.03	426.95	423.93	480.99	371.94	482.11
frame00046.jpg	371.87	429.82	421.03	426.95	423.94	480.99	371.95	482.10
frame00047.jpg	371.84	429.80	421.03	426.93	423.91	480.97	371.96	482.11
frame00048.jpg	371.86	429.81	421.05	426.96	423.91	480.97	371.93	482.11
frame00049.jpg	371.87	429.83	421.02	426.95	423.93	480.99	371.95	482.11
frame00050.jpg	371.85	429.83	421.02	426.94	423.93	480.98	371.95	482.10
frame00051.jpg	371.87	429.83	421.02	426.96	423.93	480.98	371.94	482.11
frame00052.jpg	371.86	429.84	421.00	426.95	423.94	480.98	371.95	482.12
frame00053.jpg	371.84	429.81	421.04	426.91	423.92	480.97	371.96	482.10
frame00054.jpg	371.87	429.82	421.05	426.95	423.91	480.96	371.95	482.10
frame00055.jpg	371.86	429.82	421.03	426.94	423.92	480.98	371.96	482.10
frame00056.jpg	371.86	429.83	421.03	426.94	423.92	480.98	371.95	482.10
frame00057.jpg	371.86	429.83	421.03	426.94	423.93	480.98	371.94	482.10
frame00058.jpg	371.83	429.83	421.02	426.91	423.93	480.97	371.96	482.11
frame00059.jpg	371.83	429.82	421.02	426.93	423.92	480.97	371.95	482.10
frame00060.jpg	371.85	429.83	421.03	426.93	423.93	480.98	371.95	482.09
frame00061.jpg	371.85	429.81	421.05	426.92	423.89	480.96	371.95	482.10
frame00062.jpg	371.84	429.81	421.03	426.95	423.92	480.98	371.95	482.10
frame00063.jpg	371.86	429.83	421.02	426.94	423.94	480.98	371.95	482.11
frame00064.jpg	371.83	429.82	421.04	426.92	423.92	480.96	371.95	482.09
frame00065.jpg	371.86	429.83	421.03	426.93	423.93	480.99	371.95	482.09
frame00066.jpg	371.86	429.82	421.03	426.94	423.92	480.97	371.96	482.10
frame00067.jpg	371.87	429.81	421.03	426.93	423.92	480.99	371.95	482.09
frame00068.jpg	371.86	429.82	421.03	426.93	423.92	480.97	371.96	482.09
frame00069.jpg	371.85	429.83	421.03	426.92	423.92	480.97	371.98	482.09
frame00070.jpg	371.85	429.85	421.03	426.93	423.93	480.96	371.95	482.10
frame00071.jpg	371.85	429.82	421.03	426.93	423.91	480.95	371.95	482.10
frame00072.jpg	371.87	429.84	421.02	426.94	423.92	480.96	371.95	482.09
frame00073.jpg	371.86	429.84	421.02	426.95	423.93	480.97	371.95	482.08
frame00074.jpg	371.86	429.85	421.03	426.93	423.93	480.98	371.97	482.07
frame00075.jpg	371.88	429.86	421.03	426.93	423.94	480.98	371.97	482.07
frame00076.jpg	371.88	429.86	421.01	426.94	423.94	480.98	371.96	482.07
frame00077.jpg	371.87	429.85	421.02	426.96	423.94	480.98	371.95	482.07
frame00078.jpg	371.86	429.86	421.01	426.96	423.94	480.98	371.96	482.09
frame00079.jpg	371.88	429.87	421.02	426.94	423.94	480.98	371.96	482.06
frame00080.jpg	371.90	429.87	421.00	426.96	423.94	480.98	371.96	482.08
frame00081.jpg	371.88	429.85	421.01	426.96	423.94	480.97	371.96	482.08
frame00082.jpg	371.87	429.85	421.03	426.94	423.93	480.97	371.97	482.08
frame00083.jpg	371.86	429.83	421.04	426.92	423.93	480.97	371.97	482.07
frame00084.jpg	371.84	429.81	421.06	426.90	423.92	480.96	371.97	482.08
frame00085.jpg	371.87	429.85	421.03	426.93	423.94	480.96	371.97	482.09
frame00086.jpg	371.87	429.84	421.04	426.92	423.93	480.96	371.98	482.08
frame00087.jpg	371.88	429.84	421.02	426.94	423.94	480.97	371.97	482.09
frame00088.jpg	371.87	429.84	421.02	426.94	423.94	480.97	371.97	482.09
frame00089.jpg	371.86	429.82	421.04	426.92	423.93	480.96	371.96	482.08
frame00090.jpg	371.86	429.84	421.03	426.94	423.94	480.96	371.96	482.08
frame00091.jpg	371.88	429.83	421.04	426.94	423.92	480.97	371.95	482.09
frame00092.jpg	371.86	429.86	421.02	426.93	423.94	480.97	371.96	482.09
frame00093.jpg	371.86	429.84	421.01	426.94	423.93	480.96	371.95	482.10
frame00094.jpg	371.87	429.82	421.01	426.94	423.93	480.99	371.95	482.09
frame00095.jpg	371.85	429.83	421.03	426.92	423.91	480.97	371.96	482.09
frame00096.jpg	371.86	429.84	421.02	426.94	423.92	480.96	371.94	482.11
frame00097.jpg	371.85	429.84	421.01	426.94	423.92	480.97	371.96	482.09
frame00098.jpg	371.88	429.84	421.01	426.95	423.92	480.97	371.94	482.09
frame00099.jpg	371.88	429.85	421.00	426.96	423.93	480.98	371.93	482.09
frame00100.jpg	371.85	429.82	421.03	426.92	423.91	480.97	371.97	482.08
frame00101.jpg	371.83	429.82	421.04	426.91	423.90	480.96	371.95	482.08
frame00102.jpg	371.85	429.84	421.02	426.93	423.92	480.97	371.95	482.08
frame00103.jpg	371.84	429.81	421.02	426.93	423.91	480.97	371.93	482.08
frame00104.jpg	371.86	429.80	421.02	426.92	423.90	480.97	371.94	482.08
frame00105.jpg	371.86	429.82	421.01	426.94	423.92	480.98	371.95	482.06
frame00106.jpg	371.87	429.82	421.02	426.92	423.90	480.96	371.94	482.07
frame00107.jpg	371.85	429.83	421.02	426.92	423.92	480.97	371.94	482.06
frame00108.jpg	371.85	429.82	421.00	426.94	423.92	480.97	371.94	482.07
frame00109.jpg	371.85	429.83	421.00	426.95	423.92	480.97	371.94	482.04
frame00110.jpg	371.86	429.84	420.99	426.93	423.93	480.98	371.94	482.06
frame00111.jpg	371.86	429.83	421.01	426.93	423.90	480.97	371.94	482.05
frame00112.jpg	371.86	429.81	421.00	426.94	423.90	480.98	371.92	482.07
frame00113.jpg	371.84	429.80	421.04	426.90	423.89	480.97	371.94	482.05
frame00114.jpg	371.85	429.83	421.01	426.93	423.90	480.97	371.93	482.05
frame00115.jpg	371.85	429.83	421.00	426.93	423.90	481.00	371.92	482.06
frame00116.jpg	371.84	429.81	420.99	426.94	423.89	480.99	371.91	482.05
frame00117.jpg	371.83	429.82	420.98	426.93	423.90	480.99	371.91	482.02
frame00118.jpg	371.78	429.80	420.97	426.87	423.88	481.00	371.91	482.00
frame00119.jpg	371.77	429.79	420.94	426.91	423.85	481.00	371.88	482.00
frame00120.jpg	371.75	429.81	420.91	426.89	423.84	481.01	371.85	481.99
frame00121.jpg	371.72	429.81	420.87	426.89	423.80	481.04	371.78	481.95
frame00122.jpg	371.65	429.80	420.83	426.88	423.75	481.04	371.75	481.94
frame00123.jpg	371.67	429.80	420.84	426.87	423.77	481.05	371.74	481.93
frame00124.jpg	371.66	429.78	420.87	426.86	423.76	481.03	371.77	481.94
frame00125.jpg	371.68	429.80	420.87	426.86	423.78	481.03	371.77	481.95
frame00126.jpg	371.67	429.80	420.86	426.87	423.76	481.03	371.76	481.95
frame00127.jpg	371.66	429.80	420.85	426.87	423.75	481.02	371.75	481.95
frame00128.jpg	371.65	429.80	420.85	426.85	423.76	481.02	371.78	481.96
frame00129.jpg	371.64	429.80	420.83	426.87	423.73	481.01	371.76	481.99
frame00130.jpg	371.59	429.78	420.78	426.86	423.65	480.99	371.70	482.01
frame00131.jpg	371.56	429.76	420.70	426.89	423.55	481.00	371.57	481.99
frame00132.jpg	371.43	429.77	420.63	426.86	423.46	481.02	371.50	481.97
frame00133.jpg	371.30	429.94	420.52	426.95	423.40	481.08	371.43	482.04
frame00134.jpg	371.20	430.11	420.39	427.13	423.33	481.22	371.29	482.05
frame00135.jpg	371.12	430.17	420.37	427.23	423.27	481.36	371.14	482.03
frame00136.jpg	371.15	430.15	420.36	427.36	423.21	481.55	371.02	482.01
frame00137.jpg	371.16	430.08	420.40	427.37	423.15	481.65	370.98	481.97
frame00138.jpg	371.20	430.06	420.43	427.40	423.14	481.66	370.94	481.94
frame00139.jpg	371.21	429.95	420.46	427.35	423.10	481.63	370.91	481.84
frame00140.jpg	371.22	429.80	420.47	427.23	423.06	481.51	370.87	481.67
frame00141.jpg	371.21	429.62	420.49	426.98	423.03	481.24	370.89	481.45
frame00142.jpg	371.21	429.49	420.33	426.82	423.21	480.97	370.97	481.22
frame00143.jpg	371.17	429.31	420.21	426.48	423.36	480.56	371.09	480.89
frame00144.jpg	371.13	428.84	420.22	425.79	423.45	479.91	371.21	480.38
frame00145.jpg	371.06	428.31	420.23	425.14	423.46	479.28	371.27	479.87
frame00146.jpg	371.02	427.96	420.03	424.68	423.60	478.80	371.28	479.40
frame00147.jpg	370.84	427.44	419.89	423.95	423.66	478.13	371.33	478.84
frame00148.jpg	370.62	426.87	419.85	423.15	423.59	477.43	371.36	478.32
frame00149.jpg	370.49	426.40	419.62	422.73	423.63	476.97	371.29	477.84
frame00150.jpg	370.35	426.05	419.45	422.35	423.67	476.59	371.22	477.34
frame00151.jpg	370.23	425.54	419.34	421.80	423.45	476.20	370.97	476.73
frame00152.jpg	369.99	424.63	419.23	420.97	422.99	475.53	370.58	475.95
frame00153.jpg	369.65	423.82	418.77	420.31	422.76	474.90	370.15	475.10
frame00154.jpg	369.27	422.77	418.49	419.28	422.25	474.00	369.64	474.04
frame00155.jpg	368.92	421.40	417.92	418.16	421.89	472.92	369.04	472.71
frame00156.jpg	368.49	419.59	417.61	416.44	421.37	471.35	368.42	471.00
frame00157.jpg	368.06	417.51	417.21	414.44	420.95	469.42	367.95	469.07
frame00158.jpg	367.79	415.24	416.93	412.28	420.70	467.33	367.58	466.94
frame00159.jpg	367.72	412.75	416.81	409.96	420.51	465.18	367.32	464.59
frame00160.jpg	367.67	410.12	416.90	407.44	420.30	462.78	367.15	462.18
frame00161.jpg	367.59	407.44	417.00	404.79	420.22	460.13	367.11	459.54
frame00162.jpg	367.72	404.55	416.89	402.08	420.44	457.46	367.10	456.83
frame00163.jpg	367.67	401.72	417.13	398.91	420.65	454.30	367.47	453.93
frame00164.jpg	367.70	398.76	417.08	395.81	421.14	451.14	367.84	451.02
frame00165.jpg	367.66	395.89	417.23	392.40	421.65	447.53	368.37	447.98
frame00166.jpg	367.77	392.65	417.31	388.68	422.27	443.82	369.04	444.85
frame00167.jpg	367.90	389.44	417.52	385.03	422.89	440.23	369.68	441.68
frame00168.jpg	368.20	386.34	417.72	381.67	423.40	436.63	370.24	438.44
frame00169.jpg	368.54	382.96	417.91	378.19	423.84	432.88	370.70	435.13
frame00170.jpg	368.86	379.25	418.22	374.49	424.16	429.11	371.10	431.53
frame00171.jpg	369.20	375.41	418.67	370.56	424.42	425.30	371.50	427.91
frame00172.jpg	369.66	371.71	418.96	367.03	424.77	421.67	371.77	424.38
frame00173.jpg	369.94	368.04	419.24	363.40	425.04	418.00	372.13	420.80
frame00174.jpg	370.25	364.29	419.55	359.86	425.19	414.42	372.33	417.09
frame00175.jpg	370.42	360.43	419.86	356.10	425.26	410.81	372.48	413.41
frame00176.jpg	370.67	356.58	420.04	352.39	425.34	407.31	372.45	409.69
frame00177.jpg	370.71	352.70	420.09	348.54	425.39	403.68	372.36	405.85
frame00178.jpg	370.67	348.74	420.15	344.60	425.21	400.03	372.19	401.96
frame00179.jpg	370.76	344.82	420.19	340.90	425.03	396.58	371.95	398.25
frame00180.jpg	370.84	340.96	420.56	337.46	424.63	393.53	371.67	394.62
frame00181.jpg	371.07	337.55	420.76	334.52	424.41	390.52	371.34	391.15
frame00182.jpg	371.39	334.07	421.05	331.45	424.28	387.46	371.23	387.65
frame00183.jpg	371.66	330.94	421.30	328.24	424.43	384.48	371.41	384.55
frame00184.jpg	372.22	327.73	421.69	325.36	424.70	381.36	371.57	381.28
frame00185.jpg	372.81	324.57	422.35	322.08	425.04	378.18	372.13	378.23
frame00186.jpg	373.73	321.52	422.95	319.24	425.60	375.05	372.64	375.22
frame00187.jpg	374.57	318.40	423.78	315.91	426.22	371.95	373.48	372.36
frame00188.jpg	375.27	315.49	424.45	313.27	427.05	369.03	374.36	369.70
frame00189.jpg	376.27	312.66	425.36	310.40	428.19	365.90	375.51	366.84
frame00190.jpg	377.79	309.47	426.38	307.64	429.44	362.89	376.73	363.81
frame00191.jpg	378.86	306.35	427.53	304.41	430.74	359.44	378.24	360.95
frame00192.jpg	380.04	303.36	428.65	301.19	432.04	356.11	379.72	358.28
frame00193.jpg	380.96	300.28	429.72	297.77	433.38	352.58	381.42	355.33
frame00194.jpg	382.14	296.87	430.91	294.26	434.63	349.20	382.91	352.22
frame00195.jpg	383.20	293.66	432.06	291.10	435.90	346.12	384.26	349.06
frame00196.jpg	384.18	290.42	433.23	287.97	436.98	342.84	385.50	346.31
frame00197.jpg	385.11	287.86	434.02	285.27	438.06	340.01	386.77	344.13
frame00198.jpg	386.13	285.76	434.75	282.77	439.13	337.01	387.93	341.73
frame00199.jpg	386.84	283.23	435.47	280.08	439.98	334.21	388.95	339.23
frame00200.jpg	387.75	280.72	436.13	277.69	440.74	331.88	389.59	337.03
frame00201.jpg	388.53	278.48	436.66	275.28	441.60	329.50	390.36	334.53
frame00202.jpg	389.00	276.02	437.15	272.82	442.24	326.77	391.18	332.17
frame00203.jpg	389.63	273.69	437.81	270.36	442.89	324.15	391.98	329.83
frame00204.jpg	390.22	271.45	438.40	268.04	443.50	321.68	392.76	327.57
frame00205.jpg	390.95	269.17	438.83	265.92	443.93	319.63	393.29	325.45
frame00206.jpg	391.60	267.04	439.31	263.97	444.27	317.65	393.54	323.19
frame00207.jpg	391.83	264.83	439.57	262.01	444.44	315.71	393.78	321.12
frame00208.jpg	391.90	262.93	439.74	260.14	444.54	314.13	394.00	319.35
frame00209.jpg	392.02	261.62	439.76	258.59	444.59	312.62	394.03	317.75
frame00210.jpg	392.10	260.18	439.56	257.27	444.53	311.22	393.99	316.40
frame00211.jpg	392.16	258.78	439.51	256.04	444.25	309.77	393.64	314.92
frame00212.jpg	391.99	257.48	439.45	254.70	444.10	308.68	393.66	313.47
frame00213.jpg	391.85	256.31	439.21	253.65	443.93	307.48	393.50	312.52
frame00214.jpg	391.77	255.33	438.97	252.80	443.70	306.34	393.29	311.38
frame00215.jpg	391.76	254.32	438.89	251.62	443.53	305.38	393.06	310.29
frame00216.jpg	391.72	253.29	438.68	250.95	443.34	304.45	392.81	309.05
frame00217.jpg	391.35	252.30	438.50	249.61	443.17	303.39	392.74	308.02
frame00218.jpg	391.26	251.27	438.34	248.75	442.84	302.36	392.47	306.90
frame00219.jpg	391.04	250.43	438.18	247.82	442.71	301.55	392.20	306.01
frame00220.jpg	390.75	249.74	438.01	246.88	442.47	300.85	392.12	305.18
frame00221.jpg	390.36	249.17	437.66	246.36	442.19	300.33	392.01	304.80
frame00222.jpg	390.22	248.77	437.48	245.85	441.86	299.82	391.77	304.39
frame00223.jpg	390.04	248.42	437.05	245.72	441.74	299.57	391.40	304.04
frame00224.jpg	389.78	248.19	436.94	245.26	441.48	299.31	391.29	303.76
frame00225.jpg	389.65	248.13	436.68	244.95	441.37	299.16	391.16	303.38
frame00226.jpg	389.58	247.79	436.59	245.06	441.09	298.87	390.72	303.19
frame00227.jpg	389.27	247.64	436.49	244.83	440.85	298.73	390.67	302.87
frame00228.jpg	389.31	247.35	436.36	244.86	440.60	298.75	390.35	302.73
frame00229.jpg	389.09	247.24	436.20	244.81	440.40	298.64	390.04	302.63
frame00230.jpg	388.98	246.99	436.17	244.80	440.09	298.72	389.66	302.43
frame00231.jpg	388.86	246.96	435.99	244.64	439.78	298.71	389.35	302.33
frame00232.jpg	388.62	246.85	435.75	244.63	439.57	298.81	389.14	302.10
frame00233.jpg	388.55	246.63	435.75	244.73	439.36	298.95	388.74	301.92
frame00234.jpg	388.60	246.48	435.76	244.80	439.12	299.10	388.42	301.91
frame00235.jpg	388.76	246.42	435.71	244.85	438.98	299.02	388.13	301.81
frame00236.jpg	388.64	246.28	435.61	244.83	439.02	299.09	388.16	301.57
frame00237.jpg	388.71	246.25	435.75	244.74	438.91	299.04	388.05	301.45
frame00238.jpg	388.82	246.17	435.82	244.85	438.76	299.15	387.95	301.27
frame00239.jpg	388.94	246.20	435.89	244.88	438.73	299.34	388.06	301.12
frame00240.jpg	389.02	246.12	435.87	245.19	438.64	299.50	387.95	301.13
frame00241.jpg	388.83	246.12	435.86	244.98	438.60	299.31	387.87	301.13
frame00242.jpg	388.79	246.09	435.86	244.71	438.48	299.30	387.87	300.99
frame00243.jpg	388.80	246.04	435.62	244.83	438.39	299.37	387.69	300.71
frame00244.jpg	388.69	245.99	435.57	244.82	438.22	299.42	387.57	300.69
frame00245.jpg	388.57	246.12	435.47	244.76	438.15	299.38	387.41	300.66
frame00246.jpg	388.52	246.16	435.28	244.88	437.95	299.28	387.21	300.71
frame00247.jpg	388.38	245.96	435.28	244.75	437.85	299.38	387.17	300.42
frame00248.jpg	388.31	246.02	435.19	244.60	437.80	299.15	387.02	300.56
frame00249.jpg	388.19	246.09	434.98	244.64	437.98	299.21	387.01	300.63
frame00250.jpg	388.25	245.99	435.06	244.88	437.84	299.29	387.00	300.55
frame00251.jpg	388.07	246.19	435.01	244.81	437.86	299.34	387.08	300.88
frame00252.jpg	388.19	246.19	434.92	245.27	437.93	299.80	386.99	301.01
frame00253.jpg	388.32	246.24	435.07	245.20	437.85	299.78	386.99	301.17
frame00254.jpg	388.36	246.31	435.21	245.13	437.86	299.72	387.07	301.12
frame00255.jpg	388.30	246.33	435.12	245.13	437.96	299.77	387.13	301.29
frame00256.jpg	388.37	246.49	435.06	245.14	437.99	299.72	387.30	301.63
frame00257.jpg	388.15	247.04	434.79	245.44	438.18	299.72	387.32	301.95
frame00258.jpg	388.15	247.26	434.92	245.87	438.04	300.34	387.20	302.07
frame00259.jpg	388.15	247.72	434.95	246.34	437.92	300.76	386.91	302.36
frame00260.jpg	387.78	247.99	434.96	246.61	437.84	301.40	387.02	302.71
frame00261.jpg	388.23	248.51	434.94	247.61	437.81	302.26	386.57	303.52
frame00262.jpg	388.16	249.32	435.13	248.07	437.93	302.79	386.73	304.11
frame00263.jpg	388.03	249.84	435.19	248.49	437.93	303.35	386.91	304.73
frame00264.jpg	388.31	250.36	435.13	249.29	438.04	304.07	386.65	305.31
frame00265.jpg	388.09	250.67	435.36	249.53	438.09	304.63	386.91	305.56
frame00266.jpg	388.32	251.19	435.64	250.03	438.11	305.26	386.96	306.09
frame00267.jpg	388.35	251.87	435.87	250.54	438.24	305.82	387.09	306.57
frame00268.jpg	388.66	252.17	435.86	251.30	438.34	306.53	387.03	307.29
frame00269.jpg	388.72	252.72	435.93	251.74	438.42	306.81	387.08	307.81
frame00270.jpg	388.69	252.95	436.09	251.92	438.43	307.14	387.05	308.03
frame00271.jpg	388.55	253.07	436.07	251.89	438.39	307.29	387.16	308.15
frame00272.jpg	388.27	253.10	436.00	251.92	438.26	307.21	387.13	308.22
frame00273.jpg	387.96	253.34	435.67	251.98	438.20	307.37	387.04	308.51
frame00274.jpg	387.85	253.78	435.34	252.30	438.08	307.58	386.76	308.94
frame00275.jpg	387.65	254.16	434.99	252.68	438.04	307.88	386.65	309.35
frame00276.jpg	387.32	254.91	434.67	253.11	437.95	308.33	386.51	310.01
frame00277.jpg	386.99	255.42	434.53	253.79	437.49	308.77	386.34	310.38
frame00278.jpg	386.84	256.44	433.99	254.92	437.28	309.82	385.76	311.54
frame00279.jpg	386.14	258.00	433.46	256.14	437.02	310.98	385.63	312.58
frame00280.jpg	385.77	259.47	433.05	257.94	436.30	312.59	384.97	313.94
frame00281.jpg	384.97	261.45	432.43	259.70	435.68	314.24	384.18	315.92
frame00282.jpg	384.23	263.57	431.76	261.82	434.89	316.56	383.33	317.96
frame00283.jpg	382.96	265.87	430.85	264.28	433.97	318.76	382.52	320.32
frame00284.jpg	382.18	268.94	429.78	267.51	433.17	321.76	381.39	323.04
frame00285.jpg	380.96	272.13	429.08	270.44	431.69	324.91	380.10	326.10
frame00286.jpg	379.77	275.00	428.01	273.78	430.33	328.47	378.73	329.30
frame00287.jpg	378.46	278.13	427.02	276.97	429.08	331.77	377.48	332.59
frame00288.jpg	377.48	281.69	425.91	280.79	428.10	335.21	376.28	336.08
frame00289.jpg	376.59	285.24	425.07	284.34	427.07	338.98	375.22	339.73
frame00290.jpg	375.52	288.93	423.97	288.16	426.29	342.85	374.23	343.22
frame00291.jpg	374.27	292.87	422.93	291.81	425.39	346.60	373.28	346.89
frame00292.jpg	373.10	296.92	421.85	295.37	424.70	350.51	372.80	350.66
frame00293.jpg	372.15	301.49	420.49	299.30	424.21	354.29	371.93	354.99
frame00294.jpg	371.05	306.13	419.17	303.70	423.66	358.44	370.84	359.67
frame00295.jpg	369.99	310.84	418.48	308.08	422.93	362.87	370.15	364.40
frame00296.jpg	369.18	315.71	417.88	312.51	422.22	367.47	369.56	369.09
frame00297.jpg	368.40	320.80	417.32	317.65	421.53	372.31	368.86	374.06
frame00298.jpg	367.39	325.74	416.78	322.67	420.90	377.43	368.33	379.07
frame00299.jpg	366.77	330.87	416.06	328.09	420.19	382.71	367.47	384.07
frame00300.jpg	365.99	335.90	415.34	333.06	419.51	388.08	366.55	389.04
frame00301.jpg	365.01	340.89	414.55	338.09	418.53	393.24	365.73	393.75
frame00302.jpg	364.16	346.24	413.45	343.55	417.58	398.58	364.59	398.76
frame00303.jpg	363.04	351.50	412.57	348.58	416.62	403.77	363.71	403.73
frame00304.jpg	362.16	356.49	411.59	353.67	415.69	408.98	362.70	408.57
frame00305.jpg	361.21	361.60	410.71	358.76	414.73	413.99	361.80	413.28
frame00306.jpg	360.68	366.95	409.80	364.63	413.96	419.57	360.74	418.43
frame00307.jpg	360.10	372.11	409.43	369.56	413.29	424.88	360.17	423.29
frame00308.jpg	359.70	376.99	408.85	374.43	412.94	429.79	359.60	427.80
frame00309.jpg	359.24	382.00	408.42	379.19	412.65	434.62	359.30	432.37
frame00310.jpg	358.85	386.81	407.89	383.95	412.52	439.33	358.99	436.79
frame00311.jpg	358.70	391.18	407.74	388.05	412.43	443.71	358.90	440.99
frame00312.jpg	358.56	395.41	407.51	392.09	412.53	447.90	358.94	444.99
frame00313.jpg	358.60	399.44	407.47	396.07	412.65	451.92	359.05	448.85
frame00314.jpg	358.67	403.38	407.39	399.84	412.97	455.39	359.21	452.61
frame00315.jpg	358.50	407.39	407.43	403.30	413.20	458.67	359.52	456.52
frame00316.jpg	358.41	411.06	407.35	406.75	413.29	462.02	359.61	460.26
frame00317.jpg	358.65	413.74	407.41	409.72	413.20	465.46	359.35	463.09
frame00318.jpg	358.90	416.15	407.53	412.33	413.05	468.24	359.21	465.54
frame00319.jpg	358.88	418.32	407.76	414.47	412.91	470.58	359.24	467.85
frame00320.jpg	358.88	420.02	407.95	415.93	413.04	472.48	359.43	469.78
frame00321.jpg	359.09	421.50	407.98	417.45	413.30	473.79	359.62	471.39
frame00322.jpg	359.23	422.82	408.42	418.65	413.34	474.97	359.89	472.67
frame00323.jpg	359.61	423.90	408.56	420.00	413.50	476.24	359.93	473.86
frame00324.jpg	359.69	425.07	408.75	421.30	413.60	477.37	360.11	475.01
frame00325.jpg	359.83	426.37	409.11	422.53	413.58	478.54	360.21	476.27
frame00326.jpg	359.99	427.23	409.06	423.70	413.72	479.79	360.22	477.22
frame00327.jpg	359.97	428.29	409.24	424.55	413.63	480.45	360.28	478.05
frame00328.jpg	360.04	428.97	409.23	425.44	413.61	481.40	360.23	478.80
frame00329.jpg	360.17	429.63	409.24	426.22	413.67	482.11	360.16	479.38
frame00330.jpg	360.17	430.42	409.51	426.87	413.49	482.60	360.22	480.05
frame00331.jpg	360.14	430.93	409.41	427.71	413.52	483.43	360.17	480.63
frame00332.jpg	360.08	431.82	409.26	428.42	413.64	484.03	360.21	481.35
frame00333.jpg	360.04	432.75	409.21	429.25	413.55	484.85	360.16	482.19
frame00334.jpg	359.96	433.01	409.09	429.51	413.51	485.37	360.01	482.66
frame00335.jpg	359.83	433.22	408.78	429.67	413.51	485.58	359.92	482.86
frame00336.jpg	359.58	433.35	408.59	429.71	413.43	485.64	359.87	482.95
frame00337.jpg	359.57	433.43	408.50	429.81	413.31	485.88	359.64	482.97
frame00338.jpg	359.59	433.33	408.44	429.77	413.21	486.10	359.53	483.03
frame00339.jpg	359.67	433.22	408.56	429.69	413.12	486.05	359.50	483.00
frame00340.jpg	359.74	433.13	408.60	429.60	413.15	485.98	359.54	483.04
frame00341.jpg	359.77	433.03	408.62	429.60	413.15	485.95	359.49	483.07
frame00342.jpg	359.68	432.97	408.67	429.44	413.09	485.89	359.58	483.06
frame00343.jpg	359.69	432.98	408.64	429.54	413.11	485.90	359.54	483.06
frame00344.jpg	359.71	432.98	408.65	429.56	413.09	485.96	359.52	483.04
frame00345.jpg	359.66	432.97	408.65	429.52	413.07	485.97	359.51	483.02
frame00346.jpg	359.59	432.96	408.60	429.55	413.01	485.94	359.45	483.04
frame00347.jpg	359.55	432.95	408.52	429.51	412.98	485.97	359.44	483.02
frame00348.jpg	359.54	432.92	408.51	429.50	412.93	486.04	359.40	482.98
frame00349.jpg	359.50	432.95	408.48	429.48	412.91	486.04	359.38	482.90
frame00350.jpg	359.46	432.96	408.51	429.44	412.87	486.02	359.39	482.79
frame00351.jpg	359.46	432.95	408.42	429.49	412.89	486.10	359.34	482.74
frame00352.jpg	359.42	432.94	408.38	429.49	412.87	486.10	359.33	482.67
frame00353.jpg	359.35	432.95	408.38	429.47	412.81	486.05	359.31	482.64
frame00354.jpg	359.39	432.93	408.37	429.51	412.84	486.07	359.24	482.63
frame00355.jpg	359.47	433.01	408.26	429.58	412.89	486.13	359.21	482.68
frame00356.jpg	359.47	432.99	408.28	429.54	412.85	486.12	359.27	482.64
frame00357.jpg	359.43	433.07	408.29	429.54	412.87	486.10	359.26	482.59
frame00358.jpg	359.43	433.07	408.28	429.50	412.93	486.15	359.27	482.55
frame00359.jpg	359.43	433.11	408.26	429.54	412.89	486.15	359.31	482.51
frame00360.jpg	359.45	433.06	408.25	429.60	412.87	486.09	359.25	482.55
frame00361.jpg	359.54	433.04	408.23	429.60	412.88	486.14	359.19	482.65
frame00362.jpg	359.40	433.00	408.28	429.49	412.88	486.09	359.26	482.64
frame00363.jpg	359.34	432.96	408.35	429.44	412.82	486.12	359.30	482.58
frame00364.jpg	359.43	433.05	408.30	429.56	412.89	486.11	359.23	482.57
frame00365.jpg	359.47	433.05	408.26	429.57	412.91	486.20	359.22	482.58
frame00366.jpg	359.48	433.05	408.28	429.56	412.88	486.15	359.25	482.60
frame00367.jpg	359.45	433.10	408.25	429.55	412.89	486.12	359.27	482.58
frame00368.jpg	359.50	433.07	408.25	429.59	412.91	486.12	359.19	482.62
frame00369.jpg	359.51	433.05	408.24	429.54	412.91	486.18	359.24	482.66
frame00370.jpg	359.44	433.00	408.28	429.53	412.84	486.12	359.26	482.61
frame00371.jpg	359.43	432.99	408.24	429.57	412.87	486.13	359.24	482.63
frame00372.jpg	359.43	433.02	408.29	429.51	412.86	486.13	359.26	482.65
frame00373.jpg	359.49	433.00	408.31	429.49	412.87	486.16	359.24	482.61
frame00374.jpg	359.50	433.08	408.25	429.56	412.90	486.17	359.26	482.61
frame00375.jpg	359.49	433.09	408.31	429.49	412.86	486.12	359.27	482.57
frame00376.jpg	359.35	433.06	408.23	429.43	412.86	486.10	359.30	482.45
frame00377.jpg	359.39	432.99	408.23	429.45	412.77	486.13	359.23	482.36
frame00378.jpg	359.40	432.96	408.19	429.50	412.78	486.21	359.18	482.39
frame00379.jpg	359.36	432.98	408.23	429.53	412.80	486.14	359.16	482.34
frame00380.jpg	359.37	433.05	408.14	429.48	412.86	486.15	359.19	482.37
frame00381.jpg	359.39	433.02	408.17	429.46	412.84	486.17	359.23	482.35
