1	  0.00006112	  0.00060366	  0.00289631	 -0.00079681	  0.00296896	 -0.00498158	  0.00247424	  0.00816567
1	 -0.00004988	  0.00014598	  0.00078007	 -0.00009570	  0.00066999	 -0.00137265	  0.00011949	  0.00199926
2	 -0.00016007	  0.00014197	  0.00006399	  0.00015100	 -0.00022894	  0.00033196	 -0.00031398	  0.00070002
3	  0.00004799	 -0.00001800	  0.00004100	 -0.00007200	  0.00019401	 -0.00017502	  0.00002299	 -0.00019001
4	  0.00008899	 -0.00005198	  0.00012799	  0.00009201	 -0.00010502	 -0.00025396	  0.00047097	 -0.00030291
5	 -0.00012500	  0.00004499	  0.00005900	  0.00004300	  0.00001100	  0.00000100	 -0.00063194	  0.00041202
6	  0.00005400	  0.00002800	  0.00003800	  0.00010000	 -0.00001599	 -0.00027397	  0.00019298	  0.00021004
7	  0.00003200	  0.00001999	  0.00029102	 -0.00007096	  0.00000290	  0.00035703	  0.00008098	  0.00009100
8	  0.00001800	  0.00005001	  0.00018903	 -0.00013998	  0.00035998	 -0.00035512	  0.00033599	  0.00031910
9	 -0.00004299	 -0.00010399	  0.00008599	  0.00010400	 -0.00026397	  0.00006202	 -0.00025413	 -0.00105585
10	  0.00000500	  0.00005301	  0.00020403	 -0.00016798	 -0.00000103	  0.00014602	 -0.00009300	 -0.00007002
11	  0.00004100	 -0.00005798	  0.00015297	  0.00022601	 -0.00008100	 -0.00012396	  0.00024305	  0.00057186
12	 -0.00007901	  0.00001000	  0.00000600	  0.00002200	 -0.00013500	  0.00012300	 -0.00065907	 -0.00007492
13	 -0.00006699	  0.00001200	  0.00006201	 -0.00022500	  0.00033107	 -0.00002603	  0.00001101	  0.00012503
14	 -0.00000000	  0.00002401	  0.00007902	 -0.00030300	  0.00019707	  0.00012802	  0.00011596	 -0.00061321
15	  0.00009199	  0.00004597	  0.00017594	  0.00035502	 -0.00020495	  0.00015691	  0.00024778	  0.00106063
16	  0.00003000	 -0.00002301	  0.00011802	 -0.00017899	  0.00000200	  0.00001800	  0.00012214	 -0.00101017
17	  0.00002200	 -0.00006499	  0.00015999	  0.00006901	 -0.00011803	 -0.00021297	 -0.00010397	  0.00022698
18	 -0.00007998	  0.00005500	  0.00006501	 -0.00009500	  0.00032003	 -0.00006603	  0.00019196	  0.00003700
19	 -0.00001001	 -0.00008597	  0.00014294	  0.00041201	 -0.00055081	 -0.00025482	 -0.00055205	  0.00021385
20	  0.00009303	 -0.00005406	  0.00035116	 -0.00045794	  0.00009892	  0.00035220	  0.00019673	 -0.00188486
21	 -0.00004000	  0.00007598	  0.00011597	  0.00023501	 -0.00005100	 -0.00008397	 -0.00007484	  0.00123071
22	  0.00002801	  0.00005801	  0.00008901	 -0.00005800	  0.00005499	 -0.00019102	 -0.00001199	  0.00010600
23	 -0.00009596	 -0.00002600	  0.00006899	  0.00011600	  0.00017702	  0.00054792	  0.00019397	  0.00040883
24	  0.00004501	  0.00004100	  0.00013501	 -0.00006499	  0.00008104	 -0.00022300	 -0.00001601	  0.00010900
25	  0.00000400	  0.00001500	  0.00015000	 -0.00001299	 -0.00022804	  0.00021997	  0.00014708	 -0.00028601
26	  0.00011096	 -0.00011296	  0.00020198	  0.00011302	 -0.00010010	 -0.00053592	  0.00008501	  0.00007802
27	 -0.00007799	  0.00014000	  0.00003900	 -0.00004600	  0.00023101	 -0.00001901	 -0.00022794	  0.00053503
28	 -0.00000400	 -0.00007602	  0.00014803	 -0.00022199	  0.00004398	  0.00021705	 -0.00000184	 -0.00111625
29	 -0.00005201	  0.00007399	  0.00001400	  0.00010500	  0.00001200	  0.00019698	  0.00013199	  0.00057191
30	  0.00005199	 -0.00007301	  0.00011501	 -0.00009299	 -0.00003999	 -0.00010501	  0.00017405	 -0.00019398
31	 -0.00003199	  0.00000099	  0.00016396	  0.00022101	  0.00011096	 -0.00009000	 -0.00006687	  0.00065086
32	  0.00010904	  0.00000299	  0.00009401	 -0.00012900	 -0.00025702	 -0.00010904	  0.00017213	 -0.00069806
33	 -0.00008899	 -0.00008702	  0.00014002	 -0.00011899	  0.00009701	  0.00002399	 -0.00036908	 -0.00051800
34	 -0.00001302	  0.00012798	  0.00018797	  0.00018502	  0.00005692	  0.00038294	  0.00000484	  0.00087084
35	 -0.00001900	 -0.00001001	  0.00032999	  0.00003105	  0.00010988	 -0.00034103	  0.00003519	  0.00057998
36	  0.00007300	 -0.00000000	  0.00003600	  0.00000200	 -0.00003500	 -0.00005200	  0.00022602	 -0.00021098
37	 -0.00001600	 -0.00000400	  0.00009799	  0.00006700	 -0.00011700	  0.00004299	 -0.00044201	 -0.00008702
38	 -0.00005001	  0.00003800	  0.00001000	 -0.00007000	  0.00003200	  0.00027102	  0.00019000	 -0.00054509
39	  0.00004799	 -0.00004701	  0.00004501	 -0.00023800	  0.00025105	 -0.00018906	  0.00014501	  0.00020007
40	 -0.00007198	  0.00007696	  0.00016094	  0.00038601	 -0.00017196	 -0.00019290	 -0.00076562	  0.00137245
41	  0.00007900	 -0.00005801	  0.00010100	  0.00002701	 -0.00002500	  0.00005300	  0.00063310	 -0.00095394
42	 -0.00006401	  0.00004500	  0.00000100	 -0.00005200	  0.00003000	  0.00010701	  0.00005100	  0.00039201
43	 -0.00002700	 -0.00006300	  0.00010401	 -0.00007099	  0.00000299	  0.00014001	 -0.00029199	 -0.00031801
44	  0.00001799	 -0.00004300	  0.00003600	  0.00008800	 -0.00016499	 -0.00018598	 -0.00003200	 -0.00003400
45	  0.00004303	  0.00010403	  0.00021308	 -0.00037798	  0.00032313	 -0.00004695	  0.00018310	 -0.00040110
46	  0.00001403	 -0.00011099	  0.00021899	  0.00004302	 -0.00012398	  0.00008502	  0.00008787	 -0.00061600
47	 -0.00003899	  0.00007001	  0.00035998	  0.00006306	  0.00002088	  0.00031899	 -0.00010516	  0.00047397
48	 -0.00004300	 -0.00003902	  0.00029306	 -0.00021396	  0.00017099	 -0.00016509	  0.00025106	  0.00015300
49	  0.00003299	 -0.00006897	  0.00008496	  0.00043800	 -0.00047682	 -0.00030183	 -0.00053802	 -0.00002011
50	 -0.00001800	  0.00010301	  0.00004500	 -0.00007500	  0.00007600	  0.00003001	  0.00020200	 -0.00002800
51	 -0.00003700	 -0.00000499	  0.00023602	 -0.00008997	  0.00015988	  0.00056109	  0.00035900	 -0.00009613
52	  0.00010800	  0.00002600	  0.00002300	  0.00014000	 -0.00001901	 -0.00041294	 -0.00013397	  0.00050488
53	 -0.00002600	 -0.00004002	  0.00022807	 -0.00029697	  0.00012802	 -0.00007005	 -0.00013509	 -0.00030207
54	  0.00007100	  0.00000999	  0.00014096	  0.00026301	 -0.00026794	  0.00008394	  0.00031005	 -0.00034089
55	  0.00003900	 -0.00001900	  0.00004801	 -0.00012900	  0.00006300	  0.00008601	  0.00045403	 -0.00005202
56	 -0.00001100	  0.00003400	  0.00014201	 -0.00005799	  0.00001998	  0.00016301	 -0.00050305	  0.00020602
57	 -0.00010800	  0.00004599	  0.00010201	 -0.00005999	  0.00002098	 -0.00024402	 -0.00069299	  0.00032292
58	  0.00007198	  0.00001600	  0.00000800	  0.00004700	  0.00027199	  0.00010099	  0.00095570	  0.00041288
59	 -0.00011700	 -0.00003601	  0.00007000	  0.00003400	 -0.00005699	  0.00010600	 -0.00076602	 -0.00003286
60	  0.00009702	  0.00005598	  0.00017600	  0.00001002	 -0.00010300	  0.00000498	  0.00074811	 -0.00025487
61	 -0.00006397	 -0.00012201	  0.00055590	  0.00017515	  0.00005773	 -0.00046795	 -0.00017191	  0.00008700
62	 -0.00009301	  0.00004603	  0.00026201	 -0.00005497	 -0.00003208	  0.00031001	 -0.00064210	  0.00016504
63	  0.00016604	 -0.00001199	  0.00009801	 -0.00010700	 -0.00012504	 -0.00023801	  0.00067709	 -0.00066698
64	 -0.00016897	 -0.00003099	  0.00004200	  0.00004100	  0.00006398	  0.00033699	 -0.00073293	  0.00026021
65	  0.00009801	  0.00002698	  0.00019100	 -0.00000498	 -0.00007099	 -0.00005101	  0.00035905	 -0.00013291
66	  0.00005200	 -0.00002300	  0.00008399	  0.00014700	 -0.00014697	 -0.00004201	  0.00010898	  0.00025198
67	 -0.00005500	  0.00001800	  0.00007201	 -0.00017100	  0.00016103	  0.00007200	 -0.00024403	 -0.00041003
68	  0.00003000	  0.00003801	  0.00014102	 -0.00014499	  0.00008299	 -0.00016003	  0.00034001	 -0.00006500
69	 -0.00001699	 -0.00006199	  0.00015398	  0.00013401	 -0.00004304	  0.00032895	  0.00000596	  0.00028596
70	  0.00002700	  0.00004100	  0.00020896	  0.00019002	 -0.00024301	 -0.00028989	  0.00009302	  0.00007499
71	 -0.00001100	  0.00001000	  0.00010500	 -0.00002599	  0.00012697	 -0.00033402	 -0.00029294	  0.00025494
72	 -0.00012202	  0.00005501	  0.00008401	 -0.00008400	  0.00013497	  0.00050605	 -0.00018400	  0.00015409
73	  0.00012199	 -0.00004002	  0.00019198	  0.00009702	 -0.00013993	 -0.00027200	  0.00042607	 -0.00027878
74	 -0.00004200	 -0.00003301	  0.00006501	 -0.00020600	  0.00016904	  0.00000599	 -0.00001303	 -0.00052111
75	 -0.00010901	 -0.00000901	  0.00008898	  0.00020000	 -0.00033391	  0.00020599	 -0.00045208	 -0.00024182
76	  0.00001000	  0.00004101	  0.00004901	 -0.00014300	  0.00037206	 -0.00006599	 -0.00001703	  0.00072010
77	  0.00002500	 -0.00003399	  0.00009699	  0.00007600	 -0.00023700	 -0.00016796	 -0.00013306	 -0.00042898
78	  0.00002800	  0.00010003	  0.00013004	 -0.00030599	  0.00038310	  0.00009708	  0.00047392	  0.00036113
79	 -0.00002099	 -0.00002799	  0.00003899	  0.00031000	 -0.00014096	  0.00002200	 -0.00015997	  0.00002200
80	 -0.00001200	 -0.00004099	  0.00011198	  0.00019101	 -0.00017598	 -0.00008796	 -0.00005896	  0.00031494
81	  0.00015399	  0.00004796	  0.00029204	 -0.00013996	  0.00034908	 -0.00010491	  0.00056885	  0.00009924
82	 -0.00014403	  0.00001597	  0.00018701	 -0.00004198	 -0.00013997	  0.00020503	 -0.00045306	  0.00013818
83	  0.00008300	 -0.00001600	  0.00000400	  0.00004300	 -0.00009699	 -0.00020799	 -0.00012500	 -0.00079599
84	 -0.00010902	  0.00001399	  0.00010602	 -0.00014599	 -0.00003502	 -0.00012101	 -0.00006897	  0.00043306
85	 -0.00005500	  0.00007599	  0.00008198	  0.00024800	 -0.00010199	  0.00023793	 -0.00033399	  0.00046294
86	 -0.00001401	 -0.00005802	  0.00000400	 -0.00028300	  0.00016405	 -0.00016004	  0.00017402	 -0.00046210
87	 -0.00005400	 -0.00009500	  0.00032204	 -0.00013195	  0.00011191	  0.00032708	  0.00007739	 -0.00119916
88	  0.00039685	 -0.00019619	  0.00057788	  0.00020817	 -0.00015492	 -0.00007407	  0.00036737	  0.00106202
89	  0.00018602	 -0.00014306	  0.00045292	  0.00017010	 -0.00032213	  0.00041878	  0.00030240	 -0.00077486
90	 -0.00001200	 -0.00004599	  0.00011998	  0.00019401	 -0.00004100	 -0.00009198	 -0.00013693	  0.00043492
91	  0.00006201	  0.00002498	  0.00030702	 -0.00007195	  0.00000499	  0.00003700	  0.00012995	  0.00018005
92	 -0.00010196	 -0.00009898	  0.00004399	  0.00018500	  0.00002199	  0.00020796	 -0.00043091	  0.00000307
93	  0.00002601	 -0.00003602	  0.00022507	 -0.00029097	 -0.00007304	  0.00010501	  0.00032941	 -0.00129634
94	 -0.00000700	 -0.00002400	  0.00027000	  0.00001204	  0.00031593	 -0.00026008	  0.00002428	  0.00106299
95	  0.00003000	  0.00002299	  0.00018296	  0.00024402	 -0.00048295	  0.00035782	 -0.00040198	 -0.00063477
96	  0.00021397	 -0.00004497	  0.00018003	 -0.00015598	  0.00016688	 -0.00082816	  0.00081499	 -0.00003048
97	 -0.00008999	  0.00003600	  0.00008099	  0.00016300	 -0.00003901	  0.00019197	 -0.00039398	  0.00040698
98	 -0.00016697	 -0.00007602	  0.00012900	 -0.00000199	  0.00011300	  0.00003099	 -0.00037690	  0.00042006
99	 -0.00004501	 -0.00001600	  0.00008201	 -0.00009700	 -0.00013102	  0.00009900	 -0.00008096	 -0.00071907
100	  0.00002000	 -0.00001201	  0.00019803	 -0.00017198	  0.00014696	  0.00030508	  0.00014101	 -0.00001402
101	  0.00011301	  0.00006696	  0.00027596	  0.00014304	  0.00000602	 -0.00006199	  0.00023294	  0.00007707
102	 -0.00003999	 -0.00005200	  0.00013000	  0.00002101	  0.00009599	 -0.00007101	 -0.00003696	  0.00024400
103	 -0.00007601	 -0.00000500	  0.00003601	 -0.00019900	  0.00003700	  0.00028806	 -0.00009799	 -0.00064210
104	  0.00006698	  0.00001400	  0.00007098	  0.00024300	  0.00007096	 -0.00028494	 -0.00031080	  0.00139459
105	  0.00000001	 -0.00008801	  0.00000000	 -0.00013700	 -0.00008001	  0.00012602	  0.00022705	 -0.00141922
106	 -0.00005799	 -0.00002996	  0.00046183	  0.00037511	 -0.00039616	  0.00067256	 -0.00026401	  0.00000705
107	 -0.00007404	 -0.00018201	  0.00020403	 -0.00016098	  0.00015202	  0.00001103	 -0.00099001	 -0.00000519
108	  0.00000197	 -0.00010600	  0.00023801	 -0.00003697	  0.00009302	 -0.00008798	  0.00025210	 -0.00046794
109	  0.00001599	 -0.00003402	  0.00022308	 -0.00036498	  0.00035312	  0.00002809	  0.00008504	 -0.00017705
110	  0.00002601	 -0.00004601	  0.00031299	  0.00004005	 -0.00014911	  0.00037494	  0.00019223	 -0.00068198
111	 -0.00003000	 -0.00002401	  0.00022303	 -0.00011998	  0.00006998	 -0.00012303	 -0.00022104	 -0.00011999
112	  0.00004200	  0.00001401	  0.00015199	  0.00007701	 -0.00005501	 -0.00010298	 -0.00004302	 -0.00011699
113	  0.00020999	  0.00003197	  0.00013599	  0.00009501	 -0.00007102	  0.00021997	  0.00003299	  0.00006099
114	  0.00023000	  0.00005705	  0.00017003	 -0.00015799	  0.00020698	 -0.00028608	  0.00040906	  0.00046312
115	 -0.00009500	  0.00002202	  0.00036183	  0.00045607	 -0.00041303	  0.00059358	 -0.00011298	 -0.00003796
116	  0.00001801	 -0.00004600	  0.00047009	 -0.00018989	 -0.00011923	 -0.00043903	 -0.00032618	 -0.00016102
117	  0.00038988	 -0.00011111	  0.00028301	 -0.00002796	  0.00020206	 -0.00018895	  0.00054882	  0.00029427
118	  0.00061899	 -0.00020258	  0.00101676	  0.00023652	 -0.00046917	  0.00027746	  0.00011861	 -0.00056978
119	  0.00033893	 -0.00014596	  0.00013901	 -0.00003999	  0.00009094	 -0.00046703	  0.00004604	  0.00030703
120	  0.00006000	 -0.00003002	  0.00032096	  0.00013405	 -0.00013109	  0.00034991	  0.00026100	  0.00000999
121	 -0.00002101	 -0.00004799	  0.00017600	  0.00002802	 -0.00027300	  0.00001795	 -0.00067416	 -0.00000411
122	  0.00031103	 -0.00000904	  0.00012002	 -0.00012499	  0.00002703	 -0.00024303	  0.00051210	 -0.00040186
123	  0.00176490	 -0.00027711	  0.00123171	  0.00023276	  0.00010868	 -0.00056973	  0.00010979	  0.00095098
124	  0.00441437	 -0.00133106	  0.00219163	 -0.00028560	 -0.00028204	 -0.00093189	  0.00295513	 -0.00020083
124	  0.00108101	  0.00004102	  0.00004796	  0.00086900	 -0.00088023	  0.00000304	  0.00125913	  0.00233890
125	  0.00472516	 -0.00224200	  0.00149562	  0.00092412	 -0.00080463	 -0.00175558	  0.00188122	  0.00237992
125	  0.00119602	 -0.00031659	  0.00012190	  0.00084301	 -0.00097225	 -0.00056041	  0.00085319	  0.00065782
126	  0.00552961	 -0.00407651	  0.00126653	  0.00036780	 -0.00038103	 -0.00302237	  0.00055804	  0.00076811
126	  0.00099335	 -0.00073921	  0.00086940	 -0.00046562	  0.00018524	  0.00096861	  0.00015272	 -0.00193091
127	  0.00628552	 -0.00767102	  0.00356301	  0.00084035	 -0.00103396	 -0.00201401	  0.00002052	  0.00013600
127	  0.00114227	 -0.00153827	  0.00044022	 -0.00049890	  0.00090391	 -0.00103712	 -0.00107759	  0.00005844
128	  0.00764206	 -0.00957503	  0.00611353	  0.00449877	 -0.00483282	 -0.00138846	  0.00217527	  0.00123081
128	  0.00157428	 -0.00175724	  0.00056016	  0.00150716	 -0.00180489	 -0.00068997	 -0.00000313	  0.00023864
129	  0.00804845	 -0.01083941	  0.00728096	  0.00125054	 -0.00286257	  0.00055845	  0.00368805	 -0.00301856
129	  0.00149065	 -0.00138111	  0.00056498	  0.00003716	  0.00040879	 -0.00033622	  0.00024685	  0.00523775
130	  0.00944338	 -0.01543775	  0.00152279	 -0.00117184	  0.00177514	 -0.00456606	  0.00275080	  0.00096949
130	  0.00151448	 -0.00298009	  0.00028734	 -0.00118296	  0.00095177	 -0.00125376	 -0.00131405	 -0.00260535
130	  0.00018412	 -0.00070605	  0.00068017	 -0.00024377	  0.00035176	 -0.00047936	 -0.00092980	 -0.00132314
131	  0.01016786	 -0.02280856	  0.00604598	 -0.00544882	  0.00607560	  0.00139509	  0.00493600	 -0.00784962
131	  0.00173294	 -0.00348464	  0.00220202	  0.00044643	 -0.00047086	  0.00178225	 -0.00008090	  0.00640348
131	  0.00033432	 -0.00090437	  0.00119669	  0.00025772	 -0.00012092	 -0.00079465	 -0.00082427	  0.00135098
132	  0.01052071	 -0.03352711	  0.01041976	 -0.00302988	  0.00415500	  0.00107716	  0.00564653	 -0.00409660
132	  0.00189261	 -0.00588205	  0.00485399	 -0.00308426	  0.00302098	 -0.00069778	  0.00054198	 -0.00063321
132	  0.00034427	 -0.00122016	  0.00123160	 -0.00129824	  0.00125438	 -0.00020181	 -0.00014529	  0.00058591
133	  0.01066678	 -0.04676163	  0.00396176	  0.00612090	 -0.00268168	  0.00650492	  0.00009652	  0.00222041
133	  0.00153636	 -0.00990673	  0.00417946	 -0.00848034	  0.00823388	 -0.00096935	 -0.00281811	 -0.00753086
133	  0.00026688	 -0.00226082	  0.00164282	 -0.00232365	  0.00236344	 -0.00125379	 -0.00142409	 -0.00191289
134	  0.01109202	 -0.05734223	  0.00200661	  0.02212406	 -0.01766416	  0.00484166	 -0.00420208	  0.00887891
134	  0.00284387	 -0.01472830	  0.00360520	 -0.01475460	  0.01427266	 -0.00028795	  0.00082833	 -0.01048553
134	  0.00045710	 -0.00346821	  0.00164504	 -0.00488765	  0.00526616	 -0.00157733	 -0.00155552	 -0.00126306
134	  0.00014358	 -0.00086806	  0.00144211	 -0.00146396	  0.00194618	 -0.00185552	 -0.00025758	  0.00089821
135	  0.01247785	 -0.06402976	  0.00757698	  0.03432669	 -0.02895484	  0.00994113	 -0.00519334	  0.00782549
135	  0.00475757	 -0.02383751	  0.00685286	 -0.02419609	  0.02387105	 -0.00210562	  0.00470532	 -0.02257632
135	  0.00111071	 -0.00597904	  0.00245126	 -0.00948602	  0.00990537	 -0.00313783	  0.00004605	 -0.00203326
135	  0.00023775	 -0.00167095	  0.00088674	 -0.00308661	  0.00326766	 -0.00161387	 -0.00057528	 -0.00156525
136	  0.01158089	 -0.06627595	  0.01337145	  0.04584149	 -0.03659905	  0.01497320	 -0.01358885	  0.01689576
136	  0.00682106	 -0.03384779	  0.01407952	 -0.02081495	  0.02042910	 -0.00566613	  0.00838722	 -0.02420973
136	  0.00181531	 -0.00903144	  0.00656537	 -0.01406175	  0.01530830	 -0.00406129	  0.00161525	 -0.00093938
136	  0.00042164	 -0.00231926	  0.00189987	 -0.00519520	  0.00579221	 -0.00152990	  0.00026833	  0.00184046
136	  0.00013783	 -0.00075229	  0.00086462	 -0.00187063	  0.00206795	 -0.00106277	  0.00002437	  0.00043181
137	  0.01095232	 -0.06788980	  0.02084098	  0.05861589	 -0.04808704	  0.01530552	 -0.01910017	  0.02904262
137	  0.00749631	 -0.04617522	  0.01258495	 -0.01880230	  0.01676966	 -0.00104887	  0.00643581	 -0.03852656
137	  0.00295808	 -0.01462820	  0.01228069	 -0.02519349	  0.02715918	 -0.00610231	  0.00885387	 -0.01101040
137	  0.00071625	 -0.00464094	  0.00437936	 -0.01012651	  0.01137279	 -0.00310982	  0.00084515	  0.00141019
137	  0.00019104	 -0.00148111	  0.00110597	 -0.00359039	  0.00409960	 -0.00101617	 -0.00042005	  0.00066944
138	  0.00723136	 -0.06657137	  0.02864976	  0.07338449	 -0.05493897	  0.01660081	 -0.04004417	  0.06950467
138	  0.00848781	 -0.05807290	  0.00194425	  0.00398890	 -0.01121752	  0.00704680	  0.00386810	 -0.05230131
138	  0.00662602	 -0.02607553	  0.01900725	 -0.03930847	  0.03942499	 -0.01027348	  0.02262887	 -0.03978288
138	  0.00226461	 -0.00897969	  0.00850675	 -0.02029555	  0.02198202	 -0.00466708	  0.00708726	 -0.00203126
138	  0.00079662	 -0.00315341	  0.00280366	 -0.00843810	  0.00936501	 -0.00145633	  0.00191994	  0.00128523
138	  0.00027324	 -0.00114388	  0.00116226	 -0.00366633	  0.00414824	 -0.00084089	  0.00029186	  0.00172523
139	  0.00586437	 -0.06384389	  0.03024178	  0.08376555	 -0.05924232	  0.01362322	 -0.05140395	  0.10782528
139	  0.00859586	 -0.06522924	  0.00736047	  0.02181868	 -0.03161168	  0.01283457	  0.00210019	 -0.05827928
139	  0.00757156	 -0.03347639	  0.02057547	 -0.04253033	  0.04039418	 -0.00994887	  0.02540722	 -0.05965184
139	  0.00336729	 -0.01240534	  0.01387542	 -0.02745738	  0.03025792	 -0.00783414	  0.01238369	 -0.00939671
139	  0.00092743	 -0.00435755	  0.00427448	 -0.01157197	  0.01286906	 -0.00212498	  0.00210253	  0.00140671
139	  0.00026943	 -0.00160911	  0.00165376	 -0.00469064	  0.00537309	 -0.00128588	  0.00006809	  0.00190391
140	  0.00447572	 -0.06322605	  0.03039546	  0.08763238	 -0.06109425	  0.01162933	 -0.06235490	  0.12299281
140	  0.00899007	 -0.06714075	  0.01156051	  0.02739965	 -0.03794468	  0.01336602	  0.00262486	 -0.06261667
140	  0.00819235	 -0.03524641	  0.01858210	 -0.04494012	  0.04143569	 -0.00717180	  0.03026678	 -0.07280496
140	  0.00444432	 -0.01476110	  0.01451512	 -0.03373221	  0.03655349	 -0.00807590	  0.01871887	 -0.01762955
140	  0.00131492	 -0.00538515	  0.00490890	 -0.01586514	  0.01759465	 -0.00200889	  0.00449474	  0.00108705
140	  0.00024306	 -0.00211250	  0.00116515	 -0.00699733	  0.00794550	 -0.00008781	 -0.00068036	  0.00175300
140	  0.00013697	 -0.00094215	  0.00046157	 -0.00340989	  0.00393623	 -0.00041924	 -0.00032821	  0.00134861
141	  0.00248587	 -0.06014092	  0.03243311	  0.09900798	 -0.06709988	  0.00871307	 -0.08152151	  0.16511830
141	  0.00870689	 -0.06999557	  0.02149477	  0.03954214	 -0.05305655	  0.01784809	 -0.00169977	 -0.06089032
141	  0.00947390	 -0.04338063	  0.01662032	 -0.04371692	  0.03518781	 -0.00296631	  0.03327509	 -0.10494480
141	  0.00637719	 -0.02014596	  0.01821508	 -0.04337731	  0.04572455	 -0.00792681	  0.02903139	 -0.03471418
141	  0.00225903	 -0.00820555	  0.00888105	 -0.02386350	  0.02660345	 -0.00327900	  0.00896108	 -0.00244040
141	  0.00060531	 -0.00330921	  0.00277272	 -0.01143920	  0.01301407	 -0.00031123	  0.00125764	  0.00270889
141	  0.00012488	 -0.00122962	  0.00033353	 -0.00460094	  0.00515185	  0.00043931	 -0.00054104	  0.00201871
142	  0.00409657	 -0.05976876	  0.03102507	  0.09877177	 -0.06375896	  0.00345719	 -0.07282765	  0.17226381
142	  0.00875931	 -0.07035587	  0.02037330	  0.04408568	 -0.05617206	  0.01646779	 -0.00339183	 -0.04720591
142	  0.00918985	 -0.04465799	  0.01819470	 -0.03741367	  0.02862660	 -0.00736507	  0.02941655	 -0.09167283
142	  0.00613848	 -0.01960941	  0.01780541	 -0.04192613	  0.04415622	 -0.01018790	  0.02768205	 -0.03347652
142	  0.00179451	 -0.00703809	  0.00544491	 -0.01926246	  0.02104398	 -0.00237618	  0.00645765	 -0.00420930
142	  0.00043768	 -0.00260186	  0.00139195	 -0.00786304	  0.00873686	 -0.00061490	  0.00050231	  0.00051566
142	  0.00013805	 -0.00101829	  0.00033610	 -0.00327194	  0.00367495	 -0.00023500	 -0.00035155	  0.00091904
143	  0.00438123	 -0.06336283	  0.03029595	  0.09074153	 -0.06271134	  0.00606748	 -0.06407610	  0.13908352
143	  0.01006955	 -0.06979298	  0.01621434	  0.03419194	 -0.04510205	  0.01139370	  0.00673631	 -0.05443951
143	  0.00888911	 -0.03866089	  0.01436185	 -0.04500651	  0.04018832	 -0.00483947	  0.03173891	 -0.08104778
143	  0.00417719	 -0.01532708	  0.01054915	 -0.03450128	  0.03651805	 -0.00469621	  0.01683520	 -0.01739757
143	  0.00136818	 -0.00585387	  0.00227427	 -0.01638546	  0.01749164	 -0.00000521	  0.00429448	 -0.00313615
143	  0.00045060	 -0.00224884	  0.00046028	 -0.00713589	  0.00770091	 -0.00009318	  0.00068473	  0.00017298
144	  0.00587651	 -0.06300788	  0.02996738	  0.09044860	 -0.06149123	  0.00431291	 -0.06257328	  0.13942030
144	  0.01008131	 -0.06988723	  0.01656608	  0.03614017	 -0.04532794	  0.01297202	  0.00374682	 -0.04675970
144	  0.00917179	 -0.03997451	  0.01792884	 -0.04366830	  0.03785965	 -0.00795783	  0.03202050	 -0.07898334
144	  0.00413972	 -0.01521863	  0.01094256	 -0.03302211	  0.03399668	 -0.00471882	  0.01663715	 -0.02064815
144	  0.00111477	 -0.00537742	  0.00232528	 -0.01431234	  0.01518798	 -0.00019054	  0.00363054	 -0.00526919
144	  0.00038522	 -0.00206558	  0.00084587	 -0.00576164	  0.00611466	 -0.00068408	  0.00068524	 -0.00183469
145	  0.00724686	 -0.06560906	  0.02860244	  0.08022984	 -0.05692018	  0.00879577	 -0.04697598	  0.10680850
145	  0.01066461	 -0.06615078	  0.00804164	  0.02343409	 -0.03022876	  0.00682159	  0.01010687	 -0.04888005
145	  0.00706103	 -0.03080489	  0.01505957	 -0.04143731	  0.03909432	 -0.00795899	  0.02445947	 -0.05447970
145	  0.00230281	 -0.01082005	  0.00508134	 -0.02387540	  0.02461298	 -0.00140566	  0.00879475	 -0.01652846
145	  0.00052036	 -0.00366339	  0.00092506	 -0.00979058	  0.01047664	  0.00007413	  0.00067984	 -0.00301419
145	  0.00013571	 -0.00140577	  0.00015865	 -0.00412099	  0.00442920	 -0.00033508	 -0.00049305	 -0.00124421
146	  0.00391987	 -0.06207720	  0.02809050	  0.08285720	 -0.05781784	  0.00880383	 -0.07729533	  0.12458233
146	  0.00962485	 -0.06615937	  0.00410389	  0.02805066	 -0.03783355	  0.00698744	 -0.00107429	 -0.04866887
146	  0.01048278	 -0.03669689	  0.01795863	 -0.04241459	  0.03783288	 -0.00910831	  0.03586235	 -0.07057666
146	  0.00445963	 -0.01467870	  0.00975185	 -0.03134794	  0.03221356	 -0.00240891	  0.01830009	 -0.02297294
146	  0.00140729	 -0.00496031	  0.00238608	 -0.01302519	  0.01352106	  0.00038720	  0.00489710	 -0.00269872
146	  0.00037965	 -0.00180334	  0.00016184	 -0.00521099	  0.00542942	  0.00079829	  0.00078982	 -0.00016863
147	  0.00829956	 -0.06092306	  0.02203350	  0.07994313	 -0.05363208	  0.00061123	 -0.06512994	  0.12874030
147	  0.01260955	 -0.06532339	  0.00310917	  0.03789802	 -0.04422243	  0.00190510	  0.00771610	 -0.02893791
147	  0.01071067	 -0.03272180	  0.01159199	 -0.04009151	  0.03467032	 -0.00322633	  0.03941899	 -0.06692832
147	  0.00353033	 -0.01069750	  0.00234243	 -0.02323432	  0.02230221	  0.00173837	  0.01384281	 -0.01982659
147	  0.00102569	 -0.00363299	  0.00046541	 -0.00948589	  0.00946187	  0.00024496	  0.00320419	 -0.00688760
147	  0.00027678	 -0.00118112	  0.00024083	 -0.00343597	  0.00356122	  0.00008515	  0.00045334	 -0.00163655
148	  0.01423916	 -0.06613162	  0.02087663	  0.06773067	 -0.05109296	  0.00218191	 -0.03120811	  0.07460963
148	  0.01256023	 -0.05307332	  0.00069710	  0.01133425	 -0.01440793	  0.00032516	  0.01290299	 -0.02017660
148	  0.00508353	 -0.01695553	  0.00135991	 -0.02714410	  0.02521402	  0.00195367	  0.01279422	 -0.02666345
148	  0.00142866	 -0.00473645	  0.00048308	 -0.01050788	  0.01019893	  0.00050215	  0.00230724	 -0.00476409
148	  0.00040170	 -0.00123985	  0.00099457	 -0.00359051	  0.00340956	  0.00068885	  0.00062932	 -0.00121015
149	  0.01362969	 -0.06733475	  0.02238234	  0.06557190	 -0.05200680	  0.00264595	 -0.03358008	  0.06431161
149	  0.01232204	 -0.05019123	  0.00256315	 -0.00591073	  0.00201026	  0.00142254	  0.01467296	 -0.02690842
149	  0.00496185	 -0.01679577	  0.00243434	 -0.03259213	  0.03244120	  0.00202976	  0.01606848	 -0.02550289
149	  0.00170357	 -0.00532030	  0.00073625	 -0.01392073	  0.01402957	  0.00101836	  0.00490630	 -0.00672189
149	  0.00062150	 -0.00168165	  0.00060268	 -0.00611282	  0.00641030	 -0.00019737	  0.00189432	 -0.00134269
149	  0.00035349	 -0.00056228	  0.00035689	 -0.00250294	  0.00276051	 -0.00111377	  0.00144680	  0.00046927
150	  0.01475845	 -0.06573047	  0.02450250	  0.06281403	 -0.04835350	  0.00423807	 -0.02657508	  0.06603620
150	  0.01277731	 -0.05374392	  0.00298816	  0.00664049	 -0.01147620	 -0.00310885	  0.01299235	 -0.03071813
150	  0.00490967	 -0.01727358	  0.00234968	 -0.02667431	  0.02502745	  0.00034496	  0.01351243	 -0.02793545
150	  0.00156856	 -0.00490936	  0.00077960	 -0.01103070	  0.01056276	 -0.00031635	  0.00457616	 -0.00840370
150	  0.00058499	 -0.00165120	  0.00029626	 -0.00425696	  0.00402343	 -0.00101614	  0.00183460	 -0.00386505
150	  0.00027238	 -0.00066530	  0.00051311	 -0.00216087	  0.00231229	 -0.00138618	  0.00102339	 -0.00089204
151	  0.01706290	 -0.06410751	  0.01892341	  0.06118300	 -0.04958316	  0.00245937	 -0.01852388	  0.05274570
151	  0.01164598	 -0.03970240	  0.00333478	 -0.00532847	  0.00138889	  0.00106026	  0.01324661	 -0.02059181
151	  0.00337766	 -0.01026334	  0.00190320	 -0.01428921	  0.01372307	 -0.00429107	  0.00565678	 -0.01305642
151	  0.00080466	 -0.00269574	  0.00083338	 -0.00645665	  0.00658915	 -0.00168634	  0.00215979	 -0.00484144
151	  0.00010447	 -0.00096833	  0.00046309	 -0.00235789	  0.00234257	 -0.00009013	 -0.00037341	 -0.00345736
152	  0.01716093	 -0.06322533	  0.01610457	  0.04900203	 -0.04215346	  0.00226902	 -0.01280605	  0.03824823
152	  0.00975655	 -0.03048350	  0.00128938	 -0.01580718	  0.01274038	 -0.00238284	  0.01455598	 -0.02171687
152	  0.00265876	 -0.00761991	  0.00006474	 -0.01138300	  0.01083040	 -0.00179777	  0.00646200	 -0.00984516
152	  0.00063215	 -0.00183180	  0.00147422	 -0.00421692	  0.00475806	 -0.00341137	  0.00037454	  0.00050184
153	  0.01580018	 -0.06246245	  0.01521040	  0.04458883	 -0.03695370	  0.00755014	 -0.00849921	  0.03682830
153	  0.00897383	 -0.02650380	  0.00408422	 -0.01767981	  0.01360624	 -0.00459283	  0.01741205	 -0.02888619
153	  0.00185172	 -0.00588123	  0.00323195	 -0.00988283	  0.01003201	 -0.00380977	  0.00155870	 -0.00475215
153	  0.00043911	 -0.00141046	  0.00243508	 -0.00249504	  0.00317726	 -0.00357064	 -0.00049778	  0.00242149
153	  0.00023471	 -0.00042191	  0.00116352	 -0.00044432	  0.00070232	 -0.00171658	  0.00032554	  0.00053742
154	  0.01356751	 -0.06114217	  0.01482597	  0.03639490	 -0.03285055	  0.01291276	  0.00246986	  0.02070447
154	  0.00509926	 -0.02167793	  0.00924226	 -0.01570296	  0.01437463	 -0.00832078	  0.00587269	 -0.02047345
154	  0.00118584	 -0.00492315	  0.00387760	 -0.00582653	  0.00589793	 -0.00453419	  0.00084831	 -0.00276359
154	  0.00045735	 -0.00096125	  0.00069859	 -0.00371376	  0.00379415	 -0.00134564	  0.00229302	 -0.00118794
155	  0.00765101	 -0.06170856	  0.01083340	  0.03699885	 -0.03245407	  0.02063905	 -0.00237512	  0.02363113
155	  0.00318742	 -0.02043101	  0.01323324	 -0.01706794	  0.01751309	 -0.01440184	 -0.00136279	 -0.02084483
155	  0.00084332	 -0.00477681	  0.00490685	 -0.00750605	  0.00846535	 -0.00724771	 -0.00043014	 -0.00442223
155	  0.00035343	 -0.00136763	  0.00226202	 -0.00177545	  0.00232107	 -0.00401137	 -0.00026929	 -0.00063860
156	  0.00548579	 -0.05811990	  0.00826735	  0.03069322	 -0.02501977	  0.01711412	  0.00141587	  0.02112707
156	  0.00228807	 -0.01773937	  0.00967973	 -0.00904758	  0.00829836	 -0.00866439	  0.00113609	 -0.01801607
156	  0.00073599	 -0.00419917	  0.00448568	 -0.00438498	  0.00512126	 -0.00677264	 -0.00041141	 -0.00239847
156	  0.00048852	 -0.00087971	  0.00224559	 -0.00204448	  0.00252696	 -0.00366316	  0.00188078	  0.00075520
157	  0.00520032	 -0.05149148	  0.00281767	  0.02957409	 -0.02409927	  0.01133686	 -0.00335276	  0.02441373
157	  0.00148377	 -0.01211978	  0.00662200	 -0.00678822	  0.00662537	 -0.00604373	  0.00039966	 -0.01009801
157	  0.00059918	 -0.00291748	  0.00314392	 -0.00251607	  0.00283520	 -0.00508671	 -0.00056128	 -0.00110487
157	  0.00026211	 -0.00072004	  0.00015924	 -0.00150399	  0.00140689	 -0.00142837	  0.00066480	 -0.00170272
158	  0.00454516	 -0.04152410	  0.00593423	  0.02389603	 -0.01883929	  0.00841559	  0.00077573	  0.01541584
158	  0.00108882	 -0.00865579	  0.00341829	 -0.00652020	  0.00650645	 -0.00707124	 -0.00234623	 -0.00710986
158	  0.00051920	 -0.00207213	  0.00245740	 -0.00260299	  0.00319076	 -0.00512417	 -0.00034105	 -0.00050923
158	  0.00017249	 -0.00045514	  0.00024510	 -0.00040597	  0.00044685	 -0.00134966	  0.00000077	 -0.00092938
159	 -0.00197437	 -0.03473539	  0.00750769	  0.01510161	 -0.01324968	  0.01212329	 -0.00275454	  0.00751491
159	 -0.00008204	 -0.00742766	  0.00269649	 -0.00611439	  0.00596935	 -0.00677947	 -0.00158705	 -0.00999557
159	  0.00012196	 -0.00161466	  0.00127279	 -0.00298019	  0.00310747	 -0.00377620	  0.00053744	 -0.00353921
159	  0.00000432	 -0.00051466	  0.00001302	 -0.00129200	  0.00126962	 -0.00134075	 -0.00027104	 -0.00239045
160	 -0.00424714	 -0.03132726	  0.00288165	  0.01469821	 -0.01212591	  0.01302515	  0.00161823	  0.00575867
160	 -0.00066233	 -0.00698190	  0.00475962	 -0.00453772	  0.00473899	 -0.00729564	 -0.00330101	 -0.00520895
160	 -0.00014405	 -0.00143701	  0.00134664	 -0.00196110	  0.00199317	 -0.00278514	 -0.00032570	 -0.00276389
161	 -0.00468397	 -0.02144910	  0.00296840	  0.01165846	 -0.00865029	  0.00496116	 -0.00386611	  0.00856707
161	 -0.00055317	 -0.00470669	  0.00345543	 -0.00186004	  0.00212138	 -0.00480729	 -0.00131289	 -0.00325984
161	  0.00001046	 -0.00107826	  0.00175708	 -0.00118546	  0.00149518	 -0.00318941	  0.00015649	 -0.00083176
162	 -0.00682494	 -0.01107696	  0.00089844	  0.00730041	 -0.00606611	  0.00706791	  0.00214728	  0.00458716
162	 -0.00164343	 -0.00238456	  0.00060240	 -0.00065782	  0.00023710	 -0.00175130	 -0.00116484	 -0.00057572
163	 -0.01226107	 -0.00708035	  0.00030205	  0.00315905	 -0.00200518	  0.00489116	 -0.00911716	  0.00788658
163	 -0.00191163	 -0.00201311	  0.00193020	 -0.00269514	  0.00304841	 -0.00457922	  0.00039806	 -0.00405188
163	 -0.00043671	 -0.00063531	  0.00076617	 -0.00153271	  0.00180218	 -0.00207155	 -0.00009767	 -0.00222354
164	 -0.01176656	 -0.00755683	  0.00461644	  0.00445770	 -0.00349900	  0.00659146	 -0.00302225	  0.00197626
164	 -0.00205728	 -0.00199171	  0.00074056	 -0.00210273	  0.00189440	 -0.00620144	  0.00002687	 -0.00153709
164	 -0.00033073	 -0.00071023	  0.00038359	 -0.00154793	  0.00153430	 -0.00281995	 -0.00005495	 -0.00246996
165	 -0.01160943	 -0.00670670	  0.00346863	  0.00356704	 -0.00282738	  0.00759810	 -0.00017878	  0.00112573
165	 -0.00242195	 -0.00187044	  0.00051443	 -0.00277987	  0.00277582	 -0.00369169	  0.00034231	 -0.00329708
165	 -0.00021905	 -0.00070054	  0.00041887	 -0.00207091	  0.00205886	 -0.00335381	  0.00151941	 -0.00147360
166	 -0.01072171	 -0.01051915	  0.00161173	  0.00575031	 -0.00562745	  0.00974684	 -0.00035540	  0.00027135
166	 -0.00231758	 -0.00258383	  0.00189453	 -0.00133221	  0.00148197	 -0.00264433	 -0.00257415	 -0.00451394
166	 -0.00057689	 -0.00076515	  0.00046253	 -0.00115089	  0.00113356	 -0.00161338	 -0.00097516	 -0.00246996
167	 -0.01105583	 -0.00965973	  0.00114718	  0.00507466	 -0.00281385	  0.00683059	 -0.00612547	  0.00765028
167	 -0.00156783	 -0.00225298	  0.00201822	 -0.00258497	  0.00251051	 -0.00545717	  0.00195435	  0.00109653
167	 -0.00024591	 -0.00059089	  0.00115919	 -0.00102433	  0.00107695	 -0.00272204	  0.00066863	 -0.00028825
168	 -0.00806160	 -0.00771805	  0.00214205	  0.00371030	 -0.00257450	  0.00513742	  0.00017717	  0.00215248
168	 -0.00201134	 -0.00214186	  0.00083001	 -0.00242366	  0.00274781	 -0.00222968	 -0.00185843	 -0.00486037
168	 -0.00035797	 -0.00052579	  0.00038448	 -0.00123893	  0.00136981	 -0.00231139	 -0.00004256	 -0.00146189
169	 -0.00586213	 -0.00420608	  0.00231232	  0.00245868	 -0.00227740	  0.00344725	  0.00184942	  0.00139845
169	 -0.00058600	 -0.00114875	  0.00011618	 -0.00158199	  0.00118124	 -0.00316888	  0.00316326	  0.00010554
170	 -0.00292045	  0.00053532	  0.00142045	 -0.00031799	 -0.00014962	 -0.00030031	  0.00139604	  0.00113376
171	 -0.00044921	  0.00220551	  0.00045589	 -0.00194990	  0.00122624	 -0.00186708	  0.00016110	 -0.00215082
172	  0.00229227	  0.00309687	  0.00058498	 -0.00168283	  0.00072459	 -0.00234753	 -0.00050617	 -0.00225528
172	  0.00038400	  0.00079625	  0.00017582	  0.00103102	 -0.00102997	 -0.00017364	 -0.00070871	  0.00165529
173	  0.00449365	  0.00191912	  0.00052568	 -0.00129386	  0.00060803	 -0.00237275	  0.00034944	  0.00151798
173	  0.00086702	  0.00049526	  0.00051670	  0.00058713	 -0.00067493	  0.00062329	 -0.00007894	  0.00180895
174	  0.00517027	  0.00112295	  0.00030067	 -0.00222295	  0.00163039	 -0.00253916	 -0.00031486	 -0.00109232
174	  0.00109802	  0.00047381	  0.00087457	  0.00048638	 -0.00039535	  0.00061835	 -0.00039637	  0.00160312
175	  0.00431845	  0.00148378	  0.00004605	 -0.00106300	  0.00021317	 -0.00124734	  0.00148423	 -0.00066392
175	  0.00100467	  0.00044996	  0.00075153	  0.00063028	 -0.00106617	  0.00244466	  0.00056539	 -0.00152100
176	  0.00368669	 -0.00200600	  0.00065514	 -0.00020879	 -0.00015903	  0.00001211	  0.00036748	 -0.00252877
176	  0.00059824	 -0.00024569	  0.00017086	  0.00084401	 -0.00075819	  0.00101028	 -0.00138789	 -0.00006730
177	  0.00245545	 -0.00142671	  0.00112459	  0.00036763	  0.00020834	 -0.00052004	 -0.00053905	  0.00234746
178	  0.00259591	 -0.00133632	  0.00163469	 -0.00042066	  0.00049288	 -0.00081215	 -0.00003568	  0.00141563
179	  0.00331214	 -0.00317395	  0.00111758	 -0.00051938	  0.00047039	  0.00013454	  0.00086360	 -0.00039729
179	  0.00085605	 -0.00047705	  0.00023612	 -0.00052097	  0.00068239	  0.00014992	  0.00111133	  0.00213969
180	  0.00200806	 -0.00224314	  0.00037415	 -0.00039493	  0.00002526	  0.00065825	  0.00192511	 -0.00160162
181	  0.00060596	 -0.00065459	  0.00089218	 -0.00019760	 -0.00040070	  0.00154566	  0.00105439	 -0.00251007
182	 -0.00036316	  0.00115691	  0.00121437	 -0.00030226	  0.00021283	  0.00062693	 -0.00014321	 -0.00099004
183	 -0.00105712	  0.00216125	  0.00003000	 -0.00009900	  0.00058406	 -0.00014000	 -0.00142339	  0.00284104
184	 -0.00209885	  0.00294671	  0.00051914	 -0.00027087	  0.00099636	 -0.00174999	 -0.00115414	  0.00389564
184	 -0.00046144	  0.00052853	  0.00077584	  0.00020330	  0.00008375	 -0.00158974	 -0.00029929	  0.00208933
185	 -0.00287708	  0.00168287	  0.00110280	  0.00017861	  0.00009750	  0.00043603	 -0.00242480	  0.00042131
186	 -0.00309484	  0.00056364	  0.00300484	 -0.00061049	  0.00090032	  0.00074416	 -0.00285117	 -0.00200268
186	 -0.00042124	 -0.00014480	  0.00077967	 -0.00086170	  0.00076111	 -0.00058591	  0.00029593	 -0.00372381
187	 -0.00253947	  0.00070694	  0.00237011	 -0.00131219	  0.00170182	  0.00017526	 -0.00195702	  0.00159380
187	 -0.00041213	 -0.00010390	  0.00055069	 -0.00124485	  0.00122886	 -0.00059807	  0.00008331	 -0.00238688
188	 -0.00154901	  0.00089992	  0.00139817	 -0.00083602	  0.00092214	  0.00044966	  0.00033258	  0.00027755
189	 -0.00018707	  0.00048562	  0.00030035	 -0.00116895	  0.00063467	  0.00023246	  0.00142682	 -0.00353303
190	  0.00078945	  0.00072042	  0.00074386	 -0.00115472	  0.00060413	 -0.00076734	  0.00035111	 -0.00146468
191	  0.00160041	  0.00158443	  0.00120814	 -0.00094427	 -0.00022956	 -0.00028099	  0.00022834	  0.00006085
192	  0.00308866	  0.00312915	  0.00050390	 -0.00178987	  0.00083545	 -0.00009058	  0.00279650	  0.00164379
192	  0.00068490	  0.00105734	  0.00024688	  0.00046803	 -0.00065904	  0.00141118	  0.00170354	  0.00318253
193	  0.00344940	  0.00445004	  0.00098475	 -0.00279152	  0.00179145	 -0.00147636	  0.00340275	  0.00069229
193	  0.00067594	  0.00125515	  0.00013692	  0.00060101	 -0.00020987	 -0.00002301	  0.00051128	  0.00377881
194	  0.00402572	  0.00529409	  0.00202099	 -0.00098296	  0.00005240	 -0.00363848	  0.00244204	 -0.00086204
194	  0.00115846	  0.00122322	  0.00302129	  0.00023657	 -0.00080348	  0.00154321	  0.00118991	 -0.00139992
194	  0.00047335	  0.00026927	  0.00145981	  0.00013207	 -0.00053920	  0.00086810	  0.00111290	 -0.00167912
195	  0.00450821	  0.00538560	  0.00070742	 -0.00200275	  0.00185261	 -0.00552376	  0.00123502	  0.00166602
195	  0.00100546	  0.00161824	  0.00084952	  0.00055936	 -0.00044570	  0.00111300	  0.00098101	  0.00338085
196	  0.00436133	  0.00541504	  0.00160005	 -0.00315372	  0.00267315	 -0.00331171	  0.00057505	  0.00111149
196	  0.00072013	  0.00176523	  0.00061488	  0.00182219	 -0.00140457	  0.00140630	 -0.00053118	  0.00583944
196	  0.00007234	  0.00050556	  0.00003497	  0.00086200	 -0.00075639	  0.00131884	 -0.00050898	  0.00094784
197	  0.00393492	  0.00323792	  0.00278215	 -0.00184814	  0.00178770	 -0.00237937	 -0.00140187	 -0.00064162
197	  0.00047600	  0.00045260	  0.00114135	 -0.00030935	  0.00043446	  0.00321649	 -0.00293906	 -0.00487442
197	 -0.00011709	  0.00015711	  0.00168903	  0.00057443	 -0.00074020	  0.00214352	 -0.00229357	 -0.00225466
198	  0.00329522	  0.00198359	  0.00151499	 -0.00131085	  0.00095769	 -0.00103681	  0.00098374	 -0.00370633
198	  0.00104118	  0.00073120	  0.00022283	  0.00077702	 -0.00097230	  0.00025558	  0.00138599	  0.00125998
199	  0.00237123	  0.00225414	  0.00077710	 -0.00012970	  0.00002940	 -0.00077212	  0.00270462	  0.00045605
200	  0.00088105	  0.00311173	  0.00048620	 -0.00041888	  0.00042324	  0.00013885	  0.00045450	  0.00104015
201	  0.00025825	  0.00332904	  0.00000000	  0.00028800	 -0.00033390	  0.00022793	 -0.00068203	  0.00150872
202	  0.00113864	  0.00308591	  0.00102758	  0.00138053	 -0.00131348	 -0.00028525	  0.00156527	  0.00327532
202	  0.00019151	  0.00099750	  0.00060901	  0.00162519	 -0.00145112	  0.00085150	  0.00048613	  0.00362140
203	  0.00214795	  0.00157461	  0.00077646	 -0.00059870	 -0.00009539	 -0.00043519	  0.00153223	 -0.00107317
204	  0.00263335	  0.00144352	  0.00050207	 -0.00013987	  0.00007570	 -0.00062813	  0.00136980	  0.00142737
205	  0.00208178	  0.00066248	  0.00002202	 -0.00079300	  0.00033923	  0.00177642	  0.00106558	 -0.00415016
205	  0.00023084	  0.00011582	  0.00068585	  0.00022424	 -0.00032547	  0.00224627	 -0.00108794	 -0.00315959
206	  0.00102045	  0.00029373	  0.00027001	 -0.00003096	 -0.00059827	  0.00092387	 -0.00039860	 -0.00240381
207	  0.00076801	  0.00042372	  0.00104281	  0.00018654	 -0.00068005	 -0.00017226	  0.00069495	 -0.00133236
208	  0.00076250	 -0.00056529	  0.00176187	  0.00064255	 -0.00087543	  0.00057218	  0.00120085	  0.00032399
209	  0.00058195	 -0.00040820	  0.00269546	  0.00057263	 -0.00049243	 -0.00026152	  0.00050476	  0.00214955
210	 -0.00000035	  0.00025573	  0.00183305	  0.00106168	 -0.00114463	 -0.00046141	  0.00139946	  0.00345442
211	 -0.00081324	  0.00028766	  0.00017188	  0.00069201	 -0.00078639	  0.00039686	  0.00071000	 -0.00039113
212	 -0.00161719	 -0.00018501	  0.00069257	  0.00061824	 -0.00093568	  0.00106999	 -0.00037073	 -0.00088680
213	 -0.00221941	  0.00034803	  0.00029774	  0.00087704	 -0.00090400	  0.00071165	 -0.00044148	 -0.00156518
214	 -0.00260663	  0.00074344	  0.00013583	  0.00122501	 -0.00126956	  0.00081583	 -0.00125080	 -0.00186287
215	 -0.00257017	  0.00047682	  0.00022372	  0.00126003	 -0.00118139	  0.00055257	  0.00005343	 -0.00251088
216	 -0.00274671	  0.00038807	  0.00017580	  0.00115602	 -0.00094181	  0.00059048	  0.00060582	 -0.00028314
217	 -0.00278916	  0.00044583	  0.00051132	  0.00133713	 -0.00137648	  0.00062047	 -0.00010561	  0.00119042
218	 -0.00160172	  0.00083769	  0.00023902	 -0.00009097	  0.00017892	 -0.00040508	  0.00065744	  0.00207230
219	 -0.00147614	  0.00346389	  0.00023529	 -0.00122297	  0.00130435	 -0.00102756	  0.00081693	 -0.00000937
220	 -0.00225486	  0.00498058	  0.00043640	 -0.00091590	  0.00151996	 -0.00099557	 -0.00136160	  0.00133646
220	 -0.00061360	  0.00112014	  0.00044216	 -0.00036390	  0.00097215	 -0.00046860	 -0.00069174	  0.00188967
221	 -0.00229197	  0.00264429	  0.00031676	  0.00075005	  0.00026062	 -0.00058664	 -0.00242741	  0.00044401
222	 -0.00180703	  0.00113365	  0.00094547	  0.00056345	  0.00042655	 -0.00022328	 -0.00238526	  0.00145790
223	 -0.00026294	  0.00084133	  0.00097167	 -0.00068953	  0.00092870	 -0.00097057	  0.00004204	 -0.00200939
224	  0.00129252	  0.00252274	  0.00173840	 -0.00138249	  0.00109008	 -0.00140083	  0.00064974	 -0.00140917
225	  0.00304620	  0.00355367	  0.00285079	 -0.00027494	 -0.00047537	 -0.00113496	  0.00191600	  0.00124906
225	  0.00074223	  0.00111373	  0.00043424	  0.00174909	 -0.00210630	  0.00225813	  0.00141855	  0.00221553
226	  0.00471934	  0.00460193	  0.00054051	 -0.00095185	 -0.00068154	  0.00019255	  0.00555813	 -0.00546527
226	  0.00083454	  0.00138486	  0.00074219	  0.00109528	 -0.00119314	  0.00329850	 -0.00020900	 -0.00002244
227	  0.00498088	  0.00690213	  0.00292245	 -0.00254674	  0.00128231	 -0.00170208	  0.00438701	 -0.00636158
227	  0.00093758	  0.00149604	  0.00020970	  0.00144302	 -0.00143663	  0.00140627	  0.00012535	  0.00165141
228	  0.00459326	  0.00928286	  0.00529213	 -0.00436606	  0.00388701	 -0.00455845	  0.00397020	 -0.00070808
228	  0.00082614	  0.00274609	  0.00026760	  0.00150504	 -0.00135528	  0.00254553	  0.00101084	  0.00742298
228	  0.00016988	  0.00077584	  0.00058820	  0.00136817	 -0.00154810	  0.00206227	  0.00034358	  0.00251206
229	  0.00239884	  0.00993313	  0.00378638	 -0.00009883	  0.00022386	 -0.00400427	  0.00001216	  0.00479751
229	  0.00059780	  0.00215671	  0.00093190	  0.00224844	 -0.00195274	  0.00093073	  0.00081844	  0.00394161
229	  0.00010230	  0.00056753	  0.00017385	  0.00086002	 -0.00073319	  0.00103224	  0.00010544	  0.00260763
230	  0.00196956	  0.00805106	  0.00088663	 -0.00183861	  0.00108709	 -0.00123731	  0.00560132	 -0.00575170
230	  0.00044465	  0.00193009	  0.00236195	  0.00044679	 -0.00066805	  0.00310704	  0.00149936	 -0.00086274
231	  0.00016100	  0.00921823	  0.00121751	 -0.00123826	  0.00224437	  0.00033414	 -0.00365957	 -0.00473310
231	 -0.00002997	  0.00166260	  0.00023094	  0.00023903	  0.00039013	  0.00096668	 -0.00156908	 -0.00026906
232	  0.00059153	  0.00954095	  0.00262133	 -0.00203057	  0.00306985	 -0.00358933	 -0.00403034	  0.00209340
232	 -0.00009820	  0.00210575	  0.00284623	  0.00167806	 -0.00173715	  0.00387955	 -0.00203995	 -0.00181085
232	 -0.00000417	  0.00028090	  0.00036486	  0.00037107	 -0.00035922	  0.00096451	 -0.00057554	 -0.00123220
233	  0.00189181	  0.01130547	  0.00129644	 -0.00265516	  0.00154032	 -0.00446485	  0.00320277	 -0.00602990
233	  0.00007365	  0.00276931	  0.00165047	  0.00092736	 -0.00114267	  0.00286446	 -0.00100725	  0.00244296
234	  0.00217399	  0.01515632	  0.00085090	 -0.00458364	  0.00513863	 -0.00345017	 -0.00095023	 -0.00086944
234	  0.00056645	  0.00307397	  0.00035179	  0.00059506	 -0.00039140	  0.00179479	  0.00091441	  0.00399930
234	  0.00007627	  0.00078119	  0.00141472	  0.00090600	 -0.00112733	  0.00236526	  0.00006401	  0.00071229
235	  0.00349342	  0.01386135	  0.00009510	 -0.00101100	  0.00064518	 -0.00501613	  0.00150653	 -0.00022682
235	  0.00093183	  0.00288045	  0.00023673	  0.00115603	 -0.00094529	  0.00161591	  0.00209766	  0.00377474
235	  0.00018017	  0.00078589	  0.00115367	  0.00115367	 -0.00133606	  0.00224886	  0.00022270	  0.00115642
236	  0.00402306	  0.01607449	  0.00149409	 -0.00674989	  0.00641540	 -0.00398140	 -0.00233705	 -0.00483741
236	  0.00089636	  0.00299921	  0.00036306	 -0.00017793	  0.00037503	  0.00285164	 -0.00036910	 -0.00226548
237	  0.00438615	  0.02120584	  0.00520280	 -0.00706856	  0.00543236	 -0.00389364	  0.00038468	 -0.00850978
237	  0.00103654	  0.00452149	  0.00077217	  0.00236930	 -0.00273183	  0.00426478	  0.00134395	  0.00457446
237	  0.00001127	  0.00130955	  0.00152800	  0.00261917	 -0.00286801	  0.00360317	 -0.00083836	  0.00140108
238	  0.00284608	  0.02827473	  0.00936167	 -0.01383679	  0.01194117	 -0.00948591	  0.00412496	 -0.00491314
238	  0.00038994	  0.00611934	  0.00219299	  0.00046141	 -0.00118985	  0.00747196	  0.00189401	  0.00198008
238	  0.00001810	  0.00139875	  0.00146771	  0.00087608	 -0.00105533	  0.00425573	  0.00034453	  0.00035773
239	 -0.00463751	  0.03951147	  0.00881232	 -0.01091760	  0.00931655	 -0.01176308	 -0.00376765	  0.00017523
239	 -0.00066532	  0.00820770	  0.00462657	 -0.00055230	 -0.00079506	  0.00943163	  0.00476428	  0.00367217
239	 -0.00008355	  0.00181225	  0.00209477	  0.00106720	 -0.00180649	  0.00401294	  0.00162382	  0.00160916
239	 -0.00007535	  0.00041189	  0.00128536	  0.00049483	 -0.00091319	  0.00205181	  0.00024200	 -0.00069684
240	 -0.00937390	  0.04356972	  0.00644525	 -0.01290950	  0.01147225	 -0.01368899	 -0.00477195	 -0.00341087
240	 -0.00206095	  0.00967146	  0.00523444	  0.00087571	 -0.00216102	  0.00856629	  0.00373993	  0.00320073
240	 -0.00053179	  0.00236143	  0.00138547	  0.00182596	 -0.00216168	  0.00333292	  0.00076622	  0.00219051
240	 -0.00010745	  0.00048789	  0.00076170	  0.00039529	 -0.00070895	  0.00160882	  0.00051720	 -0.00004742
241	 -0.01212922	  0.04863180	  0.00640658	 -0.01132271	  0.01145139	 -0.01886755	 -0.01088288	  0.00679681
241	 -0.00269457	  0.01086225	  0.01060800	 -0.00111280	 -0.00167645	  0.01476850	  0.00738582	 -0.01151128
241	 -0.00064825	  0.00241723	  0.00435331	  0.00108149	 -0.00249388	  0.00655311	  0.00256393	 -0.00467067
241	 -0.00030976	  0.00045949	  0.00225495	  0.00046554	 -0.00119115	  0.00341273	 -0.00020663	 -0.00333322
242	 -0.01253536	  0.05177619	  0.00918156	 -0.00952225	  0.01069557	 -0.02515081	 -0.01355121	  0.02108464
242	 -0.00282840	  0.01305696	  0.00956232	 -0.00148235	 -0.00196879	  0.01275469	  0.01121404	 -0.00756451
242	 -0.00064597	  0.00259827	  0.00500710	  0.00038454	 -0.00227621	  0.00759677	  0.00295805	 -0.00669421
242	 -0.00009257	  0.00064728	  0.00200530	 -0.00014699	 -0.00054666	  0.00278032	  0.00145501	 -0.00249650
243	 -0.01252133	  0.05814250	  0.01424843	 -0.01375289	  0.01630715	 -0.03456802	 -0.02168304	  0.02890087
243	 -0.00247718	  0.01846951	  0.01146760	 -0.00796577	  0.00272972	  0.01698345	  0.01865033	 -0.01456140
243	 -0.00045967	  0.00418175	  0.00780874	 -0.00072553	 -0.00242597	  0.01167990	  0.00715486	 -0.01124631
243	 -0.00011802	  0.00106602	  0.00331284	  0.00035149	 -0.00160123	  0.00506394	  0.00227730	 -0.00406859
243	 -0.00001322	  0.00031691	  0.00106266	  0.00032456	 -0.00074462	  0.00175364	  0.00077229	 -0.00091124
244	 -0.01222874	  0.06601743	  0.02792295	 -0.00900169	  0.01383894	 -0.04810551	 -0.02920293	  0.05594979
244	 -0.00646117	  0.03645189	  0.00435897	 -0.02109570	  0.01796403	  0.01314712	  0.01695525	 -0.01066770
244	 -0.00099809	  0.00899456	  0.01352902	 -0.00425787	 -0.00163591	  0.02002806	  0.01497695	 -0.02557044
244	 -0.00057991	  0.00229193	  0.00721409	  0.00013502	 -0.00326610	  0.01073526	  0.00344385	 -0.01361672
244	 -0.00021028	  0.00076319	  0.00353442	  0.00073225	 -0.00201373	  0.00485935	  0.00088320	 -0.00511147
244	 -0.00014423	  0.00022312	  0.00158126	  0.00046525	 -0.00102408	  0.00224734	 -0.00016086	 -0.00267065
245	 -0.01184984	  0.06624171	  0.03766431	 -0.00702176	  0.01492608	 -0.05360223	 -0.02557109	  0.04836701
245	 -0.01088703	  0.05274716	  0.00755138	 -0.00851573	  0.00975946	 -0.00239453	 -0.00023816	  0.02024420
245	 -0.00190043	  0.01773712	  0.02011108	 -0.00058290	 -0.00820883	  0.02713632	  0.02576940	 -0.02576630
245	 -0.00061882	  0.00505955	  0.01054553	  0.00262375	 -0.00694517	  0.01484944	  0.00806113	 -0.01683215
245	 -0.00036140	  0.00141909	  0.00563119	  0.00139188	 -0.00361798	  0.00814938	  0.00207367	 -0.01083636
245	 -0.00029008	  0.00049840	  0.00301612	  0.00095555	 -0.00196699	  0.00459169	 -0.00002648	 -0.00515106
245	 -0.00025925	  0.00010928	  0.00133822	  0.00058590	 -0.00107862	  0.00242814	 -0.00089488	 -0.00340503
246	 -0.01269338	  0.06478590	  0.04561118	 -0.01090834	  0.02160019	 -0.06088187	 -0.02510245	  0.04965926
246	 -0.01308571	  0.05692070	  0.01569222	 -0.00660069	  0.01213014	 -0.01497375	 -0.01087659	  0.03617806
246	 -0.00269842	  0.02216118	  0.02679433	 -0.00004207	 -0.01021298	  0.03258246	  0.02866205	 -0.03415319
246	 -0.00045115	  0.00671568	  0.01815179	  0.00337229	 -0.01010260	  0.02141434	  0.01248994	 -0.02681117
246	 -0.00052966	  0.00199869	  0.00886851	  0.00254943	 -0.00579133	  0.01179490	  0.00252494	 -0.01573305
246	 -0.00058039	  0.00062977	  0.00480115	  0.00163954	 -0.00327478	  0.00709270	 -0.00095468	 -0.00953627
246	 -0.00040255	  0.00016286	  0.00246403	  0.00079904	 -0.00160928	  0.00387595	 -0.00145421	 -0.00606811
246	 -0.00021111	  0.00002329	  0.00138859	  0.00029296	 -0.00073773	  0.00211736	 -0.00082005	 -0.00382828
247	 -0.01278722	  0.06427999	  0.05309798	 -0.01204060	  0.02229212	 -0.06595585	 -0.02027119	  0.04722492
247	 -0.01463217	  0.06019535	  0.02445646	 -0.00482640	  0.01417509	 -0.02800547	 -0.01984924	  0.05785732
247	 -0.00445258	  0.02747404	  0.03059748	 -0.00084033	 -0.00905171	  0.03496805	  0.02221324	 -0.02807361
247	 -0.00064608	  0.00946095	  0.02626786	  0.00373727	 -0.01298303	  0.02860274	  0.01706617	 -0.03017839
247	 -0.00055378	  0.00287339	  0.01429147	  0.00238036	 -0.00712695	  0.01704608	  0.00462966	 -0.02172875
247	 -0.00061632	  0.00078196	  0.00673855	  0.00155874	 -0.00399993	  0.00904911	 -0.00017938	 -0.01378740
247	 -0.00047695	  0.00025950	  0.00367840	  0.00098177	 -0.00213019	  0.00523206	 -0.00145374	 -0.00812381
247	 -0.00021917	  0.00008641	  0.00206097	  0.00050212	 -0.00104001	  0.00267952	 -0.00088372	 -0.00424433
248	 -0.01357697	  0.06239772	  0.05974525	 -0.01545336	  0.02521915	 -0.06686633	 -0.01953179	  0.02824574
248	 -0.01767849	  0.06364063	  0.04270427	 -0.00794756	  0.02011115	 -0.04131749	 -0.03184378	  0.06504146
248	 -0.00796134	  0.03713201	  0.02870966	 -0.00201073	 -0.00516631	  0.03116448	  0.00831607	  0.00001751
248	 -0.00104479	  0.01450942	  0.03614537	  0.00150816	 -0.01464484	  0.03678556	  0.02434560	 -0.03431581
248	 -0.00037595	  0.00527761	  0.02215271	  0.00190083	 -0.00969795	  0.02347592	  0.01086857	 -0.02783065
248	 -0.00030984	  0.00178819	  0.01203530	  0.00149453	 -0.00539254	  0.01345787	  0.00355729	 -0.01822937
248	 -0.00017271	  0.00053184	  0.00605061	  0.00040031	 -0.00223617	  0.00677788	  0.00127951	 -0.01109971
248	 -0.00016223	  0.00015152	  0.00326475	  0.00007733	 -0.00104426	  0.00377732	 -0.00001936	 -0.00693849
248	 -0.00017212	  0.00009731	  0.00184082	  0.00010069	 -0.00053015	  0.00228480	 -0.00050268	 -0.00354743
249	 -0.01300320	  0.05909781	  0.05795435	 -0.01740133	  0.02097378	 -0.06242394	 -0.02037912	 -0.01216855
249	 -0.01895528	  0.06561846	  0.05270266	 -0.00596582	  0.01710725	 -0.05176104	 -0.04024096	  0.06925033
249	 -0.01122669	  0.04959281	  0.01114319	  0.00269625	 -0.00443353	  0.01165377	 -0.00226582	  0.04439334
249	 -0.00135074	  0.02170385	  0.04015961	  0.00115022	 -0.01527394	  0.03913864	  0.03303016	 -0.03081926
249	 -0.00004771	  0.00807135	  0.02742686	  0.00049528	 -0.00991121	  0.02818771	  0.01870751	 -0.03589192
249	 -0.00009322	  0.00299191	  0.01492950	  0.00060651	 -0.00526819	  0.01545066	  0.00749975	 -0.02186767
249	 -0.00027241	  0.00114303	  0.00739946	  0.00089240	 -0.00306632	  0.00809829	  0.00202612	 -0.01198709
249	 -0.00020556	  0.00046853	  0.00364230	  0.00046864	 -0.00162998	  0.00431707	  0.00059679	 -0.00633948
249	 -0.00013113	  0.00019823	  0.00196169	  0.00015892	 -0.00075728	  0.00224016	  0.00015354	 -0.00328653
250	 -0.01169208	  0.05860200	  0.06247444	 -0.01652635	  0.01939616	 -0.06688058	 -0.00748248	 -0.02790863
250	 -0.01772593	  0.06529413	  0.06004104	 -0.00659897	  0.02032253	 -0.06148319	 -0.03032309	  0.04994352
250	 -0.01470506	  0.05370779	  0.00369360	  0.00010982	  0.00296363	  0.00786714	 -0.01901360	  0.06726323
250	 -0.00277321	  0.02636930	  0.04409288	 -0.00146549	 -0.01134084	  0.04344568	  0.02556504	 -0.00889319
250	 -0.00032185	  0.00999043	  0.03218542	 -0.00229528	 -0.00800584	  0.03361750	  0.01897596	 -0.03499617
250	  0.00003213	  0.00363806	  0.01852450	 -0.00083357	 -0.00515288	  0.01927300	  0.00946423	 -0.02536045
250	  0.00002875	  0.00115527	  0.00940612	 -0.00042378	 -0.00280732	  0.00967914	  0.00437941	 -0.01611085
250	 -0.00000101	  0.00042112	  0.00531134	 -0.00024790	 -0.00157862	  0.00531101	  0.00203602	 -0.00928945
250	  0.00007210	  0.00014384	  0.00273769	 -0.00025125	 -0.00065407	  0.00252185	  0.00120547	 -0.00489099
250	  0.00003501	  0.00006696	  0.00137815	 -0.00010805	 -0.00032501	  0.00143171	  0.00068639	 -0.00224228
251	 -0.01368821	  0.05925625	  0.06505867	 -0.01602433	  0.02227699	 -0.06331547	 -0.00626402	 -0.01248993
251	 -0.01882733	  0.06500302	  0.06293870	 -0.00833351	  0.02314695	 -0.06128277	 -0.03367183	  0.05944568
251	 -0.01462259	  0.05305867	  0.00270694	  0.00371768	 -0.00160164	  0.00573734	 -0.02281195	  0.06049381
251	 -0.00382911	  0.02814360	  0.04631853	  0.00812122	 -0.02116533	  0.04056149	  0.01612090	  0.00050750
251	 -0.00059387	  0.01136357	  0.03693080	  0.00283280	 -0.01444416	  0.03670829	  0.01834349	 -0.03463199
251	  0.00002457	  0.00452788	  0.02125582	  0.00168328	 -0.00835409	  0.02143092	  0.01067906	 -0.02419648
251	 -0.00006767	  0.00170850	  0.01078584	  0.00077621	 -0.00392737	  0.01159828	  0.00408861	 -0.01491479
251	 -0.00002222	  0.00066007	  0.00534358	  0.00008428	 -0.00161688	  0.00561297	  0.00168449	 -0.00840888
251	 -0.00005110	  0.00028809	  0.00271750	  0.00018369	 -0.00081790	  0.00295924	  0.00071114	 -0.00393447
252	 -0.01378762	  0.05903848	  0.06643321	 -0.01811208	  0.02509422	 -0.06734430	 -0.01304365	 -0.01538912
252	 -0.01946870	  0.06468710	  0.06187823	 -0.00775800	  0.02213802	 -0.05816204	 -0.03700970	  0.05720783
252	 -0.01381548	  0.05172370	  0.00522746	  0.00393472	 -0.00231771	  0.00586882	 -0.01842859	  0.04754865
252	 -0.00342330	  0.02795741	  0.04835633	  0.00737556	 -0.02105047	  0.04236539	  0.01925318	 -0.00861356
252	 -0.00003011	  0.01201439	  0.03756068	  0.00293339	 -0.01456150	  0.03501963	  0.02174031	 -0.03000638
252	  0.00033440	  0.00462795	  0.02102619	  0.00087324	 -0.00740848	  0.02016396	  0.01204160	 -0.02405976
252	  0.00018789	  0.00165771	  0.01123431	  0.00017112	 -0.00347850	  0.01102472	  0.00553926	 -0.01631129
252	  0.00001686	  0.00052289	  0.00562079	  0.00004280	 -0.00171635	  0.00594119	  0.00213323	 -0.01026543
252	 -0.00009712	  0.00017726	  0.00280375	  0.00008893	 -0.00101330	  0.00299190	  0.00036038	 -0.00572358
252	 -0.00004903	  0.00006407	  0.00154280	  0.00013219	 -0.00050357	  0.00171000	  0.00025602	 -0.00319362
253	 -0.01345198	  0.05827087	  0.06539478	 -0.01704997	  0.02161721	 -0.06475977	 -0.01203737	 -0.02263823
253	 -0.01879169	  0.06501905	  0.06416983	 -0.00787202	  0.02167374	 -0.06180565	 -0.03601306	  0.05877884
253	 -0.01476703	  0.05460232	  0.00100770	  0.00228551	  0.00035810	  0.00091156	 -0.02621392	  0.06217137
253	 -0.00397937	  0.03022533	  0.04816961	  0.00571156	 -0.01905716	  0.04451681	  0.01720873	 -0.00980055
253	  0.00012042	  0.01374013	  0.04084015	  0.00279718	 -0.01530149	  0.03733230	  0.02440095	 -0.02799008
253	  0.00034760	  0.00537578	  0.02308707	  0.00030258	 -0.00710820	  0.02249505	  0.01357143	 -0.02539822
253	  0.00010363	  0.00198357	  0.01178113	 -0.00032763	 -0.00329004	  0.01160986	  0.00589304	 -0.01724806
253	  0.00005918	  0.00069497	  0.00637609	 -0.00047768	 -0.00160687	  0.00628689	  0.00298581	 -0.01092921
253	  0.00002705	  0.00017398	  0.00330324	 -0.00037355	 -0.00079576	  0.00316757	  0.00144415	 -0.00650127
253	 -0.00001000	  0.00001102	  0.00176027	 -0.00015445	 -0.00035683	  0.00157362	  0.00056370	 -0.00364146
254	 -0.01245887	  0.05953412	  0.06572375	 -0.01680125	  0.02339171	 -0.06635824	 -0.00880784	 -0.00856443
254	 -0.01735196	  0.06479692	  0.05984677	 -0.00824347	  0.02213766	 -0.06096194	 -0.03277351	  0.05883666
254	 -0.01304125	  0.05262232	  0.00735266	  0.00862426	 -0.00670285	  0.00518769	 -0.01843178	  0.05330837
254	 -0.00323033	  0.02806692	  0.04888395	  0.01167553	 -0.02581944	  0.04225137	  0.01978241	 -0.01200919
254	 -0.00052630	  0.01103015	  0.03613408	  0.00436762	 -0.01561416	  0.03619012	  0.01776617	 -0.04056919
254	 -0.00015729	  0.00420681	  0.01893541	  0.00236169	 -0.00810871	  0.02030680	  0.00928314	 -0.02547757
254	 -0.00009595	  0.00166571	  0.00952979	  0.00077144	 -0.00375235	  0.01049360	  0.00439657	 -0.01380837
254	 -0.00005730	  0.00064588	  0.00438545	  0.00058462	 -0.00195260	  0.00472372	  0.00156503	 -0.00681562
254	 -0.00002904	  0.00024496	  0.00204116	  0.00041408	 -0.00106287	  0.00210896	  0.00056939	 -0.00343962
255	 -0.01214086	  0.06147659	  0.05729759	 -0.01388673	  0.02086310	 -0.06536769	 -0.01291263	  0.00941541
255	 -0.01721659	  0.06520351	  0.04332886	 -0.00229260	  0.01415933	 -0.04672779	 -0.03583762	  0.06101751
255	 -0.00985457	  0.04532755	  0.02470887	  0.01002331	 -0.01537461	  0.02460431	 -0.00022824	  0.02015922
255	 -0.00228918	  0.01873448	  0.03703252	  0.00521120	 -0.01741630	  0.04027868	  0.02019326	 -0.03741739
255	 -0.00049608	  0.00659632	  0.02026656	  0.00305099	 -0.01001038	  0.02365622	  0.01191558	 -0.02900538
255	 -0.00006721	  0.00249398	  0.00991804	  0.00192828	 -0.00517221	  0.01146506	  0.00565663	 -0.01394685
255	 -0.00003990	  0.00100274	  0.00431383	  0.00143432	 -0.00273632	  0.00514285	  0.00198385	 -0.00515932
255	 -0.00003212	  0.00033587	  0.00194290	  0.00056589	 -0.00117767	  0.00222945	  0.00070274	 -0.00273366
256	 -0.01289786	  0.06257521	  0.05423048	 -0.00996053	  0.01737418	 -0.06289437	 -0.01112758	  0.02013957
256	 -0.01799660	  0.06461423	  0.03498320	  0.00042711	  0.00869237	 -0.03401545	 -0.03357198	  0.05351407
256	 -0.00863548	  0.04145414	  0.02771274	  0.00179766	 -0.00939283	  0.03087664	  0.00719658	  0.00636837
256	 -0.00168119	  0.01531217	  0.02882833	 -0.00198932	 -0.00854141	  0.03451426	  0.02089006	 -0.04169971
256	 -0.00020623	  0.00546155	  0.01533307	  0.00023058	 -0.00561275	  0.01802189	  0.01126318	 -0.02388754
256	 -0.00001256	  0.00204452	  0.00738918	  0.00079632	 -0.00314122	  0.00860515	  0.00473069	 -0.01078557
256	  0.00000756	  0.00078131	  0.00311132	  0.00086184	 -0.00177793	  0.00367731	  0.00175056	 -0.00384271
256	 -0.00001705	  0.00028790	  0.00145536	  0.00044306	 -0.00086794	  0.00159403	  0.00057581	 -0.00176330
257	 -0.01249580	  0.06283545	  0.04895670	 -0.00897361	  0.01689479	 -0.06076277	 -0.00816689	  0.02557746
257	 -0.01736104	  0.06358429	  0.02515916	 -0.00057671	  0.00785620	 -0.02556735	 -0.02899093	  0.04895277
257	 -0.00783452	  0.03725410	  0.02876530	  0.00617725	 -0.01504161	  0.03200732	  0.01224871	 -0.00958297
257	 -0.00149558	  0.01262118	  0.02187873	  0.00489150	 -0.01292343	  0.02672559	  0.01640320	 -0.03275812
257	 -0.00021380	  0.00423394	  0.01018000	  0.00365200	 -0.00712482	  0.01247629	  0.00737186	 -0.01552563
257	 -0.00009509	  0.00149902	  0.00374266	  0.00223102	 -0.00356196	  0.00503344	  0.00231416	 -0.00562252
257	 -0.00002826	  0.00054158	  0.00136584	  0.00085293	 -0.00128539	  0.00181969	  0.00091403	 -0.00192877
258	 -0.01543386	  0.06523801	  0.03338167	 -0.00885282	  0.01640070	 -0.04593556	 -0.02273671	  0.04202511
258	 -0.01338267	  0.05344745	  0.00129704	  0.00304984	 -0.00352777	  0.00271314	 -0.00430602	  0.00916419
258	 -0.00397763	  0.01946733	  0.01787805	  0.00922428	 -0.01622507	  0.02350722	  0.01422060	 -0.03030129
258	 -0.00071527	  0.00610074	  0.00771263	  0.00524390	 -0.00803911	  0.01161113	  0.00737776	 -0.01099803
258	 -0.00016674	  0.00191134	  0.00249238	  0.00265911	 -0.00356841	  0.00435551	  0.00222369	 -0.00266809
258	 -0.00003953	  0.00063217	  0.00060419	  0.00134518	 -0.00163067	  0.00142110	  0.00061236	 -0.00029810
259	 -0.01658855	  0.06549731	  0.02505615	 -0.00768452	  0.01326865	 -0.03573662	 -0.03132514	  0.04268491
259	 -0.00981357	  0.04283228	  0.00882187	 -0.00053911	 -0.00257587	  0.01217933	  0.00804523	 -0.01902317
259	 -0.00188602	  0.01280215	  0.01163415	  0.00396394	 -0.00845128	  0.01688451	  0.01468537	 -0.01942517
259	 -0.00039086	  0.00381452	  0.00419594	  0.00240082	 -0.00381271	  0.00661614	  0.00533646	 -0.00498710
259	 -0.00009323	  0.00104360	  0.00140194	  0.00146898	 -0.00204355	  0.00252642	  0.00132766	 -0.00135052
260	 -0.01487878	  0.06413615	  0.01821763	 -0.00920159	  0.01343966	 -0.03065065	 -0.02436031	  0.02936697
260	 -0.00709125	  0.03396707	  0.00896231	  0.00533438	 -0.00924107	  0.01320682	  0.01212025	 -0.01578914
260	 -0.00107972	  0.00909555	  0.00512330	  0.00463118	 -0.00658535	  0.00986256	  0.00849739	 -0.00346773
260	 -0.00021216	  0.00231854	  0.00228414	  0.00256562	 -0.00345624	  0.00484467	  0.00248706	 -0.00036846
260	 -0.00006892	  0.00072033	  0.00093805	  0.00101744	 -0.00131872	  0.00219053	  0.00086175	  0.00054237
261	 -0.01356809	  0.06054824	  0.01677654	 -0.00862849	  0.01048454	 -0.02581875	 -0.01697783	  0.01583163
261	 -0.00597467	  0.02392648	  0.00477835	 -0.00006958	 -0.00274656	  0.01639520	  0.00809301	 -0.01543736
261	 -0.00122507	  0.00605762	  0.00307732	  0.00184574	 -0.00286237	  0.00831487	  0.00385676	 -0.00061514
261	 -0.00010182	  0.00147158	  0.00155239	  0.00039221	 -0.00091696	  0.00342724	  0.00213711	 -0.00064376
262	 -0.01550296	  0.06019381	  0.01882598	 -0.00934245	  0.01260640	 -0.02598442	 -0.01750568	  0.01656268
262	 -0.00506437	  0.02241498	  0.00822186	 -0.00118824	 -0.00243796	  0.01680251	  0.01289496	 -0.01078695
262	 -0.00088417	  0.00564805	  0.00427412	  0.00137815	 -0.00285468	  0.00901644	  0.00607368	 -0.00137004
262	 -0.00021654	  0.00157267	  0.00105995	  0.00099156	 -0.00119829	  0.00327948	  0.00220466	  0.00074436
263	 -0.01660903	  0.05448647	  0.01209025	 -0.00529030	  0.00835047	 -0.01773755	 -0.01537675	  0.01178438
263	 -0.00482267	  0.01626981	  0.00865363	  0.00502463	 -0.00725059	  0.01330857	  0.00454257	 -0.00731904
263	 -0.00078307	  0.00385244	  0.00351631	  0.00190519	 -0.00257328	  0.00572406	  0.00280653	 -0.00104525
263	 -0.00007594	  0.00095941	  0.00094335	  0.00069345	 -0.00093814	  0.00189980	  0.00139649	 -0.00016023
264	 -0.01680501	  0.04977313	  0.00484381	 -0.00284730	  0.00565070	 -0.01313785	 -0.01794336	  0.00904796
264	 -0.00372300	  0.01248852	  0.00819614	  0.00292269	 -0.00491528	  0.01125009	  0.00608600	 -0.00610026
264	 -0.00071592	  0.00286833	  0.00344921	  0.00110096	 -0.00194815	  0.00529448	  0.00308046	 -0.00199353
264	 -0.00021067	  0.00075868	  0.00098431	  0.00070048	 -0.00092613	  0.00180482	  0.00051308	  0.00003355
265	 -0.01526671	  0.04293406	  0.00324219	  0.00549528	 -0.00393327	 -0.00893875	 -0.01295207	  0.00477830
265	 -0.00299960	  0.00943723	  0.00717840	  0.00218182	 -0.00246676	  0.00682254	  0.00229369	 -0.00112280
265	 -0.00057635	  0.00217459	  0.00329800	  0.00060944	 -0.00101795	  0.00380834	  0.00143223	 -0.00110807
266	 -0.00754730	  0.00981399	  0.01114747	  0.01693318	 -0.01626655	 -0.00017937	 -0.00672548	  0.00182400
266	 -0.00159574	  0.00170449	  0.00231663	  0.00188869	 -0.00139627	 -0.00090154	 -0.00108177	  0.00055846
266	 -0.00030469	  0.00019524	  0.00068612	 -0.00018176	  0.00034549	 -0.00062688	  0.00013486	 -0.00128206
267	 -0.00360110	  0.00303013	  0.00014664	  0.00244101	 -0.00186548	  0.00019724	  0.00122715	  0.00102743
267	 -0.00086188	  0.00043164	  0.00068508	 -0.00011577	  0.00017066	  0.00052718	  0.00002594	 -0.00137115
268	 -0.00271725	  0.00113154	  0.00627663	 -0.00136833	  0.00238952	 -0.00012715	  0.00372626	 -0.00095927
268	 -0.00063832	  0.00026797	  0.00161600	  0.00000031	  0.00011576	 -0.00014819	  0.00022749	  0.00093867
269	 -0.00268641	  0.00195009	  0.00068000	  0.00294223	 -0.00235418	  0.00015394	 -0.00112721	  0.00126369
269	 -0.00047478	  0.00032315	  0.00062970	  0.00046920	 -0.00045476	 -0.00004127	 -0.00023946	 -0.00085776
270	 -0.00170562	  0.00136946	  0.00413703	  0.00337959	 -0.00292528	  0.00075631	 -0.00365203	 -0.00008904
270	 -0.00031677	  0.00018233	  0.00121562	  0.00030974	 -0.00018315	  0.00017072	 -0.00076792	 -0.00162730
271	 -0.00120975	  0.00126409	  0.00096418	  0.00085547	 -0.00040404	  0.00040426	 -0.00138093	  0.00057374
272	 -0.00040331	 -0.00094854	  0.00072488	  0.00017226	 -0.00030228	  0.00045570	 -0.00034525	 -0.00109191
273	  0.00030206	  0.00006976	  0.00072976	  0.00033227	 -0.00027762	 -0.00039607	 -0.00026109	  0.00014066
274	  0.00062640	  0.00198464	  0.00172562	 -0.00036151	  0.00051498	 -0.00104149	 -0.00066511	  0.00012220
275	  0.00185862	  0.00167197	  0.00262031	 -0.00049957	  0.00002111	 -0.00080235	  0.00023124	 -0.00119481
275	  0.00031208	  0.00024487	  0.00042300	  0.00000109	 -0.00000604	  0.00008300	 -0.00016683	 -0.00040506
276	  0.00139417	  0.00102438	  0.00104285	 -0.00081446	  0.00034273	 -0.00043099	  0.00015862	 -0.00052720
277	  0.00196792	  0.00137592	  0.00228569	 -0.00029939	  0.00005550	 -0.00021194	  0.00146679	  0.00068687
277	  0.00045816	  0.00036559	  0.00084896	  0.00004836	 -0.00006537	  0.00043992	  0.00085776	  0.00030534
278	  0.00220749	  0.00214508	  0.00220497	 -0.00043757	  0.00044808	 -0.00175979	  0.00025706	  0.00133261
278	  0.00055541	  0.00049955	  0.00084103	 -0.00003365	  0.00009304	 -0.00003792	  0.00082765	  0.00035874
279	  0.00230344	  0.00266315	  0.00324295	 -0.00059974	  0.00040187	 -0.00050200	  0.00039369	  0.00042973
279	  0.00058449	  0.00062740	  0.00094593	  0.00007345	  0.00001692	  0.00008401	  0.00072655	  0.00040460
280	  0.00173426	  0.00209235	  0.00246408	 -0.00124697	  0.00047030	  0.00011530	  0.00078273	 -0.00248727
280	  0.00036513	  0.00033191	  0.00052116	 -0.00031586	  0.00017991	  0.00028818	  0.00039651	 -0.00088419
281	  0.00078036	  0.00117181	  0.00083433	 -0.00038965	  0.00042245	 -0.00034678	 -0.00019894	 -0.00006626
282	  0.00054195	  0.00186402	  0.00171695	  0.00002947	 -0.00035546	 -0.00030660	 -0.00025496	 -0.00006951
283	 -0.00015254	  0.00092187	  0.00043391	  0.00021309	 -0.00032389	 -0.00008512	 -0.00077337	  0.00065246
284	  0.00006204	  0.00031093	  0.00007898	  0.00021300	 -0.00006298	 -0.00006999	  0.00037693	  0.00011303
285	  0.00002102	  0.00009499	  0.00007199	  0.00012200	 -0.00024398	 -0.00020396	  0.00009098	 -0.00044193
286	 -0.00001099	  0.00012102	  0.00012102	 -0.00012699	  0.00033904	  0.00004005	 -0.00010811	  0.00108613
287	  0.00007502	  0.00002100	  0.00008101	 -0.00015600	 -0.00008903	  0.00022703	  0.00015313	 -0.00109019
288	  0.00017203	  0.00003100	  0.00004299	  0.00021900	 -0.00031195	 -0.00036191	  0.00046806	  0.00042906
289	  0.00007597	  0.00006000	  0.00007400	  0.00004400	  0.00010602	  0.00028498	  0.00035100	  0.00067684
290	  0.00020205	  0.00014508	  0.00038201	 -0.00003393	 -0.00003124	 -0.00063101	  0.00052918	  0.00038314
291	  0.00034103	  0.00041637	  0.00075721	 -0.00027771	  0.00019748	 -0.00076236	  0.00093127	  0.00025408
292	  0.00071528	  0.00058596	  0.00121619	 -0.00015726	 -0.00016161	 -0.00129901	  0.00239494	  0.00014722
293	  0.00027163	  0.00054309	  0.00093472	  0.00030344	 -0.00036109	 -0.00021760	  0.00217290	  0.00082819
294	 -0.00001397	  0.00020096	  0.00020296	  0.00018502	 -0.00042400	 -0.00037284	  0.00065028	  0.00063699
295	 -0.00089501	 -0.00001913	  0.00014994	  0.00037501	 -0.00038982	  0.00022397	 -0.00105492	  0.00062516
296	 -0.00059882	  0.00002510	  0.00018297	  0.00019102	  0.00010992	  0.00033896	 -0.00023605	  0.00067491
297	  0.00011698	 -0.00018313	  0.00011207	 -0.00062299	  0.00048431	 -0.00009100	  0.00067819	 -0.00088742
298	  0.00002101	  0.00002100	  0.00022898	  0.00007503	 -0.00014011	 -0.00052193	 -0.00061502	  0.00010181
299	  0.00018303	 -0.00000900	  0.00000200	 -0.00017400	 -0.00002901	 -0.00056010	  0.00020304	 -0.00018592
300	 -0.00002600	 -0.00005600	  0.00012200	  0.00001901	 -0.00043899	  0.00003405	 -0.00075448	 -0.00130886
301	  0.00004802	 -0.00002600	  0.00008301	 -0.00007000	 -0.00032304	 -0.00018899	 -0.00032618	 -0.00060908
302	  0.00011998	 -0.00000401	  0.00007702	 -0.00022600	  0.00036110	 -0.00024903	 -0.00010301	  0.00029703
