  2.00000000	  0.00293955	  0.00254148	  0.00036280	  0.00188496	 -0.00386631	 -0.00012946	  0.00295806	  0.00231924
  3.00000000	 -0.00024447	  0.00045624	  0.00031430	  0.00015240	 -0.00030939	  0.00008768	 -0.00027534	  0.00044884
  4.00000000	 -0.00011526	 -0.00019582	  0.00030588	 -0.00016237	  0.00032738	  0.00028652	 -0.00011207	 -0.00018319
  5.00000000	  0.00002144	  0.00021210	  0.00020816	  0.00001765	 -0.00002103	 -0.00040694	  0.00001327	  0.00020293
  6.00000000	 -0.00019566	  0.00002536	  0.00021117	  0.00001131	 -0.00001759	 -0.00021798	 -0.00020561	  0.00003273
  7.00000000	  0.00030265	  0.00007087	  0.00011307	  0.00000759	 -0.00000453	 -0.00038102	  0.00031336	  0.00005515
  8.00000000	  0.00008879	 -0.00012076	  0.00030931	 -0.00001762	  0.00002307	  0.00042036	  0.00009793	 -0.00011983
  9.00000000	  0.00000918	  0.00010777	  0.00020785	 -0.00004181	  0.00009327	 -0.00011717	  0.00000498	  0.00010319
 10.00000000	 -0.00021700	 -0.00018301	  0.00000525	 -0.00001056	  0.00001261	  0.00018077	 -0.00021897	 -0.00016666
 11.00000000	 -0.00029567	 -0.00007472	  0.00028527	 -0.00009990	  0.00020173	  0.00020093	 -0.00030580	 -0.00005910
 12.00000000	  0.00038972	  0.00005826	  0.00039137	  0.00014963	 -0.00030939	 -0.00008902	  0.00040478	  0.00003940
 13.00000000	 -0.00029060	  0.00003388	  0.00010517	  0.00015282	 -0.00031660	 -0.00009886	 -0.00030525	  0.00004500
 14.00000000	  0.00012727	  0.00020183	  0.00029161	 -0.00035073	  0.00073257	  0.00027837	  0.00012438	  0.00018851
 15.00000000	 -0.00006549	 -0.00052947	  0.00021414	 -0.00003440	  0.00006522	 -0.00030448	 -0.00004566	 -0.00050628
 16.00000000	  0.00049944	  0.00090648	  0.00023616	  0.00012996	 -0.00025291	  0.00012403	  0.00048320	  0.00085002
 17.00000000	 -0.00031301	 -0.00103967	  0.00019103	 -0.00000684	 -0.00002027	  0.00021899	 -0.00028250	 -0.00098594
 18.00000000	  0.00005394	  0.00052747	  0.00039223	  0.00035317	 -0.00071798	 -0.00028602	  0.00003361	  0.00050456
 19.00000000	  0.00008660	 -0.00011256	  0.00009352	 -0.00029323	  0.00061176	 -0.00002671	  0.00009535	 -0.00011187
 20.00000000	 -0.00028168	  0.00014236	  0.00030472	  0.00021830	 -0.00043799	 -0.00060432	 -0.00030051	  0.00014877
 21.00000000	  0.00015173	 -0.00131531	  0.00071575	 -0.00009089	  0.00012753	  0.00095980	  0.00021446	 -0.00127028
 22.00000000	  0.00011687	  0.00106197	  0.00041073	  0.00002034	 -0.00000436	 -0.00042926	  0.00007642	  0.00101545
 23.00000000	 -0.00030221	 -0.00006644	  0.00011319	 -0.00009379	  0.00019522	 -0.00003232	 -0.00031308	 -0.00005097
 24.00000000	  0.00005023	  0.00042573	  0.00000130	 -0.00010989	  0.00023137	  0.00037836	  0.00003415	  0.00040706
 25.00000000	 -0.00002142	 -0.00021141	  0.00020809	 -0.00000505	  0.00000468	  0.00001016	 -0.00001332	 -0.00020230
 26.00000000	  0.00036264	 -0.00026565	  0.00021579	  0.00007890	 -0.00018387	  0.00044470	  0.00039052	 -0.00027104
 27.00000000	 -0.00016201	  0.00034605	  0.00041164	  0.00009038	 -0.00015168	 -0.00112150	 -0.00018415	  0.00033956
 28.00000000	 -0.00008509	  0.00011963	  0.00011007	 -0.00010016	  0.00020833	  0.00017569	 -0.00009405	  0.00011857
 29.00000000	 -0.00001894	 -0.00107363	  0.00051170	 -0.00006929	  0.00010590	  0.00033514	  0.00002572	 -0.00103116
 30.00000000	 -0.00004887	  0.00043509	  0.00009474	  0.00014320	 -0.00029057	  0.00009938	 -0.00006983	  0.00042027
 31.00000000	 -0.00008164	  0.00011990	  0.00009740	 -0.00009783	  0.00020830	 -0.00001352	 -0.00009047	  0.00011875
 32.00000000	  0.00043077	  0.00037725	  0.00019328	  0.00000582	  0.00000233	 -0.00019701	  0.00043401	  0.00034417
 33.00000000	 -0.00011997	 -0.00020711	  0.00009858	  0.00013840	 -0.00030344	  0.00032678	 -0.00011650	 -0.00019390
 34.00000000	 -0.00012557	 -0.00019442	  0.00031650	 -0.00013117	  0.00027787	 -0.00033621	 -0.00012288	 -0.00018147
 35.00000000	  0.00022415	  0.00018944	  0.00042613	 -0.00002522	  0.00004708	  0.00041635	  0.00022616	  0.00017241
 36.00000000	  0.00012779	  0.00030311	  0.00030648	  0.00010999	 -0.00021738	 -0.00019654	  0.00012045	  0.00028585
 37.00000000	 -0.00003696	 -0.00031827	  0.00000698	 -0.00003723	  0.00007689	 -0.00029563	 -0.00002505	 -0.00030428
 38.00000000	 -0.00016397	  0.00023910	  0.00021116	 -0.00001903	  0.00003627	  0.00038604	 -0.00018165	  0.00023683
 39.00000000	 -0.00022097	 -0.00019010	  0.00021049	  0.00010292	 -0.00022046	 -0.00000229	 -0.00022276	 -0.00017322
 40.00000000	 -0.00020391	 -0.00007875	  0.00001998	 -0.00023510	  0.00049338	 -0.00013405	 -0.00020974	 -0.00006691
 41.00000000	  0.00001073	  0.00096951	  0.00029484	  0.00011087	 -0.00019748	 -0.00042342	 -0.00003034	  0.00093150
 42.00000000	  0.00042341	 -0.00059253	  0.00031782	 -0.00001551	  0.00001024	  0.00024437	  0.00046770	 -0.00058767
 43.00000000	 -0.00008546	  0.00011622	  0.00011005	  0.00000508	 -0.00000747	 -0.00000623	 -0.00009431	  0.00011536
 44.00000000	 -0.00039715	 -0.00005785	  0.00000702	  0.00004762	 -0.00010372	  0.00008723	 -0.00041262	 -0.00003860
 45.00000000	  0.00030224	  0.00007052	  0.00012132	  0.00009588	 -0.00019446	 -0.00017446	  0.00031295	  0.00005476
 46.00000000	 -0.00026231	 -0.00061334	  0.00016428	 -0.00038717	  0.00078926	  0.00017496	 -0.00024792	 -0.00057834
 47.00000000	  0.00027016	 -0.00014467	  0.00029285	  0.00019562	 -0.00041370	  0.00002324	  0.00028852	 -0.00015060
 48.00000000	 -0.00014752	  0.00034705	  0.00041008	 -0.00015730	  0.00033618	  0.00008072	 -0.00016891	  0.00034004
 49.00000000	  0.00019761	  0.00007888	  0.00041152	  0.00005386	 -0.00011313	  0.00009901	  0.00020302	  0.00006744
 50.00000000	 -0.00006146	  0.00032843	  0.00008590	  0.00030276	 -0.00061525	 -0.00037898	 -0.00007828	  0.00031833
 51.00000000	  0.00015931	 -0.00034026	  0.00019565	 -0.00024853	  0.00050874	  0.00009560	  0.00018101	 -0.00033386
 52.00000000	 -0.00002110	 -0.00021212	  0.00019995	 -0.00011254	  0.00021963	  0.00039886	 -0.00001293	 -0.00020304
 53.00000000	  0.00001233	  0.00010814	  0.00000784	  0.00005528	 -0.00010520	 -0.00029815	  0.00000825	  0.00010344
 54.00000000	 -0.00036395	  0.00025711	  0.00020732	  0.00019412	 -0.00040452	  0.00019187	 -0.00039147	  0.00026269
 55.00000000	  0.00063693	 -0.00040218	  0.00013048	  0.00008505	 -0.00019088	  0.00004746	  0.00068312	 -0.00041403
 56.00000000	  0.00002524	  0.00021169	  0.00000914	 -0.00008734	  0.00019368	 -0.00020786	  0.00001731	  0.00020235
 57.00000000	  0.00000334	 -0.00000471	  0.00019927	 -0.00001258	  0.00001564	  0.00041419	  0.00000369	 -0.00000467
 58.00000000	 -0.00074386	  0.00031492	  0.00002366	 -0.00017630	  0.00038809	 -0.00046396	 -0.00079088	  0.00033494
 59.00000000	  0.00076602	 -0.00009585	  0.00018443	 -0.00001084	  0.00001347	  0.00022247	  0.00080451	 -0.00012484
 60.00000000	 -0.00067529	  0.00008337	  0.00011247	  0.00014844	 -0.00031099	  0.00007897	 -0.00070928	  0.00010918
 61.00000000	  0.00039732	  0.00005894	  0.00000698	 -0.00002877	  0.00007880	 -0.00068231	  0.00041273	  0.00003949
 62.00000000	 -0.00019561	  0.00002833	  0.00020279	 -0.00000555	  0.00000801	  0.00017068	 -0.00020563	  0.00003550
 63.00000000	 -0.00018571	  0.00001993	  0.00040290	 -0.00002215	  0.00003122	  0.00061131	 -0.00019494	  0.00002716
 64.00000000	  0.00037786	 -0.00004866	  0.00040754	  0.00002501	 -0.00003874	 -0.00059284	  0.00039698	 -0.00006298
 65.00000000	 -0.00032415	 -0.00028181	  0.00009505	 -0.00000634	  0.00000072	  0.00019294	 -0.00032669	 -0.00025703
 66.00000000	  0.00001579	  0.00010727	  0.00021539	  0.00003847	 -0.00008044	  0.00010796	  0.00001191	  0.00010243
 67.00000000	  0.00022923	  0.00029077	  0.00000261	  0.00005929	 -0.00010959	 -0.00028051	  0.00022718	  0.00026961
 68.00000000	 -0.00017215	 -0.00062161	  0.00010763	 -0.00005124	  0.00008806	  0.00008824	 -0.00015327	 -0.00059010
 69.00000000	  0.00000030	 -0.00000004	  0.00000827	 -0.00009469	  0.00019837	 -0.00000826	  0.00000032	 -0.00000005
 70.00000000	 -0.00006606	  0.00022267	  0.00030452	 -0.00006799	  0.00013536	  0.00049941	 -0.00007860	  0.00021693
 71.00000000	  0.00029505	  0.00006734	  0.00029368	  0.00020918	 -0.00042639	 -0.00037490	  0.00030543	  0.00005205
 72.00000000	 -0.00028950	  0.00004191	  0.00011342	 -0.00012691	  0.00028013	 -0.00053667	 -0.00030434	  0.00005267
 73.00000000	  0.00009749	 -0.00001705	  0.00010146	  0.00003314	 -0.00008286	  0.00051799	  0.00010261	 -0.00002053
 74.00000000	  0.00007296	 -0.00022359	  0.00011045	  0.00004700	 -0.00010220	 -0.00008413	  0.00008579	 -0.00021806
 75.00000000	  0.00008905	 -0.00011660	  0.00031757	 -0.00001554	  0.00002394	  0.00021395	  0.00009805	 -0.00011591
 76.00000000	 -0.00019583	  0.00002456	  0.00021123	 -0.00000127	 -0.00000129	  0.00017850	 -0.00020574	  0.00003198
 77.00000000	 -0.00015822	  0.00034398	  0.00021210	 -0.00003994	  0.00009569	 -0.00012847	 -0.00018024	  0.00033746
 78.00000000	 -0.00001606	 -0.00010692	  0.00020715	  0.00006252	 -0.00012608	 -0.00029805	 -0.00001218	 -0.00010209
 79.00000000	  0.00027234	 -0.00024967	  0.00052078	 -0.00007604	  0.00013880	  0.00053160	  0.00029531	 -0.00025178
 80.00000000	  0.00007134	  0.00064137	  0.00019319	 -0.00000185	  0.00002082	 -0.00002904	  0.00004668	  0.00061349
 81.00000000	 -0.00029024	  0.00003420	  0.00011326	  0.00006450	 -0.00012647	 -0.00030496	 -0.00030480	  0.00004541
 82.00000000	  0.00054774	 -0.00038546	  0.00041864	 -0.00025263	  0.00051995	 -0.00008110	  0.00058869	 -0.00039434
 83.00000000	 -0.00068223	  0.00007985	  0.00054378	  0.00007216	 -0.00014610	 -0.00013798	 -0.00071615	  0.00010566
 84.00000000	  0.00015489	 -0.00034349	  0.00000466	  0.00005013	 -0.00011211	 -0.00007911	  0.00017648	 -0.00033689
 85.00000000	 -0.00003563	  0.00054252	  0.00010296	  0.00000248	  0.00000901	 -0.00001613	 -0.00006043	  0.00052311
 86.00000000	 -0.00018945	  0.00002399	  0.00022040	  0.00016704	 -0.00036449	  0.00061047	 -0.00019901	  0.00003119
 87.00000000	 -0.00008330	 -0.00074122	  0.00020096	 -0.00004355	  0.00007796	 -0.00028564	 -0.00005534	 -0.00070882
 88.00000000	  0.00025718	 -0.00035661	  0.00029731	 -0.00020282	  0.00040908	  0.00021741	  0.00028404	 -0.00035396
 89.00000000	  0.00000153	  0.00075320	  0.00074251	  0.00017008	 -0.00034234	  0.00023436	 -0.00003052	  0.00072405
 90.00000000	  0.00004932	 -0.00043546	  0.00009485	 -0.00015612	  0.00030720	  0.00029737	  0.00007051	 -0.00042078
 91.00000000	  0.00003261	  0.00031965	  0.00018443	  0.00024949	 -0.00050598	 -0.00029237	  0.00002017	  0.00030586
 92.00000000	 -0.00000522	 -0.00010833	  0.00040725	 -0.00006335	  0.00012157	  0.00031665	 -0.00000077	 -0.00010389
 93.00000000	 -0.00013411	  0.00056244	  0.00019667	 -0.00004765	  0.00011768	 -0.00014584	 -0.00016478	  0.00054644
 94.00000000	  0.00021969	 -0.00068199	  0.00030685	  0.00014685	 -0.00032525	 -0.00002956	  0.00025910	 -0.00066508
 95.00000000	 -0.00011296	  0.00077388	  0.00041282	 -0.00013755	  0.00031155	 -0.00016403	 -0.00015194	  0.00074861
 96.00000000	 -0.00004244	 -0.00042778	  0.00040808	 -0.00003130	  0.00003284	  0.00082185	 -0.00002563	 -0.00040935
 97.00000000	  0.00030471	 -0.00068462	  0.00041315	  0.00004425	 -0.00008166	 -0.00117559	  0.00034816	 -0.00067141
 98.00000000	 -0.00005432	  0.00033031	  0.00031217	 -0.00001884	  0.00003804	  0.00039943	 -0.00007099	  0.00031984
 99.00000000	 -0.00028146	  0.00014474	  0.00031317	  0.00001209	 -0.00001572	 -0.00023272	 -0.00030046	  0.00015124
100.00000000	  0.00009758	 -0.00001626	  0.00010162	  0.00004591	 -0.00009958	  0.00012136	  0.00010270	 -0.00001984
101.00000000	  0.00003168	  0.00021425	  0.00041422	 -0.00011870	  0.00024386	  0.00039788	  0.00002384	  0.00020455
102.00000000	  0.00008507	 -0.00011973	  0.00011783	  0.00018841	 -0.00039817	  0.00003040	  0.00009414	 -0.00011879
103.00000000	  0.00013132	  0.00031052	  0.00009901	 -0.00009807	  0.00021385	 -0.00002148	  0.00012371	  0.00029271
104.00000000	 -0.00006884	 -0.00063750	  0.00019384	 -0.00009163	  0.00017898	 -0.00018541	 -0.00004439	 -0.00060976
105.00000000	 -0.00017496	  0.00110459	  0.00051533	 -0.00013018	  0.00030904	 -0.00037746	 -0.00023096	  0.00106948
106.00000000	  0.00016862	 -0.00110018	  0.00009283	 -0.00005159	  0.00007367	  0.00013710	  0.00022361	 -0.00106521
107.00000000	 -0.00027678	  0.00003451	  0.00073214	  0.00010084	 -0.00023384	  0.00092056	 -0.00029069	  0.00004534
108.00000000	 -0.00060127	 -0.00013859	  0.00001100	  0.00000143	 -0.00000711	 -0.00003155	 -0.00062220	 -0.00010671
109.00000000	  0.00040033	  0.00005918	  0.00022261	  0.00004291	 -0.00008619	 -0.00006909	  0.00041577	  0.00003914
110.00000000	 -0.00018495	  0.00002311	  0.00039545	 -0.00020929	  0.00042827	  0.00038880	 -0.00019426	  0.00003043
111.00000000	  0.00015946	 -0.00034346	  0.00021972	  0.00012826	 -0.00028644	  0.00033449	  0.00018190	 -0.00033740
112.00000000	 -0.00021498	 -0.00007828	  0.00062590	 -0.00002128	  0.00005618	 -0.00054218	 -0.00022113	 -0.00006578
113.00000000	  0.00000827	  0.00010423	  0.00020763	  0.00006332	 -0.00012186	 -0.00029893	  0.00000405	  0.00009985
114.00000000	  0.00008570	 -0.00012029	  0.00010199	 -0.00001334	  0.00001397	  0.00041135	  0.00009488	 -0.00011943
115.00000000	  0.00004902	  0.00042661	  0.00000876	 -0.00018565	  0.00040572	 -0.00022392	  0.00003239	  0.00040809
116.00000000	  0.00005597	 -0.00043991	  0.00053324	  0.00020611	 -0.00046295	  0.00075215	  0.00007797	 -0.00042553
117.00000000	 -0.00028913	  0.00014178	  0.00073603	  0.00004293	 -0.00006455	 -0.00083820	 -0.00030851	  0.00014907
118.00000000	  0.00052964	  0.00025788	  0.00073875	 -0.00002386	  0.00005035	  0.00025223	  0.00054231	  0.00022422
119.00000000	  0.00005615	 -0.00054340	  0.00115624	  0.00015896	 -0.00035521	  0.00027697	  0.00008222	 -0.00052484
120.00000000	 -0.00035647	  0.00036755	  0.00041608	  0.00007164	 -0.00012652	 -0.00053796	 -0.00038901	  0.00036887
121.00000000	  0.00046316	 -0.00027078	  0.00031028	 -0.00015470	  0.00031285	  0.00013013	  0.00049608	 -0.00028067
122.00000000	 -0.00049141	 -0.00005272	  0.00009052	  0.00010665	 -0.00022017	 -0.00020069	 -0.00051147	 -0.00002900
123.00000000	  0.00028644	 -0.00003439	  0.00008668	  0.00015759	 -0.00031867	 -0.00047266	  0.00030104	 -0.00004556
124.00000000	  0.00042207	 -0.00003845	  0.00209015	 -0.00014605	  0.00030219	  0.00009132	  0.00044302	 -0.00005604
125.00000000	  0.00167742	 -0.00030173	  0.00281392	 -0.00004109	  0.00007341	 -0.00014523	  0.00176644	 -0.00036664
126.00000000	  0.00059788	  0.00091208	  0.00159611	  0.00059562	 -0.00118046	 -0.00185237	  0.00059021	  0.00084891
127.00000000	  0.00037782	  0.00061976	  0.00199620	  0.00045484	 -0.00088993	 -0.00214404	  0.00037352	  0.00057792
128.00000000	 -0.00047693	  0.00038394	  0.00456266	  0.00022325	 -0.00042023	 -0.00166936	 -0.00051236	  0.00038782
129.00000000	  0.00017405	 -0.00020055	  0.00710829	  0.00260449	 -0.00545251	 -0.00075575	  0.00018872	 -0.00019881
130.00000000	  0.00242089	 -0.00024811	  0.00819517	  0.00106610	 -0.00230134	  0.00078568	  0.00256623	 -0.00033779
131.00000000	 -0.00010762	  0.00022581	  0.00264521	 -0.00126260	  0.00275320	 -0.00383006	 -0.00012123	  0.00021791
132.00000000	  0.00324871	 -0.00089105	  0.00931418	 -0.00293203	  0.00608466	  0.00192036	  0.00345512	 -0.00091940
133.00000000	  0.00208064	 -0.00074257	  0.01767787	 -0.00363618	  0.00760114	 -0.00119483	  0.00220849	 -0.00074657
134.00000000	  0.00026067	 -0.00059167	  0.00858750	 -0.00397517	  0.00819676	  0.00326719	  0.00029638	 -0.00057995
135.00000000	 -0.00050413	 -0.00243266	  0.00225390	 -0.00278210	  0.00561431	  0.00247564	 -0.00041636	 -0.00235859
136.00000000	  0.00000473	 -0.00740579	  0.00242418	 -0.00416838	  0.00810175	  0.00406746	  0.00034356	 -0.00728612
137.00000000	  0.00260381	 -0.00024391	  0.01025936	 -0.00272055	  0.00541767	  0.00250305	  0.00264701	 -0.00032633
138.00000000	  0.00408600	 -0.00406893	  0.00706516	 -0.00727891	  0.01433614	  0.00445296	  0.00431968	 -0.00423003
139.00000000	  0.00468948	 -0.01347958	  0.00780572	 -0.00491505	  0.00846405	  0.00450535	  0.00544365	 -0.01385924
140.00000000	 -0.00021432	 -0.00051744	  0.00734125	  0.00194836	 -0.00391078	  0.00128589	 -0.00018065	 -0.00051738
141.00000000	  0.00063670	 -0.00755064	  0.00366238	 -0.00243710	  0.00411072	  0.00187410	  0.00105278	 -0.00772163
142.00000000	 -0.00119951	 -0.00550394	  0.00466217	 -0.00007854	 -0.00050115	  0.00632785	 -0.00083381	 -0.00556701
143.00000000	 -0.00037365	  0.01258098	  0.00252710	  0.00586424	 -0.01062277	 -0.00554035	 -0.00106122	  0.01280878
144.00000000	  0.00124609	 -0.00475467	  0.01164377	  0.00174029	 -0.00399725	  0.00348862	  0.00145416	 -0.00487425
145.00000000	 -0.00227025	  0.00414181	  0.00340803	  0.00666603	 -0.01288402	 -0.00363429	 -0.00248496	  0.00427478
146.00000000	 -0.00047531	 -0.00083389	  0.00724334	  0.00149009	 -0.00312170	  0.00154322	 -0.00044166	 -0.00079685
147.00000000	 -0.00652132	 -0.00634646	  0.00963835	  0.00137591	 -0.00320217	 -0.00289763	 -0.00622953	 -0.00597010
148.00000000	 -0.00191646	  0.01194152	  0.00257197	  0.00842857	 -0.01629846	 -0.00541599	 -0.00256583	  0.01178745
149.00000000	 -0.00169857	  0.01857479	  0.01418092	  0.00926963	 -0.01874742	  0.00122737	 -0.00244462	  0.01795906
150.00000000	  0.00341149	 -0.00094773	  0.01512610	 -0.00429652	  0.00904726	 -0.00099549	  0.00362647	 -0.00112502
151.00000000	  0.00146177	 -0.00030621	  0.01508141	  0.00548340	 -0.01158353	  0.00105145	  0.00155458	 -0.00038254
152.00000000	 -0.00297241	  0.00991201	  0.01876273	  0.00649201	 -0.01353459	 -0.00117782	 -0.00344374	  0.00950088
153.00000000	  0.00436201	 -0.00584704	  0.01523511	  0.00091818	 -0.00227721	 -0.00301605	  0.00486455	 -0.00569099
154.00000000	  0.00175795	  0.00347488	  0.00541394	  0.00194989	 -0.00414511	 -0.00230561	  0.00181200	  0.00314454
155.00000000	  0.00310761	 -0.00513097	  0.00054226	 -0.00032527	  0.00026669	  0.00480148	  0.00359259	 -0.00484790
156.00000000	 -0.00286650	  0.00179012	  0.00733131	  0.00098557	 -0.00202704	  0.00091592	 -0.00321402	  0.00174734
157.00000000	 -0.00101147	 -0.00382714	  0.00926141	  0.00229053	 -0.00502058	 -0.00476563	 -0.00093068	 -0.00349591
158.00000000	 -0.00355242	  0.00840603	  0.00634733	  0.00311633	 -0.00658353	 -0.00004679	 -0.00428919	  0.00782929
159.00000000	 -0.00171253	 -0.00299754	  0.00034619	  0.00209779	 -0.00466589	 -0.00154938	 -0.00178461	 -0.00266881
160.00000000	 -0.00734711	 -0.00708876	  0.00323909	 -0.00174367	  0.00355882	 -0.00085933	 -0.00790293	 -0.00616945
161.00000000	 -0.00148727	  0.00154714	  0.00363033	  0.00082262	 -0.00184763	  0.00348130	 -0.00171536	  0.00146393
162.00000000	 -0.00256059	 -0.00379280	  0.00589341	  0.00147940	 -0.00342049	 -0.00194623	 -0.00266635	 -0.00336671
163.00000000	 -0.00127510	 -0.00136705	  0.00254492	 -0.00041020	  0.00084432	 -0.00020961	 -0.00135642	 -0.00119690
164.00000000	 -0.00589713	 -0.00091590	  0.00296877	 -0.00007628	  0.00001502	 -0.00055941	 -0.00650272	 -0.00060551
165.00000000	 -0.00497422	  0.00460185	  0.00418976	 -0.00162568	  0.00358167	  0.00188256	 -0.00569323	  0.00443420
166.00000000	  0.00142949	 -0.00666917	  0.00179224	 -0.00100438	  0.00185321	  0.00052263	  0.00186275	 -0.00617304
167.00000000	  0.00042270	 -0.00092469	  0.00161809	  0.00087255	 -0.00206630	  0.00317681	  0.00050922	 -0.00086629
168.00000000	 -0.00219142	  0.00372414	  0.00582636	  0.00092154	 -0.00179653	 -0.00462349	 -0.00260690	  0.00349774
169.00000000	  0.00164722	 -0.00053075	  0.00033262	 -0.00057648	  0.00131404	 -0.00081674	  0.00184582	 -0.00055712
170.00000000	 -0.00037304	 -0.00262541	  0.00520753	  0.00008384	 -0.00047162	  0.00429826	 -0.00030418	 -0.00238316
171.00000000	  0.00338151	 -0.00176744	  0.00205200	 -0.00008897	  0.00016139	 -0.00044956	  0.00381958	 -0.00177768
172.00000000	 -0.00294999	  0.00870264	  0.00007814	 -0.00017755	  0.00066814	 -0.00154022	 -0.00364105	  0.00808920
173.00000000	  0.00248925	 -0.00368201	  0.00214242	  0.00031558	 -0.00083295	 -0.00051487	  0.00290454	 -0.00347725
174.00000000	 -0.00170497	 -0.00373446	  0.00088656	 -0.00093649	  0.00186736	 -0.00143435	 -0.00173073	 -0.00334377
175.00000000	  0.00150741	  0.00141376	  0.00159581	  0.00006058	 -0.00004220	  0.00019489	  0.00161038	  0.00122979
176.00000000	 -0.00203311	  0.00302995	  0.00086745	  0.00005399	 -0.00008058	  0.00164605	 -0.00237385	  0.00285635
177.00000000	  0.00078516	  0.00061912	  0.00275365	  0.00113146	 -0.00239016	 -0.00248977	  0.00084287	  0.00053432
178.00000000	  0.00074991	 -0.00028683	  0.00228937	 -0.00029876	  0.00054763	  0.00403919	  0.00084321	 -0.00029356
179.00000000	 -0.00162142	 -0.00176027	  0.00131561	  0.00011204	 -0.00040660	  0.00099317	 -0.00171456	 -0.00153804
180.00000000	 -0.00000563	 -0.00439384	  0.00349973	 -0.00134739	  0.00281751	 -0.00291463	  0.00019806	 -0.00401863
181.00000000	  0.00156606	  0.00268557	  0.00144239	  0.00025236	 -0.00041862	  0.00075241	  0.00160742	  0.00239390
182.00000000	 -0.00068565	 -0.00084011	  0.00192958	  0.00029327	 -0.00064146	 -0.00228298	 -0.00072094	 -0.00073993
183.00000000	 -0.00138273	  0.00160310	  0.00016502	 -0.00150876	  0.00330140	  0.00279422	 -0.00159861	  0.00152727
184.00000000	  0.00121433	  0.00171347	  0.00137809	  0.00134627	 -0.00278470	 -0.00261400	  0.00126462	  0.00151738
185.00000000	 -0.00192479	 -0.00113915	  0.00290634	 -0.00092081	  0.00183877	  0.00295326	 -0.00207608	 -0.00095668
186.00000000	 -0.00019649	 -0.00172436	  0.00473760	 -0.00046273	  0.00085550	  0.00219534	 -0.00014290	 -0.00157217
187.00000000	 -0.00060348	  0.00106983	  0.00122941	 -0.00183102	  0.00418604	 -0.00353291	 -0.00071147	  0.00101119
188.00000000	  0.00110255	  0.00168387	  0.00229965	 -0.00109796	  0.00263295	 -0.00422106	  0.00114687	  0.00150172
189.00000000	  0.00176059	  0.00030048	  0.00247839	  0.00251168	 -0.00543221	 -0.00064514	  0.00192191	  0.00020506
190.00000000	  0.00102929	  0.00558402	  0.00220806	  0.00089381	 -0.00170716	 -0.00195905	  0.00092776	  0.00508319
191.00000000	  0.00405182	  0.00239778	  0.00104727	  0.00146962	 -0.00315376	  0.00101354	  0.00438959	  0.00205632
192.00000000	  0.00143751	  0.00454976	  0.00044464	 -0.00157946	  0.00363109	  0.00005235	  0.00142352	  0.00411151
193.00000000	  0.00064449	 -0.00296748	  0.00037155	  0.00173642	 -0.00391273	 -0.00093505	  0.00081624	 -0.00273698
194.00000000	  0.00192346	 -0.00615551	  0.00425216	 -0.00170268	  0.00333945	  0.00546264	  0.00234798	 -0.00570350
195.00000000	  0.00177571	  0.00225897	  0.00306767	  0.00001444	  0.00007757	 -0.00102827	  0.00188070	  0.00199376
196.00000000	  0.00120122	  0.00551653	  0.00186167	  0.00165664	 -0.00340596	 -0.00446350	  0.00115928	  0.00499430
197.00000000	  0.00405884	  0.00234678	  0.00391086	 -0.00039276	  0.00081994	  0.00248561	  0.00442570	  0.00199571
198.00000000	 -0.00166979	  0.00504505	  0.00869567	 -0.00015922	  0.00058600	 -0.00665662	 -0.00203357	  0.00464957
199.00000000	 -0.00129348	 -0.00144289	  0.00106426	  0.00173998	 -0.00392079	  0.00194189	 -0.00138841	 -0.00127929
200.00000000	 -0.00101185	 -0.00597976	  0.00316516	 -0.00055656	  0.00088468	  0.00561997	 -0.00092143	 -0.00541112
201.00000000	 -0.00336870	 -0.00257656	  0.00177256	 -0.00355041	  0.00781932	 -0.00156837	 -0.00362839	 -0.00223794
202.00000000	 -0.00021284	  0.00174648	  0.00074950	  0.00267608	 -0.00583911	  0.00021577	 -0.00029609	  0.00160630
203.00000000	  0.00483927	 -0.00037106	  0.00201374	  0.00152753	 -0.00333658	 -0.00480311	  0.00538298	 -0.00050153
204.00000000	 -0.00462362	 -0.00010817	  0.00131925	 -0.00080578	  0.00164958	  0.00472078	 -0.00513248	  0.00004838
205.00000000	  0.00269439	 -0.00436218	  0.00059768	 -0.00054115	  0.00096691	  0.00126477	  0.00315307	 -0.00407284
206.00000000	  0.00186387	  0.00126460	  0.00286004	 -0.00014416	  0.00027080	  0.00319656	  0.00201902	  0.00108057
207.00000000	  0.00082775	  0.00591766	  0.00449859	  0.00098993	 -0.00200398	 -0.00192253	  0.00066638	  0.00536686
208.00000000	  0.00249600	 -0.00089955	  0.00039396	  0.00061150	 -0.00140055	 -0.00087525	  0.00280928	 -0.00091429
209.00000000	 -0.00105236	 -0.00195061	  0.00426418	  0.00094705	 -0.00216180	 -0.00023047	 -0.00109024	 -0.00173794
210.00000000	 -0.00095587	  0.00142768	  0.00135749	 -0.00089254	  0.00205586	 -0.00048356	 -0.00112043	  0.00133351
211.00000000	 -0.00096534	 -0.00374414	  0.00332770	 -0.00077962	  0.00155614	  0.00120735	 -0.00091137	 -0.00337737
212.00000000	 -0.00224138	 -0.00721259	  0.00520029	 -0.00019490	 -0.00003484	  0.00280818	 -0.00221835	 -0.00647748
213.00000000	 -0.00016418	  0.00147964	  0.00146519	 -0.00146020	  0.00338899	 -0.00276384	 -0.00024224	  0.00135807
214.00000000	 -0.00094947	  0.00231582	  0.00014239	  0.00083010	 -0.00189501	  0.00513824	 -0.00115531	  0.00215445
215.00000000	 -0.00057965	 -0.00134293	  0.00002476	 -0.00129909	  0.00275477	  0.00212427	 -0.00057749	 -0.00120231
216.00000000	 -0.00120517	 -0.00529926	  0.00218060	  0.00113730	 -0.00263561	 -0.00599342	 -0.00110323	 -0.00479300
217.00000000	 -0.00446441	  0.00246361	  0.00098017	 -0.00023019	  0.00047760	  0.00234112	 -0.00505494	  0.00243443
218.00000000	  0.00175941	 -0.00391018	  0.00265730	  0.00035154	 -0.00103921	  0.00166152	  0.00211937	 -0.00365696
219.00000000	 -0.00008751	  0.00628066	  0.00341199	 -0.00089814	  0.00228098	 -0.00135677	 -0.00040035	  0.00574725
220.00000000	  0.00182687	 -0.00468746	  0.00158862	  0.00005152	 -0.00034010	 -0.00080968	  0.00221854	 -0.00437472
221.00000000	 -0.00244352	  0.00572006	  0.00125234	 -0.00065341	  0.00167331	 -0.00137736	 -0.00295017	  0.00534131
222.00000000	 -0.00331868	 -0.00225132	  0.00110695	 -0.00045439	  0.00091307	 -0.00292671	 -0.00356952	 -0.00192416
223.00000000	  0.00072500	  0.00172672	  0.00058511	 -0.00167820	  0.00371800	  0.00260748	  0.00072470	  0.00155644
224.00000000	  0.00091576	 -0.00279948	  0.00060535	  0.00161132	 -0.00368671	  0.00059316	  0.00112727	 -0.00261119
225.00000000	 -0.00214784	  0.00211614	  0.00123971	  0.00127020	 -0.00278303	  0.00087552	 -0.00246879	  0.00202921
226.00000000	  0.00213258	  0.00060332	  0.00330823	 -0.00048036	  0.00115088	 -0.00107992	  0.00232884	  0.00046375
227.00000000	  0.00366064	 -0.00107177	  0.00371247	  0.00047517	 -0.00103426	 -0.00164843	  0.00409389	 -0.00112868
228.00000000	  0.00338786	 -0.00200318	  0.00243423	  0.00124212	 -0.00289806	  0.00143779	  0.00384284	 -0.00196643
229.00000000	 -0.00066751	  0.00076427	  0.00832856	 -0.00161390	  0.00367890	 -0.00197030	 -0.00077722	  0.00072343
230.00000000	  0.00275147	  0.00772157	  0.00552319	  0.00079338	 -0.00149380	 -0.00131214	  0.00266878	  0.00696845
231.00000000	  0.00008345	 -0.01236516	  0.00534082	  0.00003891	 -0.00095811	  0.00232293	  0.00057804	 -0.01131979
232.00000000	 -0.00270773	  0.00187943	  0.00393764	 -0.00227931	  0.00502028	  0.00346591	 -0.00307005	  0.00185235
233.00000000	 -0.00043567	  0.00393253	  0.00480139	  0.00147513	 -0.00294045	 -0.00455395	 -0.00066816	  0.00362762
234.00000000	 -0.00139144	 -0.00373433	  0.00363676	 -0.00021511	  0.00015489	  0.00333729	 -0.00137464	 -0.00335724
235.00000000	  0.00178282	 -0.00058604	  0.00191764	 -0.00227234	  0.00505869	 -0.00178181	  0.00198995	 -0.00061797
236.00000000	  0.00106226	  0.00138025	  0.00261792	  0.00161629	 -0.00351079	  0.00078645	  0.00110967	  0.00121865
237.00000000	 -0.00172977	  0.00017808	  0.00187493	 -0.00143977	  0.00312731	  0.00162510	 -0.00191164	  0.00024460
238.00000000	  0.00065932	 -0.00288717	  0.00738188	  0.00014528	 -0.00045386	 -0.00078924	  0.00087976	 -0.00268374
239.00000000	  0.00326802	  0.00135996	  0.00644827	 -0.00335023	  0.00736229	  0.00214039	  0.00349781	  0.00112387
240.00000000	  0.00508978	  0.00015156	  0.00222985	 -0.00064799	  0.00134914	 -0.00025190	  0.00553195	 -0.00010093
241.00000000	  0.00107059	  0.00783764	  0.00363938	  0.00114152	 -0.00208633	 -0.00454910	  0.00078607	  0.00721970
242.00000000	  0.00211098	 -0.00612275	  0.00993400	 -0.00385623	  0.00789908	  0.00473511	  0.00253444	 -0.00580506
243.00000000	 -0.00029540	  0.00186074	  0.00951082	 -0.00098835	  0.00226621	 -0.00107726	 -0.00038809	  0.00175306
244.00000000	  0.00499486	 -0.00167400	  0.00924883	 -0.00418880	  0.00877903	  0.00199135	  0.00543579	 -0.00183792
245.00000000	  0.00701137	 -0.00205840	  0.00233536	 -0.01149881	  0.02454033	 -0.00650091	  0.00749921	 -0.00225606
246.00000000	  0.00754863	  0.00774713	  0.00556892	 -0.00127861	  0.00254381	 -0.00080152	  0.00753507	  0.00720420
247.00000000	  0.00414491	 -0.00241775	  0.00353791	 -0.00340422	  0.00675657	 -0.00008677	  0.00440212	 -0.00247730
248.00000000	  0.00017106	 -0.00133046	  0.00336638	 -0.00176596	  0.00356231	  0.00124246	  0.00022349	 -0.00129836
249.00000000	  0.00048993	 -0.00591054	  0.00162148	 -0.00819970	  0.01644301	  0.00765782	  0.00076250	 -0.00581337
250.00000000	  0.00561821	  0.00276640	  0.00715427	  0.00210752	 -0.00438881	 -0.00579159	  0.00557908	  0.00251431
251.00000000	  0.00849516	 -0.00551973	  0.00595717	 -0.00694622	  0.01333305	 -0.00923952	  0.00878374	 -0.00573161
252.00000000	  0.00151739	  0.01267114	  0.00912079	  0.00165017	 -0.00300148	 -0.00315666	  0.00108115	  0.01255542
253.00000000	 -0.00214435	 -0.00796508	  0.00477821	 -0.00025266	  0.00016027	  0.00287335	 -0.00196285	 -0.00783386
254.00000000	  0.00274269	 -0.00004680	  0.00418028	 -0.00096905	  0.00165822	  0.00479216	  0.00276280	 -0.00013631
255.00000000	  0.00088946	  0.00862003	  0.00092904	  0.00459846	 -0.00897449	 -0.00421989	  0.00065061	  0.00849205
256.00000000	 -0.00270949	  0.00304759	  0.00714050	  0.00596437	 -0.01168077	 -0.00704606	 -0.00286353	  0.00304902
257.00000000	 -0.00023892	 -0.00023465	  0.00344648	 -0.00257717	  0.00518485	  0.00801045	 -0.00023626	 -0.00022392
258.00000000	  0.00184130	  0.00771347	  0.01140678	  0.00490139	 -0.00985156	 -0.00907759	  0.00161227	  0.00747247
259.00000000	 -0.00321240	  0.00621041	  0.00641737	  0.00534377	 -0.01069352	  0.00013751	 -0.00353994	  0.00605927
260.00000000	 -0.00381208	 -0.00554308	  0.00233502	 -0.00043110	  0.00095807	  0.00204249	 -0.00382292	 -0.00521406
261.00000000	 -0.00400583	  0.00664345	  0.00503822	  0.00214097	 -0.00414200	  0.00007252	 -0.00441245	  0.00647836
262.00000000	 -0.00456119	 -0.00026451	  0.00938763	 -0.00306061	  0.00663304	  0.00115349	 -0.00473998	 -0.00015666
263.00000000	 -0.00203040	 -0.00045410	  0.00907591	 -0.00584703	  0.01229925	 -0.00083814	 -0.00207409	 -0.00039390
264.00000000	 -0.00521783	  0.00220043	  0.00256568	  0.00053318	 -0.00088735	  0.00132113	 -0.00542319	  0.00230682
265.00000000	 -0.00577778	 -0.00274443	  0.00758480	 -0.00161319	  0.00337449	  0.00261013	 -0.00583095	 -0.00245217
266.00000000	 -0.00656106	  0.00173583	  0.01487658	  0.00266279	 -0.00539326	  0.00404581	 -0.00676442	  0.00203112
267.00000000	 -0.00694397	 -0.00285369	  0.01671415	  0.00710239	 -0.01468193	  0.00346727	 -0.00712298	 -0.00237420
268.00000000	 -0.00275900	 -0.00129517	  0.00045066	 -0.00026458	  0.00056899	 -0.00102811	 -0.00282854	 -0.00113085
269.00000000	  0.00018668	 -0.00009806	  0.00902438	 -0.00174926	  0.00368711	 -0.00111577	  0.00019932	 -0.00010052
270.00000000	 -0.00222349	 -0.00199736	  0.00163520	  0.00024610	 -0.00055865	  0.00003434	 -0.00223446	 -0.00183501
271.00000000	 -0.00269342	 -0.00126730	  0.00554118	  0.00090904	 -0.00197339	  0.00153538	 -0.00275884	 -0.00109841
272.00000000	 -0.00139674	  0.00028008	  0.00112190	 -0.00020792	  0.00041558	  0.00081100	 -0.00146769	  0.00032972
273.00000000	  0.00004622	 -0.00098295	  0.00119310	 -0.00008989	  0.00014508	  0.00056861	  0.00008940	 -0.00094929
274.00000000	 -0.00043060	  0.00030420	  0.00036088	  0.00022858	 -0.00046821	 -0.00009226	 -0.00046186	  0.00031182
275.00000000	  0.00008452	  0.00020751	  0.00282822	 -0.00052161	  0.00110019	 -0.00015975	  0.00007981	  0.00019611
276.00000000	  0.00003034	 -0.00075845	  0.00318954	  0.00013808	 -0.00030918	 -0.00001521	  0.00006139	 -0.00073235
277.00000000	  0.00033990	  0.00015225	  0.00134630	  0.00014064	 -0.00027885	 -0.00039075	  0.00034822	  0.00013184
278.00000000	  0.00101104	 -0.00006095	  0.00270147	  0.00009985	 -0.00020833	 -0.00010235	  0.00105692	 -0.00010353
279.00000000	  0.00034681	  0.00209492	  0.00250372	  0.00018898	 -0.00032041	 -0.00107479	  0.00028304	  0.00200073
280.00000000	  0.00062041	 -0.00019226	  0.00412118	 -0.00000906	  0.00001940	 -0.00027219	  0.00065455	 -0.00021222
281.00000000	  0.00053412	 -0.00146772	  0.00296739	 -0.00018853	  0.00032286	  0.00117083	  0.00061273	 -0.00143409
282.00000000	  0.00031064	 -0.00003632	  0.00132793	 -0.00026962	  0.00055837	  0.00013964	  0.00032567	 -0.00004786
283.00000000	  0.00014739	 -0.00065570	  0.00205736	 -0.00003874	  0.00005900	  0.00011485	  0.00017893	 -0.00063714
284.00000000	 -0.00035143	  0.00015244	  0.00102114	  0.00012882	 -0.00026761	  0.00014613	 -0.00037283	  0.00016115
285.00000000	  0.00007738	  0.00063191	  0.00001379	  0.00008605	 -0.00016821	  0.00019189	  0.00005517	  0.00060463
286.00000000	 -0.00005071	 -0.00041841	  0.00001535	 -0.00018381	  0.00037806	 -0.00021103	 -0.00003605	 -0.00040040
287.00000000	 -0.00026131	  0.00024951	  0.00012392	 -0.00012626	  0.00027920	 -0.00033199	 -0.00028273	  0.00025057
288.00000000	 -0.00006322	 -0.00053105	  0.00021870	  0.00021830	 -0.00048397	  0.00054113	 -0.00004456	 -0.00050836
289.00000000	  0.00051015	  0.00024896	  0.00028781	  0.00021351	 -0.00042796	 -0.00055881	  0.00052270	  0.00021886
290.00000000	  0.00012478	  0.00019833	  0.00008941	 -0.00025787	  0.00053299	  0.00046963	  0.00012229	  0.00018573
291.00000000	  0.00022667	  0.00028791	  0.00020473	  0.00006939	 -0.00012666	 -0.00048643	  0.00022507	  0.00026780
292.00000000	  0.00042852	  0.00047489	  0.00124215	 -0.00008618	  0.00021718	 -0.00114149	  0.00042830	  0.00044017
293.00000000	  0.00143397	 -0.00000267	  0.00153429	  0.00031392	 -0.00063524	 -0.00141970	  0.00149715	 -0.00005611
294.00000000	  0.00094132	  0.00061218	  0.00070962	  0.00000974	 -0.00000956	 -0.00020130	  0.00095978	  0.00055394
295.00000000	  0.00019988	 -0.00077214	  0.00008425	 -0.00015747	  0.00032810	 -0.00096067	  0.00023656	 -0.00074977
296.00000000	 -0.00133139	  0.00029267	  0.00020348	  0.00024184	 -0.00049546	  0.00023473	 -0.00140086	  0.00032930
297.00000000	  0.00007154	 -0.00032504	  0.00092760	 -0.00024747	  0.00048582	  0.00100639	  0.00008659	 -0.00031516
298.00000000	  0.00031988	  0.00027242	  0.00052806	 -0.00007167	  0.00016369	 -0.00041316	  0.00032366	  0.00025015
299.00000000	 -0.00049959	 -0.00004099	  0.00052816	  0.00013405	 -0.00026431	 -0.00061746	 -0.00051998	 -0.00002114
300.00000000	 -0.00014352	 -0.00040681	  0.00030708	  0.00005528	 -0.00011965	 -0.00026887	 -0.00013524	 -0.00038583
301.00000000	  0.00001140	 -0.00065505	  0.00008899	  0.00033584	 -0.00072414	  0.00016486	  0.00003577	 -0.00062993
302.00000000	 -0.00023238	 -0.00029721	  0.00000037	  0.00024965	 -0.00052791	 -0.00006249	 -0.00023208	 -0.00027701
