   -0.021735	   -0.031440	   -0.040881	   -0.050069	   -0.059015	  490.194314	  480.198466	  470.473957	  461.009886	  451.795930
   -0.021547	   -0.031295	   -0.040780	   -0.050012	   -0.059003	  490.114313	  480.138414	  470.431362	  460.982432	  451.781465
   -0.021743	   -0.031315	   -0.040633	   -0.049708	   -0.058548	  490.197425	  480.154953	  470.378288	  460.857014	  451.581254
   -0.021932	   -0.031350	   -0.040518	   -0.049446	   -0.058142	  490.267207	  480.165542	  470.332418	  460.757266	  451.430065
   -0.022120	   -0.031548	   -0.040723	   -0.049657	   -0.058357	  490.347178	  480.245278	  470.413846	  460.842164	  451.520071
   -0.021551	   -0.031067	   -0.040331	   -0.049353	   -0.058142	  490.115855	  480.055147	  470.260714	  460.722125	  451.429484
   -0.021735	   -0.031320	   -0.040648	   -0.049729	   -0.058572	  490.194314	  480.154498	  470.384240	  460.872828	  451.610110
   -0.021747	   -0.031479	   -0.040954	   -0.050181	   -0.059170	  490.189199	  480.214482	  470.503594	  461.046203	  451.832511
   -0.021727	   -0.031229	   -0.040471	   -0.049462	   -0.058213	  490.190771	  480.108273	  470.302753	  460.762953	  451.478215
   -0.021346	   -0.031091	   -0.040573	   -0.049802	   -0.058788	  490.029488	  480.053424	  470.347151	  460.899872	  451.701357
   -0.021743	   -0.031416	   -0.040833	   -0.050006	   -0.058943	  490.187643	  480.190092	  470.455860	  460.974679	  451.736809
   -0.021543	   -0.031134	   -0.040466	   -0.049549	   -0.058393	  490.122556	  480.081161	  470.311614	  460.803022	  451.545068
   -0.021936	   -0.031409	   -0.040630	   -0.049610	   -0.058357	  490.268996	  480.190334	  470.379460	  460.825840	  451.519488
   -0.021752	   -0.031467	   -0.040930	   -0.050149	   -0.059134	  490.180974	  480.210666	  470.500079	  461.039195	  451.818506
   -0.021555	   -0.031390	   -0.040964	   -0.050289	   -0.059374	  490.107614	  480.179191	  470.513332	  461.099756	  451.928715
   -0.021555	   -0.031179	   -0.040547	   -0.049672	   -0.058560	  490.107614	  480.089805	  470.337148	  460.839253	  451.586267
   -0.021743	   -0.031324	   -0.040649	   -0.049729	   -0.058572	  490.177425	  480.142207	  470.374632	  460.864134	  451.600696
   -0.021739	   -0.031375	   -0.040753	   -0.049883	   -0.058776	  490.185870	  480.169486	  470.421187	  460.930350	  451.686911
   -0.020974	   -0.030706	   -0.040178	   -0.049399	   -0.058381	  489.881145	  479.903303	  470.192468	  460.738065	  451.530067
   -0.022128	   -0.031705	   -0.041029	   -0.050109	   -0.058955	  490.340566	  480.305402	  470.535842	  461.021479	  451.752444
   -0.021547	   -0.031233	   -0.040659	   -0.049837	   -0.058776	  490.114313	  480.116573	  470.386296	  460.912893	  451.686323
   -0.021162	   -0.030948	   -0.040472	   -0.049745	   -0.058776	  489.961200	  480.000894	  470.307017	  460.869023	  451.676911
   -0.022128	   -0.031657	   -0.040933	   -0.049965	   -0.058764	  490.340566	  480.282756	  470.492191	  460.958359	  451.671291
   -0.021735	   -0.031430	   -0.040865	   -0.050048	   -0.058991	  490.194314	  480.196334	  470.467655	  460.997542	  451.775822
   -0.021739	   -0.031327	   -0.040657	   -0.049739	   -0.058584	  490.195870	  480.154217	  470.382366	  460.869587	  451.605712
   -0.021551	   -0.031282	   -0.040756	   -0.049981	   -0.058967	  490.116071	  480.139386	  470.427578	  460.970237	  451.757491
   -0.022120	   -0.031552	   -0.040731	   -0.049667	   -0.058369	  490.347178	  480.245011	  470.414378	  460.844476	  451.525068
   -0.021555	   -0.031289	   -0.040764	   -0.049991	   -0.058979	  490.117614	  480.139006	  470.425381	  460.966322	  451.751950
   -0.021743	   -0.031218	   -0.040440	   -0.049420	   -0.058166	  490.197425	  480.112282	  470.296230	  460.738641	  451.429441
   -0.021551	   -0.031225	   -0.040644	   -0.049816	   -0.058752	  490.115855	  480.117066	  470.382889	  460.902957	  451.667436
   -0.021747	   -0.031369	   -0.040737	   -0.049862	   -0.058752	  490.189199	  480.172689	  470.420243	  460.921555	  451.666849
   -0.021358	   -0.031149	   -0.040678	   -0.049956	   -0.058991	  490.034285	  480.078381	  470.388909	  460.955313	  451.767592
   -0.021547	   -0.031246	   -0.040683	   -0.049868	   -0.058812	  490.114313	  480.115747	  470.387674	  460.919263	  451.700254
   -0.022132	   -0.031702	   -0.041021	   -0.050098	   -0.058943	  490.352371	  480.308052	  470.527534	  461.000561	  451.717398
   -0.021940	   -0.031507	   -0.040823	   -0.049898	   -0.058740	  490.270785	  480.230629	  470.454165	  460.931138	  451.651821
   -0.021760	   -0.031322	   -0.040634	   -0.049706	   -0.058548	  490.194308	  480.155817	  470.379029	  460.853843	  451.570669
   -0.022513	   -0.031665	   -0.040575	   -0.049255	   -0.057712	  490.483481	  480.282629	  470.350143	  460.675571	  451.248996
   -0.021927	   -0.031423	   -0.040662	   -0.049652	   -0.058405	  490.265638	  480.183881	  470.376087	  460.831239	  451.538903
   -0.022132	   -0.031654	   -0.040925	   -0.049954	   -0.058752	  490.332371	  480.278430	  470.489574	  460.955457	  451.666261
   -0.021747	   -0.031365	   -0.040729	   -0.049851	   -0.058740	  490.179199	  480.162936	  470.409681	  460.909210	  451.651821
   -0.021543	   -0.031029	   -0.040258	   -0.049240	   -0.057986	  490.112341	  480.028794	  470.218484	  460.670454	  451.374323
   -0.021559	   -0.031180	   -0.040548	   -0.049671	   -0.058560	  490.119157	  480.099718	  470.344548	  460.843328	  451.586267
   -0.021739	   -0.031265	   -0.040537	   -0.049564	   -0.058357	  490.195652	  480.134761	  470.342272	  460.807586	  451.520655
   -0.021543	   -0.031072	   -0.040346	   -0.049374	   -0.058166	  490.122556	  480.056706	  470.261314	  460.725623	  451.439441
   -0.021350	   -0.030987	   -0.040365	   -0.049493	   -0.058381	  490.041229	  480.018833	  470.266599	  460.773747	  451.530067
   -0.021944	   -0.031408	   -0.040623	   -0.049599	   -0.058345	  490.272356	  480.190798	  470.374183	  460.812203	  451.495076
   -0.021932	   -0.031297	   -0.040414	   -0.049291	   -0.057939	  490.266987	  480.145585	  470.293439	  460.699945	  451.355050
   -0.021547	   -0.031189	   -0.040571	   -0.049703	   -0.058596	  490.124313	  480.103663	  470.353177	  460.862076	  451.620144
   -0.021547	   -0.031232	   -0.040659	   -0.049837	   -0.058776	  490.114313	  480.116523	  470.386129	  460.912544	  451.685735
   -0.021735	   -0.031277	   -0.040560	   -0.049595	   -0.058393	  490.194097	  480.133955	  470.346151	  460.819772	  451.544484
   -0.021927	   -0.031529	   -0.040870	   -0.049961	   -0.058812	  490.275857	  480.236264	  470.469239	  460.963831	  451.709666
   -0.021747	   -0.031417	   -0.040834	   -0.050006	   -0.058943	  490.189199	  480.190062	  470.453432	  460.969104	  451.727398
   -0.021940	   -0.031411	   -0.040631	   -0.049610	   -0.058357	  490.260566	  480.185632	  470.377657	  460.826170	  451.521238
   -0.021555	   -0.031183	   -0.040555	   -0.049682	   -0.058572	  490.117614	  480.099505	  470.347536	  460.851241	  451.600696
   -0.021551	   -0.031234	   -0.040659	   -0.049837	   -0.058776	  490.115855	  480.119084	  470.388826	  460.914563	  451.686323
   -0.021543	   -0.031231	   -0.040659	   -0.049837	   -0.058776	  490.112556	  480.113799	  470.383529	  460.911074	  451.686323
   -0.021936	   -0.031668	   -0.041143	   -0.050371	   -0.059362	  490.269215	  480.292162	  470.578807	  461.118830	  451.902446
   -0.021743	   -0.031367	   -0.040737	   -0.049862	   -0.058752	  490.187425	  480.169799	  470.417126	  460.919031	  451.665674
   -0.021354	   -0.031138	   -0.040662	   -0.049935	   -0.058967	  490.032757	  480.076302	  470.385055	  460.948560	  451.756901
   -0.021948	   -0.031511	   -0.040824	   -0.049897	   -0.058740	  490.263708	  480.228098	  470.454336	  460.932307	  451.652409
   -0.021551	   -0.031067	   -0.040331	   -0.049353	   -0.058142	  490.115855	  480.055147	  470.260714	  460.722125	  451.429484
   -0.021735	   -0.031378	   -0.040761	   -0.049894	   -0.058788	  490.194314	  480.174012	  470.423740	  460.932727	  451.690769
   -0.021743	   -0.031411	   -0.040825	   -0.049995	   -0.058931	  490.177425	  480.182720	  470.450350	  460.970119	  451.732355
   -0.021162	   -0.031001	   -0.040576	   -0.049899	   -0.058979	  489.961200	  480.023205	  470.350917	  460.933821	  451.761950
   -0.021747	   -0.031326	   -0.040649	   -0.049728	   -0.058572	  490.189199	  480.152395	  470.382279	  460.868362	  451.600696
   -0.021166	   -0.030901	   -0.040376	   -0.049600	   -0.058584	  489.962715	  479.980728	  470.265861	  460.807532	  451.595712
   -0.021555	   -0.031236	   -0.040660	   -0.049836	   -0.058776	  490.107614	  480.111859	  470.381595	  460.906383	  451.676323
   -0.021563	   -0.031340	   -0.040860	   -0.050134	   -0.059170	  490.111132	  480.159733	  470.469510	  461.030312	  451.832511
   -0.021932	   -0.031671	   -0.041151	   -0.050382	   -0.059374	  490.257426	  480.287003	  470.582204	  461.132554	  451.928121
   -0.022132	   -0.031659	   -0.040933	   -0.049965	   -0.058764	  490.332150	  480.277912	  470.489890	  460.957648	  451.671291
   -0.021743	   -0.031439	   -0.040874	   -0.050058	   -0.059003	  490.177425	  480.186399	  470.463750	  460.998810	  451.781465
   -0.021354	   -0.031095	   -0.040573	   -0.049801	   -0.058788	  490.022757	  480.051234	  470.347394	  460.900598	  451.700769
   -0.020978	   -0.030967	   -0.040691	   -0.050161	   -0.059386	  489.873066	  480.005712	  470.400045	  461.045790	  451.933205
   -0.020974	   -0.031027	   -0.040812	   -0.050337	   -0.059613	  489.871564	  480.025199	  470.442887	  461.114146	  452.029042
   -0.020970	   -0.030982	   -0.040723	   -0.050204	   -0.059434	  489.869854	  480.002195	  470.402126	  461.058910	  451.962373
   -0.020966	   -0.030813	   -0.040394	   -0.049719	   -0.058800	  489.868144	  479.938019	  470.276319	  460.872306	  451.715805
   -0.021354	   -0.031152	   -0.040686	   -0.049966	   -0.059003	  490.032970	  480.083584	  470.402132	  460.977936	  451.800875
   -0.020777	   -0.030888	   -0.040726	   -0.050302	   -0.059626	  489.788295	  479.964581	  470.406197	  461.102537	  452.043553
   -0.021162	   -0.031086	   -0.040737	   -0.050127	   -0.059267	  489.951412	  480.044563	  470.409523	  461.035259	  451.911324
   -0.021354	   -0.031108	   -0.040598	   -0.049833	   -0.058824	  490.022970	  480.053339	  470.354335	  460.915086	  451.725294
   -0.021363	   -0.031204	   -0.040782	   -0.050109	   -0.059194	  490.026241	  480.098922	  470.436079	  461.027284	  451.862646
   -0.021170	   -0.031052	   -0.040673	   -0.050042	   -0.059170	  489.944654	  480.033920	  470.385164	  460.988133	  451.833103
   -0.021559	   -0.031320	   -0.040828	   -0.050092	   -0.059122	  490.099372	  480.145427	  470.449755	  461.002433	  451.794039
   -0.021743	   -0.031540	   -0.041074	   -0.050357	   -0.059398	  490.177860	  480.229340	  470.546833	  461.119810	  451.938291
   -0.021559	   -0.031396	   -0.040973	   -0.050299	   -0.059386	  490.099588	  480.172002	  470.506938	  461.094120	  451.923799
   -0.021551	   -0.031301	   -0.040788	   -0.050023	   -0.059015	  490.106286	  480.133820	  470.430089	  460.984374	  451.786520
   -0.021551	   -0.031296	   -0.040780	   -0.050012	   -0.059003	  490.106286	  480.134054	  470.429503	  460.982000	  451.781465
   -0.021551	   -0.031282	   -0.040756	   -0.049981	   -0.058967	  490.096071	  480.121990	  470.412715	  460.957838	  451.747491
   -0.021547	   -0.031285	   -0.040763	   -0.049991	   -0.058979	  490.094529	  480.124405	  470.420877	  460.973393	  451.771950
   -0.021551	   -0.031239	   -0.040668	   -0.049847	   -0.058788	  490.105855	  480.111496	  470.384700	  460.914867	  451.691945
   -0.021547	   -0.031448	   -0.041084	   -0.050465	   -0.059601	  490.104529	  480.196015	  470.553253	  461.165695	  452.023340
   -0.021932	   -0.031579	   -0.040967	   -0.050105	   -0.059003	  490.257426	  480.244080	  470.500623	  461.016288	  451.780875
   -0.021162	   -0.030909	   -0.040391	   -0.049621	   -0.058608	  489.961200	  479.980259	  470.269285	  460.817471	  451.614579
   -0.021559	   -0.031339	   -0.040860	   -0.050134	   -0.059170	  490.109157	  480.156699	  470.466505	  461.028345	  451.832511
   -0.022124	   -0.031717	   -0.041053	   -0.050141	   -0.058991	  490.338761	  480.304359	  470.539554	  461.033625	  451.776412
   -0.021555	   -0.031293	   -0.040772	   -0.050001	   -0.058991	  490.107614	  480.136483	  470.431037	  460.980795	  451.775822
   -0.021547	   -0.031251	   -0.040691	   -0.049879	   -0.058824	  490.104098	  480.110455	  470.388287	  460.926679	  451.715294
   -0.021346	   -0.031110	   -0.040605	   -0.049844	   -0.058836	  490.029275	  480.054670	  470.353862	  460.915730	  451.729748
   -0.021371	   -0.031145	   -0.040662	   -0.049933	   -0.058967	  490.029301	  480.076812	  470.385599	  460.945507	  451.746901
   -0.021559	   -0.031325	   -0.040836	   -0.050103	   -0.059134	  490.098941	  480.147172	  470.454661	  461.011406	  451.807915
   -0.021358	   -0.031197	   -0.040774	   -0.050099	   -0.059182	  490.024285	  480.093475	  470.427185	  461.014985	  451.846986
   -0.021354	   -0.031033	   -0.040453	   -0.049626	   -0.058560	  490.022330	  480.023629	  470.291442	  460.815254	  451.585096
   -0.021363	   -0.031045	   -0.040470	   -0.049646	   -0.058584	  490.025600	  480.025795	  470.292710	  460.815815	  451.585126
   -0.020781	   -0.030621	   -0.040196	   -0.049518	   -0.058596	  489.789575	  479.855063	  470.187193	  460.775371	  451.609558
   -0.021363	   -0.031156	   -0.040687	   -0.049966	   -0.059003	  490.015600	  480.062889	  470.376574	  460.946100	  451.761465
   -0.020970	   -0.030911	   -0.040587	   -0.050007	   -0.059182	  489.859434	  479.967599	  470.340127	  460.966560	  451.836986
   -0.021162	   -0.030904	   -0.040383	   -0.049611	   -0.058596	  489.940989	  479.965404	  470.258592	  460.809833	  451.608973
   -0.020585	   -0.030477	   -0.040102	   -0.049472	   -0.058596	  489.696326	  479.787254	  470.145001	  460.758932	  451.618973
   -0.020773	   -0.030785	   -0.040525	   -0.050003	   -0.059231	  489.786394	  479.913883	  470.310013	  460.963965	  451.865496
   -0.020785	   -0.030728	   -0.040405	   -0.049827	   -0.059003	  489.780855	  479.892002	  470.267609	  460.897208	  451.770875
   -0.020970	   -0.030713	   -0.040194	   -0.049421	   -0.058405	  489.869015	  479.889407	  470.179871	  460.729591	  451.528319
   -0.020789	   -0.030707	   -0.040365	   -0.049774	   -0.058943	  489.782343	  479.887914	  470.252207	  460.865203	  451.717398
   -0.020781	   -0.030722	   -0.040397	   -0.049817	   -0.058991	  489.779159	  479.889510	  470.264290	  460.893034	  451.765822
   -0.020392	   -0.030440	   -0.040218	   -0.049735	   -0.059003	  489.644363	  479.788208	  470.197435	  460.861468	  451.770285
   -0.020392	   -0.030282	   -0.039904	   -0.049271	   -0.058393	  489.634159	  479.715998	  470.065050	  460.670660	  451.522732
   -0.019812	   -0.029959	   -0.039832	   -0.049442	   -0.058800	  489.388096	  479.574950	  470.026759	  460.732938	  451.683453
   -0.019242	   -0.029726	   -0.039935	   -0.049877	   -0.059565	  489.156244	  479.480842	  470.060389	  460.884939	  451.945058
   -0.019242	   -0.029472	   -0.039430	   -0.049127	   -0.058572	  489.155667	  479.378263	  469.860820	  460.593108	  451.565424
   -0.018850	   -0.029401	   -0.039668	   -0.049664	   -0.059398	  488.999290	  479.343614	  469.947144	  460.799581	  451.891164
   -0.017493	   -0.028406	   -0.039022	   -0.049353	   -0.059410	  488.453649	  478.935468	  469.676307	  460.665735	  451.893874
   -0.017308	   -0.028251	   -0.038902	   -0.049273	   -0.059374	  488.374135	  478.876681	  469.632810	  460.632499	  451.866246
   -0.016913	   -0.028022	   -0.038829	   -0.049348	   -0.059589	  488.217357	  478.776498	  469.591312	  460.651552	  451.947511
   -0.017503	   -0.028380	   -0.038971	   -0.049286	   -0.059338	  488.447226	  478.927662	  469.658589	  460.630251	  451.833388
   -0.017689	   -0.028636	   -0.039290	   -0.049664	   -0.059768	  488.526205	  479.027769	  469.782962	  460.781761	  452.014662
   -0.017692	   -0.028584	   -0.039186	   -0.049509	   -0.059565	  488.527292	  479.009984	  469.745984	  460.725312	  451.938506
   -0.017885	   -0.028726	   -0.039280	   -0.049555	   -0.059565	  488.598606	  479.062521	  469.780292	  460.741917	  451.937910
   -0.018084	   -0.028971	   -0.039572	   -0.049898	   -0.059959	  488.683224	  479.167592	  469.902240	  460.877422	  452.083892
   -0.018857	   -0.029442	   -0.039747	   -0.049785	   -0.059565	  489.000291	  479.363313	  469.980243	  460.841177	  451.936719
   -0.019634	   -0.029962	   -0.040018	   -0.049815	   -0.059362	  489.308056	  479.567609	  470.082331	  460.842325	  451.838199
   -0.019046	   -0.029290	   -0.039257	   -0.048959	   -0.058405	  489.066843	  479.278664	  469.755235	  460.485960	  451.460798
   -0.018283	   -0.028906	   -0.039250	   -0.049327	   -0.059146	  488.762244	  479.137902	  469.765635	  460.635668	  451.738726
   -0.018472	   -0.029459	   -0.040160	   -0.050586	   -0.060748	  488.901128	  479.440085	  470.225052	  461.246557	  452.495607
   -0.015949	   -0.027564	   -0.038866	   -0.049868	   -0.060581	  487.971804	  478.766534	  469.808935	  461.089147	  452.597823
   -0.012852	   -0.025047	   -0.036910	   -0.048455	   -0.059695	  486.800071	  477.825290	  469.094152	  460.596868	  452.324169
   -0.008814	   -0.021298	   -0.033430	   -0.045225	   -0.056696	  485.280151	  476.392741	  467.755890	  459.359149	  451.192644
   -0.006134	   -0.018875	   -0.031263	   -0.043313	   -0.055037	  484.245515	  475.455061	  466.908468	  458.595726	  450.507368
   -0.005364	   -0.018053	   -0.030384	   -0.042372	   -0.054032	  483.929716	  475.113902	  466.546611	  458.217479	  450.116713
   -0.004024	   -0.016734	   -0.029089	   -0.041104	   -0.052792	  483.332453	  474.527052	  465.967675	  457.644155	  449.546873
   -0.003066	   -0.015868	   -0.028311	   -0.040412	   -0.052183	  482.806984	  474.040141	  465.518585	  457.232164	  449.171277
   -0.004028	   -0.016926	   -0.029473	   -0.041684	   -0.053571	  482.943803	  474.238711	  465.770355	  457.529209	  449.506250
   -0.004786	   -0.017737	   -0.030304	   -0.042506	   -0.054357	  482.995316	  474.288170	  465.838592	  457.635322	  449.667742
   -0.006313	   -0.019758	   -0.032793	   -0.045437	   -0.057708	  483.232830	  474.730362	  466.486621	  458.489974	  450.729476
   -0.008997	   -0.022876	   -0.036347	   -0.049426	   -0.062131	  483.719753	  475.407608	  467.340376	  459.507391	  451.898596
   -0.011305	   -0.025165	   -0.038635	   -0.051731	   -0.064470	  484.067151	  475.768133	  467.702364	  459.860147	  452.232314
   -0.011468	   -0.025981	   -0.040048	   -0.053690	   -0.066925	  483.657798	  475.580053	  467.750319	  460.157347	  452.790557
   -0.013568	   -0.028623	   -0.043226	   -0.057396	   -0.071152	  483.878110	  476.020865	  468.399996	  461.004994	  453.825965
   -0.017040	   -0.032275	   -0.047096	   -0.061520	   -0.075564	  484.647980	  476.897661	  469.357684	  462.019601	  454.875411
   -0.016622	   -0.031783	   -0.046504	   -0.060804	   -0.074700	  484.011614	  476.196709	  468.608799	  461.238135	  454.075520
   -0.014299	   -0.030263	   -0.045747	   -0.060771	   -0.075356	  482.648198	  475.146845	  467.871337	  460.811625	  453.958248
   -0.010099	   -0.027373	   -0.044125	   -0.060379	   -0.076156	  480.476458	  473.483508	  466.701823	  460.121972	  453.735076
   -0.008014	   -0.025312	   -0.042118	   -0.058450	   -0.074330	  478.919731	  471.931889	  465.143397	  458.545844	  452.131288
   -0.003802	   -0.021528	   -0.038696	   -0.055331	   -0.071458	  476.507147	  469.623484	  462.956752	  456.496858	  450.234322
   -0.000760	   -0.019115	   -0.036908	   -0.054163	   -0.070906	  474.321042	  467.683186	  461.248690	  455.008350	  448.953509
    0.003974	   -0.014492	   -0.032308	   -0.049507	   -0.066122	  471.243616	  464.539359	  458.071005	  451.826318	  445.793894
    0.006610	   -0.012024	   -0.030003	   -0.047361	   -0.064129	  468.564740	  461.888634	  455.447242	  449.228401	  443.220772
    0.006604	   -0.011597	   -0.029152	   -0.046097	   -0.062462	  466.640142	  459.751545	  453.106955	  446.693632	  440.499709
    0.007342	   -0.010501	   -0.027689	   -0.044256	   -0.060236	  464.241276	  457.152590	  450.324421	  443.742665	  437.394221
    0.011092	   -0.006878	   -0.024164	   -0.040805	   -0.056834	  460.515572	  453.407876	  446.570833	  439.989274	  433.649140
    0.011289	   -0.006062	   -0.022778	   -0.038893	   -0.054438	  458.035315	  450.670226	  443.574720	  436.734264	  430.135348
    0.011109	   -0.005929	   -0.022379	   -0.038271	   -0.053633	  455.461768	  448.012299	  440.819908	  433.871513	  427.154906
    0.011811	   -0.004627	   -0.020423	   -0.035614	   -0.050234	  452.494173	  444.685800	  437.182448	  429.966586	  423.022003
    0.006958	   -0.009821	   -0.026023	   -0.041678	   -0.056814	  451.373326	  443.805218	  436.497033	  429.435608	  422.608651
    0.002251	   -0.014095	   -0.029855	   -0.045061	   -0.059741	  450.191842	  442.422460	  434.931435	  427.704070	  420.726687
   -0.008446	   -0.024720	   -0.040454	   -0.055674	   -0.070405	  451.091233	  443.391357	  435.946943	  428.745486	  421.775281
   -0.019350	   -0.035299	   -0.050730	   -0.065668	   -0.080137	  451.990921	  444.154260	  436.571893	  429.231638	  422.122081
   -0.027251	   -0.043382	   -0.059015	   -0.074172	   -0.088875	  451.753971	  444.001369	  436.488227	  429.203621	  422.137279
   -0.034048	   -0.049828	   -0.065116	   -0.079935	   -0.094305	  451.045989	  443.194118	  435.587104	  428.213671	  421.063223
   -0.042341	   -0.056588	   -0.070368	   -0.083704	   -0.096617	  450.825804	  442.358540	  434.168502	  426.242294	  418.567369
   -0.045609	   -0.058941	   -0.071842	   -0.084334	   -0.096434	  448.455405	  439.632633	  431.094855	  422.828483	  414.820778
   -0.049320	   -0.062058	   -0.074413	   -0.086401	   -0.098039	  446.232279	  437.178974	  428.398133	  419.877638	  411.606078
   -0.051132	   -0.062632	   -0.073753	   -0.084513	   -0.094929	  443.389372	  433.782211	  424.491958	  415.503186	  406.801456
   -0.052920	   -0.063727	   -0.074184	   -0.084309	   -0.094118	  440.493139	  430.620996	  421.067715	  411.818095	  402.857882
   -0.050511	   -0.060828	   -0.070815	   -0.080487	   -0.089858	  435.896680	  425.844103	  416.113796	  406.690506	  397.559929
   -0.049261	   -0.059280	   -0.068997	   -0.078426	   -0.087581	  431.758768	  421.592027	  411.730854	  402.161678	  392.871719
   -0.044999	   -0.055450	   -0.065569	   -0.075370	   -0.084869	  426.449898	  416.380908	  406.632579	  397.189833	  388.038523
   -0.040920	   -0.052295	   -0.063295	   -0.073939	   -0.084245	  421.087058	  411.331739	  401.897402	  392.768463	  383.930328
   -0.036401	   -0.048790	   -0.060785	   -0.072406	   -0.083670	  415.508221	  406.137520	  397.064059	  388.273914	  379.754022
   -0.031462	   -0.044025	   -0.056173	   -0.067926	   -0.079304	  409.952270	  400.570217	  391.497846	  382.720072	  374.222776
   -0.020582	   -0.033592	   -0.046219	   -0.058482	   -0.070394	  402.269552	  393.074906	  384.150301	  375.484013	  367.064988
   -0.011871	   -0.024731	   -0.037190	   -0.049267	   -0.060978	  395.558219	  386.292788	  377.316195	  368.615141	  360.177130
   -0.003582	   -0.016469	   -0.028949	   -0.041039	   -0.052759	  388.979570	  379.724605	  370.762696	  362.080140	  353.664076
   -0.001320	   -0.015227	   -0.028694	   -0.041742	   -0.054392	  385.040356	  376.161409	  367.562814	  359.231497	  351.155189
    0.001506	   -0.011501	   -0.024057	   -0.036186	   -0.047908	  380.720512	  371.466090	  362.532309	  353.902790	  345.562250
   -0.000945	   -0.013876	   -0.026393	   -0.038516	   -0.050262	  378.581663	  369.332803	  360.380153	  351.709708	  343.308331
   -0.003210	   -0.014581	   -0.025543	   -0.036116	   -0.046323	  376.416163	  366.503210	  356.947305	  347.729498	  338.832158
   -0.007774	   -0.019038	   -0.029917	   -0.040432	   -0.050599	  375.263428	  365.292246	  355.661351	  346.353616	  337.353044
   -0.012716	   -0.021242	   -0.029479	   -0.037440	   -0.045140	  374.460319	  363.407963	  352.731096	  342.410901	  332.429801
   -0.017844	   -0.025266	   -0.032431	   -0.039351	   -0.046038	  373.540444	  362.073245	  351.004604	  340.314099	  329.982677
   -0.017454	   -0.022818	   -0.027965	   -0.032909	   -0.037662	  370.385443	  357.993415	  346.100913	  334.678330	  323.698354
   -0.028762	   -0.031696	   -0.034520	   -0.037239	   -0.039860	  371.828903	  358.510663	  345.693154	  333.348659	  321.451467
   -0.041476	   -0.042311	   -0.043116	   -0.043892	   -0.044641	  374.029090	  359.850873	  346.192573	  333.026105	  320.325373
   -0.052925	   -0.052546	   -0.052178	   -0.051822	   -0.051477	  375.516778	  360.935608	  346.818491	  333.143619	  319.890533
   -0.058391	   -0.057118	   -0.055882	   -0.054682	   -0.053517	  374.578627	  359.620072	  345.103605	  331.009916	  317.320798
   -0.056933	   -0.055750	   -0.054600	   -0.053482	   -0.052395	  370.936925	  356.031005	  341.540405	  327.448003	  313.737609
   -0.067405	   -0.062875	   -0.058459	   -0.054152	   -0.049949	  372.294557	  356.028851	  340.169321	  324.700942	  309.609419
   -0.080328	   -0.073223	   -0.066297	   -0.059543	   -0.052954	  375.198286	  357.822364	  340.883617	  324.365751	  308.253271
   -0.092188	   -0.084193	   -0.076419	   -0.068857	   -0.061497	  377.492297	  359.783019	  342.561969	  325.809233	  309.505963
   -0.098374	   -0.089641	   -0.081136	   -0.072850	   -0.064775	  377.492375	  359.504806	  341.986747	  324.920050	  308.287495
   -0.100684	   -0.090735	   -0.081085	   -0.071720	   -0.062629	  376.255582	  357.627463	  339.559243	  322.026050	  305.004467
   -0.098165	   -0.089844	   -0.081799	   -0.074018	   -0.066487	  372.849883	  354.846571	  337.441749	  320.606060	  304.312038
   -0.105758	   -0.095455	   -0.085481	   -0.075821	   -0.066459	  373.540388	  354.751412	  336.562341	  318.944895	  301.872544
   -0.111569	   -0.100464	   -0.089697	   -0.079252	   -0.069116	  373.562988	  354.482151	  335.981778	  318.035776	  300.619595
   -0.116082	   -0.104255	   -0.092771	   -0.081616	   -0.070776	  373.162361	  353.820279	  335.039753	  316.796679	  299.068311
   -0.114929	   -0.102607	   -0.090669	   -0.079099	   -0.067878	  370.650391	  351.023762	  332.009502	  313.579390	  295.706915
   -0.109206	   -0.097418	   -0.086025	   -0.075007	   -0.064347	  366.166771	  346.739990	  327.964088	  309.806895	  292.238323
   -0.106790	   -0.094266	   -0.082151	   -0.070425	   -0.059070	  363.171911	  343.436992	  324.346296	  305.868785	  287.975383
   -0.103285	   -0.091525	   -0.080122	   -0.069058	   -0.058319	  360.044104	  340.623792	  321.791161	  303.519933	  285.785372
   -0.101464	   -0.091516	   -0.081876	   -0.072532	   -0.063469	  357.729705	  339.080098	  321.009555	  303.491520	  286.501035
   -0.102493	   -0.091664	   -0.081204	   -0.071093	   -0.061315	  356.781247	  337.700221	  319.267924	  301.451824	  284.221530
   -0.101759	   -0.090186	   -0.079028	   -0.068261	   -0.057867	  354.976234	  335.596379	  316.909854	  298.880104	  281.473102
   -0.094964	   -0.085416	   -0.076178	   -0.067236	   -0.058576	  350.853652	  332.377205	  314.501901	  297.198871	  280.441066
   -0.099941	   -0.088430	   -0.077310	   -0.066561	   -0.056166	  351.846591	  332.512626	  313.834822	  295.780332	  278.318467
   -0.099980	   -0.087756	   -0.075967	   -0.064589	   -0.053602	  350.701198	  331.099010	  312.193587	  293.948427	  276.329536
   -0.097286	   -0.086730	   -0.076559	   -0.066751	   -0.057288	  348.529045	  329.589930	  311.340139	  293.742713	  276.763285
   -0.091035	   -0.080122	   -0.069633	   -0.059543	   -0.049830	  344.809470	  325.741039	  307.412499	  289.781604	  272.809267
   -0.091810	   -0.082649	   -0.073813	   -0.065286	   -0.057052	  344.077628	  325.772608	  308.118209	  291.080349	  274.627285
   -0.090133	   -0.080482	   -0.071176	   -0.062196	   -0.053526	  342.274505	  323.804470	  305.993507	  288.806957	  272.212549
   -0.088299	   -0.079611	   -0.071237	   -0.063161	   -0.055367	  340.641004	  322.552217	  305.118821	  288.305831	  272.080709
   -0.085998	   -0.079307	   -0.072837	   -0.066576	   -0.060516	  338.901541	  321.698088	  305.062623	  288.967476	  273.386741
   -0.089079	   -0.081309	   -0.073781	   -0.066484	   -0.059408	  339.719982	  322.079012	  304.988785	  288.423906	  272.360520
   -0.091236	   -0.083529	   -0.076059	   -0.068815	   -0.061786	  340.133440	  322.534658	  305.475562	  288.931701	  272.880080
   -0.088796	   -0.080525	   -0.072552	   -0.064860	   -0.057435	  338.794827	  320.868588	  303.586691	  286.915011	  270.821787
   -0.088663	   -0.081700	   -0.074964	   -0.068443	   -0.062129	  338.452977	  321.120834	  304.353553	  288.123965	  272.406612
   -0.084047	   -0.079729	   -0.075555	   -0.071520	   -0.067616	  336.255826	  320.018575	  304.327411	  289.155242	  274.476736
   -0.085765	   -0.078462	   -0.071421	   -0.064629	   -0.058073	  336.700232	  319.219007	  302.366018	  286.107997	  270.413982
   -0.082503	   -0.076478	   -0.070642	   -0.064989	   -0.059509	  335.101443	  318.253059	  301.937162	  286.128900	  270.804945
   -0.079204	   -0.072291	   -0.065614	   -0.059162	   -0.052922	  333.647274	  316.367558	  299.678145	  283.549294	  267.953228
   -0.079230	   -0.071952	   -0.064926	   -0.058140	   -0.051581	  333.532693	  316.101265	  299.273872	  283.019651	  267.309809
   -0.073567	   -0.066422	   -0.059521	   -0.052854	   -0.046408	  331.096242	  313.717216	  296.934952	  280.719229	  265.041837
   -0.071783	   -0.065845	   -0.060113	   -0.054576	   -0.049226	  330.278582	  313.384272	  297.076386	  281.324910	  266.101846
   -0.065239	   -0.060466	   -0.055858	   -0.051407	   -0.047104	  327.487083	  311.082480	  295.244600	  279.944574	  265.155461
   -0.058672	   -0.053818	   -0.049135	   -0.044617	   -0.040254	  324.728333	  308.264926	  292.387684	  277.065851	  262.270784
   -0.055424	   -0.050196	   -0.045160	   -0.040306	   -0.035623	  323.437815	  306.773044	  290.720740	  275.247745	  260.323257
   -0.054867	   -0.049179	   -0.043721	   -0.038478	   -0.033440	  323.105628	  306.199521	  289.976414	  274.395736	  259.420068
   -0.048761	   -0.044013	   -0.039456	   -0.035079	   -0.030871	  320.497188	  303.983998	  288.135384	  272.912018	  258.277615
   -0.047385	   -0.043334	   -0.039442	   -0.035700	   -0.032100	  319.837741	  303.639879	  288.079746	  273.120406	  258.727723
   -0.041724	   -0.038110	   -0.034637	   -0.031298	   -0.028085	  317.456853	  301.459703	  286.089856	  271.311125	  257.090051
   -0.035129	   -0.033273	   -0.031488	   -0.029770	   -0.028115	  314.752264	  299.505779	  284.842216	  270.728770	  257.135054
   -0.032156	   -0.028894	   -0.025760	   -0.022748	   -0.019851	  313.605015	  297.759817	  282.541484	  267.913537	  253.842275
   -0.035876	   -0.032798	   -0.029837	   -0.026986	   -0.024240	  315.045305	  299.305073	  284.163582	  269.587307	  255.545180
   -0.033393	   -0.032317	   -0.031281	   -0.030282	   -0.029318	  313.941992	  299.045864	  284.690528	  270.847059	  257.488560
   -0.026430	   -0.026274	   -0.026125	   -0.025982	   -0.025844	  310.956639	  296.404035	  282.430561	  269.002321	  256.088014
   -0.025074	   -0.025043	   -0.025013	   -0.024985	   -0.024957	  310.407945	  295.919802	  281.991720	  268.591837	  255.690668
   -0.025227	   -0.026226	   -0.027186	   -0.028110	   -0.028998	  310.433055	  296.374789	  282.868675	  269.882809	  257.387701
   -0.028183	   -0.027968	   -0.027762	   -0.027564	   -0.027374	  311.622698	  297.058859	  283.089670	  269.679440	  256.795278
   -0.020521	   -0.021919	   -0.023262	   -0.024555	   -0.025800	  308.365083	  294.494151	  281.159639	  268.331019	  255.980038
   -0.027767	   -0.028436	   -0.029079	   -0.029696	   -0.030290	  311.306321	  297.107982	  283.476215	  270.377770	  257.781950
   -0.027860	   -0.028693	   -0.029491	   -0.030256	   -0.030990	  311.411915	  297.216814	  283.627928	  270.607234	  258.119825
   -0.024784	   -0.024499	   -0.024226	   -0.023964	   -0.023713	  310.141267	  295.536507	  281.534703	  268.099271	  255.196526
   -0.030327	   -0.030081	   -0.029845	   -0.029618	   -0.029399	  312.618937	  298.036581	  284.027483	  270.558491	  257.598960
   -0.023753	   -0.022670	   -0.021633	   -0.020640	   -0.019688	  310.202342	  295.177158	  280.800637	  267.031662	  253.832517
   -0.027330	   -0.025977	   -0.024681	   -0.023438	   -0.022246	  311.746408	  296.610695	  282.113314	  268.214719	  254.878563
   -0.027564	   -0.026933	   -0.026328	   -0.025746	   -0.025187	  311.789384	  297.004096	  282.815865	  269.189244	  256.091533
   -0.029904	   -0.028768	   -0.027679	   -0.026634	   -0.025630	  312.866581	  297.829399	  283.410702	  269.573099	  256.282157
   -0.037680	   -0.035350	   -0.033116	   -0.030973	   -0.028914	  316.223470	  300.673958	  285.765486	  271.459213	  257.719375
   -0.043846	   -0.041302	   -0.038868	   -0.036538	   -0.034305	  318.932375	  303.311252	  288.369752	  274.064467	  260.355609
   -0.034028	   -0.032882	   -0.031784	   -0.030731	   -0.029720	  315.245767	  300.229922	  285.841472	  272.041901	  258.795781
   -0.031366	   -0.030866	   -0.030386	   -0.029927	   -0.029487	  314.495973	  299.749964	  285.639101	  272.123214	  259.165449
   -0.025777	   -0.026695	   -0.027578	   -0.028429	   -0.029250	  312.686312	  298.592029	  285.020305	  271.942606	  259.332442
   -0.024590	   -0.023165	   -0.021806	   -0.020508	   -0.019268	  313.025820	  297.753044	  283.187507	  269.281196	  255.990347
   -0.025781	   -0.026003	   -0.026215	   -0.026418	   -0.026613	  314.080383	  299.574146	  285.692810	  272.396849	  259.649998
   -0.027048	   -0.027466	   -0.027868	   -0.028254	   -0.028626	  315.195225	  300.818016	  287.005722	  273.725687	  260.947729
   -0.024129	   -0.023787	   -0.023462	   -0.023151	   -0.022853	  314.639558	  299.798066	  285.647408	  272.140446	  259.234235
   -0.018171	   -0.019748	   -0.021262	   -0.022717	   -0.024117	  312.590604	  298.653356	  285.268477	  272.403766	  260.029480
   -0.016227	   -0.018422	   -0.020531	   -0.022560	   -0.024514	  312.369116	  298.687372	  285.536655	  272.886637	  260.709256
   -0.014663	   -0.018181	   -0.021570	   -0.024837	   -0.027988	  312.245806	  299.175906	  286.585118	  274.447570	  262.739223
   -0.014812	   -0.015775	   -0.016698	   -0.017583	   -0.018432	  313.022660	  298.743149	  285.059009	  271.933764	  259.333860
   -0.019478	   -0.019819	   -0.020145	   -0.020458	   -0.020758	  315.349540	  300.833870	  286.926376	  273.589618	  260.789172
   -0.017322	   -0.018492	   -0.019615	   -0.020693	   -0.021730	  314.734447	  300.577990	  286.991529	  273.941315	  261.396217
   -0.016787	   -0.018913	   -0.020960	   -0.022932	   -0.024832	  314.649270	  300.922244	  287.710021	  274.984177	  262.718338
   -0.019754	   -0.021061	   -0.022323	   -0.023543	   -0.024722	  315.867199	  301.878463	  288.370128	  275.317867	  262.698965
   -0.022283	   -0.023921	   -0.025503	   -0.027030	   -0.028506	  317.134425	  303.250099	  289.849009	  276.906357	  264.399015
   -0.026500	   -0.027735	   -0.028923	   -0.030065	   -0.031164	  319.189291	  305.069810	  291.496641	  278.438678	  265.867134
   -0.028605	   -0.029311	   -0.029988	   -0.030639	   -0.031263	  320.410041	  306.028241	  292.235691	  278.996901	  266.279180
   -0.032659	   -0.034083	   -0.035448	   -0.036757	   -0.038015	  322.633188	  308.545605	  295.039583	  282.079839	  269.633886
   -0.031476	   -0.032218	   -0.032933	   -0.033622	   -0.034287	  322.540457	  308.326292	  294.631233	  281.427353	  268.688694
   -0.033385	   -0.033079	   -0.032786	   -0.032506	   -0.032238	  324.418634	  309.598393	  295.434868	  281.885354	  268.910770
   -0.031134	   -0.033306	   -0.035388	   -0.037387	   -0.039307	  324.586383	  310.927209	  297.828142	  285.255421	  273.177946
   -0.026300	   -0.027910	   -0.029454	   -0.030937	   -0.032360	  324.064868	  310.220400	  296.942666	  284.197563	  271.953674
   -0.032621	   -0.033751	   -0.034834	   -0.035874	   -0.036873	  328.452474	  314.427303	  300.973365	  288.056459	  275.645059
   -0.027153	   -0.029719	   -0.032181	   -0.034546	   -0.036819	  328.368495	  314.920930	  302.017650	  289.626265	  277.716907
   -0.030321	   -0.031080	   -0.031812	   -0.032519	   -0.033201	  331.918274	  317.856531	  304.297718	  291.215330	  278.584688
   -0.024720	   -0.026136	   -0.027493	   -0.028793	   -0.030042	  332.467949	  318.620357	  305.353448	  292.631447	  280.421458
   -0.023066	   -0.026239	   -0.029302	   -0.032261	   -0.035121	  334.867571	  321.876193	  309.334432	  297.219343	  285.509518
   -0.016085	   -0.018504	   -0.020842	   -0.023103	   -0.025290	  335.391975	  322.045283	  309.146334	  296.672968	  284.604465
   -0.015891	   -0.017983	   -0.020011	   -0.021978	   -0.023888	  338.588713	  325.141501	  312.101381	  299.450141	  287.170643
   -0.016789	   -0.017261	   -0.017717	   -0.018157	   -0.018584	  342.397321	  328.281984	  314.643734	  301.458786	  288.704908
   -0.014465	   -0.015542	   -0.016583	   -0.017590	   -0.018564	  345.157483	  331.248336	  317.806061	  304.807538	  292.231151
   -0.007107	   -0.009424	   -0.011657	   -0.013812	   -0.015893	  345.879721	  332.436696	  319.475402	  306.970402	  294.898017
   -0.005565	   -0.009830	   -0.013950	   -0.017933	   -0.021784	  348.967359	  336.359016	  324.179625	  312.407664	  301.023025
   -0.002890	   -0.010454	   -0.017785	   -0.024896	   -0.031795	  351.737457	  340.497670	  329.602175	  319.035392	  308.782667
   -0.013389	   -0.021834	   -0.029955	   -0.037773	   -0.045304	  359.969935	  348.957975	  338.366088	  328.170687	  318.349919
   -0.023287	   -0.030565	   -0.037512	   -0.044150	   -0.050499	  368.305615	  356.687596	  345.598259	  335.002318	  324.867562
   -0.028988	   -0.036411	   -0.043529	   -0.050359	   -0.056919	  375.130002	  363.640537	  352.624345	  342.052776	  331.899443
   -0.030763	   -0.040001	   -0.048892	   -0.057455	   -0.065708	  380.458918	  369.754830	  359.452917	  349.530931	  339.968234
   -0.033226	   -0.041440	   -0.049363	   -0.057008	   -0.064391	  386.315648	  375.299321	  364.675005	  354.422142	  344.521586
   -0.031196	   -0.039288	   -0.047138	   -0.054758	   -0.062158	  390.560607	  379.588974	  368.943821	  358.610789	  348.576349
   -0.025797	   -0.033824	   -0.041593	   -0.049114	   -0.056401	  393.549499	  382.534642	  371.875245	  361.554374	  351.556155
   -0.018127	   -0.028487	   -0.038500	   -0.048181	   -0.057548	  395.684411	  385.507734	  375.672888	  366.162936	  356.962039
   -0.009659	   -0.021907	   -0.033789	   -0.045322	   -0.056520	  397.282619	  387.935666	  378.867726	  370.066489	  361.520359
   -0.003397	   -0.016856	   -0.029857	   -0.042423	   -0.054575	  399.998464	  391.087170	  382.479324	  374.159685	  366.114019
    0.000756	   -0.014863	   -0.030008	   -0.044698	   -0.058954	  403.455035	  395.462948	  387.714048	  380.197402	  372.902722
    0.007737	   -0.009250	   -0.025694	   -0.041619	   -0.057050	  405.763678	  398.261345	  390.999306	  383.966198	  377.151364
    0.013414	   -0.005106	   -0.023060	   -0.040475	   -0.057374	  408.426835	  401.597810	  394.977160	  388.555491	  382.323968
    0.021421	    0.003276	   -0.014190	   -0.031014	   -0.047231	  410.702762	  403.641252	  396.844054	  390.296600	  383.985375
    0.029932	    0.008464	   -0.012272	   -0.032313	   -0.051693	  412.509309	  406.779745	  401.245536	  395.896858	  390.724535
    0.037308	    0.013672	   -0.009073	   -0.030977	   -0.052085	  414.384102	  409.450687	  404.703135	  400.131139	  395.725137
    0.042174	    0.015949	   -0.009310	   -0.033656	   -0.057137	  417.216767	  413.337345	  409.600804	  405.999394	  402.525913
    0.047450	    0.019421	   -0.007509	   -0.033403	   -0.058320	  419.755914	  416.571179	  413.511334	  410.569174	  407.738038
    0.050813	    0.020455	   -0.008726	   -0.036799	   -0.063825	  422.753348	  420.455027	  418.245712	  416.120331	  414.074188
    0.054301	    0.021934	   -0.009162	   -0.039058	   -0.067824	  425.499136	  423.969873	  422.500717	  421.088192	  419.729085
    0.057276	    0.023798	   -0.008350	   -0.039245	   -0.068958	  428.285009	  427.193284	  426.144949	  425.137471	  424.168504
    0.051711	    0.018604	   -0.013103	   -0.043498	   -0.072660	  434.034781	  432.811940	  431.640793	  430.518129	  429.440998
    0.040052	    0.007317	   -0.024154	   -0.054434	   -0.083589	  442.120447	  440.859177	  439.646585	  438.479908	  437.356585
    0.032787	    0.000806	   -0.029952	   -0.059555	   -0.088067	  448.469508	  446.922663	  445.434993	  444.003168	  442.624101
    0.044011	    0.010354	   -0.021883	   -0.052789	   -0.082445	  447.274596	  446.219074	  445.208062	  444.238804	  443.308765
    0.050149	    0.015796	   -0.017040	   -0.048460	   -0.078552	  447.526126	  446.676351	  445.864061	  445.086829	  444.342433
    0.050866	    0.016459	   -0.016562	   -0.048277	   -0.078764	  449.576752	  448.783176	  448.021588	  447.290092	  446.586939
    0.050364	    0.015020	   -0.018999	   -0.051767	   -0.083350	  451.677762	  451.216518	  450.772561	  450.344937	  449.932761
    0.044709	    0.010869	   -0.021617	   -0.052829	   -0.082839	  455.311610	  454.233117	  453.197790	  452.203088	  451.246666
    0.043031	    0.009368	   -0.023114	   -0.054475	   -0.084773	  457.183620	  456.153611	  455.159751	  454.200169	  453.273123
    0.044428	    0.011540	   -0.020057	   -0.050439	   -0.079673	  457.869083	  456.459818	  455.105846	  453.803976	  452.551256
    0.044120	    0.012147	   -0.018629	   -0.048272	   -0.076845	  459.121804	  457.427096	  455.795898	  454.224704	  452.710263
    0.042533	    0.010829	   -0.019778	   -0.049344	   -0.077922	  460.949095	  459.227659	  457.565772	  455.960398	  454.408701
    0.048037	    0.016303	   -0.014226	   -0.043620	   -0.071938	  459.915974	  458.120257	  456.392676	  454.729425	  453.126978
    0.044986	    0.013164	   -0.017556	   -0.047229	   -0.075908	  461.842465	  460.203180	  458.620692	  457.092100	  455.614697
    0.048707	    0.016938	   -0.013691	   -0.043239	   -0.071763	  461.254140	  459.554033	  457.914990	  456.333778	  454.807390
    0.051019	    0.019115	   -0.011559	   -0.041073	   -0.069493	  461.005177	  459.325171	  457.709897	  456.155685	  454.659136
    0.047869	    0.016362	   -0.014075	   -0.043496	   -0.071950	  462.806505	  461.104536	  459.460385	  457.871154	  456.334137
    0.052484	    0.021432	   -0.008520	   -0.037431	   -0.065354	  461.726982	  459.813824	  457.968363	  456.187069	  454.466651
    0.050159	    0.018669	   -0.011669	   -0.040917	   -0.069134	  463.282195	  461.548300	  459.877823	  458.267347	  456.713697
    0.049822	    0.017894	   -0.012875	   -0.042548	   -0.071182	  464.246085	  462.697795	  461.205690	  459.766765	  458.378229
    0.050654	    0.018424	   -0.012591	   -0.042458	   -0.071240	  464.423979	  462.898166	  461.429889	  460.015952	  458.653395
    0.050756	    0.018052	   -0.013345	   -0.043513	   -0.072523	  464.591995	  463.192353	  461.848611	  460.557485	  459.315945
    0.050224	    0.017262	   -0.014428	   -0.044916	   -0.074271	  464.875872	  463.599771	  462.372960	  461.192636	  460.056207
    0.054220	    0.020176	   -0.012486	   -0.043847	   -0.073983	  463.470235	  462.557252	  461.681359	  460.840341	  460.032154
    0.057191	    0.022597	   -0.010554	   -0.042352	   -0.072876	  462.468206	  461.688209	  460.940733	  460.223786	  459.535535
    0.056882	    0.022577	   -0.010317	   -0.041884	   -0.072203	  462.551007	  461.657590	  460.800939	  459.978831	  459.189219
    0.054841	    0.021049	   -0.011340	   -0.042413	   -0.072247	  463.322641	  462.205259	  461.134243	  460.106764	  459.120221
    0.053671	    0.020692	   -0.010892	   -0.041168	   -0.070215	  463.775717	  462.315715	  460.917472	  459.577153	  458.291230
    0.052887	    0.019771	   -0.012042	   -0.042628	   -0.072056	  464.042781	  462.676225	  461.363433	  460.101293	  458.886930
    0.053015	    0.020287	   -0.011119	   -0.041283	   -0.070276	  463.999078	  462.474968	  461.012390	  459.607690	  458.257499
    0.054508	    0.021482	   -0.010207	   -0.040637	   -0.069881	  463.443241	  462.029098	  460.672253	  459.369293	  458.117070
    0.055078	    0.021790	   -0.010173	   -0.040886	   -0.070423	  463.218758	  461.913585	  460.660422	  459.456221	  458.298169
    0.054145	    0.021335	   -0.010173	   -0.040453	   -0.069578	  463.577621	  462.093027	  460.667381	  459.297239	  457.979423
    0.055099	    0.021855	   -0.010067	   -0.040744	   -0.070247	  463.215219	  461.887029	  460.611675	  459.386064	  458.207341
    0.057164	    0.023484	   -0.008859	   -0.039942	   -0.069839	  462.435184	  461.266903	  460.145017	  459.066817	  458.029798
    0.058659	    0.024327	   -0.008650	   -0.040349	   -0.070845	  461.819238	  460.917787	  460.051926	  459.219589	  458.418865
    0.060396	    0.025425	   -0.008209	   -0.040582	   -0.071764	  461.084134	  460.468113	  459.875636	  459.305377	  458.756110
    0.062745	    0.027366	   -0.006609	   -0.039263	   -0.070670	  460.193176	  459.705200	  459.236587	  458.786206	  458.353015
    0.064064	    0.028400	   -0.005856	   -0.038786	   -0.070466	  459.649793	  459.283151	  458.930984	  458.592452	  458.266777
    0.063738	    0.028082	   -0.006205	   -0.039201	   -0.070977	  459.738185	  459.398706	  459.072258	  458.758106	  458.455568
    0.064179	    0.028629	   -0.005500	   -0.038292	   -0.069824	  459.574299	  459.163074	  458.768281	  458.388952	  458.024198
    0.064270	    0.028432	   -0.005881	   -0.038762	   -0.070301	  459.593664	  459.244139	  458.909495	  458.588802	  458.281205
    0.064950	    0.028892	   -0.005673	   -0.038837	   -0.070682	  459.305554	  459.064319	  458.833069	  458.611197	  458.398144
    0.065473	    0.028880	   -0.006212	   -0.039893	   -0.072247	  459.068220	  459.060144	  459.052399	  459.044965	  459.037824
    0.067089	    0.029824	   -0.005898	   -0.040171	   -0.073081	  458.446906	  458.683664	  458.910618	  459.128365	  459.337453
    0.067936	    0.030471	   -0.005465	   -0.039964	   -0.073111	  458.099989	  458.442164	  458.770379	  459.085471	  459.388212
    0.066020	    0.029600	   -0.005299	   -0.038771	   -0.070902	  458.832264	  458.756013	  458.682945	  458.612865	  458.545594
    0.065003	    0.028814	   -0.005792	   -0.038916	   -0.070651	  459.301646	  459.072284	  458.852956	  458.643019	  458.441881
    0.064342	    0.028172	   -0.006519	   -0.039818	   -0.071809	  459.524614	  459.334230	  459.151636	  458.976363	  458.807979
    0.066143	    0.029615	   -0.005503	   -0.039291	   -0.071822	  458.814641	  458.802437	  458.790703	  458.779414	  458.768545
    0.065971	    0.029445	   -0.005568	   -0.039159	   -0.071414	  458.871264	  458.830601	  458.791622	  458.754226	  458.718318
    0.067424	    0.030478	   -0.004898	   -0.038803	   -0.071326	  458.359914	  458.447699	  458.531754	  458.612314	  458.689590
    0.066194	    0.029557	   -0.005545	   -0.039208	   -0.071516	  458.819700	  458.803475	  458.787929	  458.773021	  458.758713
    0.066020	    0.029116	   -0.006252	   -0.040177	   -0.072746	  458.860944	  458.964016	  459.062797	  459.157549	  459.248514
    0.065153	    0.028752	   -0.006073	   -0.039421	   -0.071385	  459.217822	  459.088506	  458.964791	  458.846321	  458.732769
    0.065586	    0.028917	   -0.006177	   -0.039796	   -0.072030	  459.098890	  459.057975	  459.018819	  458.981309	  458.945344
    0.065510	    0.029225	   -0.005571	   -0.038968	   -0.071048	  459.075050	  458.932246	  458.795302	  458.663865	  458.537609
    0.065262	    0.029264	   -0.005230	   -0.038312	   -0.070068	  459.185286	  458.916388	  458.658724	  458.411607	  458.174401
    0.064925	    0.028588	   -0.006259	   -0.039707	   -0.071838	  459.324910	  459.196259	  459.072881	  458.954458	  458.840698
    0.066194	    0.029463	   -0.005734	   -0.039492	   -0.071897	  458.830362	  458.834566	  458.838595	  458.842459	  458.846168
    0.066368	    0.029473	   -0.005857	   -0.039720	   -0.072205	  458.766495	  458.838715	  458.907872	  458.974156	  459.037744
    0.066244	    0.029035	   -0.006637	   -0.040867	   -0.073740	  458.770625	  458.990782	  459.201852	  459.404385	  459.598890
    0.068148	    0.030368	   -0.005903	   -0.040752	   -0.074264	  457.964470	  458.437243	  458.891129	  459.327236	  459.746590
    0.070415	    0.032480	   -0.003922	   -0.038881	   -0.072482	  457.064948	  457.589045	  458.091955	  458.574937	  459.039152
    0.071269	    0.033460	   -0.002778	   -0.037540	   -0.070916	  456.791724	  457.231954	  457.653892	  458.058656	  458.447272
    0.070843	    0.033256	   -0.002784	   -0.037373	   -0.070595	  456.896152	  457.282286	  457.652542	  458.007880	  458.349184
    0.070430	    0.032205	   -0.004410	   -0.039515	   -0.073201	  457.072102	  457.679971	  458.262234	  458.820475	  459.356149
    0.071255	    0.032905	   -0.003854	   -0.039120	   -0.072981	  456.752936	  457.416479	  458.052498	  458.662672	  459.248544
