  2.00000000	  0.00000932	  0.00006659	  0.00000298	  0.00002012	 -0.00005622	  0.00004699	  0.00001241	  0.00005274
  3.00000000	 -0.00004887	 -0.00005716	  0.00000313	 -0.00001907	  0.00005539	 -0.00004653	 -0.00006594	 -0.00004514
  4.00000000	  0.00003923	 -0.00001039	  0.00006075	  0.00001660	 -0.00005029	  0.00011130	  0.00005310	 -0.00000835
  5.00000000	 -0.00001043	  0.00007234	  0.00009151	  0.00001276	 -0.00003093	 -0.00009225	 -0.00001433	  0.00005735
  6.00000000	  0.00008965	 -0.00009155	  0.00003037	 -0.00003513	  0.00008918	  0.00002621	  0.00012156	 -0.00007281
  7.00000000	 -0.00011344	  0.00006416	  0.00006199	  0.00002067	 -0.00004578	 -0.00012924	 -0.00015365	  0.00005118
  8.00000000	 -0.00000502	 -0.00003455	  0.00006239	 -0.00001494	  0.00003784	  0.00008399	 -0.00000668	 -0.00002736
  9.00000000	  0.00004887	  0.00005850	  0.00005766	  0.00001932	 -0.00005654	  0.00006074	  0.00006594	  0.00004620
 10.00000000	 -0.00001413	 -0.00010222	  0.00005628	 -0.00001048	  0.00003008	 -0.00003379	 -0.00001880	 -0.00008095
 11.00000000	  0.00004901	  0.00005815	  0.00000318	 -0.00000091	  0.00000003	 -0.00000439	  0.00006612	  0.00004593
 12.00000000	 -0.00003492	  0.00004377	  0.00005947	 -0.00001117	  0.00003075	  0.00003390	 -0.00004737	  0.00003479
 13.00000000	 -0.00003824	 -0.00013190	  0.00008781	 -0.00000752	  0.00002351	 -0.00003929	 -0.00005132	 -0.00010440
 14.00000000	 -0.00000611	  0.00010571	  0.00002871	  0.00001819	 -0.00005047	  0.00005296	 -0.00000859	  0.00008378
 15.00000000	  0.00001563	 -0.00003649	  0.00002905	  0.00000475	 -0.00001234	 -0.00003839	  0.00002125	 -0.00002897
 16.00000000	  0.00001969	 -0.00000439	  0.00008866	  0.00003410	 -0.00009015	 -0.00008453	  0.00002666	 -0.00000354
 17.00000000	 -0.00003980	  0.00000888	  0.00006103	 -0.00004635	  0.00012518	  0.00005278	 -0.00005387	  0.00000716
 18.00000000	  0.00007905	 -0.00001916	  0.00000029	 -0.00002466	  0.00006251	 -0.00000519	  0.00010700	 -0.00001542
 19.00000000	 -0.00007905	  0.00001916	  0.00000029	  0.00002465	 -0.00006252	  0.00000520	 -0.00010699	  0.00001542
 20.00000000	  0.00007425	 -0.00005346	  0.00000125	 -0.00001475	  0.00003521	  0.00002223	  0.00010061	 -0.00004258
 21.00000000	 -0.00000072	  0.00000047	  0.00000542	  0.00003979	 -0.00010743	  0.00000971	 -0.00000097	  0.00000038
 22.00000000	 -0.00003301	  0.00004496	  0.00001232	 -0.00001823	  0.00005334	 -0.00008020	 -0.00004479	  0.00003572
 23.00000000	  0.00006733	  0.00005214	  0.00003538	 -0.00000184	 -0.00000099	  0.00007633	  0.00009093	  0.00004111
 24.00000000	 -0.00005903	  0.00001408	  0.00002795	 -0.00000820	  0.00002418	  0.00002842	 -0.00007989	  0.00001133
 25.00000000	 -0.00002429	 -0.00003098	  0.00003147	  0.00000040	 -0.00000113	  0.00004115	 -0.00003276	 -0.00002447
 26.00000000	  0.00000982	  0.00006884	  0.00006393	  0.00000502	 -0.00001053	 -0.00011141	  0.00001307	  0.00005452
 27.00000000	  0.00002915	 -0.00007680	  0.00006916	  0.00001372	 -0.00004065	  0.00006974	  0.00003967	 -0.00006094
 28.00000000	  0.00002504	  0.00002947	  0.00003476	 -0.00001791	  0.00004887	 -0.00006080	  0.00003378	  0.00002327
 29.00000000	  0.00003972	 -0.00000948	  0.00006101	  0.00000125	 -0.00000344	 -0.00006132	  0.00005376	 -0.00000763
 30.00000000	 -0.00008891	 -0.00004997	  0.00006425	 -0.00000293	  0.00000887	  0.00011235	 -0.00012013	 -0.00003933
 31.00000000	  0.00000502	  0.00003589	  0.00000161	  0.00001520	 -0.00003899	 -0.00006979	  0.00000669	  0.00002842
 32.00000000	  0.00001540	 -0.00003942	  0.00003167	 -0.00002063	  0.00005512	 -0.00001023	  0.00002095	 -0.00003128
 33.00000000	 -0.00002411	 -0.00002969	  0.00003153	  0.00000297	 -0.00000657	 -0.00000550	 -0.00003253	 -0.00002345
 34.00000000	  0.00003858	 -0.00000951	  0.00006614	 -0.00000867	  0.00001939	  0.00006156	  0.00005221	 -0.00000765
 35.00000000	 -0.00003008	  0.00007702	  0.00000287	  0.00000120	 -0.00000164	 -0.00000346	 -0.00004093	  0.00006112
 36.00000000	  0.00001473	 -0.00003731	  0.00003453	  0.00004197	 -0.00011433	  0.00001796	  0.00002004	 -0.00002961
 37.00000000	 -0.00002415	 -0.00002998	  0.00003152	 -0.00001957	  0.00005429	 -0.00000977	 -0.00003258	 -0.00002368
 38.00000000	 -0.00001002	  0.00007224	  0.00002477	 -0.00000911	  0.00002422	  0.00002402	 -0.00001377	  0.00005727
 39.00000000	 -0.00001114	  0.00007415	  0.00002530	  0.00005281	 -0.00013952	 -0.00006832	 -0.00001529	  0.00005879
 40.00000000	  0.00002613	 -0.00011214	  0.00006185	 -0.00005133	  0.00013836	 -0.00004396	  0.00003569	 -0.00008893
 41.00000000	 -0.00000035	 -0.00000125	  0.00006091	 -0.00000489	  0.00000973	  0.00010749	 -0.00000048	 -0.00000099
 42.00000000	  0.00001970	 -0.00000306	  0.00002786	  0.00003437	 -0.00009131	 -0.00007031	  0.00002666	 -0.00000248
 43.00000000	 -0.00000468	  0.00010475	  0.00001786	 -0.00006139	  0.00016441	  0.00003354	 -0.00000665	  0.00008301
 44.00000000	  0.00003030	 -0.00007677	  0.00005799	  0.00002364	 -0.00006349	 -0.00005313	  0.00004122	 -0.00006092
 45.00000000	 -0.00003492	  0.00004377	  0.00005947	 -0.00001117	  0.00003075	  0.00003390	 -0.00004737	  0.00003479
 46.00000000	  0.00000000	  0.00000000	  0.00000000	  0.00000000	  0.00000000	 -0.00000000	 -0.00000000	  0.00000000
 47.00000000	 -0.00001540	  0.00003808	  0.00002912	  0.00002037	 -0.00005396	 -0.00000398	 -0.00002095	  0.00003022
 48.00000000	  0.00003452	 -0.00004533	  0.00000145	 -0.00001626	  0.00003983	  0.00006932	  0.00004684	 -0.00003602
 49.00000000	 -0.00001948	  0.00000898	  0.00002782	  0.00004057	 -0.00010303	 -0.00016312	 -0.00002638	  0.00000717
 50.00000000	  0.00002819	  0.00006013	  0.00009101	 -0.00002292	  0.00005450	  0.00017885	  0.00003795	  0.00004756
 51.00000000	 -0.00002872	 -0.00006268	  0.00003005	  0.00001545	 -0.00003931	 -0.00002472	 -0.00003867	 -0.00004958
 52.00000000	 -0.00003419	 -0.00009610	  0.00002312	  0.00000009	  0.00000307	 -0.00004706	 -0.00004596	 -0.00007604
 53.00000000	 -0.00000464	  0.00010505	  0.00001786	 -0.00003884	  0.00010355	  0.00003782	 -0.00000660	  0.00008325
 54.00000000	 -0.00005051	 -0.00005646	  0.00007482	  0.00003565	 -0.00009434	  0.00002946	 -0.00006816	 -0.00004458
 55.00000000	  0.00004420	  0.00002253	  0.00006244	  0.00000875	 -0.00002612	  0.00000882	  0.00005972	  0.00001772
 56.00000000	  0.00000094	  0.00000245	  0.00005531	 -0.00001441	  0.00003998	 -0.00003786	  0.00000127	  0.00000194
 57.00000000	  0.00000479	  0.00003296	  0.00006232	 -0.00001018	  0.00002847	 -0.00004162	  0.00000638	  0.00002610
 58.00000000	  0.00006387	  0.00002051	  0.00002950	  0.00002082	 -0.00005774	 -0.00005157	  0.00008634	  0.00001606
 59.00000000	 -0.00004843	 -0.00005963	  0.00000219	 -0.00001892	  0.00005201	  0.00004559	 -0.00006534	 -0.00004710
 60.00000000	  0.00002889	 -0.00007868	  0.00006923	 -0.00003394	  0.00008650	  0.00010784	  0.00003932	 -0.00006244
 61.00000000	 -0.00002889	  0.00007869	  0.00006924	  0.00003392	 -0.00008647	 -0.00010784	 -0.00003932	  0.00006244
 62.00000000	  0.00007793	 -0.00002024	  0.00006604	 -0.00001230	  0.00002567	  0.00010773	  0.00010549	 -0.00001628
 63.00000000	 -0.00006440	 -0.00001873	  0.00003485	  0.00002153	 -0.00005514	  0.00001462	 -0.00008706	 -0.00001464
 64.00000000	  0.00000169	 -0.00000040	  0.00007171	 -0.00003218	  0.00008889	 -0.00007172	  0.00000229	 -0.00000032
 65.00000000	  0.00002805	  0.00006346	  0.00003546	  0.00004688	 -0.00012897	  0.00003870	  0.00003775	  0.00005020
 66.00000000	 -0.00009764	  0.00002330	  0.00003818	 -0.00002209	  0.00006566	 -0.00003740	 -0.00013216	  0.00001876
 67.00000000	  0.00009836	 -0.00002378	  0.00003276	 -0.00001772	  0.00004177	  0.00002770	  0.00013313	 -0.00001915
 68.00000000	 -0.00002455	 -0.00002855	  0.00008699	  0.00000255	 -0.00000201	 -0.00011182	 -0.00003312	 -0.00002254
 69.00000000	  0.00007891	 -0.00002018	  0.00000025	 -0.00000469	  0.00000711	  0.00004571	  0.00010680	 -0.00001622
 70.00000000	 -0.00008462	  0.00012444	  0.00008443	  0.00000074	 -0.00000127	  0.00010931	 -0.00011485	  0.00009887
 71.00000000	  0.00004044	 -0.00000997	  0.00006642	 -0.00003854	  0.00010399	 -0.00007104	  0.00005474	 -0.00000802
 72.00000000	 -0.00003490	 -0.00009427	  0.00004310	  0.00004015	 -0.00010552	 -0.00002312	 -0.00004692	 -0.00007459
 73.00000000	  0.00004981	  0.00005827	  0.00000863	  0.00000439	 -0.00001425	 -0.00000557	  0.00006720	  0.00004602
 74.00000000	 -0.00006925	 -0.00005333	  0.00003640	  0.00000890	 -0.00002159	  0.00003777	 -0.00009352	 -0.00004204
 75.00000000	 -0.00001448	 -0.00009916	  0.00005099	  0.00003445	 -0.00008824	 -0.00011737	 -0.00001929	 -0.00007852
 76.00000000	  0.00004879	  0.00005791	  0.00005769	 -0.00002576	  0.00006517	  0.00005220	  0.00006584	  0.00004574
 77.00000000	  0.00000990	  0.00006511	  0.00000836	  0.00000030	 -0.00000420	  0.00008819	  0.00001319	  0.00005156
 78.00000000	  0.00001446	 -0.00003920	  0.00003461	 -0.00000570	  0.00001282	  0.00005606	  0.00001969	 -0.00003111
 79.00000000	 -0.00007296	  0.00005583	  0.00006763	  0.00000494	 -0.00000379	 -0.00018178	 -0.00009887	  0.00004447
 80.00000000	  0.00001912	 -0.00000724	  0.00002767	  0.00000411	 -0.00001413	  0.00006534	  0.00002589	 -0.00000579
 81.00000000	 -0.00002485	 -0.00002684	  0.00009550	  0.00002074	 -0.00005547	  0.00002837	 -0.00003354	 -0.00002119
 82.00000000	  0.00001061	 -0.00007238	  0.00003066	 -0.00001046	  0.00002665	  0.00003139	  0.00001457	 -0.00005738
 83.00000000	  0.00006844	  0.00005188	  0.00009175	 -0.00001447	  0.00003703	 -0.00005081	  0.00009242	  0.00004090
 84.00000000	 -0.00007869	  0.00001743	  0.00005579	 -0.00002003	  0.00005465	  0.00010300	 -0.00010650	  0.00001406
 85.00000000	  0.00000960	  0.00006724	  0.00006385	 -0.00002009	  0.00005577	 -0.00006903	  0.00001277	  0.00005325
 86.00000000	  0.00000018	  0.00000129	  0.00000006	  0.00000257	 -0.00000544	 -0.00004664	  0.00000024	  0.00000102
 87.00000000	  0.00004938	 -0.00008296	  0.00002486	  0.00000547	 -0.00001793	  0.00002215	  0.00006706	 -0.00006589
 88.00000000	 -0.00003488	  0.00004407	  0.00005946	  0.00001137	 -0.00003010	  0.00003818	 -0.00004731	  0.00003503
 89.00000000	  0.00002029	 -0.00000319	  0.00002756	  0.00001481	 -0.00004045	 -0.00001490	  0.00002745	 -0.00000259
 90.00000000	  0.00000926	 -0.00007206	  0.00001933	  0.00002634	 -0.00007079	 -0.00001859	  0.00001275	 -0.00005712
 91.00000000	  0.00000022	  0.00000159	  0.00000007	  0.00002512	 -0.00006630	 -0.00004237	  0.00000030	  0.00000126
 92.00000000	  0.00001479	  0.00010011	  0.00000993	 -0.00005213	  0.00013939	  0.00000560	  0.00001971	  0.00007928
 93.00000000	 -0.00004421	 -0.00002520	  0.00005915	 -0.00000927	  0.00002844	 -0.00003723	 -0.00005973	 -0.00001984
 94.00000000	  0.00001988	 -0.00000608	  0.00002769	 -0.00001288	  0.00003130	  0.00007411	  0.00002692	 -0.00000488
 95.00000000	 -0.00000480	 -0.00003429	  0.00000153	  0.00000991	 -0.00002730	  0.00002742	 -0.00000639	 -0.00002716
 96.00000000	 -0.00002935	 -0.00006150	  0.00002467	  0.00001273	 -0.00003049	 -0.00007020	 -0.00003951	 -0.00004864
 97.00000000	  0.00002860	  0.00006303	  0.00009089	  0.00000477	 -0.00001725	  0.00008985	  0.00003849	  0.00004985
 98.00000000	 -0.00001984	  0.00000638	  0.00002771	  0.00003542	 -0.00009214	 -0.00006985	 -0.00002686	  0.00000512
 99.00000000	  0.00004067	 -0.00001134	  0.00004991	 -0.00006298	  0.00016460	  0.00009189	  0.00005505	 -0.00000911
100.00000000	 -0.00008434	 -0.00001429	  0.00005363	  0.00001160	 -0.00002442	 -0.00007799	 -0.00011404	 -0.00001106
101.00000000	  0.00004883	  0.00005954	  0.00011847	 -0.00000296	  0.00000315	  0.00007068	  0.00006588	  0.00004702
102.00000000	 -0.00031426	 -0.00002880	  0.00119531	  0.00010810	 -0.00027390	 -0.00004557	 -0.00042514	 -0.00002156
103.00000000	 -0.00029112	 -0.00045597	  0.00009992	  0.00042287	 -0.00112906	  0.00013217	 -0.00039303	 -0.00036044
104.00000000	 -0.00033833	 -0.00095360	  0.00005182	  0.00043348	 -0.00114095	 -0.00044455	 -0.00045695	 -0.00075369
105.00000000	 -0.00002565	 -0.00002801	  0.00016200	  0.00005562	 -0.00015358	  0.00014554	 -0.00003476	 -0.00002210
106.00000000	  0.00019986	  0.00138311	  0.00083311	 -0.00056021	  0.00149037	  0.00033537	  0.00026602	  0.00109412
107.00000000	  0.00045286	  0.00080830	  0.00001012	 -0.00074135	  0.00195304	  0.00066978	  0.00060958	  0.00063903
108.00000000	  0.00011526	  0.00051444	  0.00025924	 -0.00030989	  0.00080420	  0.00067921	  0.00015334	  0.00040753
109.00000000	 -0.00014264	  0.00044674	  0.00001083	 -0.00016275	  0.00044155	  0.00004452	 -0.00019470	  0.00035517
110.00000000	  0.00009667	  0.00035168	  0.00005912	 -0.00029721	  0.00078846	  0.00011719	  0.00012857	  0.00027872
111.00000000	  0.00002981	  0.00016221	  0.00005561	 -0.00030637	  0.00082076	 -0.00001619	  0.00003932	  0.00012870
112.00000000	  0.00008180	  0.00006233	  0.00017691	  0.00027865	 -0.00073201	 -0.00059386	  0.00010992	  0.00004910
113.00000000	  0.00010090	 -0.00112144	  0.00051976	  0.00036944	 -0.00096155	 -0.00104999	  0.00014018	 -0.00089064
114.00000000	 -0.00003333	 -0.00006041	  0.00035117	  0.00014756	 -0.00038204	 -0.00039663	 -0.00004480	 -0.00004783
115.00000000	 -0.00011223	 -0.00035735	  0.00012702	  0.00001981	 -0.00004394	 -0.00010045	 -0.00015049	 -0.00028317
116.00000000	  0.00047376	 -0.00037139	  0.00030657	  0.00012809	 -0.00033559	 -0.00106514	  0.00064044	 -0.00029577
117.00000000	  0.00047092	 -0.00027366	  0.00048630	 -0.00012472	  0.00034236	 -0.00106789	  0.00063615	 -0.00021757
118.00000000	 -0.00004052	 -0.00007358	  0.00021856	  0.00011159	 -0.00028074	 -0.00057062	 -0.00005477	 -0.00005833
119.00000000	  0.00035930	 -0.00039663	  0.00049753	  0.00034378	 -0.00092486	 -0.00065914	  0.00048471	 -0.00031435
120.00000000	  0.00009455	 -0.00072607	  0.00058314	  0.00024468	 -0.00062592	 -0.00141445	  0.00012466	 -0.00057510
121.00000000	  0.00018507	 -0.00005801	  0.00108639	  0.00011277	 -0.00029589	 -0.00069960	  0.00025012	 -0.00004535
122.00000000	  0.00031364	 -0.00003868	  0.00081869	 -0.00007855	  0.00020082	 -0.00028676	  0.00042426	 -0.00002909
123.00000000	  0.00001201	  0.00043977	  0.00066201	 -0.00018971	  0.00051788	 -0.00031846	  0.00001965	  0.00034843
124.00000000	  0.00022585	 -0.00057588	  0.00032668	  0.00012083	 -0.00032668	 -0.00055015	  0.00030069	 -0.00045464
125.00000000	  0.00029953	 -0.00048210	  0.00047069	  0.00005758	 -0.00016097	 -0.00057936	  0.00040070	 -0.00037951
126.00000000	  0.00011077	 -0.00038716	  0.00093804	 -0.00005227	  0.00014802	 -0.00070464	  0.00014545	 -0.00030570
127.00000000	 -0.00011191	 -0.00033844	  0.00172569	  0.00020683	 -0.00055371	  0.00011281	 -0.00015585	 -0.00026908
128.00000000	  0.00005564	 -0.00013632	  0.00204544	  0.00027289	 -0.00073070	 -0.00044725	  0.00007332	 -0.00010736
129.00000000	 -0.00014667	 -0.00028363	  0.00355706	  0.00034983	 -0.00092538	 -0.00062959	 -0.00020427	 -0.00022596
130.00000000	  0.00015418	 -0.00053984	  0.00392283	  0.00026058	 -0.00070812	 -0.00050228	  0.00019722	 -0.00042491
131.00000000	 -0.00009022	 -0.00020272	  0.00408787	  0.00027004	 -0.00071659	 -0.00085376	 -0.00012780	 -0.00016172
132.00000000	  0.00038969	 -0.00005758	  0.00476893	  0.00003030	 -0.00010173	 -0.00061996	  0.00052776	 -0.00003814
133.00000000	  0.00009249	 -0.00030632	  0.00597867	  0.00007816	 -0.00021633	 -0.00074530	  0.00011482	 -0.00024025
134.00000000	  0.00014006	  0.00013996	  0.00723535	  0.00023271	 -0.00063948	 -0.00056693	  0.00019613	  0.00011420
135.00000000	  0.00000643	 -0.00073872	  0.00754224	  0.00020360	 -0.00056496	 -0.00120908	 -0.00002635	 -0.00058431
136.00000000	  0.00020827	 -0.00015932	  0.00895770	  0.00027870	 -0.00078458	 -0.00105719	  0.00027446	 -0.00011894
137.00000000	  0.00041237	 -0.00052934	  0.00975186	  0.00022860	 -0.00068061	 -0.00143157	  0.00052746	 -0.00040267
138.00000000	  0.00001416	 -0.00072472	  0.01145685	  0.00060185	 -0.00168006	 -0.00141084	 -0.00003378	 -0.00057396
139.00000000	  0.00021973	 -0.00023673	  0.01259899	  0.00029527	 -0.00086973	 -0.00129302	  0.00027958	 -0.00017601
140.00000000	  0.00045456	 -0.00075673	  0.01336903	  0.00024831	 -0.00078877	 -0.00158250	  0.00054808	 -0.00057354
141.00000000	 -0.00022636	  0.00025566	  0.01450043	  0.00066811	 -0.00187836	 -0.00128631	 -0.00028149	  0.00018766
142.00000000	  0.00030779	 -0.00140531	  0.01452198	  0.00041446	 -0.00127293	 -0.00163310	  0.00025742	 -0.00109843
143.00000000	  0.00015247	 -0.00033247	  0.01480393	  0.00073088	 -0.00214778	 -0.00177539	  0.00016568	 -0.00025263
144.00000000	 -0.00007477	 -0.00099800	  0.01393352	  0.00079676	 -0.00229653	 -0.00138678	 -0.00023685	 -0.00081059
145.00000000	  0.00029595	 -0.00011752	  0.01317194	  0.00075769	 -0.00222208	 -0.00132428	  0.00038645	 -0.00006113
146.00000000	  0.00002823	 -0.00057757	  0.01176018	  0.00036787	 -0.00112157	 -0.00099743	 -0.00004870	 -0.00046415
147.00000000	  0.00000902	 -0.00002157	  0.01244252	  0.00034847	 -0.00108360	 -0.00106558	  0.00000883	 -0.00001635
148.00000000	 -0.00009838	 -0.00081322	  0.01479572	  0.00043170	 -0.00126135	 -0.00072001	 -0.00027275	 -0.00067763
149.00000000	  0.00011703	 -0.00146496	  0.01576604	  0.00087531	 -0.00252640	 -0.00103989	 -0.00010745	 -0.00118516
150.00000000	  0.00016534	 -0.00112241	  0.01453429	  0.00043887	 -0.00143026	 -0.00144096	  0.00000999	 -0.00090024
151.00000000	  0.00066438	 -0.00109677	  0.01315644	  0.00064861	 -0.00199376	 -0.00117911	  0.00068205	 -0.00079821
152.00000000	  0.00060603	 -0.00008517	  0.01136892	  0.00039526	 -0.00130591	 -0.00110830	  0.00080229	  0.00003718
153.00000000	  0.00119068	 -0.00046014	  0.01333371	  0.00015154	 -0.00084880	 -0.00181896	  0.00150789	 -0.00016645
154.00000000	  0.00045408	 -0.00099848	  0.01872089	  0.00072207	 -0.00243300	 -0.00235167	  0.00037847	 -0.00075823
155.00000000	  0.00031985	 -0.00052585	  0.02319255	  0.00153979	 -0.00444422	 -0.00163631	  0.00029767	 -0.00038532
156.00000000	 -0.00041886	 -0.00067359	  0.02481230	  0.00089776	 -0.00244157	 -0.00051071	 -0.00073928	 -0.00066976
157.00000000	  0.00048435	 -0.00214553	  0.02943383	  0.00088753	 -0.00230637	  0.00013670	  0.00003540	 -0.00177123
158.00000000	 -0.00001897	 -0.00360795	  0.03024694	  0.00255840	 -0.00637976	  0.00071506	 -0.00109462	 -0.00320595
159.00000000	 -0.00121427	 -0.00075360	  0.02758854	  0.00163975	 -0.00380604	  0.00099915	 -0.00182308	 -0.00097686
160.00000000	 -0.00113402	  0.00075778	  0.02556384	  0.00088124	 -0.00182307	  0.00111673	 -0.00123889	  0.00039789
161.00000000	  0.00009746	 -0.00234814	  0.02874505	  0.00099609	 -0.00247082	  0.00001481	 -0.00064059	 -0.00214568
162.00000000	  0.00032247	 -0.00204024	  0.03109990	  0.00175561	 -0.00457366	 -0.00088443	 -0.00028327	 -0.00183103
163.00000000	  0.00054276	 -0.00039168	  0.03122415	  0.00067511	 -0.00186119	 -0.00065702	  0.00054667	 -0.00022185
164.00000000	 -0.00089942	  0.00015083	  0.03058661	  0.00074429	 -0.00175894	 -0.00016235	 -0.00106471	 -0.00011634
165.00000000	  0.00002856	 -0.00030931	  0.03157627	  0.00036678	 -0.00141550	 -0.00172154	 -0.00008004	 -0.00029984
166.00000000	 -0.00032638	 -0.00124682	  0.03187606	  0.00105303	 -0.00265008	 -0.00084957	 -0.00086804	 -0.00137036
167.00000000	 -0.00048464	 -0.00024876	  0.02854587	  0.00061976	 -0.00148004	 -0.00037514	 -0.00067177	 -0.00041272
168.00000000	  0.00057114	 -0.00144303	  0.02853844	  0.00102346	 -0.00190869	  0.00103977	  0.00011396	 -0.00133968
169.00000000	  0.00062317	 -0.00058724	  0.02541838	  0.00079935	 -0.00219509	 -0.00135506	  0.00049347	 -0.00042600
170.00000000	 -0.00033594	 -0.00008935	  0.02599625	  0.00042843	 -0.00083402	  0.00016618	 -0.00041727	 -0.00020858
171.00000000	  0.00131738	  0.00006518	  0.02455349	  0.00013569	 -0.00076724	 -0.00127384	  0.00150315	  0.00051088
172.00000000	  0.00103077	 -0.00018764	  0.02455455	  0.00031670	 -0.00134505	 -0.00197651	  0.00106623	  0.00013320
173.00000000	 -0.00062688	  0.00011477	  0.02571780	 -0.00006243	 -0.00048443	 -0.00195486	 -0.00063741	 -0.00007801
174.00000000	  0.00138022	 -0.00102115	  0.02638405	  0.00100921	 -0.00244879	 -0.00124211	  0.00107734	 -0.00072956
175.00000000	  0.00156611	 -0.00014452	  0.02457352	  0.00024647	 -0.00101228	 -0.00144594	  0.00159664	  0.00035312
176.00000000	  0.00105927	 -0.00092637	  0.02280014	  0.00024322	 -0.00106375	 -0.00179324	  0.00074241	 -0.00075913
177.00000000	  0.00064998	 -0.00010253	  0.02317004	  0.00152030	 -0.00312193	 -0.00072555	  0.00062723	  0.00009144
178.00000000	  0.00300081	 -0.00262767	  0.02325259	  0.00165939	 -0.00402556	 -0.00270713	  0.00203442	 -0.00225001
179.00000000	  0.00090767	  0.00062668	  0.02425655	  0.00119230	 -0.00327785	 -0.00347860	  0.00114698	  0.00107670
180.00000000	  0.00086681	  0.00002478	  0.02597268	  0.00048463	 -0.00145942	 -0.00185257	  0.00086328	  0.00030858
181.00000000	  0.00173732	 -0.00084722	  0.02790872	  0.00158684	 -0.00352561	 -0.00219560	  0.00136506	 -0.00054476
182.00000000	  0.00257828	 -0.00143505	  0.02709156	  0.00192121	 -0.00408232	 -0.00217583	  0.00193159	 -0.00107441
183.00000000	  0.00026555	 -0.00088196	  0.02810410	  0.00256035	 -0.00454173	 -0.00035915	 -0.00006722	 -0.00107794
184.00000000	  0.00277190	 -0.00157347	  0.02574827	  0.00175224	 -0.00326578	 -0.00056396	  0.00201883	 -0.00128119
185.00000000	  0.00271739	 -0.00155796	  0.02661786	  0.00379887	 -0.00640188	  0.00065402	  0.00195652	 -0.00132033
186.00000000	  0.00281282	 -0.00147854	  0.02721658	  0.00248811	 -0.00484596	 -0.00233366	  0.00204966	 -0.00123767
187.00000000	  0.00063811	 -0.00012537	  0.03138813	  0.00199010	 -0.00384853	 -0.00229098	  0.00052564	 -0.00001107
188.00000000	  0.00128633	 -0.00039208	  0.03326964	  0.00208971	 -0.00398021	 -0.00233834	  0.00100046	 -0.00023624
189.00000000	  0.00260361	 -0.00058822	  0.03390223	  0.00327008	 -0.00616985	 -0.00380759	  0.00206025	 -0.00024529
190.00000000	  0.00229334	 -0.00006506	  0.03300560	  0.00239600	 -0.00463957	 -0.00372435	  0.00192032	  0.00037540
191.00000000	  0.00012210	  0.00043377	  0.03516362	  0.00123409	 -0.00218085	 -0.00117734	  0.00021583	  0.00062994
192.00000000	  0.00155603	 -0.00103681	  0.03528694	  0.00278700	 -0.00435108	  0.00068030	  0.00102295	 -0.00120505
193.00000000	  0.00138673	 -0.00078474	  0.03621414	  0.00363004	 -0.00586862	 -0.00100717	  0.00094623	 -0.00091288
194.00000000	 -0.00127383	 -0.00110339	  0.03792351	  0.00238644	 -0.00343644	  0.00178026	 -0.00123769	 -0.00171516
195.00000000	  0.00148840	 -0.00148530	  0.03772739	  0.00320781	 -0.00473012	  0.00291839	  0.00091659	 -0.00197014
196.00000000	  0.00039234	 -0.00107440	  0.03686560	  0.00263413	 -0.00391921	  0.00191903	  0.00014808	 -0.00149861
197.00000000	  0.00195641	 -0.00111655	  0.03733832	  0.00395438	 -0.00603381	  0.00218332	  0.00138580	 -0.00149699
198.00000000	  0.00012108	 -0.00102529	  0.03723576	  0.00264140	 -0.00397651	  0.00200814	 -0.00000655	 -0.00144558
199.00000000	  0.00089731	 -0.00145445	  0.03508864	  0.00362526	 -0.00558676	  0.00093460	  0.00059076	 -0.00204829
200.00000000	  0.00134200	 -0.00078039	  0.03650160	  0.00363511	 -0.00564636	  0.00271516	  0.00100419	 -0.00112719
201.00000000	  0.00128584	 -0.00142399	  0.03366274	  0.00494328	 -0.00771382	  0.00004572	  0.00096803	 -0.00203305
202.00000000	  0.00165184	 -0.00085675	  0.03140438	  0.00280512	 -0.00446943	  0.00059418	  0.00129523	 -0.00128111
203.00000000	 -0.00087710	 -0.00015070	  0.03326244	  0.00047676	 -0.00074107	  0.00103705	 -0.00069100	 -0.00013172
204.00000000	  0.00013462	 -0.00064573	  0.03479033	  0.00238319	 -0.00387271	  0.00250279	  0.00012840	 -0.00089114
205.00000000	 -0.00025492	 -0.00102904	  0.03333417	  0.00105805	 -0.00165329	  0.00006242	 -0.00014991	 -0.00135538
206.00000000	 -0.00015402	 -0.00042015	  0.02732291	  0.00081064	 -0.00130556	  0.00033504	 -0.00009277	 -0.00054231
207.00000000	 -0.00055932	  0.00021825	  0.02126360	 -0.00000075	 -0.00016835	  0.00218487	 -0.00047744	  0.00037003
208.00000000	 -0.00018012	  0.00093335	  0.01999713	  0.00199619	 -0.00317745	 -0.00060076	 -0.00024926	  0.00126544
209.00000000	  0.00101519	 -0.00041929	  0.02215990	  0.00235501	 -0.00368502	 -0.00166627	  0.00089062	 -0.00071800
210.00000000	 -0.00038102	 -0.00082716	  0.02378832	  0.00116560	 -0.00180430	 -0.00057073	 -0.00021720	 -0.00101107
211.00000000	  0.00017556	 -0.00053052	  0.02781540	  0.00072599	 -0.00137712	  0.00155785	  0.00021869	 -0.00071927
212.00000000	  0.00101569	 -0.00003455	  0.02692440	  0.00211279	 -0.00341987	 -0.00100100	  0.00087606	 -0.00024996
213.00000000	 -0.00042421	 -0.00025541	  0.02802345	  0.00203563	 -0.00352022	  0.00099486	 -0.00032959	 -0.00023236
214.00000000	  0.00173190	 -0.00058978	  0.02023731	  0.00155517	 -0.00251346	 -0.00124401	  0.00162645	 -0.00111058
215.00000000	  0.00132575	  0.00054418	  0.01488152	  0.00205786	 -0.00362077	  0.00018305	  0.00108098	  0.00039050
216.00000000	  0.00285071	 -0.00031385	  0.02016028	  0.00432356	 -0.00703107	 -0.00329808	  0.00262332	 -0.00102733
217.00000000	  0.00440205	  0.00096543	  0.03700687	  0.00648617	 -0.01083239	 -0.00428225	  0.00388103	  0.00006273
218.00000000	  0.00080074	 -0.00036538	  0.02343626	  0.00672360	 -0.01202398	  0.00067813	  0.00081968	 -0.00061596
219.00000000	 -0.00001767	 -0.00137393	  0.00142879	  0.00395781	 -0.00826389	  0.00672553	  0.00028173	 -0.00157925
220.00000000	  0.00055579	 -0.00090867	  0.01786686	  0.00056731	 -0.00132223	  0.00160719	  0.00074700	 -0.00115815
221.00000000	 -0.00059422	 -0.00283693	  0.00289733	  0.00361053	 -0.00687351	  0.00292345	  0.00006434	 -0.00314640
222.00000000	  0.00158838	 -0.00146786	  0.03514217	  0.00256542	 -0.00537205	  0.00395731	  0.00181089	 -0.00208896
223.00000000	  0.00050176	 -0.00054477	  0.04025709	  0.00302074	 -0.00628666	  0.00408084	  0.00060086	 -0.00074789
224.00000000	  0.00062507	  0.00083260	  0.00856763	  0.00039608	 -0.00091979	  0.00058019	  0.00043623	  0.00076578
225.00000000	 -0.00013776	  0.00103353	  0.01803306	 -0.00187317	  0.00361481	 -0.00068642	 -0.00040391	  0.00117652
226.00000000	 -0.00164030	 -0.00165087	  0.00949433	  0.00044303	 -0.00087616	  0.00103210	 -0.00122071	 -0.00147335
227.00000000	  0.00383514	 -0.00080861	  0.02634051	  0.00394108	 -0.00805089	  0.00294239	  0.00401033	 -0.00192090
228.00000000	  0.00145026	 -0.00072574	  0.03335225	  0.00558965	 -0.01084606	  0.00187281	  0.00163582	 -0.00119304
229.00000000	 -0.00054772	 -0.00096270	  0.00523426	  0.00122980	 -0.00199007	 -0.00135567	 -0.00034036	 -0.00089244
230.00000000	  0.00019479	  0.00243980	  0.01388540	 -0.00158896	  0.00302977	 -0.00041756	 -0.00042787	  0.00256977
231.00000000	 -0.00165177	 -0.00245999	  0.01723259	 -0.00203320	  0.00432354	 -0.00134454	 -0.00105518	 -0.00229314
232.00000000	  0.00077362	  0.00038815	  0.00563828	  0.00161528	 -0.00327081	  0.00085162	  0.00069963	  0.00023036
233.00000000	  0.00242568	  0.00110474	  0.03172615	  0.00470452	 -0.00917710	  0.00060727	  0.00228520	  0.00051069
234.00000000	  0.00064658	 -0.00165012	  0.02298006	  0.00147716	 -0.00242209	 -0.00194778	  0.00103873	 -0.00190504
235.00000000	  0.00031728	  0.00177443	  0.00177006	 -0.00135658	  0.00231859	  0.00110022	 -0.00008845	  0.00177570
236.00000000	 -0.00162873	  0.00138368	  0.02200708	 -0.00303945	  0.00608357	 -0.00047270	 -0.00208100	  0.00181099
237.00000000	  0.00007987	 -0.00201903	  0.01280772	  0.00109776	 -0.00204911	  0.00000471	  0.00059608	 -0.00216508
238.00000000	  0.00281189	  0.00103840	  0.03039116	  0.00246585	 -0.00584249	  0.00431436	  0.00273292	  0.00032807
239.00000000	  0.00095975	 -0.00220985	  0.04118410	  0.00551692	 -0.01090053	  0.00121816	  0.00147584	 -0.00255600
240.00000000	  0.00071803	  0.00024859	  0.00671862	  0.00114579	 -0.00187914	 -0.00207516	  0.00072795	  0.00007205
241.00000000	 -0.00025556	  0.00346111	  0.02524681	 -0.00519209	  0.00988653	  0.00175459	 -0.00121605	  0.00358934
242.00000000	 -0.00401736	 -0.00422680	  0.03103875	 -0.00017510	 -0.00001393	  0.00341059	 -0.00310035	 -0.00355066
243.00000000	  0.00553913	  0.00137631	  0.00576342	  0.00301711	 -0.00630130	 -0.00000940	  0.00556617	  0.00002503
244.00000000	 -0.00020300	 -0.00057425	  0.03332185	  0.00643379	 -0.01252915	  0.00061235	 -0.00009862	 -0.00053201
245.00000000	 -0.00118051	 -0.00241141	  0.01286288	 -0.00112476	  0.00342784	 -0.00466599	 -0.00074880	 -0.00212942
246.00000000	 -0.00000250	  0.00366650	  0.00896691	 -0.00559716	  0.01159496	 -0.00232893	 -0.00091479	  0.00371808
247.00000000	 -0.00389148	  0.00039394	  0.02915608	 -0.00481279	  0.00944932	  0.00165693	 -0.00427830	  0.00121331
248.00000000	  0.00020832	 -0.00115980	  0.01743109	  0.00069234	 -0.00100663	 -0.00147892	  0.00051959	 -0.00126227
249.00000000	  0.00215576	  0.00008283	  0.01067425	  0.00327340	 -0.00655653	  0.00044557	  0.00226333	 -0.00045597
250.00000000	 -0.00075342	 -0.00123893	  0.01500864	  0.00036144	 -0.00090195	  0.00138441	 -0.00052595	 -0.00109137
251.00000000	 -0.00127885	 -0.00002492	  0.00094547	 -0.00146443	  0.00337808	 -0.00194125	 -0.00136341	  0.00028075
252.00000000	  0.00071482	  0.00052430	  0.02237261	 -0.00343303	  0.00660412	  0.00028812	  0.00061913	  0.00039375
253.00000000	 -0.00140603	  0.00092779	  0.02780580	 -0.00242360	  0.00487408	 -0.00056153	 -0.00171428	  0.00127986
254.00000000	 -0.00125908	 -0.00025995	  0.01885785	 -0.00105210	  0.00216591	 -0.00033185	 -0.00122708	 -0.00000523
255.00000000	  0.00019449	  0.00106704	  0.00642439	 -0.00106748	  0.00236570	 -0.00197074	 -0.00006013	  0.00111224
256.00000000	  0.00113804	  0.00045106	  0.00271204	 -0.00148622	  0.00335221	 -0.00326319	  0.00104864	  0.00022727
257.00000000	 -0.00231431	  0.00001687	  0.00895813	 -0.00190097	  0.00419992	 -0.00240839	 -0.00233623	  0.00052997
258.00000000	 -0.00024773	  0.00230937	  0.01586612	 -0.00316938	  0.00645307	 -0.00297720	 -0.00080572	  0.00259759
259.00000000	 -0.00093300	  0.00116358	  0.01690331	 -0.00454122	  0.00907976	 -0.00321203	 -0.00119403	  0.00148900
260.00000000	 -0.00143890	  0.00062016	  0.01180347	 -0.00385232	  0.00705354	  0.00058556	 -0.00153837	  0.00099571
261.00000000	 -0.00150887	  0.00075600	  0.01024234	 -0.00282133	  0.00554328	 -0.00182637	 -0.00161876	  0.00117399
262.00000000	 -0.00121037	 -0.00112815	  0.00899929	 -0.00240099	  0.00431211	  0.00080617	 -0.00089847	 -0.00105467
263.00000000	 -0.00089703	  0.00045219	  0.01022077	 -0.00151757	  0.00264458	  0.00070643	 -0.00094841	  0.00070615
264.00000000	 -0.00018042	  0.00086018	  0.01398274	 -0.00196096	  0.00367092	 -0.00100504	 -0.00036226	  0.00104269
265.00000000	 -0.00099279	  0.00015121	  0.01343379	 -0.00350537	  0.00631727	 -0.00011970	 -0.00095380	  0.00036908
266.00000000	 -0.00052688	  0.00036475	  0.01325180	 -0.00250832	  0.00463869	 -0.00114454	 -0.00056219	  0.00053530
267.00000000	 -0.00186650	  0.00114546	  0.01319360	 -0.00393566	  0.00703624	 -0.00038316	 -0.00193760	  0.00172674
268.00000000	 -0.00042705	  0.00046220	  0.01314477	 -0.00283344	  0.00509996	 -0.00101423	 -0.00047951	  0.00064119
269.00000000	 -0.00134870	 -0.00036109	  0.01388360	 -0.00289648	  0.00509382	 -0.00006339	 -0.00112497	 -0.00021065
270.00000000	 -0.00088007	  0.00147846	  0.01391499	 -0.00293999	  0.00499363	  0.00031192	 -0.00107033	  0.00199047
271.00000000	 -0.00267462	  0.00045083	  0.01532100	 -0.00353242	  0.00594557	  0.00122724	 -0.00241918	  0.00100365
272.00000000	  0.00004471	  0.00129584	  0.01970969	 -0.00385390	  0.00669626	 -0.00159367	 -0.00021369	  0.00164498
273.00000000	 -0.00123641	  0.00085561	  0.02005422	 -0.00258668	  0.00436263	 -0.00005618	 -0.00121073	  0.00127979
274.00000000	 -0.00152908	  0.00088386	  0.02288727	 -0.00411759	  0.00674642	  0.00101339	 -0.00144423	  0.00135271
275.00000000	 -0.00126312	  0.00052450	  0.02595328	 -0.00349314	  0.00572057	  0.00046502	 -0.00113734	  0.00084096
276.00000000	 -0.00065715	  0.00107015	  0.02843555	 -0.00258560	  0.00430596	 -0.00097866	 -0.00071058	  0.00149818
277.00000000	  0.00020759	  0.00097155	  0.03213049	 -0.00280453	  0.00456940	 -0.00087955	  0.00002244	  0.00129709
278.00000000	 -0.00157020	  0.00144667	  0.03323011	 -0.00501281	  0.00800961	  0.00036131	 -0.00144355	  0.00207558
279.00000000	 -0.00294525	  0.00092613	  0.03616106	 -0.00690037	  0.01098509	  0.00053076	 -0.00242015	  0.00139776
280.00000000	 -0.00227261	  0.00237866	  0.03865295	 -0.00702095	  0.01103722	 -0.00074545	 -0.00198669	  0.00339648
281.00000000	 -0.00111442	  0.00175007	  0.04310170	 -0.00574968	  0.00897030	 -0.00241783	 -0.00097883	  0.00249415
282.00000000	 -0.00078060	  0.00240034	  0.04668725	 -0.00599079	  0.00922512	 -0.00510158	 -0.00069284	  0.00345037
283.00000000	 -0.00096686	  0.00128395	  0.04816676	 -0.00609083	  0.00924804	 -0.00596230	 -0.00073870	  0.00179536
284.00000000	  0.00092160	  0.00210387	  0.04874990	 -0.00501975	  0.00733862	 -0.00511813	  0.00076825	  0.00324455
285.00000000	 -0.00117426	  0.00087184	  0.04748096	 -0.00660923	  0.00980958	 -0.00419617	 -0.00083519	  0.00109304
286.00000000	 -0.00117900	  0.00227216	  0.04696413	 -0.00557524	  0.00820721	 -0.00230474	 -0.00066376	  0.00314707
287.00000000	 -0.00031024	  0.00092802	  0.05021310	 -0.00490939	  0.00681010	 -0.00596239	 -0.00010920	  0.00130879
288.00000000	  0.00168519	  0.00105430	  0.05108592	 -0.00299687	  0.00362750	 -0.00627308	  0.00155731	  0.00206777
289.00000000	  0.00088667	  0.00050372	  0.05238548	 -0.00354016	  0.00457953	 -0.00518137	  0.00085127	  0.00104110
290.00000000	  0.00134404	  0.00049604	  0.05351028	 -0.00141580	  0.00131627	 -0.00432243	  0.00128940	  0.00122607
291.00000000	  0.00147292	  0.00010509	  0.05285220	 -0.00244257	  0.00303947	 -0.00356599	  0.00135526	  0.00075283
292.00000000	  0.00012855	  0.00034786	  0.05285569	 -0.00376184	  0.00491891	 -0.00491662	  0.00023254	  0.00054193
293.00000000	 -0.00024261	  0.00184415	  0.04904751	 -0.00407719	  0.00623887	 -0.00179095	  0.00041236	  0.00241233
294.00000000	 -0.00001944	  0.00119993	  0.04944117	 -0.00423865	  0.00519108	 -0.00674995	  0.00043263	  0.00160198
295.00000000	 -0.00025705	  0.00137172	  0.04876237	 -0.00439311	  0.00564159	 -0.00622819	  0.00027857	  0.00167564
296.00000000	 -0.00078016	  0.00224502	  0.05058800	 -0.00638008	  0.00929267	 -0.00614904	  0.00008611	  0.00248395
297.00000000	 -0.00084245	  0.00041749	  0.04929263	 -0.00361339	  0.00588153	 -0.00226801	 -0.00077887	  0.00006641
298.00000000	 -0.00173885	  0.00194916	  0.04886305	 -0.00490506	  0.00803722	 -0.00354060	 -0.00119231	  0.00142560
299.00000000	 -0.00013849	  0.00085317	  0.04542675	 -0.00278792	  0.00550790	  0.00013350	  0.00021225	  0.00093674
300.00000000	 -0.00230351	  0.00288294	  0.04624135	 -0.00646141	  0.01246619	 -0.00192949	 -0.00160790	  0.00205769
301.00000000	 -0.00215907	  0.00232715	  0.04232631	 -0.00495124	  0.01037687	 -0.00035939	 -0.00174323	  0.00144087
302.00000000	 -0.00072783	  0.00119653	  0.03535919	 -0.00412325	  0.01014311	  0.00267485	 -0.00042399	  0.00092534
303.00000000	 -0.00073517	  0.00177241	  0.03486203	 -0.00453317	  0.01056172	  0.00106448	 -0.00020744	  0.00151556
304.00000000	 -0.00328508	  0.00205397	  0.03108426	 -0.00311575	  0.00812842	  0.00167246	 -0.00355771	  0.00050075
305.00000000	 -0.00005643	  0.00116214	  0.02951142	 -0.00333773	  0.00869132	  0.00216923	  0.00040723	  0.00116034
306.00000000	 -0.00134907	  0.00211385	  0.02919262	 -0.00325940	  0.00816551	  0.00076361	 -0.00100278	  0.00148010
307.00000000	 -0.00167496	  0.00143912	  0.02992512	 -0.00387020	  0.00891675	 -0.00145341	 -0.00176166	  0.00064496
308.00000000	 -0.00093056	  0.00152703	  0.03067920	 -0.00351332	  0.00810404	 -0.00149699	 -0.00072218	  0.00105638
309.00000000	 -0.00120618	  0.00145845	  0.03258391	 -0.00324508	  0.00825940	 -0.00005654	 -0.00117543	  0.00085109
310.00000000	 -0.00133401	  0.00063202	  0.03427973	 -0.00306871	  0.00827577	  0.00056041	 -0.00168748	  0.00001926
311.00000000	 -0.00179619	  0.00124452	  0.03456175	 -0.00300327	  0.00859166	  0.00128148	 -0.00218135	  0.00039881
312.00000000	 -0.00135805	  0.00200792	  0.03582842	 -0.00224713	  0.00673069	  0.00155401	 -0.00136541	  0.00125187
313.00000000	 -0.00084036	  0.00229947	  0.03577345	 -0.00311998	  0.00812514	 -0.00126982	 -0.00057974	  0.00168480
314.00000000	 -0.00086150	  0.00145932	  0.03376700	 -0.00246000	  0.00704836	  0.00038765	 -0.00088381	  0.00094558
315.00000000	 -0.00252921	  0.00310373	  0.03268051	 -0.00292826	  0.00824439	 -0.00087205	 -0.00297624	  0.00179014
316.00000000	 -0.00013465	  0.00125792	  0.03189474	 -0.00221097	  0.00647058	  0.00060041	  0.00007920	  0.00099221
317.00000000	 -0.00073578	  0.00148703	  0.03071678	 -0.00239535	  0.00741278	  0.00167997	 -0.00079355	  0.00100290
318.00000000	 -0.00107685	  0.00147077	  0.02631625	 -0.00237423	  0.00775440	  0.00323427	 -0.00132800	  0.00091295
319.00000000	 -0.00060038	  0.00215376	  0.02266397	 -0.00230458	  0.00674919	 -0.00000764	 -0.00052677	  0.00157517
320.00000000	  0.00007214	  0.00129792	  0.02010924	 -0.00231712	  0.00672098	  0.00002975	  0.00030606	  0.00103634
321.00000000	 -0.00178629	  0.00123919	  0.01842865	 -0.00157597	  0.00506142	  0.00173756	 -0.00244216	  0.00064431
322.00000000	 -0.00100017	  0.00198063	  0.02044310	 -0.00290933	  0.00837882	 -0.00107989	 -0.00120827	  0.00137866
323.00000000	 -0.00203683	  0.00268620	  0.01493398	 -0.00199659	  0.00615264	  0.00153312	 -0.00263544	  0.00178643
324.00000000	 -0.00044108	 -0.00052347	  0.00586063	 -0.00162272	  0.00499654	  0.00261565	 -0.00069626	 -0.00046674
325.00000000	 -0.00052606	  0.00132863	  0.00386281	 -0.00219961	  0.00639619	  0.00059620	 -0.00060087	  0.00097371
326.00000000	 -0.00236912	  0.00202691	  0.00512883	 -0.00160291	  0.00490561	  0.00165984	 -0.00314997	  0.00130275
327.00000000	 -0.00143143	  0.00082786	  0.00765711	 -0.00171367	  0.00512811	  0.00196728	 -0.00194233	  0.00048275
328.00000000	 -0.00214111	  0.00293760	  0.00784687	 -0.00133811	  0.00419101	  0.00371385	 -0.00275559	  0.00207229
329.00000000	 -0.00020238	  0.00091008	  0.00814550	 -0.00152439	  0.00430653	  0.00049866	 -0.00020999	  0.00069456
330.00000000	 -0.00124051	  0.00106218	  0.00718104	 -0.00073587	  0.00223991	  0.00181228	 -0.00165155	  0.00072003
331.00000000	  0.00001217	  0.00068138	  0.00863157	 -0.00112024	  0.00310799	  0.00003057	  0.00006300	  0.00053629
332.00000000	 -0.00043162	  0.00180214	  0.00953152	 -0.00054732	  0.00161605	  0.00179496	 -0.00049380	  0.00138011
333.00000000	 -0.00022298	  0.00039227	  0.00980197	 -0.00124503	  0.00354060	  0.00211378	 -0.00028939	  0.00029168
334.00000000	  0.00040686	  0.00059724	  0.00968605	 -0.00156313	  0.00428973	  0.00041623	  0.00058677	  0.00049577
335.00000000	 -0.00027676	  0.00090672	  0.00807597	 -0.00119642	  0.00329830	  0.00033521	 -0.00034463	  0.00069829
336.00000000	  0.00047406	  0.00004879	  0.00534452	 -0.00117111	  0.00318869	  0.00118035	  0.00065036	  0.00006191
337.00000000	 -0.00006186	  0.00029151	  0.00312640	 -0.00056455	  0.00155160	  0.00113535	 -0.00007427	  0.00022752
338.00000000	 -0.00036651	  0.00017890	  0.00286067	 -0.00110512	  0.00303509	  0.00133113	 -0.00049304	  0.00012702
339.00000000	 -0.00033822	  0.00099053	  0.00476965	 -0.00136734	  0.00371822	  0.00127154	 -0.00043299	  0.00077212
340.00000000	 -0.00034936	  0.00117909	  0.00370326	 -0.00126368	  0.00341240	  0.00190533	 -0.00044578	  0.00092506
341.00000000	 -0.00049528	  0.00067495	  0.00164743	 -0.00089773	  0.00241328	  0.00330003	 -0.00065373	  0.00052419
342.00000000	 -0.00083522	  0.00064917	  0.00311257	 -0.00082817	  0.00223082	  0.00248505	 -0.00111197	  0.00049918
343.00000000	 -0.00049221	  0.00075759	  0.00495792	 -0.00041827	  0.00109053	  0.00301388	 -0.00065579	  0.00059539
344.00000000	 -0.00046788	  0.00078644	  0.00408299	 -0.00080214	  0.00211086	  0.00200970	 -0.00062521	  0.00062303
345.00000000	  0.00037521	  0.00047126	  0.00586502	 -0.00075594	  0.00196458	  0.00075214	  0.00049670	  0.00037963
346.00000000	  0.00044844	 -0.00003714	  0.00697340	  0.00011364	 -0.00029726	 -0.00102888	  0.00059690	 -0.00002795
347.00000000	  0.00051766	 -0.00034526	  0.00449342	 -0.00019279	  0.00050982	 -0.00076857	  0.00069162	 -0.00027653
348.00000000	  0.00040170	 -0.00037616	  0.00299677	 -0.00025325	  0.00067747	 -0.00077973	  0.00053701	 -0.00030238
349.00000000	  0.00044852	 -0.00022176	  0.00442125	 -0.00022474	  0.00061569	 -0.00135228	  0.00059784	 -0.00017871
350.00000000	  0.00048526	  0.00009374	  0.00415685	 -0.00049681	  0.00130789	 -0.00073247	  0.00064259	  0.00007363
351.00000000	  0.00061802	 -0.00023878	  0.00286196	 -0.00025848	  0.00068912	 -0.00118369	  0.00082102	 -0.00019491
352.00000000	  0.00042150	 -0.00027959	  0.00089677	 -0.00014408	  0.00037356	 -0.00047140	  0.00056025	 -0.00022732
353.00000000	 -0.00010821	 -0.00002432	  0.00109889	  0.00006138	 -0.00013372	 -0.00056155	 -0.00014310	 -0.00001862
354.00000000	  0.00002563	 -0.00038775	  0.00053685	  0.00016297	 -0.00040689	 -0.00055336	  0.00003576	 -0.00031132
355.00000000	 -0.00001697	 -0.00021678	  0.00029218	  0.00002717	 -0.00006947	  0.00002938	 -0.00002127	 -0.00017383
356.00000000	 -0.00018901	 -0.00014532	  0.00101309	  0.00028454	 -0.00072901	 -0.00021021	 -0.00024992	 -0.00011540
357.00000000	  0.00003796	 -0.00095004	  0.00243716	  0.00041212	 -0.00106717	 -0.00041501	  0.00005098	 -0.00076164
358.00000000	 -0.00008222	 -0.00069694	  0.00172009	  0.00043008	 -0.00110737	 -0.00055229	 -0.00010955	 -0.00055775
359.00000000	  0.00023465	 -0.00056582	  0.00032110	  0.00027092	 -0.00070522	 -0.00071409	  0.00031226	 -0.00045289
360.00000000	  0.00029838	 -0.00129712	  0.00113148	  0.00058638	 -0.00150961	 -0.00186262	  0.00039614	 -0.00103670
361.00000000	  0.00048089	 -0.00133547	  0.00118140	  0.00061840	 -0.00160800	 -0.00208161	  0.00063751	 -0.00106487
362.00000000	  0.00049010	 -0.00018636	  0.00138013	  0.00016738	 -0.00043081	 -0.00166623	  0.00065401	 -0.00014610
363.00000000	  0.00012218	 -0.00003163	  0.00030912	 -0.00007543	  0.00020241	 -0.00037111	  0.00016310	 -0.00002451
364.00000000	 -0.00004857	 -0.00014769	  0.00041761	  0.00010411	 -0.00027640	  0.00012861	 -0.00006585	 -0.00011807
365.00000000	 -0.00001019	 -0.00053386	  0.00014689	  0.00035502	 -0.00093669	 -0.00018187	 -0.00001708	 -0.00042568
366.00000000	  0.00005663	 -0.00052136	  0.00007598	  0.00025072	 -0.00066080	 -0.00035173	  0.00007229	 -0.00041502
367.00000000	  0.00031857	 -0.00027725	  0.00036747	  0.00017279	 -0.00045855	 -0.00087584	  0.00042445	 -0.00021871
368.00000000	  0.00023088	  0.00001355	  0.00015986	 -0.00020387	  0.00053675	 -0.00038987	  0.00030943	  0.00001272
369.00000000	 -0.00010606	  0.00023373	  0.00017832	 -0.00013139	  0.00035257	  0.00016306	 -0.00013998	  0.00018530
370.00000000	 -0.00001301	 -0.00019043	  0.00018420	  0.00022975	 -0.00060854	 -0.00006176	 -0.00001911	 -0.00015180
371.00000000	 -0.00025123	 -0.00089952	  0.00014952	  0.00042573	 -0.00111268	 -0.00018076	 -0.00034471	 -0.00071832
372.00000000	 -0.00001935	 -0.00112199	  0.00026161	  0.00058895	 -0.00157205	  0.00000263	 -0.00003649	 -0.00089245
373.00000000	 -0.00003431	 -0.00110075	  0.00040339	  0.00056487	 -0.00150175	 -0.00037252	 -0.00005751	 -0.00087467
374.00000000	  0.00001145	 -0.00043593	  0.00047491	  0.00026799	 -0.00072173	  0.00007602	  0.00001081	 -0.00034587
375.00000000	 -0.00005801	  0.00001446	  0.00002119	 -0.00004750	  0.00013091	  0.00001728	 -0.00007804	  0.00001088
376.00000000	  0.00023433	  0.00040311	  0.00049535	 -0.00037011	  0.00097553	  0.00001190	  0.00031949	  0.00032248
377.00000000	 -0.00018151	  0.00092809	  0.00009484	 -0.00042919	  0.00115427	  0.00030207	 -0.00023551	  0.00073552
378.00000000	  0.00004618	  0.00066904	  0.00016490	 -0.00030876	  0.00082029	  0.00006425	  0.00006808	  0.00053236
379.00000000	 -0.00010262	  0.00013692	  0.00016929	 -0.00010876	  0.00029896	 -0.00006091	 -0.00013649	  0.00010799
380.00000000	 -0.00004588	 -0.00029767	  0.00009663	  0.00016931	 -0.00044677	 -0.00008635	 -0.00006437	 -0.00023719
381.00000000	  0.00006420	 -0.00049569	  0.00008594	  0.00032501	 -0.00087428	  0.00004763	  0.00008158	 -0.00039346
382.00000000	 -0.00004679	 -0.00066044	  0.00035864	  0.00023959	 -0.00063492	 -0.00017177	 -0.00006964	 -0.00052515
383.00000000	  0.00001260	 -0.00044714	  0.00015973	  0.00020506	 -0.00055187	  0.00003612	  0.00001246	 -0.00035497
384.00000000	 -0.00013477	  0.00021704	  0.00018373	  0.00010369	 -0.00026698	 -0.00001742	 -0.00017928	  0.00017099
385.00000000	  0.00014186	 -0.00042102	  0.00009265	  0.00006520	 -0.00018611	 -0.00000653	  0.00018690	 -0.00033275
386.00000000	 -0.00009924	  0.00016809	  0.00006271	  0.00002994	 -0.00006875	 -0.00015767	 -0.00013199	  0.00013240
387.00000000	  0.00017487	  0.00005408	  0.00004212	 -0.00001824	  0.00003153	  0.00020884	  0.00023616	  0.00004471
388.00000000	 -0.00009539	  0.00005880	  0.00014415	 -0.00006507	  0.00018569	 -0.00018664	 -0.00012792	  0.00004571
389.00000000	  0.00007529	  0.00008035	  0.00007561	 -0.00007199	  0.00018310	  0.00018353	  0.00010221	  0.00006454
390.00000000	 -0.00011205	  0.00019478	  0.00005524	 -0.00014801	  0.00040228	  0.00008659	 -0.00014897	  0.00015355
391.00000000	  0.00002429	  0.00026211	  0.00019503	 -0.00015289	  0.00040739	  0.00002051	  0.00003517	  0.00020843
392.00000000	  0.00004593	  0.00017677	  0.00026452	  0.00007596	 -0.00020386	 -0.00007776	  0.00006358	  0.00014085
393.00000000	 -0.00006402	 -0.00029159	  0.00004551	  0.00005325	 -0.00013754	 -0.00005473	 -0.00008907	 -0.00023222
394.00000000	  0.00006814	 -0.00032258	  0.00023669	  0.00022635	 -0.00061381	  0.00010174	  0.00008847	 -0.00025546
395.00000000	 -0.00014301	 -0.00027633	  0.00010043	 -0.00003669	  0.00010498	  0.00008112	 -0.00019540	 -0.00022079
396.00000000	  0.00002360	 -0.00010385	  0.00004261	  0.00005595	 -0.00014679	 -0.00020208	  0.00003072	 -0.00008220
397.00000000	  0.00010936	  0.00004159	  0.00014425	  0.00011537	 -0.00032162	  0.00021455	  0.00014777	  0.00003411
398.00000000	 -0.00012225	 -0.00010430	  0.00000062	  0.00011583	 -0.00030002	 -0.00008229	 -0.00016583	 -0.00008399
399.00000000	  0.00000328	  0.00027207	  0.00021649	 -0.00007413	  0.00020136	 -0.00008552	  0.00000713	  0.00021592
400.00000000	 -0.00004060	  0.00001393	  0.00018798	  0.00001788	 -0.00004738	  0.00009498	 -0.00005458	  0.00001065
401.00000000	  0.00012851	 -0.00025650	  0.00053898	 -0.00004932	  0.00012614	 -0.00016748	  0.00017074	 -0.00020220
402.00000000	  0.00009386	  0.00058341	  0.00018820	 -0.00035417	  0.00093900	  0.00017337	  0.00013196	  0.00046410
403.00000000	  0.00002741	  0.00091001	  0.00012819	 -0.00055630	  0.00148107	  0.00023686	  0.00004514	  0.00072335
404.00000000	  0.00016187	  0.00088340	  0.00030081	 -0.00040477	  0.00107346	 -0.00016623	  0.00022522	  0.00070413
405.00000000	 -0.00018883	  0.00063172	  0.00023837	 -0.00028339	  0.00076143	  0.00026388	 -0.00024751	  0.00050112
406.00000000	  0.00016605	 -0.00000602	  0.00013015	  0.00001654	 -0.00005181	 -0.00014935	  0.00022253	 -0.00000331
407.00000000	 -0.00010175	 -0.00062818	  0.00004518	  0.00036887	 -0.00097626	 -0.00000686	 -0.00014209	 -0.00050084
408.00000000	 -0.00016252	 -0.00097752	  0.00020122	  0.00061048	 -0.00161531	 -0.00017732	 -0.00022770	 -0.00077862
409.00000000	 -0.00001686	 -0.00100869	  0.00049998	  0.00041982	 -0.00112185	 -0.00013031	 -0.00003313	 -0.00080128
410.00000000	  0.00004640	 -0.00048878	  0.00028920	  0.00016396	 -0.00044638	  0.00008530	  0.00005747	 -0.00038752
411.00000000	  0.00000539	  0.00017564	  0.00009840	  0.00002864	 -0.00007224	 -0.00016917	  0.00000905	  0.00013944
412.00000000	 -0.00005703	  0.00054917	  0.00032571	 -0.00025528	  0.00068544	  0.00014431	 -0.00007155	  0.00043532
413.00000000	 -0.00003627	  0.00102519	  0.00032112	 -0.00051704	  0.00138125	  0.00021707	 -0.00003950	  0.00081405
414.00000000	  0.00010073	  0.00062291	  0.00025062	 -0.00041678	  0.00111052	 -0.00016165	  0.00014098	  0.00049626
415.00000000	  0.00017333	  0.00057147	  0.00011987	 -0.00020200	  0.00051959	  0.00027293	  0.00023775	  0.00045628
416.00000000	 -0.00009744	 -0.00021589	  0.00000026	  0.00012683	 -0.00033142	 -0.00000345	 -0.00013266	 -0.00017266
417.00000000	 -0.00008151	 -0.00077201	  0.00007751	  0.00030212	 -0.00080336	  0.00006251	 -0.00011640	 -0.00061475
418.00000000	 -0.00018065	 -0.00072962	  0.00018305	  0.00037344	 -0.00097916	 -0.00029759	 -0.00024987	 -0.00058152
419.00000000	  0.00024765	 -0.00077927	  0.00019367	  0.00027662	 -0.00075837	 -0.00006246	  0.00032552	 -0.00061663
420.00000000	 -0.00002417	 -0.00026953	  0.00018954	  0.00014691	 -0.00039655	  0.00016487	 -0.00003520	 -0.00021423
421.00000000	  0.00004290	  0.00040868	  0.00018572	 -0.00017146	  0.00046496	 -0.00031625	  0.00006181	  0.00032490
422.00000000	 -0.00013678	  0.00040167	  0.00007054	 -0.00029833	  0.00080232	  0.00024614	 -0.00018020	  0.00031769
423.00000000	  0.00005573	  0.00100994	  0.00036040	 -0.00024555	  0.00065241	  0.00001171	  0.00008406	  0.00080323
424.00000000	 -0.00001051	  0.00030694	  0.00001522	 -0.00032109	  0.00085700	  0.00005107	 -0.00001129	  0.00024399
425.00000000	  0.00014091	  0.00023748	  0.00000433	 -0.00008094	  0.00020410	  0.00008308	  0.00019127	  0.00019022
426.00000000	 -0.00008227	 -0.00025646	  0.00003157	  0.00017077	 -0.00045118	  0.00004640	 -0.00011273	 -0.00020476
427.00000000	 -0.00010893	 -0.00040763	  0.00017784	  0.00027328	 -0.00071906	 -0.00013116	 -0.00015018	 -0.00032509
428.00000000	 -0.00009651	 -0.00085877	  0.00027684	  0.00031908	 -0.00084495	 -0.00013941	 -0.00013829	 -0.00068331
429.00000000	  0.00013685	 -0.00044505	  0.00003611	  0.00016983	 -0.00046339	 -0.00007209	  0.00017975	 -0.00035215
430.00000000	 -0.00006827	 -0.00001619	  0.00011462	  0.00009507	 -0.00025206	  0.00009876	 -0.00009208	 -0.00001352
431.00000000	  0.00010173	  0.00024413	  0.00018306	 -0.00014087	  0.00037096	 -0.00001898	  0.00013930	  0.00019488
432.00000000	  0.00001101	  0.00057490	  0.00007104	 -0.00024208	  0.00064264	  0.00019865	  0.00002019	  0.00045680
433.00000000	  0.00010158	  0.00048378	  0.00022174	 -0.00035710	  0.00094944	 -0.00006650	  0.00014095	  0.00038551
434.00000000	 -0.00005276	  0.00045658	  0.00021344	 -0.00013939	  0.00037800	 -0.00008082	 -0.00006670	  0.00036261
435.00000000	 -0.00006831	  0.00022836	  0.00007571	  0.00004029	 -0.00010353	  0.00003495	 -0.00008960	  0.00018100
436.00000000	  0.00000353	 -0.00038012	  0.00005546	  0.00013004	 -0.00034938	  0.00006211	  0.00000124	 -0.00030225
437.00000000	 -0.00004267	 -0.00049860	  0.00031541	  0.00024966	 -0.00066697	  0.00009157	 -0.00006209	 -0.00039673
438.00000000	 -0.00003617	 -0.00064004	  0.00004346	  0.00014165	 -0.00037130	 -0.00026941	 -0.00005481	 -0.00050892
439.00000000	  0.00008089	 -0.00011619	  0.00005772	  0.00012386	 -0.00033054	 -0.00025999	  0.00010767	 -0.00009151
440.00000000	  0.00005358	  0.00004675	  0.00002601	 -0.00010424	  0.00026869	  0.00025768	  0.00007255	  0.00003767
441.00000000	 -0.00010779	  0.00036571	  0.00008927	 -0.00006863	  0.00018374	  0.00031327	 -0.00014156	  0.00028952
442.00000000	  0.00022792	  0.00024508	  0.00043372	 -0.00029985	  0.00079389	 -0.00032275	  0.00030861	  0.00019697
443.00000000	 -0.00011966	  0.00044052	  0.00007025	 -0.00008555	  0.00023240	  0.00018709	 -0.00015667	  0.00034914
444.00000000	 -0.00002760	  0.00021729	  0.00006934	 -0.00002387	  0.00006533	  0.00001951	 -0.00003506	  0.00017254
445.00000000	  0.00000059	  0.00000388	  0.00000024	  0.00002816	 -0.00007292	 -0.00008923	  0.00000083	  0.00000309
446.00000000	 -0.00008408	 -0.00039387	  0.00001593	  0.00017460	 -0.00046215	  0.00004510	 -0.00011662	 -0.00031392
447.00000000	 -0.00000214	 -0.00041106	  0.00006363	  0.00016267	 -0.00043541	  0.00000312	 -0.00000674	 -0.00032671
448.00000000	  0.00007248	 -0.00031291	  0.00027793	  0.00014340	 -0.00038543	 -0.00014543	  0.00009438	 -0.00024795
449.00000000	 -0.00006102	  0.00000843	  0.00002661	  0.00002364	 -0.00006306	  0.00016470	 -0.00008202	  0.00000610
450.00000000	 -0.00004618	  0.00021736	  0.00009096	 -0.00013973	  0.00037885	 -0.00006459	 -0.00006007	  0.00017225
451.00000000	  0.00010668	  0.00013554	  0.00014952	 -0.00014467	  0.00037721	  0.00008828	  0.00014468	  0.00010874
452.00000000	 -0.00006132	  0.00052904	  0.00007549	 -0.00014740	  0.00039689	  0.00006034	 -0.00007759	  0.00041998
453.00000000	 -0.00003681	  0.00001380	  0.00007297	 -0.00009089	  0.00025090	 -0.00022558	 -0.00004932	  0.00001064
454.00000000	  0.00009604	 -0.00002993	  0.00001491	  0.00003278	 -0.00009731	  0.00012418	  0.00012872	 -0.00002290
455.00000000	 -0.00003907	 -0.00012435	  0.00003519	  0.00006389	 -0.00016697	 -0.00004252	 -0.00005365	 -0.00009923
456.00000000	 -0.00008890	 -0.00028202	  0.00022451	  0.00019773	 -0.00052467	  0.00009088	 -0.00012217	 -0.00022499
457.00000000	  0.00002873	 -0.00034948	  0.00003448	  0.00002369	 -0.00006201	 -0.00016891	  0.00003529	 -0.00027747
458.00000000	  0.00004289	  0.00002768	  0.00013109	  0.00011247	 -0.00030527	  0.00007526	  0.00005794	  0.00002240
459.00000000	  0.00003097	 -0.00007985	  0.00024430	 -0.00005848	  0.00015906	 -0.00020533	  0.00004089	 -0.00006315
460.00000000	  0.00005683	  0.00022413	  0.00012170	 -0.00020021	  0.00052747	  0.00015923	  0.00007856	  0.00017868
461.00000000	  0.00001239	  0.00033702	  0.00015346	 -0.00003902	  0.00010314	  0.00002729	  0.00001978	  0.00026803
462.00000000	 -0.00004070	  0.00014720	  0.00014994	  0.00000885	 -0.00001784	 -0.00010954	 -0.00005332	  0.00011663
463.00000000	 -0.00013830	 -0.00010712	  0.00011757	 -0.00001824	  0.00005246	  0.00021868	 -0.00018683	 -0.00008645
464.00000000	  0.00014418	  0.00000128	  0.00002997	  0.00004288	 -0.00012209	 -0.00009529	  0.00019376	  0.00000235
465.00000000	 -0.00009053	 -0.00018089	  0.00022731	  0.00007597	 -0.00020083	  0.00015116	 -0.00012339	 -0.00014461
466.00000000	  0.00005073	 -0.00018353	  0.00008664	  0.00010863	 -0.00029037	 -0.00014768	  0.00006649	 -0.00014539
467.00000000	  0.00001114	 -0.00006687	  0.00002965	 -0.00000033	  0.00000419	 -0.00016852	  0.00001434	 -0.00005303
468.00000000	  0.00001565	  0.00009742	  0.00004838	 -0.00003472	  0.00008900	  0.00011434	  0.00002198	  0.00007756
469.00000000	 -0.00007333	  0.00004621	  0.00001369	 -0.00009804	  0.00026357	  0.00013885	 -0.00009815	  0.00003603
470.00000000	  0.00012045	  0.00010990	  0.00004205	 -0.00003075	  0.00007636	 -0.00009632	  0.00016292	  0.00008848
471.00000000	 -0.00010015	  0.00002150	  0.00008712	 -0.00001249	  0.00004024	  0.00000271	 -0.00013440	  0.00001614
472.00000000	 -0.00005182	  0.00018953	  0.00003810	 -0.00004078	  0.00011367	 -0.00003645	 -0.00006784	  0.00015018
473.00000000	  0.00000346	 -0.00010191	  0.00004541	  0.00006209	 -0.00016578	 -0.00001641	  0.00000369	 -0.00008098
474.00000000	 -0.00005335	 -0.00019619	  0.00011869	  0.00008284	 -0.00022248	  0.00017782	 -0.00007355	 -0.00015644
475.00000000	  0.00015083	 -0.00010208	  0.00006352	  0.00000951	 -0.00003112	 -0.00019923	  0.00020180	 -0.00007972
476.00000000	  0.00009976	 -0.00002412	  0.00008733	 -0.00005819	  0.00014764	  0.00003127	  0.00013387	 -0.00001823
477.00000000	 -0.00004096	  0.00000673	  0.00011458	  0.00001776	 -0.00004403	 -0.00002095	 -0.00005500	  0.00000495
478.00000000	 -0.00001797	  0.00027831	  0.00005556	 -0.00007277	  0.00019545	  0.00002467	 -0.00002154	  0.00022105
479.00000000	 -0.00006468	  0.00011632	  0.00006614	  0.00000987	 -0.00002298	  0.00005148	 -0.00008585	  0.00009185
480.00000000	 -0.00006374	 -0.00001380	  0.00008974	  0.00000830	 -0.00001720	 -0.00002361	 -0.00008579	 -0.00001156
481.00000000	  0.00003563	  0.00009332	  0.00010004	  0.00004660	 -0.00012622	 -0.00002132	  0.00004875	  0.00007451
482.00000000	  0.00002033	 -0.00025145	  0.00024171	  0.00001740	 -0.00005642	  0.00031336	  0.00002500	 -0.00019967
483.00000000	 -0.00000780	  0.00007917	  0.00009841	  0.00002916	 -0.00007009	 -0.00028176	 -0.00000975	  0.00006285
484.00000000	  0.00003268	 -0.00018139	  0.00004956	  0.00001232	 -0.00003627	  0.00002668	  0.00004222	 -0.00014385
485.00000000	  0.00004211	 -0.00015038	  0.00009818	 -0.00008827	  0.00023515	 -0.00010483	  0.00005519	 -0.00011912
486.00000000	  0.00002595	  0.00017012	  0.00007104	  0.00001817	 -0.00004646	 -0.00014197	  0.00003651	  0.00013546
487.00000000	  0.00001921	  0.00012797	  0.00005265	 -0.00005527	  0.00014195	  0.00018154	  0.00002703	  0.00010191
488.00000000	 -0.00017275	 -0.00005923	  0.00006003	  0.00000295	  0.00000587	 -0.00007802	 -0.00023273	 -0.00004872
489.00000000	 -0.00001150	  0.00006696	  0.00015075	 -0.00000408	  0.00000448	  0.00028966	 -0.00001483	  0.00005312
490.00000000	  0.00005460	 -0.00018662	  0.00011119	  0.00001353	 -0.00003706	 -0.00012995	  0.00007166	 -0.00014784
491.00000000	 -0.00003042	 -0.00005445	  0.00001727	  0.00003878	 -0.00009648	 -0.00020246	 -0.00004140	 -0.00004357
492.00000000	 -0.00005627	  0.00015430	  0.00009462	  0.00001460	 -0.00003748	  0.00010571	 -0.00007415	  0.00012211
493.00000000	  0.00003225	 -0.00018309	  0.00011020	  0.00000739	 -0.00002579	  0.00013397	  0.00004162	 -0.00014522
494.00000000	  0.00008080	  0.00011818	  0.00016288	 -0.00002768	  0.00007283	 -0.00017015	  0.00010972	  0.00009470
495.00000000	  0.00001503	 -0.00004118	  0.00003123	 -0.00000130	  0.00000130	  0.00004136	  0.00001981	 -0.00003259
496.00000000	 -0.00004707	  0.00025540	  0.00000445	  0.00000079	  0.00000238	 -0.00003327	 -0.00006085	  0.00020256
497.00000000	 -0.00001452	 -0.00010165	  0.00006058	 -0.00003266	  0.00008591	  0.00008359	 -0.00002047	 -0.00008094
