   2.00000000	   0.39102430	   0.39102430	   0.39102430	   0.39102430
   3.00000000	   0.56942954	   0.56942954	   0.56942954	   0.56942954
   4.00000000	   0.62934927	   0.62934927	   0.62934927	   0.62934927
   5.00000000	   0.85540890	   0.85540890	   0.85540890	   0.85540890
   6.00000000	   0.77539120	   0.77539120	   0.77539120	   0.77539120
   7.00000000	   0.85257346	   0.85257346	   0.85257346	   0.85257346
   8.00000000	   0.85014749	   0.85014749	   0.85014749	   0.85014749
   9.00000000	   1.20425674	   1.20425674	   1.20425674	   1.20425674
  10.00000000	   1.29858774	   1.29858774	   1.29858774	   1.29858774
  11.00000000	   1.10735875	   1.10735875	   1.10735875	   1.10735875
  12.00000000	   1.18027838	   1.18027838	   1.18027838	   1.18027838
  13.00000000	   1.24142569	   1.24142569	   1.24142569	   1.24142569
  14.00000000	   1.63189693	   1.63189693	   1.63189693	   1.63189693
  15.00000000	   2.13312039	   2.13312039	   2.13312039	   2.13312039
  16.00000000	   1.82169681	   1.82169681	   1.82169681	   1.82169681
  17.00000000	   1.99896655	   1.99896655	   1.99896655	   1.99896655
  18.00000000	   2.21812608	   2.21812608	   2.21812608	   2.21812608
  19.00000000	   2.29286284	   2.29286284	   2.29286284	   2.29286284
  20.00000000	   2.16669301	   2.16669301	   2.16669301	   2.16669301
  21.00000000	   2.13533809	   2.13533809	   2.13533809	   2.13533809
  22.00000000	   2.33079369	   2.33079369	   2.33079369	   2.33079369
  23.00000000	   2.40472223	   2.40472223	   2.40472223	   2.40472223
  24.00000000	   2.36703464	   2.36703464	   2.36703464	   2.36703464
  25.00000000	   2.65203817	   2.65203817	   2.65203817	   2.65203817
  26.00000000	   2.88834258	   2.88834258	   2.88834258	   2.88834258
  27.00000000	   2.97952739	   2.97952739	   2.97952739	   2.97952739
  28.00000000	   3.14166300	   3.14166300	   3.14166300	   3.14166300
  29.00000000	   3.06498875	   3.06498875	   3.06498875	   3.06498875
  30.00000000	   3.01332962	   3.01332962	   3.01332962	   3.01332962
  31.00000000	   3.48026561	   3.48026561	   3.48026561	   3.48026561
  32.00000000	   3.56639050	   3.56639050	   3.56639050	   3.56639050
  33.00000000	   3.84720836	   3.84720836	   3.84720836	   3.84720836
  34.00000000	   3.80827082	   3.80827082	   3.80827082	   3.80827082
  35.00000000	   3.87749716	   3.87749716	   3.87749716	   3.87749716
  36.00000000	   4.02600110	   4.02600110	   4.02600110	   4.02600110
  37.00000000	   4.05455257	   4.05455257	   4.05455257	   4.05455257
  38.00000000	   4.27416925	   4.27416925	   4.27416925	   4.27416925
  39.00000000	   4.34281643	   4.34281643	   4.34281643	   4.34281643
  40.00000000	   4.56611520	   4.56611520	   4.56611520	   4.56611520
  41.00000000	   4.39445477	   4.39445477	   4.39445477	   4.39445477
  42.00000000	   4.62525421	   4.62525421	   4.62525421	   4.62525421
  43.00000000	   4.79952693	   4.79952693	   4.79952693	   4.79952693
  44.00000000	   4.90016603	   4.90016603	   4.90016603	   4.90016603
  45.00000000	   5.32024738	   5.32024738	   5.32024738	   5.32024738
  46.00000000	   5.34064496	   5.34064496	   5.34064496	   5.34064496
  47.00000000	   5.20837321	   5.20837321	   5.20837321	   5.20837321
  48.00000000	   5.50175282	   5.50175282	   5.50175282	   5.50175282
  49.00000000	   5.34498736	   5.34498736	   5.34498736	   5.34498736
  50.00000000	   5.57486561	   5.57486561	   5.57486561	   5.57486561
  51.00000000	   5.84703591	   5.84703591	   5.84703591	   5.84703591
  52.00000000	   5.79488726	   5.79488726	   5.79488726	   5.79488726
  53.00000000	   5.59388639	   5.59388639	   5.59388639	   5.59388639
  54.00000000	   5.87254034	   5.87254034	   5.87254034	   5.87254034
  55.00000000	   5.86091298	   5.86091298	   5.86091298	   5.86091298
  56.00000000	   6.07329923	   6.07329923	   6.07329923	   6.07329923
  57.00000000	   6.31462395	   6.31462395	   6.31462395	   6.31462395
  58.00000000	   6.33845524	   6.33845524	   6.33845524	   6.33845524
  59.00000000	   6.58774335	   6.58774335	   6.58774335	   6.58774335
  60.00000000	   6.71113599	   6.71113599	   6.71113599	   6.71113599
  61.00000000	   6.88781482	   6.88781482	   6.88781482	   6.88781482
  62.00000000	   6.74659018	   6.74659018	   6.74659018	   6.74659018
  63.00000000	   7.00861235	   7.00861235	   7.00861235	   7.00861235
  64.00000000	   7.05473331	   7.05473331	   7.05473331	   7.05473331
  65.00000000	   7.02047562	   7.02047562	   7.02047562	   7.02047562
  66.00000000	   7.16126903	   7.16126903	   7.16126903	   7.16126903
  67.00000000	   7.13178436	   7.13178436	   7.13178436	   7.13178436
  68.00000000	   7.25719478	   7.25719478	   7.25719478	   7.25719478
  69.00000000	   7.14816256	   7.14816256	   7.14816256	   7.14816256
  70.00000000	   7.02606775	   7.02606775	   7.02606775	   7.02606775
  71.00000000	   7.12608436	   7.12608436	   7.12608436	   7.12608436
  72.00000000	   7.27852341	   7.27852341	   7.27852341	   7.27852341
  73.00000000	   7.60179600	   7.60179600	   7.60179600	   7.60179600
  74.00000000	   7.67553869	   7.67553869	   7.67553869	   7.67553869
  75.00000000	   7.62496569	   7.62496569	   7.62496569	   7.62496569
  76.00000000	   7.77815188	   7.77815188	   7.77815188	   7.77815188
  77.00000000	   7.85536418	   7.85536418	   7.85536418	   7.85536418
  78.00000000	   7.84177743	   7.84177743	   7.84177743	   7.84177743
  79.00000000	   8.00654699	   8.00654699	   8.00654699	   8.00654699
  80.00000000	   8.25689475	   8.25689475	   8.25689475	   8.25689475
  81.00000000	   8.43089587	   8.43089587	   8.43089587	   8.43089587
  82.00000000	   8.60804503	   8.60804503	   8.60804503	   8.60804503
  83.00000000	   8.55634789	   8.55634789	   8.55634789	   8.55634789
  84.00000000	   8.51861561	   8.51861561	   8.51861561	   8.51861561
  85.00000000	   8.72493389	   8.72493389	   8.72493389	   8.72493389
  86.00000000	   8.75097126	   8.75097126	   8.75097126	   8.75097126
  87.00000000	   9.02350513	   9.02350513	   9.02350513	   9.02350513
  88.00000000	   9.07880204	   9.07880204	   9.07880204	   9.07880204
  89.00000000	   8.99351430	   8.99351430	   8.99351430	   8.99351430
  90.00000000	   9.08380823	   9.08380823	   9.08380823	   9.08380823
  91.00000000	   9.26590728	   9.26590728	   9.26590728	   9.26590728
  92.00000000	   9.54630913	   9.54630913	   9.54630913	   9.54630913
  93.00000000	   9.46276659	   9.46276659	   9.46276659	   9.46276659
  94.00000000	   9.76561084	   9.76561084	   9.76561084	   9.76561084
  95.00000000	   9.93810724	   9.93810724	   9.93810724	   9.93810724
  96.00000000	   9.99481218	   9.99481218	   9.99481218	   9.99481218
  97.00000000	  10.08789995	  10.08789995	  10.08789995	  10.08789995
  98.00000000	  10.06018602	  10.06018602	  10.06018602	  10.06018602
  99.00000000	  10.20735043	  10.20735043	  10.20735043	  10.20735043
 100.00000000	  10.41037141	  10.41037141	  10.41037141	  10.41037141
 101.00000000	  10.29300068	  10.29300068	  10.29300068	  10.29300068
 102.00000000	  10.59536580	  10.59536580	  10.59536580	  10.59536580
 103.00000000	  10.71938225	  10.71938225	  10.71938225	  10.71938225
 104.00000000	  10.59635684	  10.59635684	  10.59635684	  10.59635684
 105.00000000	  10.78714198	  10.78714198	  10.78714198	  10.78714198
 106.00000000	  10.90423761	  10.90423761	  10.90423761	  10.90423761
 107.00000000	  10.84034193	  10.84034193	  10.84034193	  10.84034193
 108.00000000	  11.08519136	  11.08519136	  11.08519136	  11.08519136
 109.00000000	  10.92762779	  10.92762779	  10.92762779	  10.92762779
 110.00000000	  10.80969771	  10.80969771	  10.80969771	  10.80969771
 111.00000000	  10.66514946	  10.66514946	  10.66514946	  10.66514946
 112.00000000	  10.54579260	  10.54579260	  10.54579260	  10.54579260
 113.00000000	  10.98759196	  10.98759196	  10.98759196	  10.98759196
 114.00000000	  11.18756369	  11.18756369	  11.18756369	  11.18756369
 115.00000000	  10.96213452	  10.96213452	  10.96213452	  10.96213452
 116.00000000	  10.79408046	  10.79408046	  10.79408046	  10.79408046
 117.00000000	  11.26240481	  11.26240481	  11.26240481	  11.26240481
 118.00000000	  11.26418397	  11.26418397	  11.26418397	  11.26418397
 119.00000000	  11.37685358	  11.37685358	  11.37685358	  11.37685358
 120.00000000	  11.62838453	  11.62838453	  11.62838453	  11.62838453
 121.00000000	  11.46169355	  11.46169355	  11.46169355	  11.46169355
 122.00000000	  11.79468189	  11.79468189	  11.79468189	  11.79468189
 123.00000000	  11.85792544	  11.85792544	  11.85792544	  11.85792544
 124.00000000	  11.74895469	  11.74895469	  11.74895469	  11.74895469
 125.00000000	  11.68368259	  11.68368259	  11.68368259	  11.68368259
 126.00000000	  11.44480174	  11.44480174	  11.44480174	  11.44480174
 127.00000000	  11.40666956	  11.40666956	  11.40666956	  11.40666956
 128.00000000	  11.40890436	  11.40890436	  11.40890436	  11.40890436
 129.00000000	  11.42687818	  11.42687818	  11.42687818	  11.42687818
 130.00000000	  11.32308436	  11.32308436	  11.32308436	  11.32308436
 131.00000000	  11.29765067	  11.29765067	  11.29765067	  11.29765067
 132.00000000	  11.12036999	  11.12036999	  11.12036999	  11.12036999
 133.00000000	  10.60925362	  10.60925362	  10.60925362	  10.60925362
 134.00000000	  10.28495864	  10.28495864	  10.28495864	  10.28495864
 135.00000000	   9.87897354	   9.87897354	   9.87897354	   9.87897354
 136.00000000	   9.44283214	   9.44283214	   9.44283214	   9.44283214
 137.00000000	   8.52037436	   8.52037436	   8.52037436	   8.52037436
 138.00000000	   8.20122537	   8.20122537	   8.20122537	   8.20122537
 139.00000000	   7.80667494	   7.80667494	   7.80667494	   7.80667494
 140.00000000	   7.60711027	   7.60711027	   7.60711027	   7.60711027
 141.00000000	   7.29707105	   7.29707105	   7.29707105	   7.29707105
 142.00000000	   7.38567134	   7.38567134	   7.38567134	   7.38567134
 143.00000000	   7.27042583	   7.27042583	   7.27042583	   7.27042583
 144.00000000	   7.61240664	   7.61240664	   7.61240664	   7.61240664
 145.00000000	   7.81819324	   7.81819324	   7.81819324	   7.81819324
 146.00000000	   8.58283416	   8.58283416	   8.58283416	   8.58283416
 147.00000000	   8.92410773	   8.92410773	   8.92410773	   8.92410773
 148.00000000	   9.51982789	   9.51982789	   9.51982789	   9.51982789
 149.00000000	  10.05484039	  10.05484039	  10.05484039	  10.05484039
 150.00000000	  10.22039883	  10.22039883	  10.22039883	  10.22039883
 151.00000000	  10.69754117	  10.69754117	  10.69754117	  10.69754117
 152.00000000	  11.21977034	  11.21977034	  11.21977034	  11.21977034
 153.00000000	  11.27735328	  11.27735328	  11.27735328	  11.27735328
 154.00000000	  11.46407564	  11.46407564	  11.46407564	  11.46407564
 155.00000000	  12.50628096	  12.50628096	  12.50628096	  12.50628096
 156.00000000	  14.11045566	  14.11045566	  14.11045566	  14.11045566
 157.00000000	  13.83102357	  13.83102357	  13.83102357	  13.83102357
 158.00000000	  14.08540795	  14.08540795	  14.08540795	  14.08540795
 159.00000000	  13.87775255	  13.87775255	  13.87775255	  13.87775255
 160.00000000	  13.74685115	  13.74685115	  13.74685115	  13.74685115
 161.00000000	  14.12746328	  14.12746328	  14.12746328	  14.12746328
 162.00000000	  14.39130742	  14.39130742	  14.39130742	  14.39130742
 163.00000000	  15.85432158	  15.85432158	  15.85432158	  15.85432158
 164.00000000	  15.11192735	  15.11192735	  15.11192735	  15.11192735
 165.00000000	  17.30055755	  17.30055755	  17.30055755	  17.30055755
 166.00000000	  16.71236224	  16.71236224	  16.71236224	  16.71236224
 167.00000000	  17.97252863	  17.97252863	  17.97252863	  17.97252863
 168.00000000	  15.77224581	  15.77224581	  15.77224581	  15.77224581
 169.00000000	  14.35963035	  14.35963035	  14.35963035	  14.35963035
 170.00000000	  13.47322270	  13.47322270	  13.47322270	  13.47322270
 171.00000000	  13.52887027	  13.52887027	  13.52887027	  13.52887027
 172.00000000	  11.90357245	  11.90357245	  11.90357245	  11.90357245
 173.00000000	  10.96556974	  10.96556974	  10.96556974	  10.96556974
 174.00000000	  10.83088189	  10.83088189	  10.83088189	  10.83088189
 175.00000000	  11.62990929	  11.62990929	  11.62990929	  11.62990929
 176.00000000	  11.92910315	  11.92910315	  11.92910315	  11.92910315
 177.00000000	  12.72058023	  12.72058023	  12.72058023	  12.72058023
 178.00000000	  15.40929531	  15.40929531	  15.40929531	  15.40929531
 179.00000000	  18.14055005	  18.14055005	  18.14055005	  18.14055005
 180.00000000	  21.94249663	  21.94249663	  21.94249663	  21.94249663
 181.00000000	  25.96952202	  25.96952202	  25.96952202	  25.96952202
 182.00000000	  28.99935018	  28.99935018	  28.99935018	  28.99935018
 183.00000000	  32.82440452	  32.82440452	  32.82440452	  32.82440452
 184.00000000	  36.35774958	  36.35774958	  36.35774958	  36.35774958
 185.00000000	  41.28166165	  41.28166165	  41.28166165	  41.28166165
 186.00000000	  44.47771967	  44.47771967	  44.47771967	  44.47771967
 187.00000000	  48.32320757	  48.32320757	  48.32320757	  48.32320757
 188.00000000	  51.70041302	  51.70041302	  51.70041302	  51.70041302
 189.00000000	  55.16473611	  55.16473611	  55.16473611	  55.16473611
 190.00000000	  58.11340538	  58.11340538	  58.11340538	  58.11340538
 191.00000000	  61.28568087	  61.28568087	  61.28568087	  61.28568087
 192.00000000	  64.30999845	  64.30999845	  64.30999845	  64.30999845
 193.00000000	  67.67662412	  67.67662412	  67.67662412	  67.67662412
 194.00000000	  71.64455439	  71.64455439	  71.64455439	  71.64455439
 195.00000000	  74.33012564	  74.33012564	  74.33012564	  74.33012564
 196.00000000	  77.29193113	  77.29193113	  77.29193113	  77.29193113
 197.00000000	  79.32457863	  79.32457863	  79.32457863	  79.32457863
 198.00000000	  81.51616312	  81.51616312	  81.51616312	  81.51616312
 199.00000000	  83.93316485	  83.93316485	  83.93316485	  83.93316485
 200.00000000	  84.71558789	  84.71558789	  84.71558789	  84.71558789
 201.00000000	  86.40739938	  86.40739938	  86.40739938	  86.40739938
 202.00000000	  88.09782028	  88.09782028	  88.09782028	  88.09782028
 203.00000000	  90.47003172	  90.47003172	  90.47003172	  90.47003172
 204.00000000	  92.27012316	  92.27012316	  92.27012316	  92.27012316
 205.00000000	  94.03703616	  94.03703616	  94.03703616	  94.03703616
 206.00000000	  95.59316160	  95.59316160	  95.59316160	  95.59316160
 207.00000000	  97.55904455	  97.55904455	  97.55904455	  97.55904455
 208.00000000	  98.82113459	  98.82113459	  98.82113459	  98.82113459
 209.00000000	  99.16115565	  99.16115565	  99.16115565	  99.16115565
 210.00000000	 101.24510198	 101.24510198	 101.24510198	 101.24510198
 211.00000000	 102.23165035	 102.23165035	 102.23165035	 102.23165035
 212.00000000	 104.02373258	 104.02373258	 104.02373258	 104.02373258
 213.00000000	 105.38677461	 105.38677461	 105.38677461	 105.38677461
 214.00000000	 106.21148338	 106.21148338	 106.21148338	 106.21148338
 215.00000000	 107.42411596	 107.42411596	 107.42411596	 107.42411596
 216.00000000	 108.71354929	 108.71354929	 108.71354929	 108.71354929
 217.00000000	 111.22376331	 111.22376331	 111.22376331	 111.22376331
 218.00000000	 112.69183137	 112.69183137	 112.69183137	 112.69183137
 219.00000000	 113.17477638	 113.17477638	 113.17477638	 113.17477638
 220.00000000	 113.42557659	 113.42557659	 113.42557659	 113.42557659
 221.00000000	 113.58071431	 113.58071431	 113.58071431	 113.58071431
 222.00000000	 113.44497719	 113.44497719	 113.44497719	 113.44497719
 223.00000000	 112.67487990	 112.67487990	 112.67487990	 112.67487990
 224.00000000	 111.95493177	 111.95493177	 111.95493177	 111.95493177
 225.00000000	 111.53079020	 111.53079020	 111.53079020	 111.53079020
 226.00000000	 110.49698167	 110.49698167	 110.49698167	 110.49698167
 227.00000000	 110.25854359	 110.25854359	 110.25854359	 110.25854359
 228.00000000	 108.74355102	 108.74355102	 108.74355102	 108.74355102
 229.00000000	 107.46425864	 107.46425864	 107.46425864	 107.46425864
 230.00000000	 106.32300366	 106.32300366	 106.32300366	 106.32300366
 231.00000000	 104.85068558	 104.85068558	 104.85068558	 104.85068558
 232.00000000	 103.09272260	 103.09272260	 103.09272260	 103.09272260
 233.00000000	 101.35037773	 101.35037773	 101.35037773	 101.35037773
 234.00000000	  99.96444658	  99.96444658	  99.96444658	  99.96444658
 235.00000000	  98.63874721	  98.63874721	  98.63874721	  98.63874721
 236.00000000	  96.41709377	  96.41709377	  96.41709377	  96.41709377
 237.00000000	  95.18640277	  95.18640277	  95.18640277	  95.18640277
 238.00000000	  93.52102732	  93.52102732	  93.52102732	  93.52102732
 239.00000000	  92.38553065	  92.38553065	  92.38553065	  92.38553065
 240.00000000	  90.99808762	  90.99808762	  90.99808762	  90.99808762
 241.00000000	  90.56506504	  90.56506504	  90.56506504	  90.56506504
 242.00000000	  89.71302073	  89.71302073	  89.71302073	  89.71302073
 243.00000000	  89.30849514	  89.30849514	  89.30849514	  89.30849514
 244.00000000	  88.37322655	  88.37322655	  88.37322655	  88.37322655
 245.00000000	  87.79305646	  87.79305646	  87.79305646	  87.79305646
 246.00000000	  86.60722516	  86.60722516	  86.60722516	  86.60722516
 247.00000000	  85.76468653	  85.76468653	  85.76468653	  85.76468653
 248.00000000	  85.60057893	  85.60057893	  85.60057893	  85.60057893
 249.00000000	  84.91441309	  84.91441309	  84.91441309	  84.91441309
 250.00000000	  83.71533971	  83.71533971	  83.71533971	  83.71533971
 251.00000000	  83.29824939	  83.29824939	  83.29824939	  83.29824939
 252.00000000	  82.26083692	  82.26083692	  82.26083692	  82.26083692
 253.00000000	  81.12214854	  81.12214854	  81.12214854	  81.12214854
 254.00000000	  80.14259197	  80.14259197	  80.14259197	  80.14259197
 255.00000000	  79.85164264	  79.85164264	  79.85164264	  79.85164264
 256.00000000	  79.17260017	  79.17260017	  79.17260017	  79.17260017
 257.00000000	  79.61066942	  79.61066942	  79.61066942	  79.61066942
 258.00000000	  79.57251660	  79.57251660	  79.57251660	  79.57251660
 259.00000000	  79.44732533	  79.44732533	  79.44732533	  79.44732533
 260.00000000	  79.45692209	  79.45692209	  79.45692209	  79.45692209
 261.00000000	  80.10783853	  80.10783853	  80.10783853	  80.10783853
 262.00000000	  80.90888787	  80.90888787	  80.90888787	  80.90888787
 263.00000000	  80.90196980	  80.90196980	  80.90196980	  80.90196980
 264.00000000	  82.20850294	  82.20850294	  82.20850294	  82.20850294
 265.00000000	  83.30355014	  83.30355014	  83.30355014	  83.30355014
 266.00000000	  84.95438052	  84.95438052	  84.95438052	  84.95438052
 267.00000000	  86.45361962	  86.45361962	  86.45361962	  86.45361962
 268.00000000	  87.76764326	  87.76764326	  87.76764326	  87.76764326
 269.00000000	  89.55576632	  89.55576632	  89.55576632	  89.55576632
 270.00000000	  91.36516566	  91.36516566	  91.36516566	  91.36516566
 271.00000000	  93.33085543	  93.33085543	  93.33085543	  93.33085543
 272.00000000	  95.58348250	  95.58348250	  95.58348250	  95.58348250
 273.00000000	  97.26873814	  97.26873814	  97.26873814	  97.26873814
 274.00000000	  99.87724826	  99.87724826	  99.87724826	  99.87724826
 275.00000000	 102.38141261	 102.38141261	 102.38141261	 102.38141261
 276.00000000	 104.99322439	 104.99322439	 104.99322439	 104.99322439
 277.00000000	 107.41450176	 107.41450176	 107.41450176	 107.41450176
 278.00000000	 109.64503163	 109.64503163	 109.64503163	 109.64503163
 279.00000000	 112.50005171	 112.50005171	 112.50005171	 112.50005171
 280.00000000	 115.05073652	 115.05073652	 115.05073652	 115.05073652
 281.00000000	 117.64804122	 117.64804122	 117.64804122	 117.64804122
 282.00000000	 120.98580127	 120.98580127	 120.98580127	 120.98580127
 283.00000000	 124.33852210	 124.33852210	 124.33852210	 124.33852210
 284.00000000	 127.97561745	 127.97561745	 127.97561745	 127.97561745
 285.00000000	 131.25352307	 131.25352307	 131.25352307	 131.25352307
 286.00000000	 134.82730969	 134.82730969	 134.82730969	 134.82730969
 287.00000000	 138.00157663	 138.00157663	 138.00157663	 138.00157663
 288.00000000	 141.44253607	 141.44253607	 141.44253607	 141.44253607
 289.00000000	 145.05566746	 145.05566746	 145.05566746	 145.05566746
 290.00000000	 148.77959972	 148.77959972	 148.77959972	 148.77959972
 291.00000000	 152.25148213	 152.25148213	 152.25148213	 152.25148213
 292.00000000	 155.63845290	 155.63845290	 155.63845290	 155.63845290
 293.00000000	 159.66769476	 159.66769476	 159.66769476	 159.66769476
 294.00000000	 163.42132631	 163.42132631	 163.42132631	 163.42132631
 295.00000000	 166.70867295	 166.70867295	 166.70867295	 166.70867295
 296.00000000	 169.87155647	 169.87155647	 169.87155647	 169.87155647
 297.00000000	 173.34952426	 173.34952426	 173.34952426	 173.34952426
 298.00000000	 176.59209698	 176.59209698	 176.59209698	 176.59209698
 299.00000000	 180.18918875	 180.18918875	 180.18918875	 180.18918875
 300.00000000	 183.93629049	 183.93629049	 183.93629049	 183.93629049
 301.00000000	 188.03305008	 188.03305008	 188.03305008	 188.03305008
 302.00000000	 192.04613212	 192.04613212	 192.04613212	 192.04613212
 303.00000000	 195.83984474	 195.83984474	 195.83984474	 195.83984474
 304.00000000	 199.83916728	 199.83916728	 199.83916728	 199.83916728
 305.00000000	 203.96165880	 203.96165880	 203.96165880	 203.96165880
 306.00000000	 207.88888653	 207.88888653	 207.88888653	 207.88888653
 307.00000000	 211.88647953	 211.88647953	 211.88647953	 211.88647953
 308.00000000	 215.65729519	 215.65729519	 215.65729519	 215.65729519
 309.00000000	 219.46340201	 219.46340201	 219.46340201	 219.46340201
 310.00000000	 223.24577566	 223.24577566	 223.24577566	 223.24577566
 311.00000000	 227.23180962	 227.23180962	 227.23180962	 227.23180962
 312.00000000	 231.02610638	 231.02610638	 231.02610638	 231.02610638
 313.00000000	 235.20940703	 235.20940703	 235.20940703	 235.20940703
 314.00000000	 239.02286958	 239.02286958	 239.02286958	 239.02286958
 315.00000000	 243.10064639	 243.10064639	 243.10064639	 243.10064639
 316.00000000	 247.35573244	 247.35573244	 247.35573244	 247.35573244
 317.00000000	 251.42565289	 251.42565289	 251.42565289	 251.42565289
 318.00000000	 255.42374297	 255.42374297	 255.42374297	 255.42374297
 319.00000000	 259.32106210	 259.32106210	 259.32106210	 259.32106210
 320.00000000	 263.23945564	 263.23945564	 263.23945564	 263.23945564
 321.00000000	 267.31851609	 267.31851609	 267.31851609	 267.31851609
 322.00000000	 271.19736605	 271.19736605	 271.19736605	 271.19736605
 323.00000000	 275.25118714	 275.25118714	 275.25118714	 275.25118714
 324.00000000	 279.43315591	 279.43315591	 279.43315591	 279.43315591
 325.00000000	 283.38503309	 283.38503309	 283.38503309	 283.38503309
 326.00000000	 287.62592828	 287.62592828	 287.62592828	 287.62592828
 327.00000000	 292.11672437	 292.11672437	 292.11672437	 292.11672437
 328.00000000	 295.80066527	 295.80066527	 295.80066527	 295.80066527
 329.00000000	 299.04672483	 299.04672483	 299.04672483	 299.04672483
 330.00000000	 303.27291830	 303.27291830	 303.27291830	 303.27291830
 331.00000000	 307.49578294	 307.49578294	 307.49578294	 307.49578294
 332.00000000	 311.85551116	 311.85551116	 311.85551116	 311.85551116
 333.00000000	 315.82907729	 315.82907729	 315.82907729	 315.82907729
 334.00000000	 320.06935683	 320.06935683	 320.06935683	 320.06935683
 335.00000000	 324.11045556	 324.11045556	 324.11045556	 324.11045556
 336.00000000	 328.24825308	 328.24825308	 328.24825308	 328.24825308
 337.00000000	 331.74179906	 331.74179906	 331.74179906	 331.74179906
 338.00000000	 336.29919799	 336.29919799	 336.29919799	 336.29919799
 339.00000000	 340.75349417	 340.75349417	 340.75349417	 340.75349417
 340.00000000	 345.89126005	 345.89126005	 345.89126005	 345.89126005
 341.00000000	 350.77681492	 350.77681492	 350.77681492	 350.77681492
 342.00000000	 354.76398709	 354.76398709	 354.76398709	 354.76398709
 343.00000000	 358.15280980	 358.15280980	 358.15280980	 358.15280980
 344.00000000	 361.15669556	 361.15669556	 361.15669556	 361.15669556
 345.00000000	 362.74969196	 362.74969196	 362.74969196	 362.74969196
 346.00000000	 365.36238094	 365.36238094	 365.36238094	 365.36238094
 347.00000000	 365.43145270	 365.43145270	 365.43145270	 365.43145270
 348.00000000	 363.93652928	 363.93652928	 363.93652928	 363.93652928
 349.00000000	 363.43635014	 363.43635014	 363.43635014	 363.43635014
 350.00000000	 362.39271984	 362.39271984	 362.39271984	 362.39271984
 351.00000000	 360.80704795	 360.80704795	 360.80704795	 360.80704795
 352.00000000	 359.07131598	 359.07131598	 359.07131598	 359.07131598
 353.00000000	 357.56582210	 357.56582210	 357.56582210	 357.56582210
 354.00000000	 354.97209154	 354.97209154	 354.97209154	 354.97209154
 355.00000000	 352.18919227	 352.18919227	 352.18919227	 352.18919227
 356.00000000	 349.60318089	 349.60318089	 349.60318089	 349.60318089
 357.00000000	 347.25042315	 347.25042315	 347.25042315	 347.25042315
 358.00000000	 344.00048087	 344.00048087	 344.00048087	 344.00048087
 359.00000000	 340.59101726	 340.59101726	 340.59101726	 340.59101726
 360.00000000	 337.62590295	 337.62590295	 337.62590295	 337.62590295
 361.00000000	 333.75705447	 333.75705447	 333.75705447	 333.75705447
 362.00000000	 330.27327604	 330.27327604	 330.27327604	 330.27327604
 363.00000000	 326.59597074	 326.59597074	 326.59597074	 326.59597074
 364.00000000	 323.11770155	 323.11770155	 323.11770155	 323.11770155
 365.00000000	 319.03396464	 319.03396464	 319.03396464	 319.03396464
 366.00000000	 315.77453544	 315.77453544	 315.77453544	 315.77453544
 367.00000000	 312.98005589	 312.98005589	 312.98005589	 312.98005589
 368.00000000	 310.60878655	 310.60878655	 310.60878655	 310.60878655
 369.00000000	 307.20494895	 307.20494895	 307.20494895	 307.20494895
 370.00000000	 304.89900978	 304.89900978	 304.89900978	 304.89900978
 371.00000000	 302.69404782	 302.69404782	 302.69404782	 302.69404782
 372.00000000	 300.19688520	 300.19688520	 300.19688520	 300.19688520
 373.00000000	 297.91948912	 297.91948912	 297.91948912	 297.91948912
 374.00000000	 295.99101505	 295.99101505	 295.99101505	 295.99101505
 375.00000000	 292.93018164	 292.93018164	 292.93018164	 292.93018164
 376.00000000	 290.58126639	 290.58126639	 290.58126639	 290.58126639
 377.00000000	 288.08404967	 288.08404967	 288.08404967	 288.08404967
 378.00000000	 286.23232608	 286.23232608	 286.23232608	 286.23232608
 379.00000000	 282.69133638	 282.69133638	 282.69133638	 282.69133638
 380.00000000	 280.02852680	 280.02852680	 280.02852680	 280.02852680
 381.00000000	 278.27254226	 278.27254226	 278.27254226	 278.27254226
 382.00000000	 275.13749197	 275.13749197	 275.13749197	 275.13749197
 383.00000000	 272.25521125	 272.25521125	 272.25521125	 272.25521125
 384.00000000	 268.68916680	 268.68916680	 268.68916680	 268.68916680
 385.00000000	 266.32731150	 266.32731150	 266.32731150	 266.32731150
 386.00000000	 263.42510993	 263.42510993	 263.42510993	 263.42510993
 387.00000000	 262.15430774	 262.15430774	 262.15430774	 262.15430774
 388.00000000	 260.34919144	 260.34919144	 260.34919144	 260.34919144
 389.00000000	 259.54131727	 259.54131727	 259.54131727	 259.54131727
 390.00000000	 258.96526146	 258.96526146	 258.96526146	 258.96526146
 391.00000000	 258.87442742	 258.87442742	 258.87442742	 258.87442742
 392.00000000	 259.04776291	 259.04776291	 259.04776291	 259.04776291
 393.00000000	 258.67223139	 258.67223139	 258.67223139	 258.67223139
 394.00000000	 257.94769591	 257.94769591	 257.94769591	 257.94769591
 395.00000000	 258.95291124	 258.95291124	 258.95291124	 258.95291124
 396.00000000	 258.56031723	 258.56031723	 258.56031723	 258.56031723
 397.00000000	 259.87424916	 259.87424916	 259.87424916	 259.87424916
 398.00000000	 260.91547735	 260.91547735	 260.91547735	 260.91547735
 399.00000000	 261.16813722	 261.16813722	 261.16813722	 261.16813722
 400.00000000	 261.86826942	 261.86826942	 261.86826942	 261.86826942
 401.00000000	 261.55138625	 261.55138625	 261.55138625	 261.55138625
 402.00000000	 261.13060305	 261.13060305	 261.13060305	 261.13060305
 403.00000000	 260.36577882	 260.36577882	 260.36577882	 260.36577882
 404.00000000	 260.69541993	 260.69541993	 260.69541993	 260.69541993
 405.00000000	 261.28050680	 261.28050680	 261.28050680	 261.28050680
 406.00000000	 259.92405510	 259.92405510	 259.92405510	 259.92405510
 407.00000000	 259.97581323	 259.97581323	 259.97581323	 259.97581323
 408.00000000	 260.11760201	 260.11760201	 260.11760201	 260.11760201
 409.00000000	 260.58737626	 260.58737626	 260.58737626	 260.58737626
 410.00000000	 260.90735809	 260.90735809	 260.90735809	 260.90735809
 411.00000000	 261.62245254	 261.62245254	 261.62245254	 261.62245254
 412.00000000	 261.45297443	 261.45297443	 261.45297443	 261.45297443
 413.00000000	 261.84097232	 261.84097232	 261.84097232	 261.84097232
 414.00000000	 260.86794992	 260.86794992	 260.86794992	 260.86794992
 415.00000000	 260.52503712	 260.52503712	 260.52503712	 260.52503712
 416.00000000	 260.34270467	 260.34270467	 260.34270467	 260.34270467
 417.00000000	 260.84718588	 260.84718588	 260.84718588	 260.84718588
 418.00000000	 260.45075342	 260.45075342	 260.45075342	 260.45075342
 419.00000000	 260.13934621	 260.13934621	 260.13934621	 260.13934621
 420.00000000	 259.90648801	 259.90648801	 259.90648801	 259.90648801
 421.00000000	 260.25053870	 260.25053870	 260.25053870	 260.25053870
 422.00000000	 260.06415290	 260.06415290	 260.06415290	 260.06415290
 423.00000000	 259.53195367	 259.53195367	 259.53195367	 259.53195367
 424.00000000	 259.27497379	 259.27497379	 259.27497379	 259.27497379
 425.00000000	 259.18223196	 259.18223196	 259.18223196	 259.18223196
 426.00000000	 259.10496285	 259.10496285	 259.10496285	 259.10496285
 427.00000000	 259.20081817	 259.20081817	 259.20081817	 259.20081817
 428.00000000	 258.79472476	 258.79472476	 258.79472476	 258.79472476
 429.00000000	 258.60574544	 258.60574544	 258.60574544	 258.60574544
 430.00000000	 258.55941373	 258.55941373	 258.55941373	 258.55941373
 431.00000000	 257.38582172	 257.38582172	 257.38582172	 257.38582172
 432.00000000	 257.11092893	 257.11092893	 257.11092893	 257.11092893
 433.00000000	 256.61624499	 256.61624499	 256.61624499	 256.61624499
 434.00000000	 256.43587779	 256.43587779	 256.43587779	 256.43587779
 435.00000000	 256.42404979	 256.42404979	 256.42404979	 256.42404979
 436.00000000	 256.15873550	 256.15873550	 256.15873550	 256.15873550
 437.00000000	 255.94769932	 255.94769932	 255.94769932	 255.94769932
 438.00000000	 255.82575305	 255.82575305	 255.82575305	 255.82575305
 439.00000000	 255.58612122	 255.58612122	 255.58612122	 255.58612122
 440.00000000	 255.21817558	 255.21817558	 255.21817558	 255.21817558
 441.00000000	 254.62801726	 254.62801726	 254.62801726	 254.62801726
 442.00000000	 254.52316879	 254.52316879	 254.52316879	 254.52316879
 443.00000000	 253.92913947	 253.92913947	 253.92913947	 253.92913947
 444.00000000	 253.31146158	 253.31146158	 253.31146158	 253.31146158
 445.00000000	 252.50133159	 252.50133159	 252.50133159	 252.50133159
 446.00000000	 252.35798496	 252.35798496	 252.35798496	 252.35798496
 447.00000000	 252.38935255	 252.38935255	 252.38935255	 252.38935255
 448.00000000	 251.96389249	 251.96389249	 251.96389249	 251.96389249
 449.00000000	 251.71109520	 251.71109520	 251.71109520	 251.71109520
 450.00000000	 251.34835662	 251.34835662	 251.34835662	 251.34835662
 451.00000000	 251.58151569	 251.58151569	 251.58151569	 251.58151569
 452.00000000	 251.03004537	 251.03004537	 251.03004537	 251.03004537
 453.00000000	 251.16616672	 251.16616672	 251.16616672	 251.16616672
 454.00000000	 251.33187009	 251.33187009	 251.33187009	 251.33187009
 455.00000000	 251.32829659	 251.32829659	 251.32829659	 251.32829659
 456.00000000	 251.00447290	 251.00447290	 251.00447290	 251.00447290
 457.00000000	 250.78164022	 250.78164022	 250.78164022	 250.78164022
 458.00000000	 250.52485643	 250.52485643	 250.52485643	 250.52485643
 459.00000000	 250.40411652	 250.40411652	 250.40411652	 250.40411652
 460.00000000	 250.14843180	 250.14843180	 250.14843180	 250.14843180
 461.00000000	 249.97915442	 249.97915442	 249.97915442	 249.97915442
 462.00000000	 249.76591798	 249.76591798	 249.76591798	 249.76591798
 463.00000000	 249.50207950	 249.50207950	 249.50207950	 249.50207950
 464.00000000	 249.07320857	 249.07320857	 249.07320857	 249.07320857
 465.00000000	 249.37418990	 249.37418990	 249.37418990	 249.37418990
 466.00000000	 249.36944200	 249.36944200	 249.36944200	 249.36944200
 467.00000000	 249.07209207	 249.07209207	 249.07209207	 249.07209207
 468.00000000	 248.93092433	 248.93092433	 248.93092433	 248.93092433
 469.00000000	 248.75231167	 248.75231167	 248.75231167	 248.75231167
 470.00000000	 249.04903846	 249.04903846	 249.04903846	 249.04903846
 471.00000000	 248.95081150	 248.95081150	 248.95081150	 248.95081150
 472.00000000	 248.80639693	 248.80639693	 248.80639693	 248.80639693
 473.00000000	 248.96831065	 248.96831065	 248.96831065	 248.96831065
 474.00000000	 248.90305888	 248.90305888	 248.90305888	 248.90305888
 475.00000000	 248.77242079	 248.77242079	 248.77242079	 248.77242079
 476.00000000	 248.60790466	 248.60790466	 248.60790466	 248.60790466
 477.00000000	 248.07019209	 248.07019209	 248.07019209	 248.07019209
 478.00000000	 248.26946176	 248.26946176	 248.26946176	 248.26946176
 479.00000000	 248.12474580	 248.12474580	 248.12474580	 248.12474580
 480.00000000	 247.73283555	 247.73283555	 247.73283555	 247.73283555
 481.00000000	 247.42259197	 247.42259197	 247.42259197	 247.42259197
 482.00000000	 247.16034847	 247.16034847	 247.16034847	 247.16034847
 483.00000000	 246.79017741	 246.79017741	 246.79017741	 246.79017741
 484.00000000	 246.72585586	 246.72585586	 246.72585586	 246.72585586
 485.00000000	 246.43851177	 246.43851177	 246.43851177	 246.43851177
 486.00000000	 246.62024071	 246.62024071	 246.62024071	 246.62024071
 487.00000000	 246.77388930	 246.77388930	 246.77388930	 246.77388930
 488.00000000	 246.30949146	 246.30949146	 246.30949146	 246.30949146
 489.00000000	 246.30302053	 246.30302053	 246.30302053	 246.30302053
 490.00000000	 246.23613687	 246.23613687	 246.23613687	 246.23613687
 491.00000000	 246.67306060	 246.67306060	 246.67306060	 246.67306060
 492.00000000	 246.75474150	 246.75474150	 246.75474150	 246.75474150
 493.00000000	 246.80879683	 246.80879683	 246.80879683	 246.80879683
 494.00000000	 246.41768822	 246.41768822	 246.41768822	 246.41768822
 495.00000000	 246.32496954	 246.32496954	 246.32496954	 246.32496954
 496.00000000	 245.88728956	 245.88728956	 245.88728956	 245.88728956
 497.00000000	 245.51926824	 245.51926824	 245.51926824	 245.51926824
 498.00000000	 245.28983111	 245.28983111	 245.28983111	 245.28983111
 499.00000000	 244.98938749	 244.98938749	 244.98938749	 244.98938749
 500.00000000	 244.40077807	 244.40077807	 244.40077807	 244.40077807
 501.00000000	 244.12556938	 244.12556938	 244.12556938	 244.12556938
 502.00000000	 243.79072306	 243.79072306	 243.79072306	 243.79072306
 503.00000000	 243.49428095	 243.49428095	 243.49428095	 243.49428095
 504.00000000	 243.14094211	 243.14094211	 243.14094211	 243.14094211
 505.00000000	 243.65966238	 243.65966238	 243.65966238	 243.65966238
 506.00000000	 243.88901203	 243.88901203	 243.88901203	 243.88901203
 507.00000000	 243.87877790	 243.87877790	 243.87877790	 243.87877790
 508.00000000	 243.36519519	 243.36519519	 243.36519519	 243.36519519
 509.00000000	 243.15521717	 243.15521717	 243.15521717	 243.15521717
 510.00000000	 242.85133555	 242.85133555	 242.85133555	 242.85133555
 511.00000000	 242.19146906	 242.19146906	 242.19146906	 242.19146906
 512.00000000	 241.35790621	 241.35790621	 241.35790621	 241.35790621
 513.00000000	 240.98159545	 240.98159545	 240.98159545	 240.98159545
 514.00000000	 240.24082351	 240.24082351	 240.24082351	 240.24082351
 515.00000000	 239.61947382	 239.61947382	 239.61947382	 239.61947382
 516.00000000	 238.98198806	 238.98198806	 238.98198806	 238.98198806
 517.00000000	 238.93392236	 238.93392236	 238.93392236	 238.93392236
 518.00000000	 238.42509922	 238.42509922	 238.42509922	 238.42509922
 519.00000000	 238.74276257	 238.74276257	 238.74276257	 238.74276257
 520.00000000	 238.73996556	 238.73996556	 238.73996556	 238.73996556
 521.00000000	 238.98857538	 238.98857538	 238.98857538	 238.98857538
 522.00000000	 239.76479110	 239.76479110	 239.76479110	 239.76479110
 523.00000000	 240.14363458	 240.14363458	 240.14363458	 240.14363458
 524.00000000	 240.33856174	 240.33856174	 240.33856174	 240.33856174
 525.00000000	 239.98996874	 239.98996874	 239.98996874	 239.98996874
 526.00000000	 239.41795637	 239.41795637	 239.41795637	 239.41795637
 527.00000000	 239.50521687	 239.50521687	 239.50521687	 239.50521687
 528.00000000	 238.88384672	 238.88384672	 238.88384672	 238.88384672
 529.00000000	 238.32314153	 238.32314153	 238.32314153	 238.32314153
 530.00000000	 238.71889124	 238.71889124	 238.71889124	 238.71889124
 531.00000000	 238.58075288	 238.58075288	 238.58075288	 238.58075288
 532.00000000	 238.11148252	 238.11148252	 238.11148252	 238.11148252
 533.00000000	 238.19366427	 238.19366427	 238.19366427	 238.19366427
 534.00000000	 238.57911063	 238.57911063	 238.57911063	 238.57911063
 535.00000000	 238.83474572	 238.83474572	 238.83474572	 238.83474572
 536.00000000	 238.91360789	 238.91360789	 238.91360789	 238.91360789
 537.00000000	 238.32407656	 238.32407656	 238.32407656	 238.32407656
 538.00000000	 237.78902579	 237.78902579	 237.78902579	 237.78902579
 539.00000000	 237.45949974	 237.45949974	 237.45949974	 237.45949974
