  2.00000000	  0.00000000	  0.00000000	  0.00000000	  0.00000000	  0.00000000	  0.00000000	  0.00000000	  0.00000000
  3.00000000	  0.00000000	  0.00000000	  0.00000000	  0.00000000	  0.00000000	  0.00000000	  0.00000000	  0.00000000
  4.00000000	  0.00000000	  0.00000000	  0.00000000	  0.00000000	  0.00000000	  0.00000000	  0.00000000	  0.00000000
  5.00000000	  0.00000000	  0.00000000	  0.00000000	  0.00000000	  0.00000000	  0.00000000	  0.00000000	  0.00000000
  6.00000000	  0.00000000	  0.00000000	  0.00000000	  0.00000000	  0.00000000	  0.00000000	  0.00000000	  0.00000000
  7.00000000	  0.00000000	  0.00000000	  0.00000000	  0.00000000	  0.00000000	  0.00000000	  0.00000000	  0.00000000
  8.00000000	  0.00000000	  0.00000000	  0.00000000	  0.00000000	  0.00000000	  0.00000000	  0.00000000	  0.00000000
  9.00000000	  0.00000000	  0.00000000	  0.00000000	  0.00000000	  0.00000000	  0.00000000	  0.00000000	  0.00000000
 10.00000000	  0.00000000	  0.00000000	  0.00000000	  0.00000000	  0.00000000	  0.00000000	  0.00000000	  0.00000000
 11.00000000	  0.00000000	  0.00000000	  0.00000000	  0.00000000	  0.00000000	  0.00000000	  0.00000000	  0.00000000
 12.00000000	  0.00000000	  0.00000000	  0.00000000	  0.00000000	  0.00000000	  0.00000000	  0.00000000	  0.00000000
 13.00000000	  0.00000000	  0.00000000	  0.00000000	  0.00000000	  0.00000000	  0.00000000	  0.00000000	  0.00000000
 14.00000000	  0.00000000	  0.00000000	  0.00000000	  0.00000000	  0.00000000	  0.00000000	  0.00000000	  0.00000000
 15.00000000	  0.00000000	  0.00000000	  0.00000000	  0.00000000	  0.00000000	  0.00000000	  0.00000000	  0.00000000
 16.00000000	  0.00000000	  0.00000000	  0.00000000	  0.00000000	  0.00000000	  0.00000000	  0.00000000	  0.00000000
 17.00000000	  0.00000000	  0.00000000	  0.00000000	  0.00000000	  0.00000000	  0.00000000	  0.00000000	  0.00000000
 18.00000000	  0.00000000	  0.00000000	  0.00000000	  0.00000000	  0.00000000	  0.00000000	  0.00000000	  0.00000000
 19.00000000	  0.00000000	  0.00000000	  0.00000000	  0.00000000	  0.00000000	  0.00000000	  0.00000000	  0.00000000
 20.00000000	  0.00000000	  0.00000000	  0.00000000	  0.00000000	  0.00000000	  0.00000000	  0.00000000	  0.00000000
 21.00000000	  0.00000000	  0.00000000	  0.00000000	  0.00000000	  0.00000000	  0.00000000	  0.00000000	  0.00000000
 22.00000000	  0.00000000	  0.00000000	  0.00000000	  0.00000000	  0.00000000	  0.00000000	  0.00000000	  0.00000000
 23.00000000	  0.00000000	  0.00000000	  0.00000000	  0.00000000	  0.00000000	  0.00000000	  0.00000000	  0.00000000
 24.00000000	  0.00000000	  0.00000000	  0.00000000	  0.00000000	  0.00000000	  0.00000000	  0.00000000	  0.00000000
 25.00000000	  0.00000000	  0.00000000	  0.00000000	  0.00000000	  0.00000000	  0.00000000	  0.00000000	  0.00000000
 26.00000000	  0.00000000	  0.00000000	  0.00000000	  0.00000000	  0.00000000	  0.00000000	  0.00000000	  0.00000000
 27.00000000	  0.00000000	  0.00000000	  0.00000000	  0.00000000	  0.00000000	  0.00000000	  0.00000000	  0.00000000
 28.00000000	  0.00000000	  0.00000000	  0.00000000	  0.00000000	  0.00000000	  0.00000000	  0.00000000	  0.00000000
 29.00000000	  0.00000000	  0.00000000	  0.00000000	  0.00000000	  0.00000000	  0.00000000	  0.00000000	  0.00000000
 30.00000000	  0.00000000	  0.00000000	  0.00000000	  0.00000000	  0.00000000	  0.00000000	  0.00000000	  0.00000000
 31.00000000	  0.00000000	  0.00000000	  0.00000000	  0.00000000	  0.00000000	  0.00000000	  0.00000000	  0.00000000
 32.00000000	  0.00000000	  0.00000000	  0.00000000	  0.00000000	  0.00000000	  0.00000000	  0.00000000	  0.00000000
 33.00000000	  0.00000000	  0.00000000	  0.00000000	  0.00000000	  0.00000000	  0.00000000	  0.00000000	  0.00000000
 34.00000000	  0.00000000	  0.00000000	  0.00000000	  0.00000000	  0.00000000	  0.00000000	  0.00000000	  0.00000000
 35.00000000	  0.00000000	  0.00000000	  0.00000000	  0.00000000	  0.00000000	  0.00000000	  0.00000000	  0.00000000
 36.00000000	  0.00000000	  0.00000000	  0.00000000	  0.00000000	  0.00000000	  0.00000000	  0.00000000	  0.00000000
 37.00000000	  0.00000000	  0.00000000	  0.00000000	  0.00000000	  0.00000000	  0.00000000	  0.00000000	  0.00000000
 38.00000000	  0.00000000	  0.00000000	  0.00000000	  0.00000000	  0.00000000	  0.00000000	  0.00000000	  0.00000000
 39.00000000	  0.00000000	  0.00000000	  0.00000000	  0.00000000	  0.00000000	  0.00000000	  0.00000000	  0.00000000
 40.00000000	  0.00000000	  0.00000000	  0.00000000	  0.00000000	  0.00000000	  0.00000000	  0.00000000	  0.00000000
 41.00000000	  0.00000000	  0.00000000	  0.00000000	  0.00000000	  0.00000000	  0.00000000	  0.00000000	  0.00000000
 42.00000000	  0.00000000	  0.00000000	  0.00000000	  0.00000000	  0.00000000	  0.00000000	  0.00000000	  0.00000000
 43.00000000	  0.00000000	  0.00000000	  0.00000000	  0.00000000	  0.00000000	  0.00000000	  0.00000000	  0.00000000
 44.00000000	  0.00000000	  0.00000000	  0.00000000	  0.00000000	  0.00000000	  0.00000000	  0.00000000	  0.00000000
 45.00000000	  0.00000000	  0.00000000	  0.00000000	  0.00000000	  0.00000000	  0.00000000	  0.00000000	  0.00000000
 46.00000000	  0.00000000	  0.00000000	  0.00000000	  0.00000000	  0.00000000	  0.00000000	  0.00000000	  0.00000000
 47.00000000	  0.00000000	  0.00000000	  0.00000000	  0.00000000	  0.00000000	  0.00000000	  0.00000000	  0.00000000
 48.00000000	  0.00000000	  0.00000000	  0.00000000	  0.00000000	  0.00000000	  0.00000000	  0.00000000	  0.00000000
 49.00000000	  0.00000000	  0.00000000	  0.00000000	  0.00000000	  0.00000000	  0.00000000	  0.00000000	  0.00000000
 50.00000000	  0.00000000	  0.00000000	  0.00000000	  0.00000000	  0.00000000	  0.00000000	  0.00000000	  0.00000000
 51.00000000	  0.00000000	  0.00000000	  0.00000000	  0.00000000	  0.00000000	  0.00000000	  0.00000000	  0.00000000
 52.00000000	  0.00000000	  0.00000000	  0.00000000	  0.00000000	  0.00000000	  0.00000000	  0.00000000	  0.00000000
 53.00000000	  0.00000000	  0.00000000	  0.00000000	  0.00000000	  0.00000000	  0.00000000	  0.00000000	  0.00000000
 54.00000000	  0.00000000	  0.00000000	  0.00000000	  0.00000000	  0.00000000	  0.00000000	  0.00000000	  0.00000000
 55.00000000	  0.00000000	  0.00000000	  0.00000000	  0.00000000	  0.00000000	  0.00000000	  0.00000000	  0.00000000
 56.00000000	  0.00000000	  0.00000000	  0.00000000	  0.00000000	  0.00000000	  0.00000000	  0.00000000	  0.00000000
 57.00000000	  0.00000000	  0.00000000	  0.00000000	  0.00000000	  0.00000000	  0.00000000	  0.00000000	  0.00000000
 58.00000000	  0.00000000	  0.00000000	  0.00000000	  0.00000000	  0.00000000	  0.00000000	  0.00000000	  0.00000000
 59.00000000	  0.00000000	  0.00000000	  0.00000000	  0.00000000	  0.00000000	  0.00000000	  0.00000000	  0.00000000
 60.00000000	  0.00000000	  0.00000000	  0.00000000	  0.00000000	  0.00000000	  0.00000000	  0.00000000	  0.00000000
 61.00000000	  0.00000000	  0.00000000	  0.00000000	  0.00000000	  0.00000000	  0.00000000	  0.00000000	  0.00000000
 62.00000000	  0.00000000	  0.00000000	  0.00000000	  0.00000000	  0.00000000	  0.00000000	  0.00000000	  0.00000000
 63.00000000	  0.00000000	  0.00000000	  0.00000000	  0.00000000	  0.00000000	  0.00000000	  0.00000000	  0.00000000
 64.00000000	  0.00000000	  0.00000000	  0.00000000	  0.00000000	  0.00000000	  0.00000000	  0.00000000	  0.00000000
 65.00000000	  0.00000000	  0.00000000	  0.00000000	  0.00000000	  0.00000000	  0.00000000	  0.00000000	  0.00000000
 66.00000000	  0.00000000	  0.00000000	  0.00000000	  0.00000000	  0.00000000	  0.00000000	  0.00000000	  0.00000000
 67.00000000	  0.00000000	  0.00000000	  0.00000000	  0.00000000	  0.00000000	  0.00000000	  0.00000000	  0.00000000
 68.00000000	  0.00000000	  0.00000000	  0.00000000	  0.00000000	  0.00000000	  0.00000000	  0.00000000	  0.00000000
 69.00000000	  0.00000000	  0.00000000	  0.00000000	  0.00000000	  0.00000000	  0.00000000	  0.00000000	  0.00000000
 70.00000000	  0.00000000	  0.00000000	  0.00000000	  0.00000000	  0.00000000	  0.00000000	  0.00000000	  0.00000000
 71.00000000	  0.00000000	  0.00000000	  0.00000000	  0.00000000	  0.00000000	  0.00000000	  0.00000000	  0.00000000
 72.00000000	  0.00000000	  0.00000000	  0.00000000	  0.00000000	  0.00000000	  0.00000000	  0.00000000	  0.00000000
 73.00000000	  0.00000000	  0.00000000	  0.00000000	  0.00000000	  0.00000000	  0.00000000	  0.00000000	  0.00000000
 74.00000000	  0.00000000	  0.00000000	  0.00000000	  0.00000000	  0.00000000	  0.00000000	  0.00000000	  0.00000000
 75.00000000	  0.00000000	  0.00000000	  0.00000000	  0.00000000	  0.00000000	  0.00000000	  0.00000000	  0.00000000
 76.00000000	  0.00000000	  0.00000000	  0.00000000	  0.00000000	  0.00000000	  0.00000000	  0.00000000	  0.00000000
 77.00000000	  0.00000000	  0.00000000	  0.00000000	  0.00000000	  0.00000000	  0.00000000	  0.00000000	  0.00000000
 78.00000000	  0.00000000	  0.00000000	  0.00000000	  0.00000000	  0.00000000	  0.00000000	  0.00000000	  0.00000000
 79.00000000	  0.00000000	  0.00000000	  0.00000000	  0.00000000	  0.00000000	  0.00000000	  0.00000000	  0.00000000
 80.00000000	  0.00000000	  0.00000000	  0.00000000	  0.00000000	  0.00000000	  0.00000000	  0.00000000	  0.00000000
 81.00000000	  0.00000000	  0.00000000	  0.00000000	  0.00000000	  0.00000000	  0.00000000	  0.00000000	  0.00000000
 82.00000000	  0.00000000	  0.00000000	  0.00000000	  0.00000000	  0.00000000	  0.00000000	  0.00000000	  0.00000000
 83.00000000	  0.00000000	  0.00000000	  0.00000000	  0.00000000	  0.00000000	  0.00000000	  0.00000000	  0.00000000
 84.00000000	  0.00000000	  0.00000000	  0.00000000	  0.00000000	  0.00000000	  0.00000000	  0.00000000	  0.00000000
 85.00000000	  0.00000000	  0.00000000	  0.00000000	  0.00000000	  0.00000000	  0.00000000	  0.00000000	  0.00000000
 86.00000000	  0.00000000	  0.00000000	  0.00000000	  0.00000000	  0.00000000	  0.00000000	  0.00000000	  0.00000000
 87.00000000	  0.00000000	  0.00000000	  0.00000000	  0.00000000	  0.00000000	  0.00000000	  0.00000000	  0.00000000
 88.00000000	  0.00000000	  0.00000000	  0.00000000	  0.00000000	  0.00000000	  0.00000000	  0.00000000	  0.00000000
 89.00000000	  0.00000000	  0.00000000	  0.00000000	  0.00000000	  0.00000000	  0.00000000	  0.00000000	  0.00000000
 90.00000000	  0.00000000	  0.00000000	  0.00000000	  0.00000000	  0.00000000	  0.00000000	  0.00000000	  0.00000000
 91.00000000	  0.00000000	  0.00000000	  0.00000000	  0.00000000	  0.00000000	  0.00000000	  0.00000000	  0.00000000
 92.00000000	  0.00000000	  0.00000000	  0.00000000	  0.00000000	  0.00000000	  0.00000000	  0.00000000	  0.00000000
 93.00000000	  0.00000000	  0.00000000	  0.00000000	  0.00000000	  0.00000000	  0.00000000	  0.00000000	  0.00000000
 94.00000000	  0.00000000	  0.00000000	  0.00000000	  0.00000000	  0.00000000	  0.00000000	  0.00000000	  0.00000000
 95.00000000	  0.00000000	  0.00000000	  0.00000000	  0.00000000	  0.00000000	  0.00000000	  0.00000000	  0.00000000
 96.00000000	  0.00000000	  0.00000000	  0.00000000	  0.00000000	  0.00000000	  0.00000000	  0.00000000	  0.00000000
 97.00000000	  0.00000000	  0.00000000	  0.00000000	  0.00000000	  0.00000000	  0.00000000	  0.00000000	  0.00000000
 98.00000000	  0.00000000	  0.00000000	  0.00000000	  0.00000000	  0.00000000	  0.00000000	  0.00000000	  0.00000000
 99.00000000	  0.00000000	  0.00000000	  0.00000000	  0.00000000	  0.00000000	  0.00000000	  0.00000000	  0.00000000
100.00000000	  0.00000000	  0.00000000	  0.00000000	  0.00000000	  0.00000000	  0.00000000	  0.00000000	  0.00000000
101.00000000	  0.00000000	  0.00000000	  0.00000000	  0.00000000	  0.00000000	  0.00344828	  0.00000000	  0.00000000
102.00000000	  0.00000000	  0.00000000	  0.00000000	  0.00000000	  0.00000000	 -0.00344828	  0.00000000	  0.00000000
103.00000000	  0.00000000	  0.00000000	  0.00000000	  0.00000000	  0.00000000	  0.00344828	  0.00000000	  0.00000000
104.00000000	  0.00000000	  0.00000000	  0.00000000	  0.00000000	  0.00000000	 -0.00344828	  0.00000000	  0.00000000
105.00000000	  0.00000000	  0.00000000	  0.00000000	  0.00000000	  0.00000000	  0.00000000	  0.00000000	  0.00000000
106.00000000	  0.00000000	  0.00000000	  0.00000000	  0.00000000	  0.00000000	  0.00000000	  0.00000000	  0.00000000
107.00000000	  0.00000000	  0.00000000	  0.00000000	  0.00000000	  0.00000000	  0.00000000	  0.00000000	  0.00000000
108.00000000	  0.00000000	  0.00000000	  0.00000000	  0.00000000	  0.00000000	  0.00000000	  0.00000000	  0.00000000
109.00000000	  0.00000000	  0.00000000	  0.00000000	  0.00000000	  0.00000000	  0.00000000	  0.00000000	  0.00000000
110.00000000	  0.00000000	  0.00000000	  0.00000000	  0.00000000	 -0.00344828	  0.00344828	  0.00000000	  0.00000000
111.00000000	  0.00000000	  0.00000000	  0.00000000	  0.00000000	  0.00344828	  0.00000000	  0.00000000	 -0.00344828
112.00000000	  0.00000000	  0.00000000	  0.00000000	  0.00000000	  0.00000000	  0.00000000	  0.00000000	  0.00000000
113.00000000	  0.00000000	  0.00000000	  0.00000000	  0.00000000	  0.00000000	 -0.00344828	  0.00000000	  0.00344828
114.00000000	  0.00000000	  0.00000000	  0.00000000	  0.00000000	  0.00000000	  0.00344828	  0.00000000	  0.00000000
115.00000000	  0.00000000	  0.00000000	  0.00000000	  0.00000000	  0.00000000	 -0.00344828	  0.00000000	  0.00000000
116.00000000	  0.00000000	  0.00000000	  0.00000000	  0.00000000	  0.00000000	  0.00000000	  0.00000000	  0.00000000
117.00000000	  0.00000000	  0.00000000	  0.00000000	  0.00000000	  0.00000000	  0.00000000	 -0.00344828	  0.00000000
118.00000000	  0.00000000	  0.00000000	  0.00000000	  0.00000000	  0.00000000	  0.00000000	  0.00344828	  0.00000000
119.00000000	  0.00000000	  0.00000000	  0.00000000	  0.00000000	  0.00000000	  0.00000000	  0.00000000	  0.00000000
120.00000000	  0.00000000	  0.00000000	  0.00000000	  0.00000000	  0.00000000	  0.00000000	  0.00000000	  0.00000000
121.00000000	  0.00000000	  0.00000000	  0.00000000	  0.00000000	  0.00000000	  0.00000000	  0.00000000	  0.00000000
122.00000000	  0.00000000	  0.00000000	  0.00000000	  0.00000000	  0.00000000	  0.00000000	  0.00000000	  0.00000000
123.00000000	  0.00000000	  0.00000000	  0.00000000	  0.00000000	  0.00000000	  0.00000000	  0.00000000	  0.00000000
124.00000000	  0.00000000	  0.00000000	  0.00000000	  0.00000000	  0.00000000	  0.00344828	  0.00000000	  0.00000000
125.00000000	  0.00000000	  0.00000000	  0.00000000	  0.00000000	  0.00000000	  0.00000000	  0.00000000	  0.00000000
126.00000000	  0.00000000	  0.00000000	  0.00000000	  0.00000000	  0.00000000	  0.00000000	  0.00000000	  0.00000000
127.00000000	  0.00000000	  0.00000000	  0.00000000	  0.00000000	  0.00000000	  0.00000000	  0.00000000	  0.00000000
128.00000000	  0.00344828	  0.00000000	  0.00000000	  0.00000000	  0.00000000	  0.00000000	  0.00344828	 -0.00344828
129.00000000	  0.00000000	  0.00000000	  0.00000000	  0.00000000	  0.00000000	  0.00000000	 -0.00344828	  0.00344828
130.00000000	 -0.00344828	  0.00344828	  0.00000000	  0.00000000	  0.00000000	 -0.00344828	 -0.00344828	  0.00344828
131.00000000	  0.00000000	  0.00000000	  0.00000000	  0.00000000	  0.00000000	  0.00000000	  0.00344828	  0.00000000
132.00000000	  0.00000000	  0.00000000	  0.00000000	  0.00000000	  0.00000000	  0.00344828	  0.00000000	 -0.00344828
133.00000000	  0.00344828	  0.00000000	  0.00000000	  0.00000000	  0.00000000	  0.00000000	  0.00000000	  0.00000000
134.00000000	  0.00000000	  0.00000000	  0.00000000	  0.00000000	  0.00000000	  0.00000000	  0.00000000	  0.00000000
135.00000000	  0.00000000	  0.00000000	  0.00000000	  0.00000000	  0.00000000	  0.00000000	  0.00000000	  0.00000000
136.00000000	  0.00000000	  0.00344828	  0.00000000	  0.00000000	 -0.00344828	  0.00000000	  0.00000000	  0.00000000
137.00000000	  0.00000000	  0.00000000	  0.00000000	  0.00000000	  0.00000000	  0.00000000	  0.00000000	  0.00000000
138.00000000	  0.00000000	  0.00000000	  0.00344828	  0.00000000	 -0.00344828	 -0.00344828	  0.00000000	  0.00000000
139.00000000	  0.00000000	  0.00000000	  0.00000000	  0.00000000	  0.00000000	  0.00000000	  0.00000000	  0.00000000
140.00000000	  0.00000000	  0.00000000	  0.00000000	 -0.00338534	  0.00344828	  0.00000000	  0.00000000	  0.00000000
141.00000000	  0.00000000	  0.00000000	 -0.00344828	  0.00000000	  0.00000000	 -0.00344828	  0.00000000	  0.00000000
142.00000000	  0.00000000	  0.00000000	  0.00000000	  0.00000000	  0.00000000	  0.00344828	  0.00344828	  0.00000000
143.00000000	  0.00000000	  0.00000000	  0.00000000	  0.00000000	  0.00000000	 -0.00344828	 -0.00344828	  0.00000000
144.00000000	  0.00000000	  0.00000000	  0.00000000	  0.00000000	  0.00000000	  0.00344828	  0.00000000	  0.00000000
145.00000000	  0.00000000	  0.00000000	  0.00000000	  0.00000000	  0.00000000	  0.00000000	  0.00000000	  0.00000000
146.00000000	  0.00000000	  0.00344828	  0.00000000	  0.00000000	  0.00000000	  0.00000000	  0.00000000	  0.00344828
147.00000000	  0.00000000	  0.00000000	  0.00000000	  0.00000000	  0.00000000	  0.00000000	  0.00000000	  0.00000000
148.00000000	  0.00000000	  0.00000000	  0.00000000	  0.00000000	  0.00000000	 -0.00344828	  0.00000000	  0.00000000
149.00000000	 -0.00344828	  0.00000000	  0.00000000	  0.00000000	  0.00000000	  0.00344828	 -0.00344828	  0.00000000
150.00000000	  0.00000000	  0.00000000	  0.00000000	  0.00000000	  0.00000000	 -0.00344828	  0.00000000	  0.00000000
151.00000000	  0.00000000	  0.00000000	  0.00000000	  0.00000000	  0.00000000	  0.00344828	  0.00000000	  0.00000000
152.00000000	  0.00000000	  0.00000000	  0.00000000	  0.00000000	  0.00000000	 -0.00344828	  0.00000000	  0.00000000
153.00000000	  0.00000000	  0.00000000	  0.00000000	  0.00000000	  0.00000000	  0.00344828	  0.00000000	  0.00000000
154.00000000	  0.00000000	  0.00000000	  0.00000000	  0.00000000	  0.00000000	 -0.00344828	  0.00000000	  0.00000000
155.00000000	  0.00000000	 -0.00344828	 -0.00344828	 -0.00338534	  0.00344828	 -0.00344828	  0.00000000	 -0.00344828
156.00000000	  0.00344828	  0.00344828	  0.00000000	 -0.00338534	  0.00000000	  0.00000000	  0.00000000	  0.00000000
157.00000000	  0.00344828	  0.00000000	  0.00000000	 -0.00338534	 -0.00344828	  0.00344828	  0.00000000	  0.00000000
158.00000000	  0.01034483	  0.00344828	  0.00000000	  0.00000000	  0.00000000	  0.00344828	  0.00000000	  0.00000000
159.00000000	  0.01724138	  0.01034483	  0.00000000	 -0.00338534	  0.00000000	  0.01034483	  0.00344828	  0.00344828
160.00000000	  0.01034483	  0.00344828	  0.00000000	 -0.01015601	 -0.00344828	  0.00000000	 -0.00344828	 -0.00344828
161.00000000	  0.01724138	  0.01034483	  0.00344828	 -0.01015601	  0.00000000	  0.00344828	  0.00344828	  0.00344828
162.00000000	  0.01034483	  0.01034483	  0.00344828	 -0.00338534	 -0.00344828	  0.01034483	  0.00000000	 -0.00344828
163.00000000	  0.01034483	  0.00344828	 -0.00344828	 -0.00338534	  0.00000000	  0.01034483	  0.00000000	  0.00344828
164.00000000	  0.00344828	  0.01034483	  0.00344828	 -0.01015601	 -0.00344828	  0.00000000	 -0.00344828	  0.00344828
165.00000000	 -0.00344828	  0.00344828	  0.00000000	  0.00000000	  0.00000000	  0.01034483	 -0.00344828	 -0.00344828
166.00000000	 -0.00344828	  0.01034483	  0.00344828	 -0.00338534	 -0.00344828	  0.00344828	  0.00344828	  0.00000000
167.00000000	 -0.01034483	  0.01724138	  0.00000000	 -0.00338534	 -0.00344828	  0.00000000	  0.00000000	  0.00000000
168.00000000	 -0.01034483	  0.02413793	  0.00000000	  0.00000000	  0.00000000	  0.00000000	 -0.00344828	  0.00000000
169.00000000	 -0.00344828	  0.03103448	  0.00000000	  0.01015601	  0.00000000	  0.00000000	  0.00344828	  0.00344828
170.00000000	 -0.01034483	  0.03793103	  0.00000000	  0.01015601	 -0.00344828	 -0.00344828	 -0.00344828	  0.00000000
171.00000000	 -0.00344828	  0.03793103	  0.00000000	  0.00338534	  0.00000000	 -0.01034483	  0.00000000	 -0.00344828
172.00000000	 -0.00344828	  0.05172414	  0.00344828	  0.00338534	  0.00000000	 -0.01034483	  0.00000000	  0.00344828
173.00000000	  0.00344828	  0.05172414	  0.00000000	  0.00338534	  0.00000000	 -0.01034483	 -0.00344828	  0.00000000
174.00000000	  0.01034483	  0.05862069	  0.00344828	 -0.00338534	 -0.00344828	 -0.00344828	  0.00000000	  0.00000000
175.00000000	  0.01724138	  0.06551724	  0.00000000	  0.00000000	 -0.00344828	 -0.00344828	  0.00344828	  0.00000000
176.00000000	  0.02413793	  0.07241379	  0.00344828	  0.00000000	 -0.00344828	 -0.00344828	  0.00000000	  0.00344828
177.00000000	  0.03793103	  0.07241379	  0.00344828	  0.00000000	 -0.00344828	  0.00000000	 -0.00344828	 -0.00344828
178.00000000	  0.04482759	  0.07931034	  0.00344828	  0.00000000	  0.00000000	 -0.00344828	  0.00000000	  0.00000000
179.00000000	  0.05172414	  0.07241379	  0.00344828	 -0.00338534	 -0.01034483	 -0.01034483	 -0.00344828	  0.00000000
180.00000000	  0.05862069	  0.07931034	  0.00344828	  0.00000000	  0.00344828	  0.00000000	 -0.00344828	  0.00000000
181.00000000	  0.07241379	  0.07931034	  0.00000000	  0.00338534	 -0.00344828	  0.00000000	  0.00000000	  0.00000000
182.00000000	  0.07931034	  0.07931034	  0.00344828	  0.00000000	 -0.01034483	 -0.00344828	  0.00344828	  0.00000000
183.00000000	  0.08620690	  0.07241379	  0.01034483	  0.00338534	  0.00000000	 -0.00344828	  0.00000000	  0.00000000
184.00000000	  0.07931034	  0.07241379	  0.00344828	  0.01015601	 -0.00344828	  0.00000000	 -0.01034483	 -0.00344828
185.00000000	  0.09310345	  0.06551724	  0.00344828	  0.01015601	 -0.01034483	  0.00000000	  0.00344828	  0.00000000
186.00000000	  0.08620690	  0.05862069	  0.00344828	  0.00000000	  0.00000000	 -0.01724138	 -0.00344828	  0.00000000
187.00000000	  0.08620690	  0.05862069	  0.00000000	  0.00338534	 -0.00344828	 -0.01034483	  0.00000000	  0.00344828
188.00000000	  0.09310345	  0.06551724	  0.00344828	  0.01015601	  0.00000000	  0.00344828	  0.00344828	  0.00344828
189.00000000	  0.09310345	  0.05172414	  0.00344828	  0.00338534	 -0.01034483	  0.00000000	  0.00000000	  0.00000000
190.00000000	  0.10000000	  0.05172414	  0.00000000	  0.00000000	  0.00000000	 -0.00344828	  0.00000000	  0.00000000
191.00000000	  0.09310345	  0.04482759	  0.00000000	 -0.00338534	  0.00000000	 -0.00344828	  0.00344828	 -0.00344828
192.00000000	  0.08620690	  0.04482759	 -0.00344828	 -0.00338534	 -0.00344828	 -0.01034483	  0.00000000	  0.00000000
193.00000000	  0.10000000	  0.03793103	  0.00000000	  0.00338534	  0.01034483	 -0.00344828	  0.00000000	 -0.00344828
194.00000000	  0.10000000	  0.03793103	 -0.00344828	 -0.00338534	  0.00000000	  0.00000000	  0.00000000	  0.00344828
195.00000000	  0.09310345	  0.03103448	  0.00000000	 -0.00338534	 -0.00344828	  0.00344828	  0.00000000	  0.00000000
196.00000000	  0.10000000	  0.03103448	  0.00000000	  0.00000000	  0.00000000	  0.01034483	  0.00000000	  0.00344828
197.00000000	  0.10000000	  0.02413793	 -0.00344828	  0.00338534	  0.00000000	  0.00000000	 -0.00344828	  0.00000000
198.00000000	  0.10000000	  0.01724138	 -0.00344828	 -0.00338534	  0.00000000	  0.00000000	  0.00344828	  0.00344828
199.00000000	  0.10000000	  0.01724138	 -0.00344828	  0.00338534	 -0.00344828	  0.00000000	  0.00000000	  0.00000000
200.00000000	  0.10000000	  0.01034483	 -0.00344828	 -0.00338534	  0.00000000	 -0.01034483	  0.00000000	  0.00000000
201.00000000	  0.10000000	  0.01034483	  0.00344828	  0.00000000	 -0.00344828	  0.00344828	  0.00000000	  0.00344828
202.00000000	  0.10000000	  0.00000000	 -0.00344828	 -0.01015601	  0.00000000	  0.00344828	  0.00000000	 -0.00344828
203.00000000	  0.10000000	 -0.00344828	 -0.00344828	 -0.00338534	 -0.00344828	  0.01724138	  0.00000000	 -0.00344828
204.00000000	  0.10000000	  0.00000000	  0.00000000	  0.00000000	  0.00000000	  0.01724138	  0.00000000	  0.00000000
205.00000000	  0.10000000	  0.00000000	 -0.00344828	  0.00338534	  0.00344828	 -0.01034483	  0.00000000	  0.00344828
206.00000000	  0.10000000	  0.00000000	  0.00344828	 -0.00338534	 -0.01724138	 -0.01034483	 -0.00344828	  0.00344828
207.00000000	  0.10000000	 -0.00344828	  0.00344828	  0.00338534	  0.00000000	 -0.02413793	 -0.00344828	 -0.00344828
208.00000000	  0.10000000	 -0.01034483	 -0.01034483	  0.00338534	 -0.00344828	 -0.01724138	  0.00344828	  0.00000000
209.00000000	  0.10000000	 -0.01724138	  0.00000000	  0.00338534	  0.00344828	 -0.02413793	 -0.00344828	 -0.00344828
210.00000000	  0.10000000	 -0.01034483	  0.00000000	 -0.00338534	  0.01034483	 -0.02413793	  0.00344828	  0.00000000
211.00000000	  0.10000000	 -0.01724138	 -0.00344828	  0.00338534	  0.00344828	  0.00344828	  0.00000000	  0.00000000
212.00000000	  0.10000000	 -0.02413793	 -0.01724138	  0.01015601	  0.01034483	 -0.02413793	 -0.01034483	  0.00344828
213.00000000	  0.10000000	 -0.03103448	  0.00000000	  0.00000000	  0.00000000	  0.00000000	 -0.00344828	 -0.00344828
214.00000000	  0.10000000	 -0.02413793	  0.00000000	  0.00000000	 -0.00344828	 -0.01034483	  0.01034483	  0.00000000
215.00000000	  0.10000000	 -0.03793103	 -0.00344828	  0.00000000	  0.02413793	 -0.00344828	  0.00000000	  0.00000000
216.00000000	  0.10000000	 -0.03103448	 -0.00344828	 -0.01015601	 -0.01724138	  0.01034483	  0.00344828	 -0.00344828
217.00000000	  0.10000000	 -0.03793103	 -0.01034483	 -0.00338534	 -0.02413793	  0.03793103	  0.00000000	  0.01034483
218.00000000	  0.10000000	 -0.03103448	  0.00000000	  0.00338534	 -0.00344828	  0.04482759	  0.01034483	  0.00000000
219.00000000	  0.08620690	 -0.03793103	 -0.00344828	  0.00000000	 -0.01034483	  0.06551724	 -0.01034483	 -0.01034483
220.00000000	  0.08620690	 -0.03793103	 -0.00344828	  0.00338534	 -0.01034483	  0.01034483	  0.01724138	 -0.01034483
221.00000000	  0.04482759	 -0.02413793	  0.00000000	  0.01692668	 -0.00344828	  0.01724138	  0.00344828	  0.00344828
222.00000000	  0.03793103	 -0.02413793	 -0.00344828	  0.01015601	  0.00000000	  0.00000000	 -0.00344828	  0.00000000
223.00000000	  0.03103448	 -0.03103448	 -0.00344828	  0.01015601	  0.00000000	 -0.00344828	  0.00000000	 -0.00344828
224.00000000	  0.02413793	 -0.02413793	 -0.00344828	  0.01015601	 -0.00344828	 -0.00344828	  0.00000000	  0.00000000
225.00000000	  0.02413793	 -0.02413793	  0.00000000	  0.01015601	  0.00000000	 -0.00344828	  0.00000000	  0.00000000
226.00000000	  0.01724138	 -0.02413793	  0.00000000	  0.00338534	  0.00344828	 -0.01034483	 -0.00344828	  0.01034483
227.00000000	  0.01724138	 -0.03103448	  0.00000000	  0.00000000	  0.00000000	 -0.01034483	  0.00000000	  0.00000000
228.00000000	  0.01724138	 -0.03103448	 -0.00344828	  0.00000000	  0.00344828	 -0.00344828	  0.01724138	 -0.00344828
229.00000000	  0.01034483	 -0.03793103	  0.00000000	 -0.00338534	  0.00000000	 -0.00344828	 -0.00344828	  0.00000000
230.00000000	  0.01034483	 -0.03793103	 -0.00344828	  0.00338534	  0.00000000	  0.00000000	  0.00000000	  0.00000000
231.00000000	 -0.00344828	 -0.04482759	  0.00000000	  0.00000000	 -0.00344828	  0.00000000	  0.00000000	 -0.01034483
232.00000000	  0.00344828	 -0.03793103	  0.00000000	  0.00000000	 -0.01034483	  0.00000000	  0.00000000	  0.00000000
233.00000000	  0.00000000	 -0.04482759	  0.00000000	  0.00338534	  0.00344828	 -0.00344828	  0.00000000	  0.00000000
234.00000000	  0.00344828	 -0.04482759	 -0.00344828	  0.00000000	  0.00000000	  0.00344828	  0.00344828	  0.00000000
235.00000000	  0.00344828	 -0.05172414	  0.00344828	 -0.01015601	  0.01034483	  0.00000000	 -0.00344828	  0.01034483
236.00000000	  0.00344828	 -0.05862069	  0.00000000	 -0.01692668	  0.00000000	 -0.00344828	  0.00000000	  0.00000000
237.00000000	  0.01724138	 -0.05172414	  0.00000000	 -0.00338534	  0.01034483	  0.00344828	  0.00000000	  0.00000000
238.00000000	  0.01034483	 -0.04482759	 -0.01034483	 -0.01692668	  0.00344828	  0.00000000	  0.00000000	  0.00000000
239.00000000	  0.00344828	 -0.03793103	  0.00000000	 -0.00338534	  0.00000000	  0.02413793	 -0.00344828	  0.00000000
240.00000000	  0.01034483	 -0.03793103	 -0.00344828	  0.00000000	  0.01724138	  0.01034483	  0.01034483	  0.00344828
241.00000000	  0.01724138	 -0.03793103	  0.00000000	  0.00000000	  0.00344828	  0.00344828	  0.00000000	  0.00344828
242.00000000	  0.01724138	 -0.03793103	  0.00000000	  0.00000000	 -0.00344828	  0.01034483	  0.00344828	  0.00000000
243.00000000	  0.01724138	 -0.03793103	  0.00000000	 -0.00338534	 -0.01034483	 -0.00344828	  0.00000000	 -0.00344828
244.00000000	  0.01034483	 -0.03793103	 -0.01034483	 -0.01015601	  0.00000000	  0.00000000	 -0.00344828	 -0.01034483
245.00000000	  0.01034483	 -0.03793103	  0.00000000	 -0.01015601	  0.00000000	  0.01034483	 -0.01034483	 -0.00344828
246.00000000	  0.00344828	 -0.03793103	  0.00000000	  0.00000000	  0.00344828	  0.01724138	  0.00344828	  0.00000000
247.00000000	  0.01724138	 -0.03793103	 -0.00344828	  0.00000000	 -0.01034483	  0.00344828	  0.00000000	 -0.00344828
248.00000000	  0.01034483	 -0.03103448	 -0.00344828	 -0.00338534	  0.00344828	  0.00344828	  0.01724138	  0.01034483
249.00000000	  0.01034483	 -0.03793103	 -0.00344828	 -0.00338534	 -0.00344828	  0.00344828	  0.00344828	 -0.00344828
250.00000000	  0.00344828	 -0.03103448	  0.00344828	 -0.00338534	  0.00000000	  0.00344828	 -0.01034483	 -0.00344828
251.00000000	  0.00344828	 -0.03103448	  0.00000000	 -0.00338534	  0.00000000	  0.00000000	 -0.01034483	  0.00000000
252.00000000	  0.00344828	 -0.03103448	  0.00000000	  0.00000000	  0.00000000	  0.00000000	  0.00344828	  0.00000000
253.00000000	  0.00000000	 -0.02413793	  0.00344828	  0.00338534	  0.00000000	  0.00000000	  0.00000000	  0.00000000
254.00000000	  0.00000000	 -0.03103448	 -0.00344828	 -0.00338534	  0.00000000	  0.00000000	  0.01034483	  0.00344828
255.00000000	  0.00000000	 -0.02413793	  0.00000000	 -0.00338534	 -0.00344828	  0.00344828	  0.00000000	  0.00000000
256.00000000	  0.00344828	 -0.03103448	 -0.00344828	 -0.00338534	 -0.00344828	  0.00344828	  0.01034483	  0.00000000
257.00000000	  0.00344828	 -0.02413793	 -0.00344828	 -0.00338534	  0.01034483	  0.02413793	  0.00000000	  0.00000000
258.00000000	  0.00344828	 -0.03103448	  0.00000000	 -0.01015601	  0.00000000	  0.00000000	 -0.00344828	  0.00000000
259.00000000	  0.01034483	 -0.02413793	  0.00000000	 -0.00338534	  0.00344828	  0.02413793	  0.00344828	  0.00344828
260.00000000	  0.00000000	 -0.02413793	  0.00000000	 -0.00338534	  0.00000000	  0.00000000	 -0.01034483	  0.00000000
261.00000000	  0.01034483	 -0.02413793	 -0.00344828	 -0.00338534	  0.00344828	  0.01034483	  0.00000000	  0.00000000
262.00000000	  0.00344828	 -0.01724138	  0.00000000	  0.00338534	 -0.00344828	  0.00000000	 -0.00344828	 -0.00344828
263.00000000	  0.00000000	 -0.01724138	  0.00000000	  0.00000000	  0.00000000	  0.01034483	 -0.01724138	 -0.01034483
264.00000000	  0.01034483	 -0.01034483	  0.01034483	  0.00338534	 -0.01034483	  0.00344828	  0.00000000	  0.00000000
265.00000000	  0.00344828	 -0.01034483	  0.00000000	  0.00338534	  0.00344828	  0.00344828	  0.00344828	  0.00000000
266.00000000	  0.00344828	 -0.01034483	 -0.00344828	  0.00338534	 -0.00344828	  0.00344828	  0.00344828	  0.00000000
267.00000000	  0.00344828	 -0.00344828	  0.00000000	  0.00338534	  0.00344828	  0.00000000	  0.00000000	  0.00000000
268.00000000	  0.00000000	  0.00000000	  0.00000000	  0.00000000	 -0.00344828	 -0.00344828	  0.00000000	  0.00000000
269.00000000	  0.00000000	  0.00000000	  0.00000000	  0.00000000	  0.00000000	  0.00000000	  0.00000000	  0.00000000
270.00000000	  0.00000000	  0.00000000	  0.00000000	  0.00000000	  0.00000000	 -0.00344828	 -0.00344828	  0.00000000
271.00000000	 -0.00344828	  0.00000000	  0.00000000	  0.00000000	  0.00000000	  0.00000000	  0.00000000	  0.00000000
272.00000000	  0.00000000	  0.00000000	  0.00000000	  0.00000000	  0.00000000	  0.00000000	  0.00000000	  0.00000000
273.00000000	  0.00000000	  0.00000000	  0.00000000	  0.00000000	  0.00344828	  0.00000000	  0.00000000	  0.00000000
274.00000000	  0.00000000	  0.00000000	  0.00000000	  0.00000000	 -0.00344828	  0.00000000	  0.00000000	  0.00000000
275.00000000	  0.00000000	  0.00000000	  0.00000000	  0.00338534	  0.00000000	  0.00000000	  0.00000000	  0.00000000
276.00000000	 -0.00344828	  0.00000000	  0.00000000	  0.00000000	  0.00344828	  0.00344828	  0.00000000	  0.00000000
277.00000000	  0.00000000	  0.00000000	  0.00000000	 -0.00338534	  0.00344828	 -0.00344828	  0.00000000	  0.00000000
278.00000000	  0.00000000	  0.00000000	  0.00000000	  0.00000000	  0.00000000	  0.00000000	  0.00000000	  0.00000000
279.00000000	  0.00344828	  0.00344828	  0.00000000	  0.00000000	 -0.00344828	  0.00000000	  0.00000000	  0.00344828
280.00000000	  0.00344828	  0.00000000	  0.00000000	  0.00000000	 -0.00344828	 -0.00344828	  0.00000000	  0.00000000
281.00000000	  0.00344828	  0.00000000	  0.00000000	  0.00000000	  0.00344828	  0.00000000	  0.00344828	  0.00000000
282.00000000	  0.00000000	  0.00000000	  0.00000000	  0.00000000	 -0.00344828	 -0.00344828	  0.00344828	  0.00000000
283.00000000	  0.00000000	  0.00000000	  0.00000000	  0.00000000	  0.00000000	  0.00000000	  0.00000000	 -0.00344828
284.00000000	 -0.00344828	  0.00000000	  0.00000000	  0.00000000	 -0.00344828	 -0.00344828	  0.00000000	  0.00000000
285.00000000	  0.00000000	  0.00000000	  0.00000000	  0.00000000	  0.00000000	  0.00000000	  0.00000000	  0.00000000
286.00000000	  0.00000000	  0.00000000	  0.00000000	 -0.00338534	  0.00000000	 -0.00344828	  0.00000000	  0.00000000
287.00000000	  0.00000000	  0.00000000	  0.00344828	  0.00000000	  0.00000000	  0.00000000	 -0.01034483	  0.00000000
288.00000000	  0.00344828	  0.00000000	  0.00000000	  0.00000000	  0.00000000	  0.00344828	  0.00344828	  0.00000000
289.00000000	  0.00000000	  0.00000000	  0.00000000	  0.00000000	  0.00000000	  0.00000000	  0.00000000	  0.00000000
290.00000000	  0.00000000	  0.00000000	  0.00000000	  0.00000000	  0.00344828	  0.00000000	  0.00000000	  0.00000000
291.00000000	  0.00000000	  0.00000000	  0.00000000	  0.00000000	 -0.00344828	  0.00000000	  0.00344828	  0.00000000
292.00000000	  0.00000000	  0.00000000	  0.00000000	  0.00000000	  0.00000000	  0.00000000	  0.00000000	  0.00000000
293.00000000	  0.00000000	  0.00344828	  0.00344828	  0.00000000	 -0.00344828	  0.00000000	 -0.00344828	  0.00000000
294.00000000	  0.00000000	  0.00000000	  0.00000000	  0.00338534	  0.00000000	  0.00344828	  0.00000000	  0.00000000
295.00000000	  0.00000000	  0.00000000	  0.00000000	  0.00000000	  0.00000000	  0.00000000	  0.00000000	  0.00000000
296.00000000	 -0.00344828	  0.00000000	  0.00000000	  0.00000000	  0.00000000	  0.00000000	 -0.00344828	  0.00000000
297.00000000	  0.00344828	  0.00000000	  0.00000000	  0.00000000	 -0.00344828	  0.00000000	  0.00000000	  0.00000000
298.00000000	  0.00000000	  0.00000000	  0.00000000	  0.00000000	  0.00000000	  0.00000000	  0.00000000	  0.00000000
299.00000000	 -0.00344828	  0.00000000	  0.00000000	  0.00000000	  0.00000000	  0.00000000	  0.00000000	  0.00000000
300.00000000	  0.00000000	  0.00000000	  0.00000000	  0.00000000	  0.00000000	 -0.00344828	  0.00000000	  0.00000000
301.00000000	  0.00000000	  0.00000000	  0.00000000	  0.00000000	  0.00344828	  0.00344828	  0.00000000	  0.00000000
302.00000000	  0.00000000	  0.00000000	  0.00000000	  0.00000000	 -0.00344828	 -0.00344828	  0.00000000	  0.00000000
303.00000000	  0.00000000	  0.00000000	  0.00000000	  0.00000000	  0.00344828	  0.00344828	  0.00000000	  0.00000000
304.00000000	  0.00000000	  0.00000000	  0.00000000	  0.00000000	 -0.00344828	 -0.00344828	  0.00000000	  0.00000000
305.00000000	  0.00000000	  0.00000000	  0.00000000	  0.00000000	  0.00344828	  0.00344828	 -0.00344828	  0.00000000
306.00000000	  0.00000000	  0.00000000	  0.00000000	  0.00000000	  0.00000000	  0.00000000	  0.00344828	  0.00000000
307.00000000	  0.00000000	  0.00000000	  0.00000000	  0.00000000	  0.00000000	 -0.00344828	  0.00000000	  0.00000000
308.00000000	  0.00000000	  0.00000000	  0.00000000	 -0.00338534	  0.00000000	 -0.00344828	  0.00344828	  0.00000000
309.00000000	  0.00000000	  0.00000000	  0.00000000	  0.00000000	  0.00344828	  0.00000000	  0.00000000	  0.00000000
310.00000000	  0.00000000	  0.00000000	  0.00000000	  0.00000000	 -0.00344828	  0.00000000	  0.00000000	  0.00000000
311.00000000	  0.00000000	  0.00000000	  0.00000000	  0.00000000	  0.00344828	  0.00344828	  0.00000000	  0.00000000
312.00000000	  0.00000000	  0.00000000	  0.00000000	  0.00000000	  0.00000000	  0.00000000	  0.00000000	  0.00000000
313.00000000	 -0.00344828	  0.00344828	  0.00000000	  0.00000000	  0.00000000	  0.00000000	 -0.00344828	  0.00344828
314.00000000	  0.00000000	  0.00000000	 -0.00344828	  0.00338534	  0.00000000	  0.00000000	  0.00344828	  0.00000000
315.00000000	  0.00000000	  0.00000000	  0.00000000	  0.00000000	  0.00000000	 -0.00344828	  0.00344828	  0.00000000
316.00000000	  0.00000000	  0.00000000	  0.00000000	  0.00000000	 -0.00344828	  0.00000000	  0.00000000	  0.00000000
317.00000000	  0.00000000	  0.00000000	  0.00000000	  0.00000000	  0.00000000	  0.00000000	  0.00000000	  0.00000000
318.00000000	 -0.00344828	  0.00000000	  0.00000000	  0.00000000	  0.00344828	  0.00000000	  0.00000000	  0.00000000
319.00000000	  0.00000000	  0.00000000	  0.00000000	  0.00000000	  0.00000000	 -0.00344828	  0.00000000	  0.00000000
320.00000000	  0.00000000	  0.00000000	  0.00000000	  0.00000000	 -0.00344828	  0.00000000	 -0.00344828	  0.00000000
321.00000000	  0.00000000	  0.00000000	  0.00000000	  0.00000000	  0.00344828	  0.00000000	  0.00000000	  0.00000000
322.00000000	  0.00000000	  0.00000000	  0.00000000	  0.00000000	 -0.00344828	  0.00000000	  0.00344828	  0.00000000
323.00000000	  0.00000000	  0.00000000	  0.00000000	  0.00000000	  0.00000000	  0.00000000	  0.00000000	  0.00000000
324.00000000	  0.00000000	  0.00000000	  0.00000000	  0.00000000	  0.00344828	  0.00000000	  0.00000000	  0.00000000
325.00000000	 -0.00344828	  0.00000000	  0.00000000	  0.00000000	  0.00000000	  0.00000000	  0.00000000	  0.00000000
326.00000000	  0.00344828	  0.00000000	  0.00000000	  0.00000000	  0.00000000	  0.00000000	  0.00000000	  0.00000000
327.00000000	  0.00000000	  0.00000000	  0.00000000	  0.00000000	  0.00000000	  0.00000000	  0.00000000	  0.00000000
328.00000000	  0.00000000	  0.00000000	  0.00000000	  0.00000000	 -0.00344828	 -0.00344828	  0.00000000	  0.00000000
329.00000000	  0.00000000	  0.00000000	  0.00000000	 -0.00338534	  0.00000000	 -0.00344828	  0.00000000	  0.00000000
330.00000000	  0.00000000	  0.00000000	  0.00000000	  0.00000000	  0.00000000	  0.00000000	 -0.00344828	  0.00000000
331.00000000	  0.00000000	  0.00344828	  0.00000000	  0.00000000	  0.00344828	  0.00344828	  0.00000000	  0.00000000
332.00000000	  0.00000000	  0.00000000	  0.00000000	  0.00000000	  0.00000000	  0.00344828	  0.00000000	  0.00000000
333.00000000	  0.00344828	  0.00000000	  0.00000000	  0.00000000	  0.00000000	  0.00000000	  0.00000000	  0.00000000
334.00000000	  0.00000000	  0.00000000	  0.00000000	  0.00000000	 -0.00344828	 -0.00344828	  0.00000000	  0.00000000
335.00000000	  0.00344828	  0.00000000	  0.00344828	 -0.00338534	  0.00000000	  0.00000000	  0.00000000	  0.00344828
336.00000000	  0.00000000	  0.00000000	  0.00000000	  0.00000000	 -0.00344828	 -0.00344828	  0.00000000	  0.00000000
337.00000000	  0.00000000	  0.00000000	 -0.00344828	  0.00000000	  0.00000000	  0.00000000	  0.00000000	  0.00000000
338.00000000	  0.00000000	  0.00000000	  0.00000000	  0.00000000	  0.00000000	  0.00000000	  0.00344828	  0.00000000
339.00000000	  0.00344828	  0.00344828	  0.00000000	  0.00000000	  0.00000000	  0.00000000	  0.00000000	  0.00000000
340.00000000	  0.00344828	  0.00000000	 -0.00344828	  0.00000000	  0.01034483	  0.00000000	 -0.00344828	  0.00344828
341.00000000	  0.00344828	  0.00344828	  0.00000000	  0.00000000	  0.00000000	  0.00000000	 -0.00344828	  0.00000000
342.00000000	  0.00344828	  0.00344828	  0.00000000	  0.00000000	  0.00000000	  0.00000000	  0.00000000	  0.00000000
343.00000000	  0.00344828	  0.01034483	  0.00000000	 -0.00338534	  0.00000000	  0.00000000	  0.00344828	 -0.00344828
344.00000000	  0.00344828	  0.01724138	  0.00000000	  0.00000000	  0.00344828	  0.00000000	  0.00000000	  0.00000000
345.00000000	  0.00344828	  0.02413793	  0.00000000	  0.00000000	  0.00000000	  0.00000000	  0.00344828	  0.00000000
346.00000000	  0.00000000	  0.03793103	  0.01034483	  0.00338534	 -0.01034483	 -0.00344828	  0.00344828	  0.00000000
347.00000000	 -0.00344828	  0.04482759	  0.00000000	  0.00338534	  0.00344828	 -0.00344828	  0.00000000	  0.00000000
348.00000000	  0.00000000	  0.05172414	  0.01034483	  0.00338534	 -0.01034483	 -0.00344828	  0.00000000	  0.00000000
349.00000000	 -0.00344828	  0.05862069	  0.00344828	  0.01015601	 -0.00344828	 -0.00344828	 -0.00344828	  0.00344828
350.00000000	  0.00000000	  0.05862069	  0.00000000	  0.00338534	 -0.01034483	 -0.01724138	  0.00000000	  0.00000000
351.00000000	 -0.01034483	  0.07241379	  0.01034483	  0.00338534	 -0.00344828	 -0.00344828	  0.00000000	  0.00000000
352.00000000	 -0.01034483	  0.07241379	 -0.00344828	  0.00338534	  0.00000000	  0.00000000	 -0.00344828	  0.00000000
353.00000000	 -0.01034483	  0.07931034	  0.00344828	  0.00338534	  0.00000000	 -0.00344828	 -0.00344828	  0.01034483
354.00000000	 -0.01034483	  0.07931034	 -0.00344828	  0.00338534	  0.01724138	  0.00344828	 -0.00344828	  0.00000000
355.00000000	 -0.01034483	  0.07241379	  0.00344828	  0.00000000	 -0.01034483	 -0.01724138	  0.00344828	 -0.00344828
356.00000000	 -0.01034483	  0.07241379	  0.00000000	  0.00000000	 -0.00344828	 -0.00344828	  0.00344828	  0.00000000
357.00000000	 -0.01724138	  0.07931034	  0.00000000	  0.00000000	  0.00344828	 -0.00344828	 -0.00344828	  0.00000000
358.00000000	 -0.02413793	  0.07241379	  0.00344828	  0.00000000	  0.00000000	  0.00000000	  0.01034483	 -0.00344828
359.00000000	 -0.02413793	  0.07241379	  0.00000000	  0.00000000	 -0.00344828	 -0.01034483	 -0.00344828	 -0.01034483
360.00000000	 -0.03103448	  0.07241379	  0.01034483	  0.00338534	 -0.01034483	  0.00000000	  0.01034483	  0.00344828
361.00000000	 -0.03103448	  0.07241379	  0.00000000	  0.00338534	  0.00000000	 -0.00344828	 -0.00344828	  0.00344828
362.00000000	 -0.03793103	  0.06551724	  0.00344828	  0.00000000	 -0.00344828	 -0.01724138	  0.00000000	  0.00000000
363.00000000	 -0.05172414	  0.06551724	  0.00344828	  0.00000000	 -0.00344828	 -0.00344828	 -0.00344828	 -0.00344828
364.00000000	 -0.04482759	  0.05862069	  0.00000000	  0.00000000	  0.00000000	 -0.00344828	  0.00344828	  0.00000000
365.00000000	 -0.05862069	  0.05862069	 -0.00344828	  0.00000000	  0.00344828	  0.00000000	  0.00000000	  0.00000000
366.00000000	 -0.06551724	  0.05172414	  0.00344828	  0.00000000	  0.00000000	  0.00000000	  0.00000000	  0.00000000
367.00000000	 -0.07931034	  0.05172414	  0.00000000	  0.01015601	  0.00344828	 -0.00344828	  0.00000000	  0.00344828
368.00000000	 -0.08620690	  0.04482759	 -0.00344828	  0.00338534	  0.00000000	  0.00344828	  0.00000000	  0.00344828
369.00000000	 -0.10000000	  0.04482759	  0.00344828	  0.00000000	 -0.00344828	 -0.01724138	  0.00000000	  0.00000000
370.00000000	 -0.10000000	  0.03793103	  0.00000000	  0.00000000	  0.00000000	  0.00000000	  0.00000000	  0.00000000
371.00000000	 -0.10000000	  0.03103448	 -0.00344828	  0.00000000	 -0.01724138	  0.01034483	  0.00344828	 -0.00344828
372.00000000	 -0.10000000	  0.03103448	  0.00344828	 -0.00338534	  0.01034483	  0.03793103	  0.00344828	 -0.00344828
373.00000000	 -0.10000000	  0.03103448	  0.00000000	 -0.01015601	 -0.01034483	  0.04482759	  0.00000000	  0.00344828
374.00000000	 -0.10000000	  0.01724138	  0.00000000	  0.00000000	  0.01724138	  0.05862069	  0.01034483	 -0.01034483
375.00000000	 -0.10000000	  0.01034483	 -0.00344828	  0.00000000	 -0.05172414	  0.01034483	  0.00344828	 -0.00344828
376.00000000	 -0.10000000	  0.01034483	  0.00344828	  0.00000000	  0.07931034	  0.10000000	  0.00344828	 -0.01724138
377.00000000	 -0.10000000	  0.01034483	 -0.01034483	 -0.00338534	  0.00344828	  0.00000000	  0.00000000	  0.00000000
378.00000000	 -0.10000000	  0.00344828	 -0.00344828	  0.00338534	  0.05172414	  0.09310345	  0.00000000	  0.00000000
379.00000000	 -0.10000000	  0.00344828	  0.00000000	  0.00000000	  0.04482759	  0.04482759	  0.00344828	 -0.00344828
380.00000000	 -0.10000000	 -0.00344828	 -0.00344828	  0.00338534	  0.00344828	  0.09310345	 -0.00344828	  0.00000000
381.00000000	 -0.10000000	 -0.00344828	  0.00000000	  0.00000000	 -0.07241379	  0.02413793	  0.00344828	  0.00344828
382.00000000	 -0.10000000	 -0.01724138	 -0.01034483	 -0.01015601	  0.03103448	  0.06551724	  0.00000000	  0.00000000
383.00000000	 -0.10000000	 -0.01724138	 -0.00344828	  0.00338534	 -0.09310345	 -0.01034483	  0.00000000	  0.00344828
384.00000000	 -0.10000000	 -0.03103448	  0.00000000	  0.00000000	 -0.10000000	  0.08620690	 -0.00344828	 -0.00344828
385.00000000	 -0.10000000	 -0.05172414	 -0.01724138	 -0.00338534	  0.05172414	  0.10000000	  0.00000000	  0.00344828
386.00000000	 -0.10000000	 -0.05172414	 -0.01034483	  0.00000000	 -0.06551724	  0.10000000	  0.00000000	  0.00000000
387.00000000	 -0.10000000	 -0.04482759	 -0.00344828	 -0.02369736	  0.02413793	  0.02413793	  0.00000000	  0.00344828
388.00000000	 -0.10000000	 -0.06551724	  0.00000000	 -0.00338534	 -0.10000000	 -0.00344828	  0.00000000	  0.00000000
389.00000000	 -0.09310345	 -0.06551724	 -0.01034483	  0.01015601	 -0.01034483	  0.03793103	  0.00000000	  0.00000000
390.00000000	 -0.08620690	 -0.07241379	 -0.01724138	  0.00000000	 -0.03793103	  0.08620690	 -0.01724138	  0.01034483
391.00000000	 -0.09310345	 -0.07931034	 -0.01724138	 -0.01692668	  0.10000000	 -0.07241379	 -0.00344828	  0.00000000
392.00000000	 -0.03793103	 -0.08620690	 -0.02413793	  0.00000000	  0.05862069	 -0.09310345	  0.01034483	  0.01724138
393.00000000	 -0.03103448	 -0.08620690	 -0.01724138	 -0.01692668	  0.00344828	 -0.01034483	  0.00000000	  0.00000000
394.00000000	 -0.10000000	 -0.08620690	  0.00000000	  0.00000000	  0.01034483	 -0.05862069	  0.00000000	  0.00000000
395.00000000	 -0.05862069	 -0.08620690	 -0.01724138	  0.00000000	  0.03103448	 -0.10000000	  0.00000000	  0.00000000
396.00000000	  0.01034483	 -0.07931034	  0.00000000	 -0.00338534	  0.00000000	 -0.00344828	  0.00000000	  0.00000000
397.00000000	  0.00344828	 -0.08620690	 -0.01724138	 -0.00338534	  0.02413793	  0.01034483	  0.00000000	  0.00000000
398.00000000	  0.01724138	 -0.08620690	 -0.01034483	 -0.01015601	  0.10000000	 -0.07241379	  0.00000000	  0.00000000
399.00000000	  0.01724138	 -0.07241379	  0.00000000	 -0.00338534	  0.05862069	  0.02413793	  0.00000000	  0.00000000
400.00000000	  0.01724138	 -0.07241379	 -0.01034483	 -0.01015601	  0.01724138	 -0.00344828	 -0.00344828	 -0.00344828
401.00000000	  0.01724138	 -0.05862069	  0.00000000	  0.00000000	 -0.00344828	  0.00344828	  0.00000000	 -0.00344828
402.00000000	  0.01724138	 -0.05172414	 -0.00344828	  0.00000000	  0.00344828	  0.01034483	  0.00000000	  0.00000000
403.00000000	  0.02413793	 -0.05862069	 -0.01034483	  0.00338534	  0.01034483	 -0.00344828	 -0.00344828	  0.00000000
404.00000000	  0.01724138	 -0.04482759	  0.00000000	 -0.00338534	 -0.00344828	 -0.00344828	 -0.00344828	 -0.00344828
405.00000000	  0.02413793	 -0.04482759	  0.00000000	  0.00338534	 -0.00344828	  0.01034483	 -0.00344828	  0.00344828
406.00000000	  0.03103448	 -0.03793103	  0.00000000	 -0.00338534	  0.00344828	  0.00344828	 -0.00344828	 -0.00344828
407.00000000	 -0.01034483	 -0.03793103	  0.00000000	  0.00338534	  0.01724138	 -0.07241379	  0.00000000	  0.00000000
408.00000000	 -0.01034483	 -0.03103448	 -0.00344828	  0.00000000	 -0.01034483	 -0.01034483	  0.00000000	 -0.00344828
409.00000000	 -0.09310345	 -0.04482759	 -0.01034483	  0.00338534	 -0.10000000	 -0.10000000	  0.00000000	  0.00000000
410.00000000	 -0.07241379	 -0.02413793	 -0.01034483	  0.03046803	  0.01034483	 -0.10000000	 -0.01724138	  0.00344828
411.00000000	 -0.01724138	 -0.03103448	  0.00344828	  0.00338534	  0.01724138	 -0.10000000	 -0.03103448	 -0.00344828
412.00000000	 -0.02413793	 -0.02413793	 -0.00344828	  0.00000000	 -0.01034483	 -0.10000000	  0.01034483	 -0.01034483
413.00000000	 -0.01724138	 -0.01034483	  0.00344828	  0.00000000	 -0.00344828	 -0.05172414	  0.00344828	 -0.00344828
414.00000000	 -0.01034483	 -0.00344828	  0.00000000	  0.00000000	  0.03793103	 -0.03103448	  0.00000000	 -0.00344828
415.00000000	 -0.02413793	 -0.00344828	  0.00000000	  0.00000000	 -0.02413793	 -0.05862069	  0.01034483	  0.00344828
416.00000000	 -0.01724138	  0.00000000	  0.00344828	 -0.00338534	  0.01724138	 -0.01724138	  0.00000000	 -0.00344828
417.00000000	 -0.01034483	  0.00000000	  0.01034483	 -0.00338534	  0.00344828	 -0.00344828	  0.01034483	 -0.01034483
418.00000000	  0.00000000	  0.00000000	  0.00344828	  0.00000000	  0.00000000	 -0.01034483	  0.00000000	  0.00000000
419.00000000	  0.00000000	  0.00344828	  0.00000000	 -0.00338534	 -0.00344828	  0.00344828	  0.00000000	  0.00000000
420.00000000	  0.00000000	  0.00000000	  0.00000000	  0.00000000	  0.00000000	 -0.00344828	  0.00344828	  0.00344828
421.00000000	 -0.00344828	  0.00000000	  0.00000000	  0.00338534	  0.00344828	  0.00000000	  0.00000000	  0.00000000
422.00000000	  0.00000000	  0.00000000	 -0.00344828	  0.00000000	  0.00000000	  0.00000000	  0.00000000	  0.00000000
423.00000000	  0.00000000	  0.00000000	  0.00000000	 -0.00338534	  0.00344828	 -0.00344828	  0.00000000	  0.00344828
424.00000000	  0.00344828	  0.00000000	  0.00000000	 -0.00338534	  0.00000000	  0.00000000	  0.00000000	  0.00000000
425.00000000	  0.00344828	  0.00000000	  0.00000000	  0.00000000	  0.00000000	  0.00344828	  0.00000000	  0.00000000
426.00000000	  0.00000000	  0.00344828	  0.00000000	  0.00000000	  0.00000000	  0.00000000	  0.00000000	  0.00000000
427.00000000	  0.00344828	  0.00000000	  0.00000000	  0.00000000	 -0.00344828	  0.00000000	  0.00344828	  0.00000000
428.00000000	  0.00000000	  0.00000000	  0.00000000	  0.00000000	  0.00000000	  0.00000000	 -0.00344828	  0.00000000
429.00000000	  0.00000000	  0.00000000	  0.00000000	  0.00000000	  0.00000000	  0.00000000	  0.00344828	  0.00000000
430.00000000	  0.00000000	  0.00000000	  0.00000000	  0.00000000	  0.00000000	  0.00000000	  0.00000000	  0.00000000
431.00000000	 -0.00344828	 -0.00344828	  0.00000000	  0.00000000	  0.00344828	 -0.00344828	 -0.00344828	  0.00000000
432.00000000	  0.00000000	  0.00000000	  0.00000000	  0.00000000	 -0.00344828	  0.00000000	 -0.00344828	 -0.00344828
433.00000000	  0.00000000	  0.00000000	  0.00000000	  0.00000000	  0.00000000	 -0.00344828	  0.00344828	  0.00000000
434.00000000	  0.00000000	  0.00000000	  0.00000000	  0.00000000	  0.00000000	  0.00344828	  0.00344828	  0.00344828
435.00000000	  0.00000000	  0.00000000	  0.00000000	  0.00000000	  0.00344828	  0.00000000	  0.00000000	 -0.00344828
436.00000000	  0.00000000	  0.00000000	  0.00000000	  0.00000000	 -0.00344828	  0.00000000	  0.00000000	  0.00000000
437.00000000	  0.00000000	  0.00000000	  0.00000000	  0.00000000	  0.00000000	  0.00000000	  0.00000000	  0.00000000
438.00000000	  0.00000000	  0.00000000	  0.00000000	  0.00000000	  0.00000000	  0.00000000	 -0.00344828	  0.00000000
439.00000000	  0.00344828	  0.00000000	  0.00000000	  0.00000000	  0.00000000	  0.00000000	  0.00344828	 -0.00344828
440.00000000	  0.00000000	  0.00000000	  0.00000000	  0.00000000	  0.00000000	  0.00000000	  0.00000000	  0.00000000
441.00000000	  0.00000000	  0.00000000	  0.00000000	  0.00000000	 -0.00344828	  0.00000000	  0.00000000	  0.00000000
442.00000000	 -0.00344828	  0.00000000	  0.00000000	  0.00000000	  0.00344828	  0.00000000	 -0.00344828	  0.00344828
443.00000000	  0.00000000	  0.00000000	  0.00000000	  0.00000000	  0.00000000	  0.00000000	  0.00000000	  0.00000000
444.00000000	 -0.00344828	  0.00000000	  0.00000000	  0.00000000	  0.00344828	  0.00000000	  0.00000000	  0.00344828
445.00000000	  0.00000000	  0.00000000	  0.00000000	  0.00000000	  0.00000000	  0.00000000	  0.00000000	  0.00000000
446.00000000	  0.00000000	  0.00000000	  0.00000000	  0.00000000	 -0.00344828	  0.00000000	  0.00000000	  0.00000000
447.00000000	  0.00000000	  0.00000000	  0.00000000	  0.00000000	  0.00344828	  0.00000000	  0.00000000	  0.00000000
448.00000000	  0.00000000	  0.00000000	  0.00000000	  0.00000000	  0.00000000	  0.00000000	  0.00000000	  0.00000000
449.00000000	  0.00000000	  0.00000000	  0.00000000	  0.00000000	 -0.00344828	  0.00000000	  0.00000000	  0.00000000
450.00000000	  0.00000000	  0.00000000	  0.00000000	  0.00000000	  0.00344828	  0.00000000	  0.00000000	  0.00000000
451.00000000	  0.00000000	  0.00000000	  0.00000000	  0.00000000	  0.00000000	  0.00000000	  0.00000000	  0.00000000
452.00000000	  0.00000000	  0.00000000	  0.00000000	  0.00000000	  0.00000000	  0.00000000	  0.00000000	  0.00000000
453.00000000	  0.00000000	  0.00000000	  0.00000000	  0.00000000	  0.00000000	  0.00000000	  0.00000000	  0.00000000
454.00000000	  0.00000000	  0.00000000	  0.00000000	  0.00000000	  0.00000000	 -0.00344828	  0.00000000	  0.00000000
455.00000000	  0.00000000	  0.00000000	  0.00000000	  0.00000000	 -0.00344828	  0.00000000	  0.00000000	  0.00000000
456.00000000	  0.00000000	  0.00000000	  0.00000000	  0.00000000	  0.00000000	  0.00344828	  0.00000000	  0.00000000
457.00000000	  0.00344828	  0.00000000	  0.00000000	  0.00000000	  0.00000000	  0.00000000	  0.00000000	  0.00000000
458.00000000	  0.00000000	  0.00000000	  0.00000000	  0.00000000	  0.00344828	  0.00000000	  0.00000000	 -0.00344828
459.00000000	  0.00000000	  0.00000000	  0.00000000	  0.00000000	  0.00000000	  0.00000000	  0.00000000	  0.00344828
460.00000000	  0.00000000	  0.00000000	  0.00000000	  0.00000000	 -0.00344828	  0.00000000	  0.00000000	  0.00000000
461.00000000	  0.00000000	  0.00000000	  0.00000000	  0.00000000	  0.00000000	 -0.00344828	  0.00000000	  0.00000000
462.00000000	  0.00000000	  0.00000000	  0.00000000	  0.00000000	  0.00344828	  0.00000000	  0.00000000	  0.00000000
463.00000000	  0.00000000	  0.00000000	  0.00000000	  0.00000000	  0.00000000	  0.00000000	  0.00000000	  0.00000000
464.00000000	  0.00000000	 -0.00344828	 -0.00344828	  0.00000000	  0.00000000	  0.00000000	  0.00000000	  0.00000000
465.00000000	  0.00000000	  0.00000000	  0.00000000	  0.00000000	  0.00000000	  0.00000000	 -0.00344828	 -0.00344828
466.00000000	 -0.00344828	  0.00000000	  0.00344828	  0.00000000	 -0.00344828	  0.00000000	  0.00000000	  0.00000000
467.00000000	  0.00000000	  0.00000000	  0.00000000	  0.00000000	  0.00344828	  0.00000000	  0.00000000	  0.00000000
468.00000000	  0.00000000	  0.00000000	  0.00000000	  0.00000000	 -0.00344828	  0.00000000	  0.00000000	  0.00344828
469.00000000	  0.00000000	  0.00000000	  0.00000000	  0.00000000	  0.00000000	 -0.00344828	  0.00000000	  0.00000000
470.00000000	  0.00000000	  0.00000000	  0.00000000	  0.00000000	  0.00000000	  0.00000000	  0.00000000	  0.00000000
471.00000000	  0.00000000	  0.00000000	  0.00000000	  0.00000000	  0.00344828	  0.00000000	  0.00000000	  0.00000000
472.00000000	  0.00000000	  0.00000000	  0.00000000	  0.00000000	  0.00000000	  0.00344828	  0.00000000	  0.00000000
473.00000000	  0.00000000	  0.00000000	  0.00000000	  0.00000000	  0.00000000	 -0.00344828	  0.00000000	  0.00000000
474.00000000	  0.00344828	  0.00000000	  0.00000000	  0.00000000	  0.00000000	  0.00000000	  0.00344828	 -0.00344828
475.00000000	  0.00000000	  0.00000000	  0.00000000	  0.00000000	 -0.00344828	  0.00344828	  0.00000000	  0.00000000
476.00000000	  0.00000000	  0.00000000	  0.00000000	  0.00000000	  0.00000000	  0.00000000	  0.00000000	  0.00000000
477.00000000	  0.00000000	  0.00000000	  0.00000000	  0.00000000	  0.00000000	  0.00000000	  0.00000000	  0.00000000
478.00000000	  0.00000000	  0.00000000	  0.00000000	  0.00000000	  0.00000000	  0.00000000	  0.00000000	  0.00000000
479.00000000	  0.00000000	  0.00000000	  0.00000000	  0.00000000	  0.00000000	  0.00000000	  0.00000000	  0.00000000
480.00000000	  0.00000000	  0.00000000	  0.00000000	  0.00000000	  0.00344828	  0.00000000	  0.00000000	  0.00000000
481.00000000	  0.00000000	  0.00000000	  0.00000000	  0.00000000	  0.00000000	  0.00000000	  0.00000000	  0.00000000
482.00000000	  0.00000000	  0.00000000	  0.00000000	  0.00000000	  0.00000000	  0.00000000	  0.00000000	  0.00000000
483.00000000	  0.00000000	  0.00000000	  0.00000000	  0.00000000	  0.00000000	  0.00000000	  0.00000000	  0.00000000
484.00000000	  0.00000000	  0.00000000	  0.00000000	  0.00000000	  0.00000000	  0.00000000	  0.00000000	  0.00000000
485.00000000	  0.00000000	  0.00000000	  0.00000000	  0.00000000	  0.00000000	  0.00000000	  0.00000000	  0.00000000
486.00000000	  0.00000000	  0.00000000	  0.00000000	  0.00000000	  0.00000000	  0.00000000	 -0.00344828	  0.00000000
487.00000000	  0.00000000	  0.00000000	  0.00000000	  0.00000000	 -0.00344828	  0.00000000	  0.00000000	  0.00000000
488.00000000	  0.00344828	  0.00000000	  0.00000000	  0.00000000	  0.00000000	  0.00000000	  0.00344828	  0.00000000
489.00000000	  0.00000000	  0.00000000	  0.00000000	  0.00000000	  0.00344828	  0.00000000	  0.00000000	  0.00000000
490.00000000	  0.00000000	  0.00000000	  0.00000000	  0.00000000	 -0.00344828	  0.00344828	 -0.00344828	 -0.00344828
491.00000000	  0.00344828	  0.00000000	  0.00000000	  0.00000000	  0.00000000	  0.00000000	  0.00344828	  0.00344828
492.00000000	  0.00000000	  0.00344828	  0.00000000	  0.00000000	  0.00344828	  0.00000000	  0.00000000	  0.00000000
493.00000000	  0.00000000	  0.00000000	  0.00000000	  0.00000000	 -0.00344828	  0.00000000	  0.00000000	  0.00000000
494.00000000	  0.00344828	  0.00000000	  0.00000000	 -0.00338534	 -0.00344828	  0.00000000	  0.00000000	  0.00000000
495.00000000	  0.00000000	  0.00000000	  0.00000000	  0.00000000	  0.00000000	  0.00000000	  0.00000000	  0.00000000
496.00000000	  0.00000000	  0.00000000	  0.00000000	  0.00000000	  0.00000000	  0.00000000	  0.00000000	  0.00000000
497.00000000	  0.00000000	  0.00000000	  0.00000000	  0.00000000	  0.00000000	  0.00000000	  0.00000000	  0.00000000
498.00000000	  0.00000000	  0.00000000	  0.00000000	  0.00000000	  0.00344828	  0.00000000	  0.00000000	 -0.00344828
499.00000000	  0.00000000	  0.00000000	  0.00000000	  0.00000000	  0.00000000	  0.00000000	  0.00000000	  0.00000000
500.00000000	  0.00000000	  0.00000000	  0.00000000	  0.00000000	  0.00000000	  0.00000000	  0.00000000	  0.00000000
501.00000000	  0.00344828	  0.00000000	  0.00000000	  0.00000000	  0.00000000	  0.00344828	  0.00000000	  0.00000000
502.00000000	  0.00000000	  0.00344828	  0.00000000	  0.00000000	  0.00000000	  0.00000000	  0.00000000	  0.00344828
503.00000000	  0.00000000	  0.00000000	  0.00000000	  0.00000000	  0.00000000	  0.00000000	  0.00000000	  0.00000000
504.00000000	  0.00000000	  0.00000000	  0.00000000	  0.00000000	 -0.00344828	  0.00000000	 -0.00344828	  0.00000000
505.00000000	  0.00000000	  0.00000000	  0.00000000	  0.00000000	  0.00000000	  0.00344828	  0.00000000	  0.00000000
506.00000000	  0.00000000	  0.00000000	  0.00000000	  0.00000000	  0.00000000	  0.00000000	  0.00000000	  0.00000000
507.00000000	  0.00344828	  0.00000000	  0.00000000	  0.00338534	  0.00000000	  0.00000000	  0.00344828	  0.00000000
508.00000000	  0.00000000	  0.00000000	  0.00000000	  0.00000000	  0.00344828	  0.00000000	  0.00000000	  0.00000000
509.00000000	  0.00000000	  0.00000000	  0.00000000	  0.00000000	 -0.00344828	  0.00000000	  0.00000000	  0.00000000
510.00000000	 -0.00344828	  0.00000000	  0.00000000	 -0.00338534	  0.00000000	 -0.00344828	 -0.00344828	  0.00000000
511.00000000	  0.00000000	  0.00000000	  0.00000000	  0.00000000	  0.00000000	  0.00000000	  0.00344828	  0.00344828
512.00000000	  0.00000000	  0.00000000	  0.00000000	  0.00000000	  0.00000000	  0.00000000	  0.00000000	  0.00000000
513.00000000	  0.00000000	  0.00000000	  0.00000000	  0.00000000	  0.00344828	  0.00000000	  0.00000000	  0.00000000
514.00000000	  0.00000000	  0.00000000	  0.00000000	  0.00000000	  0.00000000	  0.00000000	  0.00000000	  0.00000000
515.00000000	 -0.00344828	  0.00000000	  0.00000000	  0.00000000	 -0.00344828	  0.00000000	  0.00000000	  0.00000000
516.00000000	  0.00000000	  0.00000000	  0.00000000	  0.00338534	  0.00344828	  0.00344828	 -0.00344828	  0.00000000
517.00000000	 -0.00344828	 -0.00344828	  0.00000000	  0.00338534	  0.00000000	 -0.00344828	  0.00000000	  0.00000000
518.00000000	 -0.00344828	  0.00000000	  0.00000000	  0.00000000	  0.00344828	  0.00000000	  0.00000000	  0.00000000
519.00000000	 -0.00344828	 -0.00344828	 -0.00344828	  0.00000000	  0.00344828	  0.00000000	  0.00000000	  0.00000000
520.00000000	  0.00000000	 -0.00344828	 -0.00344828	  0.00000000	  0.00344828	 -0.00344828	  0.00000000	  0.00000000
521.00000000	 -0.00344828	  0.00000000	  0.00000000	  0.00000000	  0.00000000	  0.00000000	  0.00000000	  0.00000000
522.00000000	  0.00000000	 -0.00344828	  0.00000000	  0.00000000	  0.00000000	 -0.00344828	  0.00000000	 -0.00344828
523.00000000	  0.00000000	  0.00000000	  0.00344828	  0.00000000	 -0.00344828	 -0.00344828	  0.00000000	  0.00000000
524.00000000	 -0.00344828	  0.00000000	  0.00000000	  0.00000000	  0.00000000	 -0.00344828	  0.00000000	  0.00000000
525.00000000	  0.00000000	 -0.00344828	  0.00000000	  0.00000000	  0.00000000	  0.00000000	  0.00000000	  0.00000000
526.00000000	 -0.00344828	 -0.00344828	  0.00000000	  0.00000000	  0.00344828	 -0.00344828	  0.00000000	 -0.00344828
527.00000000	 -0.00344828	  0.00000000	  0.00000000	  0.00000000	  0.00000000	  0.00000000	  0.00000000	  0.00000000
528.00000000	 -0.00344828	 -0.00344828	  0.00000000	  0.00338534	  0.00000000	  0.00000000	  0.00000000	  0.00000000
529.00000000	 -0.00344828	 -0.00344828	  0.00000000	  0.00000000	  0.00000000	 -0.00344828	  0.00000000	  0.00344828
530.00000000	  0.00000000	 -0.00344828	  0.00000000	 -0.00338534	  0.00344828	 -0.00344828	  0.00344828	 -0.00344828
531.00000000	  0.00000000	  0.00000000	 -0.00344828	  0.00000000	  0.00344828	  0.00000000	  0.00000000	 -0.00344828
532.00000000	  0.00000000	  0.00000000	  0.00000000	  0.00000000	 -0.00344828	  0.00000000	 -0.00344828	  0.00000000
533.00000000	  0.00344828	  0.00344828	  0.00000000	  0.00000000	  0.00000000	  0.00000000	  0.00344828	  0.00344828
534.00000000	  0.00000000	  0.00344828	  0.00000000	  0.00000000	  0.00000000	  0.00344828	 -0.00344828	  0.00000000
535.00000000	  0.00000000	  0.00000000	  0.00000000	  0.00000000	  0.00344828	  0.00000000	  0.00344828	  0.00344828
536.00000000	  0.00000000	  0.00000000	  0.00000000	  0.00000000	 -0.00344828	 -0.00344828	  0.00000000	  0.00000000
537.00000000	  0.00000000	 -0.00344828	  0.00000000	  0.00000000	  0.00000000	  0.00000000	  0.00000000	 -0.00344828
538.00000000	  0.00000000	  0.00000000	  0.00000000	  0.00000000	  0.00344828	  0.00000000	  0.00344828	  0.00000000
539.00000000	  0.00000000	  0.00000000	  0.00000000	  0.00000000	  0.00000000	  0.00000000	  0.00000000	  0.00000000
