  2.00000000	 -0.00042553	  0.00113877	  0.00205827	 -0.00004841	  0.00009717	  0.00107152	 -0.00044148	  0.00109760
  3.00000000	 -0.00038079	 -0.00008470	  0.00059889	  0.00004828	 -0.00010068	 -0.00006973	 -0.00039608	 -0.00008100
  4.00000000	  0.00026498	 -0.00041960	  0.00010093	 -0.00004630	  0.00009758	 -0.00028785	  0.00027662	 -0.00040420
  5.00000000	  0.00040553	  0.00069482	  0.00040290	 -0.00004307	  0.00008875	 -0.00011332	  0.00042116	  0.00066793
  6.00000000	 -0.00019636	 -0.00019440	  0.00000433	  0.00018367	 -0.00038268	  0.00039275	 -0.00020408	 -0.00018668
  7.00000000	  0.00011143	  0.00040271	  0.00030555	 -0.00004120	  0.00008517	 -0.00010940	  0.00011533	  0.00038723
  8.00000000	  0.00027560	 -0.00021598	  0.00190355	  0.00005342	 -0.00011083	  0.00002416	  0.00028689	 -0.00020887
  9.00000000	  0.00041839	 -0.00114391	  0.00249315	  0.00017802	 -0.00037247	  0.00087276	  0.00043521	 -0.00110268
 10.00000000	 -0.00129123	 -0.00124972	  0.00189987	 -0.00040699	  0.00083955	  0.00162898	 -0.00134248	 -0.00119365
 11.00000000	  0.00009287	 -0.00000453	  0.00090615	 -0.00024007	  0.00049806	  0.00043091	  0.00009663	 -0.00000496
 12.00000000	  0.00040986	 -0.00104573	  0.00029600	  0.00004124	 -0.00009059	  0.00049513	  0.00043230	 -0.00100939
 13.00000000	  0.00035015	  0.00109851	  0.00209846	  0.00031242	 -0.00064056	 -0.00201210	  0.00035550	  0.00105688
 14.00000000	 -0.00049466	  0.00135152	  0.00419306	  0.00005777	 -0.00011812	 -0.00108448	 -0.00052536	  0.00129962
 15.00000000	  0.00012349	  0.00070612	  0.00210362	 -0.00009464	  0.00019738	 -0.00069071	  0.00012549	  0.00067955
 16.00000000	 -0.00009826	 -0.00009810	  0.00050874	  0.00018435	 -0.00038336	 -0.00016492	 -0.00010209	 -0.00009432
 17.00000000	  0.00021604	  0.00070377	  0.00059851	 -0.00014278	  0.00029604	 -0.00012505	  0.00022447	  0.00067676
 18.00000000	 -0.00048253	 -0.00028534	  0.00070470	  0.00008590	 -0.00017934	  0.00041610	 -0.00050176	 -0.00027417
 19.00000000	  0.00037172	 -0.00011740	  0.00020269	  0.00004341	 -0.00009008	  0.00010379	  0.00038718	 -0.00011345
 20.00000000	 -0.00027810	  0.00011293	  0.00009834	 -0.00019207	  0.00039916	  0.00018910	 -0.00028966	  0.00010912
 21.00000000	 -0.00010158	 -0.00019928	  0.00030509	 -0.00003732	  0.00007870	 -0.00049291	 -0.00010541	 -0.00019163
 22.00000000	  0.00066939	  0.00027818	  0.00009731	  0.00009380	 -0.00019620	  0.00038959	  0.00069625	  0.00026667
 23.00000000	  0.00001594	  0.00040623	  0.00019181	  0.00009632	 -0.00020040	 -0.00077115	  0.00001599	  0.00039085
 24.00000000	 -0.00019593	 -0.00019520	  0.00019601	 -0.00000021	  0.00000032	  0.00039234	 -0.00020375	 -0.00018759
 25.00000000	 -0.00010144	 -0.00019942	  0.00009400	  0.00013724	 -0.00028550	  0.00009804	 -0.00010538	 -0.00019169
 26.00000000	 -0.00018475	  0.00010867	  0.00039200	 -0.00042703	  0.00088868	  0.00028712	 -0.00019248	  0.00010480
 27.00000000	  0.00037214	 -0.00011682	  0.00000068	  0.00004908	 -0.00010159	 -0.00009578	  0.00038738	 -0.00011303
 28.00000000	 -0.00009324	  0.00000437	  0.00049280	  0.00033510	 -0.00069653	 -0.00048439	 -0.00009705	  0.00000435
 29.00000000	 -0.00028539	 -0.00009014	  0.00009364	  0.00009006	 -0.00018758	  0.00000102	 -0.00029709	 -0.00008636
 30.00000000	  0.00018714	 -0.00000810	  0.00039124	 -0.00028190	  0.00058709	  0.00019524	  0.00019485	 -0.00000796
 31.00000000	  0.00028664	  0.00009025	  0.00069664	  0.00009823	 -0.00020404	 -0.00040757	  0.00029831	  0.00008639
 32.00000000	 -0.00010237	 -0.00019916	  0.00049698	  0.00004880	 -0.00010141	  0.00011746	 -0.00010630	 -0.00019155
 33.00000000	 -0.00027815	  0.00011314	  0.00009830	 -0.00009616	  0.00019958	  0.00019302	 -0.00028968	  0.00010915
 34.00000000	  0.00027790	 -0.00011330	  0.00009742	 -0.00009585	  0.00019958	  0.00019069	  0.00028938	 -0.00010938
 35.00000000	 -0.00045816	  0.00032393	  0.00009700	 -0.00000034	 -0.00000012	 -0.00019359	 -0.00047721	  0.00031232
 36.00000000	  0.00065025	 -0.00022967	  0.00009903	  0.00023699	 -0.00049284	  0.00009868	  0.00067712	 -0.00022187
 37.00000000	 -0.00035717	  0.00052392	  0.00039235	 -0.00023953	  0.00049626	  0.00067955	 -0.00037267	  0.00050466
 38.00000000	  0.00007136	 -0.00061409	  0.00049753	 -0.00004418	  0.00009405	 -0.00050203	  0.00007516	 -0.00059116
 39.00000000	 -0.00000377	 -0.00010166	  0.00001149	  0.00032937	 -0.00068452	 -0.00046598	 -0.00000377	 -0.00009781
 40.00000000	 -0.00056781	 -0.00007848	  0.00019247	 -0.00023567	  0.00048990	  0.00028769	 -0.00059103	 -0.00007489
 41.00000000	 -0.00008260	  0.00030902	  0.00009853	 -0.00000036	 -0.00000027	  0.00019686	 -0.00008639	  0.00029748
 42.00000000	  0.00046242	 -0.00022261	  0.00030219	 -0.00004259	  0.00008988	 -0.00030352	  0.00048153	 -0.00021490
 43.00000000	 -0.00008229	  0.00030914	  0.00010594	  0.00018202	 -0.00038013	  0.00039596	 -0.00008605	  0.00029757
 44.00000000	  0.00028950	  0.00019153	  0.00010143	  0.00004903	 -0.00010197	 -0.00028293	  0.00030110	  0.00018391
 45.00000000	 -0.00021504	 -0.00070437	  0.00019937	 -0.00014466	  0.00030206	  0.00009798	 -0.00022284	 -0.00067740
 46.00000000	 -0.00038345	 -0.00018765	  0.00020322	  0.00000339	 -0.00000732	 -0.00000697	 -0.00039891	 -0.00017995
 47.00000000	  0.00040613	  0.00079781	  0.00039615	 -0.00009615	  0.00019823	  0.00039605	  0.00042130	  0.00076717
 48.00000000	 -0.00018323	  0.00010950	  0.00059821	  0.00005302	 -0.00010999	 -0.00049963	 -0.00019082	  0.00010572
 49.00000000	  0.00055196	 -0.00032850	  0.00020218	  0.00004346	 -0.00008984	  0.00010248	  0.00057499	 -0.00031674
 50.00000000	 -0.00018401	  0.00010922	  0.00000410	  0.00004509	 -0.00009402	 -0.00009326	 -0.00019170	  0.00010532
 51.00000000	 -0.00019150	 -0.00009421	  0.00019932	 -0.00014476	  0.00030135	  0.00008295	 -0.00019922	 -0.00009035
 52.00000000	  0.00001490	  0.00040670	  0.00039553	  0.00000145	 -0.00000432	  0.00020782	  0.00001479	  0.00039139
 53.00000000	 -0.00011691	 -0.00060604	  0.00009830	  0.00004921	 -0.00010097	 -0.00029010	 -0.00012078	 -0.00058306
 54.00000000	  0.00020706	  0.00050102	  0.00000354	  0.00005057	 -0.00010642	  0.00009798	  0.00021489	  0.00048182
 55.00000000	 -0.00008229	  0.00030870	  0.00010128	 -0.00009418	  0.00019517	 -0.00000689	 -0.00008604	  0.00029718
 56.00000000	  0.00007461	 -0.00051229	  0.00010486	  0.00009056	 -0.00018731	  0.00000646	  0.00007840	 -0.00049306
 57.00000000	 -0.00018764	  0.00000762	  0.00019924	 -0.00009790	  0.00020337	  0.00018098	 -0.00019531	  0.00000766
 58.00000000	  0.00009778	  0.00009804	  0.00010161	  0.00019180	 -0.00039903	 -0.00018039	  0.00010161	  0.00009421
 59.00000000	  0.00000020	  0.00000008	  0.00020339	 -0.00009207	  0.00019173	 -0.00001159	  0.00000021	  0.00000008
 60.00000000	  0.00037168	 -0.00011716	  0.00020269	  0.00014307	 -0.00029711	 -0.00027602	  0.00038713	 -0.00011304
 61.00000000	 -0.00027820	  0.00011316	  0.00009456	 -0.00019022	  0.00039522	  0.00038126	 -0.00028974	  0.00010925
 62.00000000	  0.00007872	 -0.00041053	  0.00009446	  0.00014139	 -0.00029310	 -0.00028661	  0.00008250	 -0.00039509
 63.00000000	 -0.00018433	  0.00010948	  0.00019607	 -0.00014709	  0.00030491	  0.00067425	 -0.00019203	  0.00010565
 64.00000000	  0.00009050	 -0.00010554	  0.00029375	  0.00019234	 -0.00039915	 -0.00057958	  0.00009438	 -0.00010168
 65.00000000	 -0.00019180	 -0.00009396	  0.00020346	  0.00004107	 -0.00008600	  0.00029771	 -0.00019958	 -0.00009012
 66.00000000	  0.00019532	  0.00019568	  0.00001139	 -0.00027826	  0.00057906	  0.00018017	  0.00020303	  0.00018792
 67.00000000	 -0.00037214	  0.00011698	  0.00020387	  0.00004276	 -0.00008982	  0.00010691	 -0.00038752	  0.00011319
 68.00000000	  0.00028625	  0.00008985	  0.00050480	 -0.00017975	  0.00037521	 -0.00060360	  0.00029774	  0.00008598
 69.00000000	  0.00028169	 -0.00001089	  0.00030449	  0.00042689	 -0.00088786	 -0.00006838	  0.00029321	 -0.00001072
 70.00000000	 -0.00048080	 -0.00028626	  0.00029703	 -0.00009596	  0.00020020	 -0.00020588	 -0.00050036	 -0.00027475
 71.00000000	  0.00040208	  0.00069643	  0.00039553	 -0.00004921	  0.00010020	  0.00049279	  0.00041764	  0.00066958
 72.00000000	 -0.00039106	 -0.00039134	  0.00000412	  0.00009196	 -0.00019095	  0.00000522	 -0.00040657	 -0.00037591
 73.00000000	 -0.00046584	  0.00012115	  0.00010255	  0.00009125	 -0.00019139	  0.00020179	 -0.00048527	  0.00011725
 74.00000000	  0.00047348	  0.00008247	  0.00010226	  0.00000625	 -0.00001206	 -0.00038936	  0.00049297	  0.00007867
 75.00000000	 -0.00047359	 -0.00008242	  0.00010486	 -0.00018867	  0.00039213	  0.00018234	 -0.00049302	 -0.00007854
 76.00000000	  0.00056766	  0.00007874	  0.00000075	  0.00004739	 -0.00009845	  0.00009551	  0.00059085	  0.00007487
 77.00000000	 -0.00028166	  0.00001126	  0.00009741	  0.00005071	 -0.00010524	 -0.00048020	 -0.00029327	  0.00001116
 78.00000000	  0.00008249	 -0.00030874	  0.00010237	  0.00000210	 -0.00000362	 -0.00000500	  0.00008619	 -0.00029708
 79.00000000	  0.00008574	 -0.00020740	  0.00029335	 -0.00013910	  0.00028999	  0.00010116	  0.00008954	 -0.00019960
 80.00000000	  0.00001565	  0.00040661	  0.00019527	 -0.00000380	  0.00000705	 -0.00000700	  0.00001589	  0.00039121
 81.00000000	  0.00018796	 -0.00000758	  0.00000030	  0.00009991	 -0.00020732	 -0.00038074	  0.00019568	 -0.00000743
 82.00000000	 -0.00018020	  0.00021108	  0.00000434	 -0.00000984	  0.00001899	  0.00057674	 -0.00018778	  0.00020331
 83.00000000	  0.00009079	 -0.00010559	  0.00050120	  0.00001014	 -0.00001971	 -0.00078739	  0.00009461	 -0.00010167
 84.00000000	  0.00000293	  0.00010185	  0.00059893	  0.00004310	 -0.00009061	  0.00050493	  0.00000293	  0.00009798
 85.00000000	 -0.00000689	 -0.00020396	  0.00039174	 -0.00000532	  0.00001181	 -0.00020775	 -0.00000703	 -0.00019619
 86.00000000	 -0.00027856	  0.00011373	  0.00029420	  0.00000326	 -0.00000767	  0.00020502	 -0.00029018	  0.00010962
 87.00000000	  0.00007452	 -0.00051208	  0.00030031	 -0.00000941	  0.00001941	  0.00077732	  0.00007829	 -0.00049270
 88.00000000	  0.00019228	  0.00009379	  0.00039542	  0.00014928	 -0.00030945	 -0.00087315	  0.00020010	  0.00008995
 89.00000000	 -0.00018066	  0.00021086	  0.00039972	 -0.00009998	  0.00020708	  0.00039652	 -0.00018843	  0.00020297
 90.00000000	  0.00038729	  0.00028989	  0.00020738	 -0.00013128	  0.00027363	 -0.00049424	  0.00040290	  0.00027845
 91.00000000	 -0.00027477	  0.00021505	  0.00030197	  0.00003898	 -0.00008297	  0.00068670	 -0.00028631	  0.00020724
 92.00000000	 -0.00020271	 -0.00039916	  0.00019604	  0.00009412	 -0.00019496	 -0.00019560	 -0.00021052	 -0.00038364
 93.00000000	  0.00009031	 -0.00010517	  0.00009821	  0.00009216	 -0.00019190	  0.00019109	  0.00009419	 -0.00010129
 94.00000000	 -0.00000030	 -0.00000100	  0.00019960	 -0.00028750	  0.00059897	 -0.00000390	 -0.00000031	 -0.00000096
 95.00000000	  0.00037596	 -0.00001475	  0.00020384	  0.00010181	 -0.00021135	 -0.00019703	  0.00039139	 -0.00001478
 96.00000000	 -0.00027831	  0.00011315	  0.00009465	 -0.00018841	  0.00039155	  0.00018951	 -0.00028985	  0.00010928
 97.00000000	  0.00009428	 -0.00000397	  0.00009424	  0.00014131	 -0.00029357	 -0.00028632	  0.00009814	 -0.00000395
 98.00000000	  0.00037936	  0.00008617	  0.00020276	  0.00004133	 -0.00008659	  0.00029560	  0.00039480	  0.00008239
 99.00000000	 -0.00038681	 -0.00029002	  0.00040246	 -0.00023289	  0.00048576	 -0.00031157	 -0.00040227	 -0.00027843
100.00000000	 -0.00007046	  0.00061399	  0.00009693	  0.00024239	 -0.00050549	 -0.00047205	 -0.00007405	  0.00059087
101.00000000	  0.00016430	 -0.00061775	  0.00039804	 -0.00010321	  0.00021526	  0.00077696	  0.00017175	 -0.00059454
102.00000000	 -0.00009075	  0.00010560	  0.00029021	 -0.00018466	  0.00038383	  0.00019662	 -0.00009463	  0.00010176
103.00000000	  0.00046662	 -0.00012058	  0.00029440	  0.00019044	 -0.00039531	 -0.00038956	  0.00048578	 -0.00011681
104.00000000	  0.00000381	  0.00010151	  0.00000376	 -0.00013915	  0.00028965	 -0.00010164	  0.00000383	  0.00009768
105.00000000	 -0.00048108	 -0.00028610	  0.00008978	  0.00008643	 -0.00017973	  0.00000147	 -0.00050032	 -0.00027469
106.00000000	  0.00020318	  0.00039946	  0.00000363	  0.00009754	 -0.00020406	  0.00019569	  0.00021099	  0.00038407
107.00000000	  0.00009018	 -0.00010598	  0.00010189	 -0.00018774	  0.00039148	 -0.00020404	  0.00009400	 -0.00010210
108.00000000	  0.00017641	 -0.00031222	  0.00000343	  0.00023705	 -0.00049260	 -0.00008715	  0.00018401	 -0.00030064
109.00000000	 -0.00065005	  0.00023001	  0.00009882	 -0.00014357	  0.00029773	  0.00009652	 -0.00067696	  0.00022206
110.00000000	  0.00016869	 -0.00051570	  0.00020232	  0.00013739	 -0.00028557	  0.00029937	  0.00017634	 -0.00049641
111.00000000	  0.00058320	  0.00048543	  0.00040691	 -0.00013329	  0.00027720	 -0.00031005	  0.00060651	  0.00046609
112.00000000	 -0.00000434	 -0.00010175	  0.00040285	  0.00004125	 -0.00008614	  0.00030494	 -0.00000434	 -0.00009791
113.00000000	 -0.00027377	  0.00021511	  0.00029697	  0.00014284	 -0.00029771	 -0.00010046	 -0.00028528	  0.00020743
114.00000000	 -0.00008632	  0.00020652	  0.00010195	 -0.00014476	  0.00030110	 -0.00009738	 -0.00009019	  0.00019880
115.00000000	  0.00009757	  0.00009834	  0.00009399	  0.00000356	 -0.00000792	  0.00019550	  0.00010142	  0.00009448
116.00000000	  0.00017276	 -0.00041465	  0.00020002	 -0.00008773	  0.00018461	 -0.00078016	  0.00018037	 -0.00039917
117.00000000	  0.00001493	  0.00040690	  0.00019957	  0.00008989	 -0.00018887	  0.00058705	  0.00001515	  0.00039153
118.00000000	 -0.00019559	 -0.00019596	  0.00000027	 -0.00009584	  0.00019992	 -0.00000303	 -0.00020331	 -0.00018831
119.00000000	 -0.00001550	 -0.00040606	  0.00019929	  0.00018985	 -0.00039474	  0.00020690	 -0.00001551	 -0.00039069
120.00000000	 -0.00000345	 -0.00010219	  0.00039922	 -0.00023645	  0.00049302	 -0.00031324	 -0.00000347	 -0.00009832
121.00000000	 -0.00009045	  0.00010578	  0.00029752	  0.00009561	 -0.00019949	  0.00020760	 -0.00009430	  0.00010191
122.00000000	 -0.00017229	  0.00041405	  0.00019515	 -0.00000389	  0.00000708	 -0.00000660	 -0.00017984	  0.00039872
123.00000000	  0.00038352	  0.00018815	  0.00000425	  0.00000570	 -0.00001192	 -0.00019327	  0.00039889	  0.00018057
124.00000000	  0.00000454	  0.00010149	  0.00039519	  0.00004529	 -0.00009438	 -0.00010934	  0.00000464	  0.00009765
125.00000000	 -0.00002392	 -0.00061009	  0.00039506	 -0.00019178	  0.00039987	  0.00039120	 -0.00002394	 -0.00058711
126.00000000	 -0.00009766	 -0.00009744	  0.00009395	  0.00028405	 -0.00059059	 -0.00018369	 -0.00010151	 -0.00009362
127.00000000	 -0.00008667	  0.00020722	  0.00029393	 -0.00014133	  0.00029339	  0.00029428	 -0.00009056	  0.00019950
128.00000000	  0.00039189	  0.00039124	  0.00039564	  0.00009816	 -0.00020437	 -0.00058837	  0.00040742	  0.00037588
129.00000000	 -0.00020768	 -0.00050089	  0.00039561	 -0.00024265	  0.00050515	  0.00067834	 -0.00021541	 -0.00048174
130.00000000	  0.00000027	  0.00000023	  0.00019569	  0.00019011	 -0.00039525	 -0.00019167	  0.00000028	  0.00000022
131.00000000	 -0.00019185	 -0.00009406	  0.00020721	  0.00013520	 -0.00028156	  0.00010971	 -0.00019956	 -0.00009021
132.00000000	  0.00029333	  0.00029356	  0.00010560	 -0.00008633	  0.00017984	 -0.00039197	  0.00030493	  0.00028202
133.00000000	 -0.00048512	 -0.00038749	  0.00009833	 -0.00014701	  0.00030561	  0.00047924	 -0.00050441	 -0.00037206
134.00000000	  0.00039509	  0.00049284	  0.00000003	  0.00004886	 -0.00010245	 -0.00009464	  0.00041032	  0.00047363
135.00000000	 -0.00038744	 -0.00028936	  0.00000337	 -0.00004540	  0.00009459	  0.00009548	 -0.00040275	 -0.00027779
136.00000000	  0.00038000	  0.00008605	  0.00019994	 -0.00004281	  0.00008985	 -0.00049060	  0.00039531	  0.00008227
137.00000000	  0.00000358	  0.00010179	  0.00019954	  0.00004493	 -0.00009417	  0.00029741	  0.00000358	  0.00009796
138.00000000	 -0.00010145	 -0.00019946	  0.00009405	  0.00013928	 -0.00028940	 -0.00009381	 -0.00010530	 -0.00019177
139.00000000	 -0.00017986	  0.00021068	  0.00019532	 -0.00000185	  0.00000361	 -0.00019870	 -0.00018751	  0.00020296
140.00000000	  0.00028547	  0.00009024	  0.00009749	 -0.00000008	 -0.00000025	  0.00019457	  0.00029705	  0.00008643
141.00000000	 -0.00001975	 -0.00050794	  0.00038770	 -0.00013363	  0.00027889	  0.00010577	 -0.00001962	 -0.00048874
142.00000000	  0.00019198	  0.00009373	  0.00019224	  0.00004160	 -0.00008658	 -0.00010249	  0.00019967	  0.00008989
143.00000000	 -0.00008210	  0.00030887	  0.00029723	  0.00009399	 -0.00019625	 -0.00000729	 -0.00008581	  0.00029734
144.00000000	 -0.00018815	  0.00000743	  0.00019980	 -0.00009597	  0.00019973	  0.00000461	 -0.00019586	  0.00000738
145.00000000	 -0.00000030	  0.00000030	  0.00019575	  0.00000168	 -0.00000381	  0.00019966	 -0.00000031	  0.00000029
146.00000000	  0.00000466	  0.00010148	  0.00059851	 -0.00004271	  0.00008946	 -0.00050458	  0.00000474	  0.00009765
147.00000000	 -0.00020381	 -0.00039863	  0.00040279	  0.00008622	 -0.00017981	  0.00059491	 -0.00021150	 -0.00038332
148.00000000	  0.00012533	  0.00080953	  0.00030443	 -0.00003753	  0.00007684	 -0.00049229	  0.00012926	  0.00077877
149.00000000	  0.00036425	 -0.00032062	  0.00000297	  0.00004540	 -0.00009358	 -0.00009629	  0.00037954	 -0.00030894
150.00000000	 -0.00047818	 -0.00018355	  0.00049766	  0.00004267	 -0.00008980	  0.00069476	 -0.00049746	 -0.00017595
151.00000000	  0.00009069	 -0.00010578	  0.00050105	 -0.00008570	  0.00017994	 -0.00079120	  0.00009454	 -0.00010192
152.00000000	 -0.00000024	  0.00000028	  0.00019954	  0.00009388	 -0.00019570	  0.00020339	 -0.00000025	  0.00000027
153.00000000	  0.00008233	 -0.00030876	  0.00009758	  0.00000001	  0.00000022	  0.00019516	  0.00008613	 -0.00029717
154.00000000	 -0.00008206	  0.00030855	  0.00029719	 -0.00009576	  0.00019907	 -0.00020690	 -0.00008578	  0.00029701
155.00000000	 -0.00001168	 -0.00030481	  0.00020690	  0.00022930	 -0.00047725	  0.00030456	 -0.00001171	 -0.00029323
156.00000000	  0.00058672	  0.00058664	  0.00000430	 -0.00018624	  0.00038676	 -0.00020132	  0.00060992	  0.00056355
157.00000000	 -0.00010150	 -0.00019943	  0.00010144	 -0.00004302	  0.00009043	 -0.00029297	 -0.00010540	 -0.00019178
158.00000000	 -0.00066902	 -0.00027790	  0.00009318	  0.00008599	 -0.00017954	  0.00038603	 -0.00069611	 -0.00026635
159.00000000	  0.00019887	  0.00029691	  0.00039156	 -0.00023331	  0.00048517	  0.00010167	  0.00020642	  0.00028549
160.00000000	  0.00019184	  0.00009473	  0.00000023	  0.00023872	 -0.00049704	  0.00010497	  0.00019951	  0.00009085
161.00000000	 -0.00001922	 -0.00050882	  0.00000017	 -0.00013876	  0.00029048	 -0.00048579	 -0.00001916	 -0.00048958
162.00000000	 -0.00007888	  0.00041041	  0.00010565	  0.00013517	 -0.00028260	  0.00029771	 -0.00008261	  0.00039502
163.00000000	 -0.00027801	  0.00011379	  0.00010489	  0.00000143	 -0.00000409	  0.00038141	 -0.00028956	  0.00011003
164.00000000	  0.00046223	 -0.00022295	  0.00009502	  0.00004555	 -0.00009380	 -0.00029218	  0.00048160	 -0.00021526
165.00000000	  0.00009818	  0.00009766	  0.00030518	 -0.00018405	  0.00038338	 -0.00021158	  0.00010207	  0.00009380
166.00000000	 -0.00048181	 -0.00028521	  0.00030173	  0.00008783	 -0.00018358	  0.00059259	 -0.00050099	 -0.00027365
167.00000000	  0.00010139	  0.00019910	  0.00030123	 -0.00005093	  0.00010551	  0.00010530	  0.00010508	  0.00019141
168.00000000	  0.00038019	  0.00008613	  0.00040329	 -0.00013095	  0.00027389	 -0.00088600	  0.00039549	  0.00008231
169.00000000	 -0.00047377	 -0.00008220	  0.00010605	  0.00018202	 -0.00037944	  0.00039690	 -0.00049294	 -0.00007841
170.00000000	  0.00018057	 -0.00021076	  0.00040326	  0.00000799	 -0.00001557	 -0.00039986	  0.00018820	 -0.00020308
171.00000000	  0.00030115	  0.00049647	  0.00010148	 -0.00000202	  0.00000308	  0.00000298	  0.00031284	  0.00047737
172.00000000	 -0.00000773	 -0.00020329	  0.00000000	  0.00000204	 -0.00000355	 -0.00019180	 -0.00000781	 -0.00019559
173.00000000	 -0.00029750	 -0.00039504	  0.00030149	  0.00004314	 -0.00008968	  0.00030215	 -0.00030919	 -0.00037980
174.00000000	  0.00001121	  0.00030497	  0.00019969	 -0.00005485	  0.00011254	  0.00067738	  0.00001123	  0.00029341
175.00000000	 -0.00017980	  0.00021087	  0.00040622	 -0.00017832	  0.00037168	 -0.00059769	 -0.00018744	  0.00020325
176.00000000	  0.00006687	 -0.00071514	  0.00030790	  0.00027658	 -0.00057478	  0.00021329	  0.00007078	 -0.00068826
177.00000000	  0.00019954	  0.00029718	  0.00019952	 -0.00004490	  0.00009355	 -0.00029763	  0.00020732	  0.00028562
178.00000000	  0.00000736	  0.00020326	  0.00019207	 -0.00018440	  0.00038357	  0.00000031	  0.00000737	  0.00019559
179.00000000	 -0.00008239	  0.00030924	  0.00009760	  0.00018781	 -0.00039187	  0.00019629	 -0.00008611	  0.00029770
180.00000000	  0.00009732	  0.00009763	  0.00030109	 -0.00000197	  0.00000386	  0.00001111	  0.00010114	  0.00009382
181.00000000	 -0.00002610	 -0.00071176	  0.00039932	 -0.00004460	  0.00009450	 -0.00030546	 -0.00002641	 -0.00068478
182.00000000	  0.00001534	  0.00040663	  0.00000393	  0.00009005	 -0.00018855	  0.00019578	  0.00001550	  0.00039120
183.00000000	 -0.00037196	  0.00011695	  0.00000316	 -0.00014133	  0.00029362	  0.00009189	 -0.00038735	  0.00011307
184.00000000	 -0.00000385	 -0.00010155	  0.00000011	  0.00004894	 -0.00010151	 -0.00009411	 -0.00000386	 -0.00009771
185.00000000	  0.00027003	 -0.00031656	  0.00030048	 -0.00000559	  0.00001168	  0.00039359	  0.00028159	 -0.00030499
186.00000000	  0.00001119	  0.00030533	  0.00019598	  0.00005046	 -0.00010584	  0.00010599	  0.00001105	  0.00029376
187.00000000	  0.00019257	  0.00009389	  0.00059513	  0.00004950	 -0.00010240	 -0.00050163	  0.00020036	  0.00008996
188.00000000	 -0.00047400	 -0.00008269	  0.00029812	 -0.00019410	  0.00040341	  0.00038960	 -0.00049324	 -0.00007887
189.00000000	  0.00038354	  0.00018785	  0.00000042	  0.00000005	 -0.00000043	 -0.00000143	  0.00039881	  0.00018011
190.00000000	 -0.00001133	 -0.00030478	  0.00020337	 -0.00003912	  0.00008282	 -0.00048925	 -0.00001131	 -0.00029332
191.00000000	  0.00037973	  0.00008615	  0.00000327	  0.00004514	 -0.00009409	 -0.00009557	  0.00039506	  0.00008248
192.00000000	 -0.00021089	 -0.00060189	  0.00000043	  0.00009600	 -0.00019897	  0.00000484	 -0.00021879	 -0.00057895
193.00000000	 -0.00008277	  0.00030890	  0.00030125	  0.00008998	 -0.00018840	  0.00039920	 -0.00008661	  0.00029730
194.00000000	 -0.00008598	  0.00020684	  0.00030105	 -0.00013696	  0.00028553	 -0.00049662	 -0.00008976	  0.00019912
195.00000000	  0.00009358	 -0.00000354	  0.00029353	 -0.00004532	  0.00009393	  0.00029717	  0.00009740	 -0.00000350
196.00000000	 -0.00010507	 -0.00030119	  0.00029737	 -0.00000365	  0.00000777	  0.00018057	 -0.00010902	 -0.00028966
197.00000000	  0.00039164	  0.00039087	  0.00019994	 -0.00009003	  0.00018737	 -0.00058847	  0.00040700	  0.00037575
198.00000000	 -0.00029780	 -0.00039465	  0.00050479	  0.00022739	 -0.00047354	  0.00070098	 -0.00030936	 -0.00037944
199.00000000	 -0.00018788	  0.00000764	  0.00000020	 -0.00000007	  0.00000007	  0.00000057	 -0.00019559	  0.00000766
200.00000000	  0.00009015	 -0.00010555	  0.00010554	 -0.00018604	  0.00038756	 -0.00001180	  0.00009399	 -0.00010173
201.00000000	  0.00001154	  0.00030477	  0.00000386	  0.00004319	 -0.00009057	  0.00009786	  0.00001151	  0.00029330
202.00000000	  0.00010564	  0.00030112	  0.00010167	  0.00000767	 -0.00001570	 -0.00057952	  0.00010944	  0.00028966
203.00000000	 -0.00009388	  0.00000387	  0.00010529	 -0.00014123	  0.00029353	  0.00027876	 -0.00009768	  0.00000387
204.00000000	 -0.00011739	 -0.00060569	  0.00030101	  0.00014106	 -0.00029279	  0.00011311	 -0.00012109	 -0.00058283
205.00000000	  0.00019200	  0.00009393	  0.00019215	  0.00013747	 -0.00028605	 -0.00009846	  0.00019972	  0.00009006
206.00000000	  0.00020739	  0.00050105	  0.00020355	  0.00005449	 -0.00011409	 -0.00029403	  0.00021527	  0.00048175
207.00000000	 -0.00037615	  0.00001521	  0.00019641	 -0.00019405	  0.00040306	  0.00057747	 -0.00039155	  0.00001522
208.00000000	  0.00027823	 -0.00011311	  0.00009835	  0.00010003	 -0.00020706	 -0.00057683	  0.00028977	 -0.00010919
209.00000000	 -0.00047721	 -0.00018386	  0.00030066	  0.00005062	 -0.00010516	 -0.00010367	 -0.00049659	 -0.00017625
210.00000000	  0.00056717	  0.00007806	  0.00040606	  0.00003749	 -0.00007869	  0.00030292	  0.00059035	  0.00007455
211.00000000	  0.00029357	  0.00029380	  0.00010601	 -0.00008657	  0.00017995	 -0.00039272	  0.00030524	  0.00028235
212.00000000	 -0.00094382	 -0.00006343	  0.00020113	 -0.00005533	  0.00011378	  0.00068178	 -0.00098230	 -0.00005966
213.00000000	  0.00001185	  0.00030482	  0.00019920	 -0.00004698	  0.00009718	 -0.00010510	  0.00001189	  0.00029332
214.00000000	  0.00007061	 -0.00061387	  0.00009708	 -0.00004290	  0.00009099	 -0.00028725	  0.00007449	 -0.00059089
215.00000000	  0.00018786	 -0.00000763	  0.00020675	  0.00018244	 -0.00037987	  0.00020623	  0.00019554	 -0.00000758
216.00000000	  0.00000404	  0.00010154	  0.00019947	 -0.00004690	  0.00009761	 -0.00010550	  0.00000408	  0.00009769
217.00000000	  0.00027768	 -0.00011299	  0.00029327	 -0.00009420	  0.00019571	  0.00039049	  0.00028919	 -0.00010913
218.00000000	 -0.00065031	  0.00023009	  0.00010258	  0.00004253	 -0.00009005	  0.00029608	 -0.00067722	  0.00022269
219.00000000	  0.00008255	 -0.00030904	  0.00010213	 -0.00008988	  0.00018840	 -0.00039233	  0.00008650	 -0.00029756
220.00000000	  0.00009456	 -0.00000364	  0.00049697	  0.00004737	 -0.00009832	 -0.00011343	  0.00009840	 -0.00000369
221.00000000	  0.00039115	  0.00039126	  0.00019928	  0.00009572	 -0.00020001	  0.00001056	  0.00040642	  0.00037598
222.00000000	 -0.00028563	 -0.00009001	  0.00010126	  0.00000375	 -0.00000744	 -0.00019443	 -0.00029718	 -0.00008619
223.00000000	  0.00007831	 -0.00041072	  0.00030082	 -0.00005260	  0.00010974	  0.00029659	  0.00008219	 -0.00039531
224.00000000	  0.00001967	  0.00050833	  0.00039877	  0.00005288	 -0.00011037	 -0.00049257	  0.00001983	  0.00048910
225.00000000	 -0.00028980	 -0.00019180	  0.00030523	  0.00003535	 -0.00007451	  0.00068564	 -0.00030138	 -0.00018409
226.00000000	 -0.00018800	  0.00000757	  0.00000349	 -0.00009036	  0.00018824	 -0.00019483	 -0.00019570	  0.00000759
227.00000000	  0.00074420	 -0.00023375	  0.00020071	  0.00010199	 -0.00021092	 -0.00058233	  0.00077497	 -0.00022585
228.00000000	 -0.00046608	  0.00012078	  0.00009848	 -0.00009821	  0.00020343	  0.00038540	 -0.00048529	  0.00011685
229.00000000	  0.00037204	 -0.00011712	  0.00000323	  0.00004532	 -0.00009392	 -0.00009552	  0.00038740	 -0.00011320
230.00000000	 -0.00028190	  0.00001156	  0.00010890	 -0.00023151	  0.00048173	  0.00008356	 -0.00029337	  0.00001156
231.00000000	  0.00028990	  0.00019190	  0.00009428	  0.00023715	 -0.00049330	 -0.00028275	  0.00030142	  0.00018432
232.00000000	 -0.00009410	  0.00000379	  0.00009801	 -0.00004321	  0.00009031	 -0.00028547	 -0.00009795	  0.00000371
233.00000000	  0.00000407	  0.00010184	  0.00019951	  0.00004693	 -0.00009802	  0.00009023	  0.00000417	  0.00009799
234.00000000	  0.00018046	 -0.00021128	  0.00019987	 -0.00009181	  0.00019200	 -0.00039615	  0.00018799	 -0.00020345
235.00000000	  0.00000361	  0.00010177	  0.00019952	  0.00004303	 -0.00009036	  0.00048921	  0.00000368	  0.00009793
236.00000000	 -0.00038015	 -0.00008629	  0.00040333	  0.00003917	 -0.00008228	  0.00049819	 -0.00039555	 -0.00008259
237.00000000	  0.00000360	  0.00010217	  0.00019960	  0.00013880	 -0.00028998	  0.00049318	  0.00000357	  0.00009828
238.00000000	  0.00028242	 -0.00001183	  0.00049744	 -0.00004244	  0.00008963	 -0.00069398	  0.00029406	 -0.00001190
239.00000000	 -0.00000816	 -0.00020333	  0.00039533	 -0.00009412	  0.00019602	  0.00020355	 -0.00000814	 -0.00019562
240.00000000	 -0.00027380	  0.00021461	  0.00029321	  0.00004130	 -0.00008666	  0.00008718	 -0.00028529	  0.00020703
241.00000000	  0.00017227	 -0.00041402	  0.00001185	 -0.00008064	  0.00016917	 -0.00038826	  0.00017999	 -0.00039858
242.00000000	  0.00010179	  0.00019926	  0.00009411	  0.00004532	 -0.00009424	 -0.00028999	  0.00010572	  0.00019163
243.00000000	 -0.00026293	  0.00051987	  0.00009843	 -0.00010217	  0.00021024	  0.00076883	 -0.00027420	  0.00050070
244.00000000	  0.00007466	 -0.00051233	  0.00009833	  0.00000435	 -0.00000720	 -0.00058034	  0.00007855	 -0.00049315
245.00000000	  0.00011306	  0.00050477	  0.00009797	  0.00009754	 -0.00020413	  0.00000772	  0.00011704	  0.00048561
246.00000000	 -0.00012861	 -0.00091112	  0.00030098	 -0.00000945	  0.00001955	  0.00077877	 -0.00013255	 -0.00087646
247.00000000	 -0.00025486	  0.00072302	  0.00010083	  0.00000738	 -0.00001600	 -0.00057774	 -0.00026662	  0.00069606
248.00000000	  0.00008999	 -0.00010555	  0.00009767	 -0.00019760	  0.00041039	  0.00076320	  0.00009381	 -0.00010176
249.00000000	  0.00029047	  0.00019215	  0.00049710	  0.00024720	 -0.00051318	 -0.00087327	  0.00030198	  0.00018440
250.00000000	 -0.00002342	 -0.00061049	  0.00020317	 -0.00009941	  0.00020789	  0.00000346	 -0.00002348	 -0.00058738
251.00000000	  0.00020303	  0.00039886	  0.00019564	 -0.00009817	  0.00020269	  0.00057906	  0.00021071	  0.00038352
252.00000000	 -0.00009409	  0.00000408	  0.00010175	  0.00014674	 -0.00030462	 -0.00046962	 -0.00009793	  0.00000405
253.00000000	  0.00009432	 -0.00000408	  0.00029755	 -0.00005065	  0.00010532	  0.00008199	  0.00009817	 -0.00000409
254.00000000	 -0.00047786	 -0.00018419	  0.00029795	 -0.00014516	  0.00030174	  0.00029523	 -0.00049695	 -0.00017657
255.00000000	 -0.00009359	  0.00000449	  0.00029719	  0.00023688	 -0.00049313	  0.00009466	 -0.00009741	  0.00000452
256.00000000	  0.00028560	  0.00009007	  0.00009763	  0.00000190	 -0.00000398	  0.00000312	  0.00029713	  0.00008616
257.00000000	  0.00009406	 -0.00000444	  0.00009801	 -0.00014059	  0.00029356	 -0.00048988	  0.00009791	 -0.00000441
258.00000000	 -0.00008997	  0.00010535	  0.00009767	 -0.00000188	  0.00000368	 -0.00000348	 -0.00009377	  0.00010152
259.00000000	  0.00019537	  0.00019580	  0.00019927	  0.00009379	 -0.00019591	  0.00020269	  0.00020303	  0.00018815
260.00000000	 -0.00028591	 -0.00009012	  0.00009453	 -0.00019022	  0.00039545	  0.00038120	 -0.00029739	 -0.00008620
261.00000000	  0.00027412	 -0.00021460	  0.00009736	  0.00005277	 -0.00010887	 -0.00028321	  0.00028566	 -0.00020698
262.00000000	  0.00018839	 -0.00000766	  0.00039167	  0.00018846	 -0.00039158	 -0.00039196	  0.00019609	 -0.00000768
263.00000000	 -0.00054538	  0.00053175	  0.00059577	 -0.00005356	  0.00010845	  0.00088710	 -0.00056869	  0.00051249
264.00000000	  0.00026327	 -0.00051999	  0.00050158	 -0.00008545	  0.00018035	 -0.00079246	  0.00027487	 -0.00050087
265.00000000	  0.00000364	  0.00010180	  0.00020331	  0.00013708	 -0.00028596	  0.00030114	  0.00000363	  0.00009795
266.00000000	 -0.00027774	  0.00011298	  0.00030458	 -0.00018228	  0.00037976	 -0.00040184	 -0.00028923	  0.00010915
267.00000000	  0.00027416	 -0.00021508	  0.00010111	 -0.00005060	  0.00010566	  0.00009641	  0.00028556	 -0.00020736
268.00000000	  0.00010542	  0.00030145	  0.00010158	  0.00018782	 -0.00039176	  0.00020312	  0.00010927	  0.00028995
269.00000000	 -0.00057184	 -0.00018034	  0.00040354	 -0.00001007	  0.00001979	  0.00059297	 -0.00059487	 -0.00017252
270.00000000	  0.00046260	 -0.00022229	  0.00049769	  0.00015137	 -0.00031304	 -0.00087839	  0.00048195	 -0.00021467
271.00000000	  0.00018784	 -0.00000768	  0.00000022	 -0.00000392	  0.00000756	  0.00038296	  0.00019559	 -0.00000770
272.00000000	 -0.00018422	  0.00010930	  0.00019603	 -0.00014117	  0.00029360	  0.00009861	 -0.00019199	  0.00010544
273.00000000	  0.00010564	  0.00030122	  0.00010169	  0.00000573	 -0.00001195	 -0.00038769	  0.00010946	  0.00028968
274.00000000	 -0.00008999	  0.00010563	  0.00010149	  0.00000377	 -0.00000783	 -0.00019519	 -0.00009381	  0.00010175
275.00000000	  0.00007473	 -0.00051248	  0.00010516	 -0.00000928	  0.00001965	  0.00038677	  0.00007843	 -0.00049322
276.00000000	 -0.00058302	 -0.00048523	  0.00000349	 -0.00013945	  0.00029046	 -0.00010046	 -0.00060602	 -0.00046611
277.00000000	  0.00059097	  0.00068865	  0.00020313	  0.00005457	 -0.00011420	 -0.00029381	  0.00061412	  0.00066197
278.00000000	 -0.00010196	 -0.00019963	  0.00030503	  0.00003752	 -0.00007852	  0.00049316	 -0.00010582	 -0.00019197
279.00000000	 -0.00009367	  0.00000383	  0.00030105	 -0.00004302	  0.00008998	 -0.00030087	 -0.00009749	  0.00000384
280.00000000	 -0.00009047	  0.00010560	  0.00029756	 -0.00000027	  0.00000002	  0.00020382	 -0.00009433	  0.00010174
281.00000000	  0.00017647	 -0.00031250	  0.00000041	  0.00004905	 -0.00010143	 -0.00009487	  0.00018415	 -0.00030099
282.00000000	  0.00001146	  0.00030507	  0.00000011	  0.00004882	 -0.00010200	 -0.00009383	  0.00001149	  0.00029353
283.00000000	  0.00027841	 -0.00011346	  0.00030162	 -0.00018779	  0.00039144	 -0.00021225	  0.00028986	 -0.00010960
284.00000000	 -0.00017697	  0.00031271	  0.00039922	  0.00004484	 -0.00009439	  0.00030560	 -0.00018463	  0.00030117
285.00000000	 -0.00029699	 -0.00039507	  0.00009389	  0.00013730	 -0.00028540	  0.00009861	 -0.00030856	 -0.00037971
286.00000000	  0.00012439	  0.00080932	  0.00009832	 -0.00004540	  0.00009269	 -0.00009351	  0.00012814	  0.00077860
287.00000000	 -0.00010138	 -0.00019935	  0.00009783	  0.00004322	 -0.00008999	  0.00028611	 -0.00010525	 -0.00019164
288.00000000	 -0.00021109	 -0.00060210	  0.00000399	  0.00000571	 -0.00001074	 -0.00019162	 -0.00021867	 -0.00057901
289.00000000	  0.00002297	  0.00060980	  0.00000069	 -0.00009802	  0.00020239	  0.00018896	  0.00002296	  0.00058677
290.00000000	  0.00073293	 -0.00053878	  0.00039285	  0.00024144	 -0.00050033	 -0.00087240	  0.00076368	 -0.00051931
291.00000000	 -0.00047380	 -0.00008238	  0.00029420	 -0.00019601	  0.00040675	  0.00096484	 -0.00049313	 -0.00007852
292.00000000	 -0.00000387	 -0.00010152	  0.00000006	  0.00004696	 -0.00009779	  0.00009783	 -0.00000384	 -0.00009768
293.00000000	 -0.00035280	  0.00062525	  0.00020048	  0.00000134	 -0.00000410	 -0.00018217	 -0.00036857	  0.00060216
294.00000000	  0.00075199	 -0.00003093	  0.00020453	 -0.00018397	  0.00038371	 -0.00040265	  0.00078263	 -0.00003093
295.00000000	 -0.00046597	  0.00012103	  0.00009709	  0.00009183	 -0.00019186	  0.00019408	 -0.00048504	  0.00011726
296.00000000	 -0.00039922	 -0.00059440	  0.00040644	  0.00008231	 -0.00017178	  0.00059499	 -0.00041434	 -0.00057130
297.00000000	  0.00067332	  0.00038009	  0.00030526	  0.00006257	 -0.00012934	 -0.00087407	  0.00070018	  0.00036466
298.00000000	  0.00028997	  0.00019146	  0.00030171	 -0.00014295	  0.00029699	  0.00007724	  0.00030163	  0.00018375
299.00000000	 -0.00050133	 -0.00079364	  0.00050144	  0.00004114	 -0.00008546	  0.00050269	 -0.00052029	 -0.00076307
300.00000000	  0.00037985	  0.00008641	  0.00019606	  0.00014505	 -0.00030126	 -0.00048235	  0.00039526	  0.00008255
301.00000000	 -0.00027808	  0.00011328	  0.00009817	 -0.00000021	 -0.00000008	  0.00019654	 -0.00028968	  0.00010938
302.00000000	 -0.00027043	  0.00031635	  0.00010215	 -0.00000216	  0.00000372	  0.00000497	 -0.00028207	  0.00030473
303.00000000	 -0.00048202	 -0.00028497	  0.00089641	 -0.00011383	  0.00023277	  0.00195070	 -0.00050109	 -0.00027290
304.00000000	 -0.00048901	 -0.00048959	  0.00010226	 -0.00009070	  0.00018920	 -0.00039183	 -0.00050727	 -0.00046957
305.00000000	 -0.00027532	  0.00021545	  0.00129598	 -0.00006400	  0.00012757	  0.00168051	 -0.00028743	  0.00020833
306.00000000	 -0.00049588	 -0.00069393	  0.00029845	  0.00009411	 -0.00019678	 -0.00017997	 -0.00051253	 -0.00066576
307.00000000	  0.00010451	  0.00030159	  0.00069814	 -0.00000648	  0.00001108	  0.00079669	  0.00010720	  0.00028975
308.00000000	 -0.00056399	  0.00002043	  0.00019979	 -0.00009639	  0.00019892	 -0.00018758	 -0.00058702	  0.00002244
309.00000000	  0.00007964	 -0.00040906	  0.00029553	 -0.00005264	  0.00010752	  0.00067831	  0.00008507	 -0.00039420
310.00000000	 -0.00017680	  0.00031170	  0.00019476	  0.00004679	 -0.00009720	 -0.00029190	 -0.00018570	  0.00030105
311.00000000	  0.00007255	 -0.00061282	  0.00049382	 -0.00005311	  0.00010811	  0.00068417	  0.00007916	 -0.00059032
312.00000000	  0.00035231	 -0.00072594	  0.00020187	  0.00023192	 -0.00048257	  0.00010661	  0.00037128	 -0.00070082
313.00000000	 -0.00048783	 -0.00049157	  0.00048852	 -0.00009319	  0.00018917	  0.00039641	 -0.00050443	 -0.00047002
314.00000000	 -0.00035720	  0.00052090	  0.00100311	 -0.00006002	  0.00012174	  0.00051793	 -0.00037571	  0.00050354
315.00000000	 -0.00043862	  0.00103175	  0.00109791	 -0.00014576	  0.00029783	  0.00072080	 -0.00046481	  0.00099614
316.00000000	 -0.00064525	  0.00043165	  0.00010439	  0.00022828	 -0.00048298	  0.00068951	 -0.00067484	  0.00042089
317.00000000	 -0.00086969	 -0.00068492	  0.00168748	 -0.00001679	  0.00002016	  0.00140262	 -0.00089831	 -0.00065200
318.00000000	  0.00024730	 -0.00133312	  0.00148889	 -0.00002271	  0.00003956	  0.00118537	  0.00027243	 -0.00128530
319.00000000	 -0.00058254	 -0.00069592	  0.00118776	 -0.00006182	  0.00011423	  0.00108840	 -0.00059789	 -0.00066345
320.00000000	 -0.00007696	  0.00060765	  0.00150208	  0.00013632	 -0.00028803	  0.00074782	 -0.00008829	  0.00058564
321.00000000	 -0.00200147	 -0.00106183	  0.00187750	 -0.00032371	  0.00062671	  0.00253475	 -0.00206781	 -0.00099525
322.00000000	 -0.00057006	 -0.00080378	  0.00238457	  0.00033563	 -0.00072757	  0.00198964	 -0.00057934	 -0.00076517
323.00000000	 -0.00001168	 -0.00051383	  0.00138901	 -0.00014600	  0.00029031	  0.00110664	 -0.00000267	 -0.00049424
324.00000000	 -0.00045384	  0.00082132	  0.00111141	  0.00013145	 -0.00028529	  0.00093281	 -0.00048841	  0.00079849
325.00000000	 -0.00142662	 -0.00129972	  0.00207023	  0.00004875	 -0.00015414	  0.00195425	 -0.00145867	 -0.00122336
326.00000000	 -0.00074576	 -0.00059692	  0.00358452	  0.00013405	 -0.00034505	  0.00396230	 -0.00076254	 -0.00055819
327.00000000	 -0.00197113	 -0.00038343	  0.00328711	 -0.00049999	  0.00095864	  0.00287367	 -0.00204312	 -0.00032068
328.00000000	 -0.00047112	 -0.00052166	  0.00249207	 -0.00003086	  0.00002495	  0.00162740	 -0.00047506	 -0.00048953
329.00000000	 -0.00065338	 -0.00101776	  0.00267482	  0.00048127	 -0.00108009	  0.00325299	 -0.00064870	 -0.00095972
330.00000000	 -0.00056631	 -0.00134631	  0.00217521	 -0.00007998	  0.00011385	  0.00129545	 -0.00054417	 -0.00127686
331.00000000	 -0.00075011	 -0.00041800	  0.00139266	 -0.00003041	  0.00002105	  0.00099605	 -0.00076784	 -0.00037701
332.00000000	 -0.00203335	 -0.00164962	  0.00352907	  0.00065481	 -0.00151388	  0.00347987	 -0.00206026	 -0.00151479
333.00000000	 -0.00027508	  0.00059733	  0.00234558	  0.00011418	 -0.00027727	  0.00198020	 -0.00031176	  0.00058397
334.00000000	 -0.00054242	 -0.00054169	  0.00361728	  0.00008534	 -0.00026620	  0.00293993	 -0.00054381	 -0.00049864
335.00000000	 -0.00072396	 -0.00177841	  0.00195091	  0.00009309	 -0.00027825	  0.00124099	 -0.00067798	 -0.00167617
336.00000000	 -0.00093504	  0.00027752	  0.00326331	  0.00018790	 -0.00049760	  0.00336741	 -0.00099246	  0.00030765
337.00000000	  0.00031128	 -0.00115758	  0.00230858	  0.00007423	 -0.00020899	  0.00163437	  0.00038377	 -0.00112474
338.00000000	 -0.00128287	 -0.00142821	  0.00279252	  0.00035656	 -0.00085572	  0.00130732	 -0.00127162	 -0.00130796
339.00000000	 -0.00198926	  0.00064853	  0.00298444	  0.00039896	 -0.00097791	  0.00306570	 -0.00212389	  0.00072132
340.00000000	  0.00122378	  0.00021468	  0.00096557	  0.00095650	 -0.00199354	  0.00142158	  0.00127607	  0.00013955
341.00000000	 -0.00098037	 -0.00162822	  0.00269207	 -0.00017807	  0.00025879	  0.00137999	 -0.00093940	 -0.00150344
342.00000000	 -0.00172213	 -0.00113643	  0.00370383	  0.00040597	 -0.00104225	  0.00306146	 -0.00174776	 -0.00098989
343.00000000	 -0.00229380	 -0.00202807	  0.00309873	  0.00021516	 -0.00068223	  0.00222731	 -0.00229546	 -0.00180136
344.00000000	  0.00118723	  0.00069922	  0.00317330	 -0.00005620	  0.00012774	  0.00199248	  0.00120929	  0.00059552
345.00000000	 -0.00147269	 -0.00019055	  0.00241691	  0.00102193	 -0.00232314	  0.00306232	 -0.00154592	 -0.00008760
346.00000000	 -0.00256673	 -0.00212534	  0.00386289	  0.00022764	 -0.00075120	  0.00218766	 -0.00257290	 -0.00185621
347.00000000	  0.00052307	 -0.00061140	  0.00303847	  0.00144574	 -0.00312937	  0.00238611	  0.00059992	 -0.00061605
348.00000000	 -0.00134371	 -0.00103407	  0.00296109	 -0.00009705	 -0.00002530	  0.00337827	 -0.00135551	 -0.00088468
349.00000000	  0.00050352	 -0.00047828	  0.00268286	  0.00013557	 -0.00033630	  0.00153020	  0.00057364	 -0.00049027
350.00000000	 -0.00032977	 -0.00054649	  0.00142628	  0.00111287	 -0.00240450	  0.00023881	 -0.00031008	 -0.00049290
351.00000000	 -0.00195762	 -0.00028708	  0.00434083	 -0.00003010	 -0.00021984	  0.00416725	 -0.00207203	 -0.00012320
352.00000000	  0.00017125	  0.00004589	  0.00267800	  0.00085842	 -0.00194434	  0.00319817	  0.00017982	  0.00002958
353.00000000	 -0.00216035	 -0.00050652	  0.00352385	  0.00077856	 -0.00190279	  0.00225781	 -0.00227865	 -0.00030107
354.00000000	 -0.00049028	 -0.00100553	  0.00452059	  0.00173636	 -0.00402695	  0.00567039	 -0.00043891	 -0.00090325
355.00000000	 -0.00149751	 -0.00138934	  0.00659107	 -0.00004326	 -0.00026555	  0.00432491	 -0.00148672	 -0.00117126
356.00000000	 -0.00353724	  0.00229381	  0.00310213	  0.00167085	 -0.00387933	  0.00294268	 -0.00406961	  0.00248321
357.00000000	 -0.00090216	 -0.00173679	  0.00619586	  0.00063396	 -0.00194791	  0.00859143	 -0.00080447	 -0.00153201
358.00000000	 -0.00027165	 -0.00023615	  0.00067253	  0.00151398	 -0.00304668	 -0.00473801	 -0.00027247	 -0.00019240
359.00000000	 -0.00198262	 -0.00346398	  0.00343186	  0.00117510	 -0.00302542	  0.00302013	 -0.00181454	 -0.00301684
360.00000000	  0.00080475	 -0.00035359	  0.00265947	  0.00022906	 -0.00061316	  0.00299420	  0.00092499	 -0.00041280
361.00000000	 -0.00374749	 -0.00069581	  0.00569004	  0.00098819	 -0.00276385	  0.00478040	 -0.00406352	 -0.00024329
362.00000000	  0.00148199	  0.00197333	  0.00034541	  0.00045643	 -0.00066499	 -0.00191009	  0.00141999	  0.00166088
363.00000000	 -0.00376399	  0.00007943	  0.00449915	 -0.00005808	 -0.00050956	  0.00544443	 -0.00418658	  0.00049194
364.00000000	  0.00166752	 -0.00500832	  0.00069910	  0.00204614	 -0.00451684	 -0.00155325	  0.00244249	 -0.00480310
365.00000000	 -0.00477193	 -0.00321968	  0.00542492	  0.00010986	 -0.00135887	  0.00775215	 -0.00494945	 -0.00239784
366.00000000	 -0.00043404	  0.00167069	  0.00167197	 -0.00015594	  0.00042862	 -0.00040183	 -0.00069443	  0.00158722
367.00000000	 -0.00096830	  0.00222043	  0.00340830	  0.00281900	 -0.00624912	  0.00150613	 -0.00136770	  0.00214873
368.00000000	 -0.00211936	 -0.00252894	  0.00675819	  0.00130529	 -0.00382282	  0.00873376	 -0.00207247	 -0.00203969
369.00000000	 -0.00571345	  0.00121478	  0.00887761	  0.00267878	 -0.00707853	  0.00797582	 -0.00669955	  0.00184992
370.00000000	 -0.00140805	  0.00249195	  0.00256695	  0.00194659	 -0.00469932	  0.00456166	 -0.00197696	  0.00244793
371.00000000	 -0.00606830	 -0.00468097	  0.00819734	  0.00063382	 -0.00320671	  0.00879431	 -0.00632936	 -0.00333044
372.00000000	  0.00237296	 -0.00174479	  0.00216726	  0.00271672	 -0.00598901	  0.00053695	  0.00304606	 -0.00192276
373.00000000	 -0.00192061	 -0.00258046	  0.00269133	  0.00124218	 -0.00337277	  0.00109750	 -0.00185255	 -0.00200916
374.00000000	 -0.00343026	 -0.00327759	  0.00349847	  0.00052274	 -0.00193698	 -0.00031582	 -0.00352837	 -0.00239390
375.00000000	 -0.00011422	  0.00108688	  0.00402956	  0.00200934	 -0.00494316	  0.00528648	 -0.00030867	  0.00098063
376.00000000	  0.00039177	  0.00059112	  0.00493170	 -0.00019169	  0.00021630	  0.00413960	  0.00036979	  0.00046034
377.00000000	 -0.00303112	 -0.00301885	  0.00275195	  0.00350640	 -0.00928791	  0.00589924	 -0.00313304	 -0.00215395
378.00000000	 -0.00436228	  0.00257773	  0.00914977	  0.00117769	 -0.00379573	  0.00640355	 -0.00575284	  0.00298941
379.00000000	  0.00042870	  0.00232305	  0.00455293	  0.00411868	 -0.00984736	  0.00569162	  0.00010664	  0.00194778
380.00000000	 -0.00391086	 -0.00025006	  0.01005021	  0.00253329	 -0.00720132	  0.00549500	 -0.00480642	  0.00046708
381.00000000	 -0.00847321	 -0.00717221	  0.01110498	  0.00348185	 -0.01169567	  0.01066977	 -0.00927946	 -0.00457736
382.00000000	  0.00040268	 -0.00223717	  0.00093305	  0.00102990	 -0.00258525	 -0.00064841	  0.00095736	 -0.00198111
383.00000000	 -0.00471120	 -0.00588647	  0.00806649	  0.00069252	 -0.00425373	  0.00868538	 -0.00484720	 -0.00405895
384.00000000	 -0.00261936	  0.00383842	  0.00568219	  0.00206641	 -0.00529164	  0.00095076	 -0.00420841	  0.00376053
385.00000000	 -0.00219274	 -0.00309656	  0.00307383	  0.00079553	 -0.00306818	  0.00219637	 -0.00221982	 -0.00215222
386.00000000	 -0.00188393	 -0.00511165	  0.00557482	  0.00192524	 -0.00635621	  0.00473436	 -0.00138813	 -0.00388256
387.00000000	 -0.01045455	 -0.00100803	  0.01201347	 -0.00197043	  0.00063420	  0.01234353	 -0.01366269	  0.00139914
388.00000000	  0.00151407	 -0.00139293	  0.00618970	  0.00347946	 -0.00888706	  0.00405072	  0.00235369	 -0.00149060
389.00000000	 -0.00704514	 -0.00623512	  0.00480442	  0.00275967	 -0.01063048	  0.00606682	 -0.00813613	 -0.00350952
390.00000000	 -0.00547723	  0.00477597	  0.01338333	  0.00140208	 -0.00616114	  0.01372509	 -0.00877018	  0.00519767
391.00000000	 -0.00758151	  0.00184018	  0.01478726	  0.00309247	 -0.01217715	  0.01618445	 -0.01117700	  0.00337058
392.00000000	 -0.01304231	  0.01009590	  0.02745053	  0.00243426	 -0.01322235	  0.02807635	 -0.02174649	  0.01146911
393.00000000	 -0.00639104	  0.00171917	  0.01227590	  0.00726989	 -0.02330945	  0.01341011	 -0.01007187	  0.00313419
394.00000000	 -0.01060332	  0.00248198	  0.02068249	 -0.00223047	 -0.00098719	  0.01994392	 -0.01702615	  0.00499162
395.00000000	 -0.00196508	  0.00832894	  0.00325488	  0.00089904	 -0.00239777	  0.00391033	 -0.00555199	  0.00707933
396.00000000	  0.00170163	 -0.00242116	  0.00200033	  0.00172726	 -0.00447141	  0.00039179	  0.00337513	 -0.00238783
397.00000000	 -0.00283602	  0.00187495	  0.00131987	 -0.00021510	  0.00038795	 -0.00494114	 -0.00497402	  0.00228637
398.00000000	 -0.00157840	  0.00252727	  0.00203047	  0.00372950	 -0.01042218	 -0.00047768	 -0.00320523	  0.00240541
399.00000000	 -0.00002084	  0.00757035	  0.00095311	  0.00692018	 -0.01770996	 -0.00134463	 -0.00224220	  0.00576629
400.00000000	 -0.00633186	  0.00792106	  0.00622069	  0.00712636	 -0.02267722	  0.00442894	 -0.01261800	  0.00768393
401.00000000	 -0.00690100	 -0.01559335	  0.00190798	  0.01035105	 -0.03705754	  0.00002960	 -0.00717635	 -0.00941993
402.00000000	 -0.00742481	 -0.01166491	  0.00797648	  0.00415108	 -0.02028463	  0.00114210	 -0.00964644	 -0.00621161
403.00000000	 -0.00251380	  0.00278624	  0.00530477	  0.00625748	 -0.01974044	 -0.00827403	 -0.00544778	  0.00267307
404.00000000	 -0.00610778	  0.00031174	  0.00168958	  0.00290402	 -0.01401045	  0.00074936	 -0.01157926	  0.00197270
405.00000000	 -0.00269748	 -0.01095832	  0.01076865	  0.00453500	 -0.01794744	 -0.01579168	 -0.00204742	 -0.00670949
406.00000000	 -0.00202386	  0.01172002	  0.00759076	  0.00901524	 -0.02897592	 -0.00328743	 -0.00723597	  0.00841871
407.00000000	  0.00038974	 -0.00643156	  0.01135195	  0.00457354	 -0.01542034	 -0.01840046	  0.00255259	 -0.00434526
408.00000000	 -0.00392826	  0.00399048	  0.00047215	  0.00506626	 -0.02123284	  0.00095020	 -0.00926870	  0.00361166
409.00000000	 -0.01087463	 -0.00981375	  0.00867484	 -0.00162192	 -0.00940560	  0.01057603	 -0.02078883	 -0.00344290
410.00000000	  0.00113757	  0.00046452	  0.00121650	  0.00237537	 -0.00723911	 -0.00375226	  0.00236543	 -0.00000640
411.00000000	 -0.00094041	  0.00724163	  0.00291891	 -0.00119653	  0.00562724	  0.00103956	 -0.00397527	  0.00485778
412.00000000	 -0.00596731	 -0.00203747	  0.00365611	 -0.00258585	  0.00209962	  0.00439704	 -0.01247318	  0.00024421
413.00000000	  0.00369959	  0.00179750	  0.00014743	  0.00301864	 -0.00713112	  0.00309874	  0.00762917	  0.00016118
414.00000000	 -0.00053260	  0.00151460	  0.00338973	 -0.00056734	  0.00271048	 -0.00669053	 -0.00156732	  0.00110152
415.00000000	 -0.00538063	  0.00868955	  0.00571122	 -0.00168214	  0.00230582	  0.00613461	 -0.01393819	  0.00686858
416.00000000	 -0.00252818	 -0.00638821	  0.00006948	  0.00014104	 -0.00602618	  0.00646637	 -0.00392374	 -0.00338111
417.00000000	 -0.00380276	 -0.00473673	  0.00048427	 -0.00289188	  0.00550604	 -0.00370035	 -0.00709645	 -0.00201189
418.00000000	 -0.00553810	 -0.00775467	  0.01667404	 -0.00521123	  0.00924734	  0.01564632	 -0.01004413	 -0.00346989
419.00000000	 -0.00006295	 -0.00564651	  0.00313342	 -0.00133689	  0.00316229	 -0.00132777	  0.00138632	 -0.00356491
420.00000000	 -0.00243525	 -0.02343575	  0.00909186	 -0.00485416	  0.00584271	  0.00662718	  0.00148706	 -0.01422598
421.00000000	 -0.00470794	 -0.01763156	  0.00586707	 -0.00570836	  0.01045761	 -0.01481797	 -0.00509852	 -0.00986384
422.00000000	  0.00074343	  0.00113625	  0.01425762	 -0.00161906	  0.00471066	  0.02181873	  0.00129264	  0.00049976
423.00000000	  0.00154198	  0.01403080	  0.00895927	  0.00076818	  0.00614426	 -0.01078278	 -0.00083019	  0.00853747
424.00000000	  0.00540460	  0.00482392	  0.00986830	  0.00177987	  0.00292490	 -0.01070389	  0.01013458	  0.00156135
425.00000000	 -0.00756296	 -0.01084567	  0.01647517	 -0.00531011	  0.00457448	  0.01521368	 -0.01288739	 -0.00487830
426.00000000	  0.00576983	  0.00382808	  0.00943301	  0.00408204	 -0.00542242	 -0.00885973	  0.01118654	  0.00078419
427.00000000	 -0.00002031	  0.01226884	  0.00517851	  0.00049201	  0.00184857	  0.00761527	 -0.00351372	  0.00790658
428.00000000	  0.00500958	  0.00233084	  0.01138884	  0.00292516	 -0.00228830	 -0.01498979	  0.00990947	  0.00012327
429.00000000	 -0.00447485	 -0.01467303	  0.00947195	 -0.00387519	  0.00217254	  0.01188728	 -0.00535208	 -0.00820427
430.00000000	 -0.00427023	 -0.01126624	  0.00234578	 -0.00319746	  0.00219172	 -0.00019324	 -0.00576634	 -0.00602277
431.00000000	  0.00313613	  0.00732260	  0.00548687	  0.00263135	 -0.00436061	  0.01071389	  0.00453917	  0.00377201
432.00000000	 -0.00186338	 -0.00974121	  0.00259009	 -0.00169337	 -0.00069866	  0.00484111	 -0.00098220	 -0.00571810
433.00000000	 -0.00356284	  0.00627848	  0.00356914	 -0.00296531	  0.00912737	 -0.00028019	 -0.00962667	  0.00515956
434.00000000	  0.00334169	 -0.00542832	  0.00055932	 -0.00020531	  0.00251206	 -0.00150709	  0.00878215	 -0.00452738
435.00000000	  0.00336053	  0.01184679	  0.00204926	  0.00333710	 -0.00376340	  0.00258272	  0.00355597	  0.00663999
436.00000000	  0.00298928	  0.00006926	  0.01263267	  0.00337712	 -0.00639952	 -0.01596700	  0.00632348	 -0.00085139
437.00000000	 -0.00596921	 -0.02045514	  0.01048304	 -0.00428125	 -0.00145662	  0.01269779	 -0.00650075	 -0.01139968
438.00000000	  0.00363371	  0.00579252	  0.00085548	  0.00033156	  0.00641277	 -0.00687847	  0.00598205	  0.00262886
439.00000000	 -0.00263141	  0.01172232	  0.00964365	 -0.00198494	  0.00690819	  0.01476941	 -0.00913070	  0.00841376
440.00000000	  0.00263020	 -0.00094434	  0.01061512	  0.00371123	 -0.00908872	 -0.01040836	  0.00586210	 -0.00142291
441.00000000	 -0.00213701	 -0.00250944	  0.01070535	 -0.00394289	  0.00937405	  0.01043431	 -0.00375615	 -0.00097868
442.00000000	 -0.00272974	 -0.00987545	  0.00082916	 -0.00098840	 -0.00348718	 -0.00100767	 -0.00269794	 -0.00556458
443.00000000	  0.00630071	  0.01289141	  0.01158606	  0.00671770	 -0.01002647	 -0.01075247	  0.00950329	  0.00637975
444.00000000	 -0.00565186	 -0.00234334	  0.01383491	 -0.00337375	  0.00203868	  0.01968123	 -0.01138834	  0.00026785
445.00000000	  0.00649266	  0.00615660	  0.00845040	  0.00262004	  0.00207720	 -0.01171076	  0.01192202	  0.00194978
446.00000000	 -0.00199397	 -0.01106516	  0.00604171	 -0.00249944	  0.00183775	  0.00348733	 -0.00073250	 -0.00658319
447.00000000	 -0.00043307	  0.00451953	  0.00063209	 -0.00070244	  0.00380979	  0.00033935	 -0.00233951	  0.00307963
448.00000000	  0.00780925	  0.02226693	  0.01093733	  0.00728402	 -0.00775835	 -0.00969891	  0.00980460	  0.01210254
449.00000000	 -0.00713547	 -0.00871862	  0.01271248	 -0.00518292	  0.00593280	  0.01311935	 -0.01238284	 -0.00355892
450.00000000	  0.00140975	  0.00019431	  0.00831167	 -0.00018514	  0.00309554	 -0.00566304	  0.00290255	 -0.00031263
451.00000000	 -0.00029294	 -0.00129730	  0.01861928	 -0.00400006	  0.01067318	  0.02017638	 -0.00020000	 -0.00076185
452.00000000	  0.00557023	  0.00476150	  0.01503436	  0.00386840	 -0.00302788	 -0.01918817	  0.01004385	  0.00140441
453.00000000	 -0.00754909	 -0.01035060	  0.00465753	 -0.00253257	 -0.00417183	  0.00811600	 -0.01251050	 -0.00445565
454.00000000	 -0.00397122	 -0.00079087	  0.01252636	 -0.00303481	  0.00409314	  0.01337135	 -0.00807396	  0.00074612
455.00000000	  0.00454701	  0.00838377	  0.00427184	  0.00227311	  0.00150817	 -0.00916420	  0.00681197	  0.00408256
456.00000000	  0.00180396	  0.00837306	  0.01631159	  0.00373057	 -0.00615517	 -0.01258586	  0.00127907	  0.00492782
457.00000000	 -0.00207879	 -0.00317980	  0.00106841	 -0.00006748	 -0.00333831	  0.00151669	 -0.00336604	 -0.00145951
458.00000000	  0.00074397	 -0.00357799	  0.01023098	 -0.00132016	  0.00241463	  0.01256014	  0.00265958	 -0.00257396
459.00000000	 -0.00203707	 -0.00214259	  0.00367268	 -0.00146122	  0.00268253	 -0.00336969	 -0.00357930	 -0.00076154
460.00000000	 -0.00371705	  0.00214383	  0.00352595	 -0.00109036	  0.00060082	 -0.00019908	 -0.00841980	  0.00253814
461.00000000	  0.00323870	  0.00346420	  0.01138798	  0.00334047	 -0.00532274	 -0.01099169	  0.00571729	  0.00127577
462.00000000	  0.00009552	  0.00095245	  0.00307037	 -0.00254850	  0.00966196	 -0.00128557	 -0.00008499	  0.00059410
463.00000000	 -0.00667822	 -0.00797959	  0.00720374	 -0.00326188	 -0.00058076	  0.01271537	 -0.01145286	 -0.00320493
464.00000000	  0.00693619	  0.01041798	  0.00724052	  0.00589284	 -0.00819481	 -0.00764459	  0.01127184	  0.00470670
465.00000000	 -0.00076684	  0.00663067	  0.00001798	  0.00155179	 -0.00430493	  0.00241870	 -0.00355250	  0.00455609
466.00000000	  0.00244244	 -0.00434477	  0.00406601	 -0.00091754	  0.00399293	  0.00250795	  0.00639196	 -0.00356179
467.00000000	 -0.00574990	 -0.01427741	  0.00121370	 -0.00376981	  0.00138985	  0.00229934	 -0.00763457	 -0.00756809
468.00000000	  0.00018963	 -0.00740814	  0.00280101	 -0.00317230	  0.00897359	 -0.00280836	  0.00274609	 -0.00490594
469.00000000	  0.00032031	  0.00230917	  0.00591087	  0.00267361	 -0.01013368	  0.01347799	 -0.00005562	  0.00140992
470.00000000	  0.00328146	  0.01795283	  0.01843856	  0.00471936	 -0.00297130	 -0.02088992	  0.00131942	  0.01071334
471.00000000	  0.00119043	 -0.00157161	  0.00507075	  0.00040658	 -0.00177802	  0.00763079	  0.00295907	 -0.00138819
472.00000000	 -0.00598955	 -0.01068593	  0.00243705	 -0.00559037	  0.01014787	 -0.00574208	 -0.00920615	 -0.00516483
473.00000000	  0.00126344	  0.01308916	  0.01227568	  0.00180145	 -0.00169556	  0.01151808	 -0.00139661	  0.00818055
474.00000000	  0.00417183	  0.00051961	  0.00752339	  0.00207434	 -0.00100297	 -0.01183591	  0.00848367	 -0.00087797
475.00000000	  0.00235291	  0.00724011	  0.00175927	  0.00084887	  0.00145535	  0.00451309	  0.00277428	  0.00404369
476.00000000	 -0.00538391	 -0.00159890	  0.00588579	 -0.00044356	 -0.00410060	 -0.00484095	 -0.01063609	  0.00051887
477.00000000	 -0.00313314	  0.00473403	  0.01194894	 -0.00222095	  0.00429889	  0.01425378	 -0.00783451	  0.00398805
478.00000000	  0.00350105	  0.00106340	  0.01452206	  0.00323387	 -0.00522027	 -0.01403351	  0.00690693	 -0.00033051
479.00000000	  0.00038114	  0.00390853	  0.00284276	 -0.00016279	  0.00146564	  0.00631564	 -0.00032898	  0.00244344
480.00000000	 -0.00472795	 -0.01112818	  0.00091235	 -0.00431594	  0.00645996	 -0.00128243	 -0.00644980	 -0.00590300
481.00000000	  0.00002151	  0.00000209	  0.00787448	 -0.00003548	 -0.00072175	  0.00638647	  0.00004354	 -0.00000492
482.00000000	 -0.00510560	  0.01000756	  0.00087987	 -0.00180265	  0.00369072	  0.00288020	 -0.01335033	  0.00808083
483.00000000	  0.00613287	  0.00949964	  0.00041053	  0.00379170	 -0.00339371	 -0.00118145	  0.00972032	  0.00447514
484.00000000	 -0.00367737	 -0.01114825	  0.00071749	 -0.00592832	  0.01301607	  0.00043336	 -0.00425537	 -0.00625916
485.00000000	  0.00659447	  0.00406935	  0.00960455	  0.00008759	  0.00957004	 -0.01263280	  0.01195245	  0.00079970
486.00000000	  0.00071709	  0.00372785	  0.00528802	 -0.00524660	  0.01892717	  0.00579050	  0.00035602	  0.00229008
487.00000000	  0.00524293	  0.01597873	  0.01365149	  0.00183720	  0.00443121	 -0.00808928	  0.00572222	  0.00930147
488.00000000	 -0.00087599	 -0.02039350	  0.00522207	 -0.00881215	  0.02275047	 -0.00262192	  0.00401353	 -0.01366337
489.00000000	  0.00137869	  0.00892475	  0.00412468	 -0.00185317	  0.00911772	  0.00413876	  0.00010260	  0.00575478
490.00000000	 -0.00190484	  0.00004065	  0.00262384	 -0.00491414	  0.01384415	  0.00042621	 -0.00342437	  0.00054932
491.00000000	  0.00421565	 -0.00505247	  0.00566858	 -0.00202434	  0.00725303	  0.00773989	  0.00885348	 -0.00469846
492.00000000	  0.00486213	  0.00614430	  0.01204924	 -0.00069736	  0.00966811	 -0.01489419	  0.00682091	  0.00298037
493.00000000	  0.00217247	 -0.00692587	  0.00040388	 -0.00401348	  0.01206929	 -0.00041590	  0.00558155	 -0.00550395
494.00000000	  0.00348383	 -0.00520362	  0.00581691	 -0.00435099	  0.01263001	  0.01079770	  0.00734362	 -0.00473330
495.00000000	  0.00514495	  0.02429133	  0.00908258	  0.00055972	  0.00831696	 -0.00515660	  0.00193175	  0.01621819
496.00000000	  0.01107516	  0.00519356	  0.00751971	 -0.00284872	  0.01784216	 -0.01216534	  0.01646474	  0.00088628
497.00000000	 -0.00055523	 -0.01520230	  0.00480530	 -0.00442610	  0.00779023	  0.00882703	  0.00316932	 -0.01119706
498.00000000	  0.00848556	  0.01902992	  0.00601419	 -0.00130881	  0.01339813	 -0.00907904	  0.00816295	  0.01205525
499.00000000	  0.00335380	 -0.01651977	  0.00123434	 -0.00583148	  0.01426444	  0.00257724	  0.00949302	 -0.01351696
500.00000000	  0.00328869	  0.02121134	  0.00518739	 -0.00140503	  0.00945917	 -0.00246081	 -0.00061188	  0.01549605
501.00000000	  0.00718059	 -0.00168192	  0.00481065	 -0.00298495	  0.01229717	 -0.00903778	  0.01098985	 -0.00315708
502.00000000	 -0.00434602	  0.00089206	  0.00223238	 -0.00470910	  0.00936308	  0.00827343	 -0.00652852	  0.00184091
503.00000000	  0.01121450	  0.01446189	  0.00052632	 -0.00128006	  0.01001509	  0.00139306	  0.01231101	  0.00858634
504.00000000	  0.00043815	 -0.00159050	  0.00261720	 -0.00356910	  0.00807131	  0.00770015	  0.00102920	 -0.00139993
505.00000000	  0.00795787	 -0.00015052	  0.01034474	 -0.00410564	  0.01591727	 -0.01802722	  0.01106520	 -0.00219829
506.00000000	  0.00265001	 -0.01267488	  0.00828438	 -0.00407654	  0.01036671	 -0.00655392	  0.00675156	 -0.01113361
507.00000000	  0.01072272	  0.00399451	  0.00084299	 -0.00237570	  0.01010151	  0.00000364	  0.01338713	  0.00055179
508.00000000	  0.00450870	 -0.00387983	  0.01141591	 -0.00213232	  0.00811671	 -0.01452020	  0.00693343	 -0.00442448
509.00000000	  0.00797289	  0.01054175	  0.00528444	 -0.00359501	  0.01288732	 -0.00546669	  0.00783845	  0.00699636
510.00000000	  0.00252560	 -0.00376132	  0.00215249	 -0.00185376	  0.00490911	 -0.00113926	  0.00412943	 -0.00383859
511.00000000	  0.00766023	  0.00412258	  0.00458925	 -0.00364860	  0.01150543	 -0.00333148	  0.00873536	  0.00170677
512.00000000	  0.00777573	 -0.01748751	  0.01236119	 -0.00140668	  0.00509214	 -0.01343320	  0.01379042	 -0.01719053
513.00000000	  0.00887726	  0.01209259	  0.00888011	  0.00020826	  0.00422650	 -0.01244303	  0.00825213	  0.00858562
514.00000000	  0.00920078	  0.00663843	  0.01176750	 -0.00050622	  0.00440854	 -0.00649370	  0.00985356	  0.00379047
515.00000000	  0.01170179	 -0.00334216	  0.01277472	  0.00094783	  0.00175608	 -0.01711019	  0.01482355	 -0.00544185
516.00000000	  0.00796550	  0.00397489	  0.00298869	 -0.00158922	  0.00486535	  0.00427331	  0.00876053	  0.00188055
517.00000000	  0.01113705	 -0.00500956	  0.02290888	  0.00021458	  0.00343548	 -0.02395948	  0.01413622	 -0.00681987
518.00000000	  0.01375749	 -0.00296806	  0.01720860	 -0.00077598	  0.00502771	 -0.01723920	  0.01658854	 -0.00528616
519.00000000	  0.00528485	 -0.01112285	  0.00879590	 -0.00350776	  0.00888352	 -0.01331098	  0.00794354	 -0.01103485
520.00000000	  0.00551756	 -0.00757403	  0.01259412	 -0.00069753	  0.00247562	 -0.01084560	  0.00744964	 -0.00785450
521.00000000	  0.00545045	 -0.00706053	  0.00681371	 -0.00201509	  0.00488484	 -0.00601787	  0.00722333	 -0.00735326
522.00000000	  0.00382314	  0.00344917	  0.01509092	 -0.00150776	  0.00541908	 -0.02073197	  0.00381312	  0.00263301
523.00000000	  0.00358075	 -0.00711916	  0.00482056	 -0.00035350	  0.00076556	 -0.00427557	  0.00487673	 -0.00705813
524.00000000	  0.00013399	 -0.00418532	  0.00944279	 -0.00079174	  0.00187670	 -0.00826759	  0.00064346	 -0.00389814
525.00000000	  0.00322888	  0.00127770	  0.00819002	  0.00139247	 -0.00216578	 -0.00805517	  0.00342396	  0.00079830
526.00000000	 -0.00351965	  0.00403645	  0.00097516	 -0.00212177	  0.00428819	  0.00599313	 -0.00432716	  0.00416974
527.00000000	  0.00443555	  0.00249426	  0.00636963	  0.00063500	 -0.00029761	 -0.00909471	  0.00459755	  0.00181233
528.00000000	  0.00029245	  0.00382092	  0.00766678	 -0.00041688	  0.00133279	 -0.00249382	 -0.00006406	  0.00352469
529.00000000	  0.00122263	  0.00189599	  0.00300339	 -0.00067661	  0.00193286	 -0.00477749	  0.00114186	  0.00164127
530.00000000	  0.00165756	  0.00128438	  0.00625981	 -0.00083141	  0.00216051	 -0.00324379	  0.00168497	  0.00102781
531.00000000	 -0.00020925	  0.00043324	  0.00230623	 -0.00087280	  0.00190847	 -0.00038299	 -0.00026876	  0.00042674
532.00000000	  0.00412556	  0.00543561	  0.00663982	 -0.00088304	  0.00281435	 -0.00712373	  0.00397388	  0.00470418
533.00000000	  0.00301297	  0.00010981	  0.00437590	 -0.00096154	  0.00245952	 -0.00491476	  0.00323900	 -0.00016474
534.00000000	  0.00077122	  0.00149697	  0.00528342	 -0.00188811	  0.00432020	 -0.00401469	  0.00070895	  0.00134679
535.00000000	  0.00272341	  0.00084785	  0.00599537	 -0.00150297	  0.00353552	 -0.00395415	  0.00284388	  0.00057803
536.00000000	  0.00115564	  0.00166412	  0.00566794	 -0.00076403	  0.00188497	 -0.00349277	  0.00111038	  0.00149029
537.00000000	  0.00036760	  0.00118056	  0.00315515	  0.00006138	 -0.00002010	 -0.00104727	  0.00030725	  0.00109551
538.00000000	  0.00066357	  0.00116622	  0.00553247	 -0.00104099	  0.00245866	 -0.00502822	  0.00062489	  0.00106260
539.00000000	  0.00158401	  0.00297524	  0.00564211	  0.00021177	 -0.00010273	 -0.00473943	  0.00149046	  0.00272937
540.00000000	  0.00034067	  0.00046236	  0.00358839	 -0.00077730	  0.00173532	 -0.00212752	  0.00033229	  0.00041945
541.00000000	 -0.00030454	  0.00177673	  0.00238597	 -0.00100976	  0.00218286	 -0.00042116	 -0.00042416	  0.00171835
542.00000000	  0.00181101	  0.00042583	  0.00239801	 -0.00032683	  0.00086436	 -0.00303749	  0.00187883	  0.00030002
543.00000000	  0.00122203	  0.00334559	  0.00338188	  0.00014332	 -0.00008743	 -0.00240455	  0.00110374	  0.00313477
544.00000000	  0.00044434	  0.00036726	  0.00277563	 -0.00053378	  0.00121788	 -0.00268454	  0.00044717	  0.00032781
545.00000000	  0.00122856	  0.00048108	  0.00194982	 -0.00049310	  0.00115279	 -0.00251804	  0.00126297	  0.00039870
546.00000000	  0.00101088	  0.00082544	  0.00315356	 -0.00021888	  0.00054382	 -0.00127773	  0.00101954	  0.00074108
547.00000000	  0.00101435	  0.00127641	  0.00314064	  0.00010266	 -0.00005979	 -0.00388834	  0.00100320	  0.00117842
548.00000000	 -0.00029843	  0.00034429	  0.00174309	 -0.00028147	  0.00060591	 -0.00088989	 -0.00032651	  0.00034431
549.00000000	  0.00067450	  0.00002811	  0.00114207	 -0.00003839	  0.00013085	 -0.00133625	  0.00070336	 -0.00000208
550.00000000	  0.00072768	  0.00197687	  0.00052538	 -0.00001497	  0.00010013	 -0.00037837	  0.00067804	  0.00187000
551.00000000	  0.00019502	 -0.00040547	  0.00063032	  0.00029807	 -0.00061870	 -0.00024071	  0.00022030	 -0.00039791
552.00000000	 -0.00114356	 -0.00033687	  0.00084076	 -0.00016678	  0.00034292	 -0.00175495	 -0.00118095	 -0.00027753
553.00000000	  0.00100690	  0.00014316	  0.00270646	 -0.00040753	  0.00091914	 -0.00181658	  0.00104568	  0.00009683
554.00000000	  0.00104867	  0.00022472	  0.00193743	  0.00006985	 -0.00006092	 -0.00270517	  0.00108573	  0.00017731
555.00000000	 -0.00028981	  0.00045745	  0.00193164	  0.00034210	 -0.00071915	  0.00038549	 -0.00031760	  0.00045080
556.00000000	  0.00160513	  0.00022506	  0.00170487	 -0.00019822	  0.00049604	 -0.00207278	  0.00166694	  0.00015977
557.00000000	  0.00232115	  0.00084751	  0.00448174	 -0.00022242	  0.00059320	 -0.00385226	  0.00239477	  0.00073609
558.00000000	 -0.00122037	  0.00003342	  0.00053340	 -0.00027992	  0.00055277	  0.00018563	 -0.00127208	  0.00006948
559.00000000	  0.00112678	  0.00173491	  0.00195162	  0.00009909	 -0.00012260	 -0.00219830	  0.00112448	  0.00163704
560.00000000	  0.00160132	  0.00031026	  0.00270034	  0.00042640	 -0.00082153	 -0.00219119	  0.00166014	  0.00025332
561.00000000	  0.00000247	  0.00040852	  0.00059633	  0.00000278	  0.00001278	 -0.00098424	 -0.00000767	  0.00039298
562.00000000	  0.00008970	  0.00082285	  0.00108216	 -0.00040962	  0.00087897	 -0.00108275	  0.00007400	  0.00078978
563.00000000	  0.00027039	 -0.00101943	  0.00112645	 -0.00003987	  0.00008834	 -0.00114170	  0.00030438	 -0.00098802
564.00000000	  0.00123829	  0.00224223	  0.00204731	 -0.00000388	  0.00006883	 -0.00143145	  0.00124269	  0.00213070
565.00000000	  0.00007521	 -0.00030290	  0.00251005	 -0.00015881	  0.00035446	 -0.00242430	  0.00008389	 -0.00029335
566.00000000	  0.00132329	  0.00110191	  0.00257423	 -0.00008985	  0.00024033	 -0.00264657	  0.00135813	  0.00103702
567.00000000	  0.00126227	  0.00191950	  0.00166240	  0.00020632	 -0.00038872	 -0.00155021	  0.00128477	  0.00182884
568.00000000	  0.00048301	  0.00070527	  0.00088856	  0.00001277	 -0.00001169	 -0.00078598	  0.00049269	  0.00067227
569.00000000	 -0.00029971	 -0.00090197	  0.00051127	 -0.00001208	  0.00001229	  0.00053140	 -0.00029971	 -0.00086436
570.00000000	  0.00019453	  0.00040071	  0.00039456	 -0.00008356	  0.00018419	 -0.00077557	  0.00019667	  0.00038330
571.00000000	 -0.00009354	 -0.00010008	  0.00029940	  0.00008693	 -0.00018386	  0.00020013	 -0.00009588	 -0.00009515
572.00000000	 -0.00055526	  0.00052372	  0.00000493	 -0.00014940	  0.00030630	  0.00009517	 -0.00058458	  0.00051225
573.00000000	  0.00055813	 -0.00042208	  0.00019607	  0.00009928	 -0.00020271	  0.00000826	  0.00058625	 -0.00041428
574.00000000	  0.00018821	 -0.00010628	  0.00019901	  0.00014128	 -0.00029018	 -0.00029600	  0.00019719	 -0.00010497
575.00000000	 -0.00027761	  0.00021129	  0.00010195	  0.00004180	 -0.00009103	  0.00029338	 -0.00029166	  0.00020730
576.00000000	  0.00019085	  0.00020093	  0.00019727	 -0.00008949	  0.00018931	 -0.00000236	  0.00019576	  0.00019083
577.00000000	  0.00009337	 -0.00000081	  0.00010001	 -0.00004539	  0.00009468	  0.00009299	  0.00009712	 -0.00000209
578.00000000	  0.00037678	  0.00009425	  0.00079701	 -0.00003585	  0.00008410	 -0.00069949	  0.00039056	  0.00008549
579.00000000	 -0.00029646	 -0.00049834	  0.00050751	  0.00000111	 -0.00000938	  0.00016270	 -0.00030187	 -0.00047592
580.00000000	 -0.00017916	  0.00041412	  0.00039408	 -0.00000109	  0.00000408	 -0.00020430	 -0.00019174	  0.00040140
581.00000000	  0.00037704	 -0.00001212	  0.00000128	  0.00000534	 -0.00000456	 -0.00038085	  0.00039221	 -0.00001656
582.00000000	 -0.00009623	 -0.00020009	  0.00029856	  0.00013306	 -0.00028235	  0.00048896	 -0.00009743	 -0.00019146
583.00000000	 -0.00009226	  0.00010521	  0.00029827	  0.00000061	 -0.00000015	 -0.00020402	 -0.00009734	  0.00010258
584.00000000	 -0.00018594	  0.00010703	  0.00039928	 -0.00024222	  0.00050032	  0.00029717	 -0.00019481	  0.00010555
585.00000000	  0.00028892	  0.00019445	  0.00009470	  0.00043048	 -0.00089036	 -0.00008067	  0.00029789	  0.00018338
586.00000000	 -0.00019620	 -0.00030102	  0.00020443	 -0.00023750	  0.00049440	 -0.00050498	 -0.00020011	 -0.00028729
587.00000000	  0.00028305	  0.00009736	  0.00009927	  0.00010065	 -0.00021029	  0.00058528	  0.00029315	  0.00008990
588.00000000	  0.00000535	  0.00010096	  0.00020335	  0.00004018	 -0.00008236	 -0.00008995	  0.00000418	  0.00009715
589.00000000	 -0.00009742	  0.00000246	  0.00010304	 -0.00023057	  0.00047959	 -0.00010373	 -0.00010136	  0.00000368
590.00000000	 -0.00055488	  0.00052247	  0.00000367	 -0.00004833	  0.00009738	 -0.00009122	 -0.00058391	  0.00051070
591.00000000	  0.00027957	 -0.00021283	  0.00010020	  0.00004851	 -0.00009531	 -0.00048806	  0.00029348	 -0.00020863
592.00000000	  0.00017744	 -0.00051091	  0.00019383	  0.00004384	 -0.00009689	  0.00067451	  0.00019112	 -0.00049451
593.00000000	 -0.00019743	 -0.00040648	  0.00019383	 -0.00000069	 -0.00000018	 -0.00038691	 -0.00019977	 -0.00038902
594.00000000	  0.00037822	 -0.00000719	  0.00000260	 -0.00000189	  0.00000631	  0.00019432	  0.00039341	 -0.00001193
595.00000000	 -0.00008717	  0.00040957	  0.00049537	 -0.00004054	  0.00008923	 -0.00049381	 -0.00009586	  0.00039570
596.00000000	 -0.00009262	  0.00000361	  0.00029993	  0.00004074	 -0.00008921	  0.00049153	 -0.00009636	  0.00000467
597.00000000	  0.00000302	  0.00010150	  0.00020110	 -0.00004977	  0.00010332	  0.00010379	  0.00000178	  0.00009774
598.00000000	 -0.00018796	  0.00011013	  0.00059863	 -0.00004516	  0.00009337	 -0.00012046	 -0.00019684	  0.00010870
599.00000000	  0.00037269	 -0.00021577	  0.00019839	  0.00000277	 -0.00000176	 -0.00018482	  0.00039038	 -0.00021267
600.00000000	 -0.00018184	  0.00020638	  0.00060115	 -0.00010216	  0.00021007	  0.00021302	 -0.00019185	  0.00020116
601.00000000	  0.00017725	 -0.00040930	  0.00060362	  0.00019697	 -0.00040977	 -0.00002061	  0.00018945	 -0.00039679
602.00000000	 -0.00028178	  0.00010746	  0.00009842	 -0.00018832	  0.00039076	 -0.00019335	 -0.00029440	  0.00010718
603.00000000	  0.00000246	  0.00000253	  0.00000227	  0.00018254	 -0.00038228	  0.00038680	  0.00000253	  0.00000241
604.00000000	  0.00001025	  0.00040647	  0.00020506	  0.00009386	 -0.00019466	  0.00021111	  0.00000512	  0.00039137
605.00000000	  0.00028467	 -0.00000719	  0.00010242	  0.00013954	 -0.00028821	  0.00010422	  0.00029624	 -0.00001081
606.00000000	 -0.00028165	  0.00010866	  0.00029993	 -0.00009202	  0.00019208	 -0.00039914	 -0.00029446	  0.00010847
607.00000000	 -0.00009083	  0.00020666	  0.00029791	 -0.00013916	  0.00029172	 -0.00030099	 -0.00009716	  0.00020025
608.00000000	 -0.00000291	 -0.00009747	  0.00020104	  0.00004600	 -0.00009965	  0.00047300	 -0.00000177	 -0.00009385
609.00000000	  0.00018451	 -0.00021306	  0.00039743	 -0.00009469	  0.00020065	 -0.00037526	  0.00019484	 -0.00020759
610.00000000	  0.00000175	 -0.00000199	  0.00020081	  0.00018724	 -0.00038944	  0.00001215	  0.00000185	 -0.00000194
611.00000000	  0.00021043	  0.00101412	  0.00018748	  0.00000679	 -0.00000841	  0.00001535	  0.00020577	  0.00097380
612.00000000	  0.00006393	 -0.00132438	  0.00008444	 -0.00009965	  0.00020010	  0.00016817	  0.00008402	 -0.00127636
613.00000000	 -0.00036477	  0.00052009	  0.00000507	  0.00004349	 -0.00009403	  0.00029561	 -0.00038632	  0.00050590
614.00000000	 -0.00019506	 -0.00030089	  0.00019518	 -0.00005161	  0.00010307	  0.00009424	 -0.00019871	 -0.00028717
615.00000000	  0.00008964	 -0.00010442	  0.00010257	 -0.00018411	  0.00038492	 -0.00020059	  0.00009463	 -0.00010182
616.00000000	  0.00011429	  0.00070886	  0.00011219	  0.00027966	 -0.00057731	  0.00002279	  0.00010919	  0.00068131
617.00000000	  0.00037932	  0.00019241	  0.00039711	  0.00001279	 -0.00001778	 -0.00058251	  0.00039205	  0.00018023
618.00000000	 -0.00047590	 -0.00018979	  0.00030284	 -0.00005131	  0.00010182	 -0.00011789	 -0.00049261	 -0.00017652
619.00000000	  0.00017322	 -0.00081725	  0.00059146	  0.00008139	 -0.00017740	  0.00077612	  0.00019116	 -0.00078930
620.00000000	 -0.00017074	  0.00092126	  0.00019191	 -0.00022828	  0.00047775	 -0.00008983	 -0.00018996	  0.00088967
621.00000000	  0.00075288	 -0.00012384	  0.00019671	  0.00014785	 -0.00029577	 -0.00067548	  0.00078460	 -0.00012910
622.00000000	 -0.00075450	  0.00002315	  0.00000320	 -0.00010217	  0.00020061	  0.00056927	 -0.00078496	  0.00003244
623.00000000	 -0.00017976	  0.00041284	  0.00000377	  0.00000093	 -0.00000393	  0.00020122	 -0.00019248	  0.00040014
624.00000000	  0.00027839	 -0.00031451	  0.00009934	  0.00018577	 -0.00038318	 -0.00019128	  0.00029387	 -0.00030662
625.00000000	  0.00037438	 -0.00001334	  0.00039976	 -0.00008073	  0.00017870	 -0.00097441	  0.00038960	 -0.00001766
626.00000000	 -0.00056403	  0.00001660	  0.00039801	  0.00008422	 -0.00018674	  0.00078290	 -0.00058691	  0.00002323
627.00000000	  0.00028046	 -0.00000848	  0.00010093	 -0.00013387	  0.00028357	 -0.00029172	  0.00029183	 -0.00001182
628.00000000	 -0.00048093	 -0.00049596	  0.00009365	  0.00008453	 -0.00018469	  0.00018223	 -0.00049375	 -0.00047139
629.00000000	  0.00047973	  0.00039642	  0.00009357	 -0.00004225	  0.00009383	  0.00010395	  0.00049382	  0.00037537
630.00000000	 -0.00007989	  0.00061360	  0.00010691	 -0.00014395	  0.00029992	  0.00010642	 -0.00009126	  0.00059210
631.00000000	 -0.00030005	 -0.00070458	  0.00008927	 -0.00000272	 -0.00000184	  0.00018156	 -0.00030252	 -0.00067475
632.00000000	  0.00009966	  0.00019975	  0.00049451	  0.00014709	 -0.00029893	 -0.00068476	  0.00010103	  0.00019107
633.00000000	  0.00000129	  0.00010407	  0.00000016	 -0.00014225	  0.00029427	  0.00028729	  0.00000000	  0.00010023
634.00000000	  0.00000862	  0.00030119	  0.00000526	  0.00023971	 -0.00049394	 -0.00046776	  0.00000500	  0.00028998
635.00000000	 -0.00056428	  0.00011843	  0.00020084	 -0.00004886	  0.00009490	  0.00008743	 -0.00058847	  0.00012135
