  2.00000000	 -0.00000386	 -0.00008274	  0.00008077	 -0.00002032	  0.00007366	 -0.00023504	 -0.00000323	 -0.00006190
  3.00000000	  0.00000166	  0.00004057	  0.00007650	 -0.00002284	  0.00006334	  0.00009765	  0.00000124	  0.00003036
  4.00000000	  0.00003342	  0.00016803	  0.00004033	  0.00000594	 -0.00002583	  0.00006341	  0.00004508	  0.00012491
  5.00000000	  0.00000099	  0.00000295	  0.00007483	  0.00003025	 -0.00008329	 -0.00017683	  0.00000140	  0.00000218
  6.00000000	 -0.00001974	  0.00004511	  0.00004360	  0.00002947	 -0.00009221	  0.00006875	 -0.00003112	  0.00003443
  7.00000000	 -0.00001602	 -0.00025747	  0.00000750	 -0.00006190	  0.00019319	 -0.00000286	 -0.00001612	 -0.00019248
  8.00000000	  0.00006458	 -0.00000972	  0.00004060	 -0.00000989	  0.00002765	  0.00001004	  0.00009751	 -0.00000929
  9.00000000	 -0.00006755	 -0.00003300	  0.00004150	  0.00002158	 -0.00006297	  0.00001909	 -0.00010065	 -0.00002264
 10.00000000	  0.00006600	  0.00003322	  0.00010806	 -0.00002598	  0.00006965	  0.00013052	  0.00009831	  0.00002285
 11.00000000	  0.00007301	 -0.00018503	  0.00007331	 -0.00000016	 -0.00000743	  0.00023293	  0.00011568	 -0.00014099
 12.00000000	  0.00015816	  0.00010671	  0.00002887	 -0.00002654	  0.00006795	  0.00010086	  0.00023468	  0.00007499
 13.00000000	 -0.00013234	 -0.00037158	  0.00003222	 -0.00000417	  0.00002528	  0.00000455	 -0.00018743	 -0.00027436
 14.00000000	  0.00015618	 -0.00024070	  0.00006676	 -0.00004759	  0.00013540	  0.00019610	  0.00024267	 -0.00018543
 15.00000000	  0.00005858	 -0.00009612	  0.00003862	  0.00001181	 -0.00004046	  0.00012135	  0.00009122	 -0.00007395
 16.00000000	 -0.00005722	 -0.00021250	  0.00000094	 -0.00005053	  0.00015266	  0.00013344	 -0.00007928	 -0.00015748
 17.00000000	  0.00000968	  0.00012744	  0.00007760	 -0.00003446	  0.00010524	 -0.00010978	  0.00001045	  0.00009524
 18.00000000	  0.00008349	 -0.00005711	  0.00000919	 -0.00008971	  0.00027037	 -0.00004300	  0.00012741	 -0.00004552
 19.00000000	 -0.00012692	  0.00005865	  0.00008270	 -0.00000404	  0.00000979	  0.00010762	 -0.00019276	  0.00004807
 20.00000000	 -0.00025026	 -0.00017552	  0.00001967	  0.00013868	 -0.00039932	 -0.00013129	 -0.00037078	 -0.00012360
 21.00000000	  0.00008475	  0.00059476	  0.00015325	  0.00000140	 -0.00000872	 -0.00027324	  0.00010852	  0.00044324
 22.00000000	 -0.00001878	  0.00004807	  0.00003834	  0.00002259	 -0.00006680	 -0.00003855	 -0.00002979	  0.00003664
 23.00000000	  0.00005313	  0.00016516	  0.00007499	 -0.00001446	  0.00003961	 -0.00003928	  0.00007471	  0.00012216
 24.00000000	 -0.00013936	  0.00015273	  0.00010919	  0.00005123	 -0.00014807	 -0.00012653	 -0.00021451	  0.00011890
 25.00000000	  0.00003415	  0.00017174	  0.00011260	  0.00005533	 -0.00016437	 -0.00016349	  0.00004600	  0.00012767
 26.00000000	  0.00000457	 -0.00025804	  0.00010612	  0.00006373	 -0.00017878	 -0.00015140	  0.00001494	 -0.00019356
 27.00000000	 -0.00003583	  0.00009293	  0.00014493	  0.00006273	 -0.00018603	 -0.00008803	 -0.00005683	  0.00007077
 28.00000000	  0.00004243	 -0.00000435	  0.00000128	  0.00004184	 -0.00012718	  0.00000331	  0.00006404	 -0.00000458
 29.00000000	 -0.00001892	  0.00004654	  0.00010803	 -0.00003936	  0.00011662	  0.00002782	 -0.00002994	  0.00003547
 30.00000000	  0.00008440	 -0.00001491	  0.00007228	 -0.00005264	  0.00015348	  0.00006294	  0.00012755	 -0.00001380
 31.00000000	 -0.00010240	 -0.00024321	  0.00000282	  0.00001776	 -0.00004279	 -0.00003914	 -0.00014661	 -0.00017909
 32.00000000	  0.00002010	 -0.00000205	  0.00004321	  0.00004399	 -0.00013243	 -0.00001008	  0.00003033	 -0.00000216
 33.00000000	 -0.00000451	 -0.00003793	  0.00008334	  0.00011471	 -0.00034470	  0.00001296	 -0.00000562	 -0.00002828
 34.00000000	 -0.00000977	 -0.00042757	  0.00012443	  0.00010295	 -0.00029851	 -0.00002188	 -0.00000144	 -0.00032000
 35.00000000	  0.00002798	  0.00012880	  0.00018750	  0.00005655	 -0.00018376	  0.00021751	  0.00003820	  0.00009561
 36.00000000	 -0.00006146	  0.00000470	  0.00019156	 -0.00008867	  0.00027513	 -0.00014375	 -0.00009279	  0.00000543
 37.00000000	 -0.00001512	  0.00008470	  0.00003979	 -0.00006044	  0.00017783	  0.00005903	 -0.00002540	  0.00006392
 38.00000000	 -0.00000023	  0.00026075	  0.00027050	 -0.00002051	  0.00006510	 -0.00021865	 -0.00000840	  0.00019536
 39.00000000	  0.00008354	 -0.00001088	  0.00008001	  0.00005095	 -0.00015665	  0.00002476	  0.00012622	 -0.00001073
 40.00000000	 -0.00010291	 -0.00024180	  0.00006173	  0.00011453	 -0.00033163	 -0.00010035	 -0.00014764	 -0.00017795
 41.00000000	  0.00006867	  0.00003369	  0.00025816	  0.00006052	 -0.00017718	 -0.00017972	  0.00010251	  0.00002310
 42.00000000	 -0.00001948	 -0.00033397	  0.00036707	  0.00016705	 -0.00047034	 -0.00055570	 -0.00001920	 -0.00024947
 43.00000000	  0.00001729	 -0.00009041	  0.00032638	  0.00009070	 -0.00026455	 -0.00016534	  0.00002880	 -0.00006820
 44.00000000	  0.00003809	 -0.00008658	  0.00021614	  0.00013616	 -0.00039602	 -0.00031214	  0.00006011	 -0.00006594
 45.00000000	  0.00011128	 -0.00027530	  0.00014790	  0.00005155	 -0.00014852	 -0.00009106	  0.00017628	 -0.00020933
 46.00000000	 -0.00006205	  0.00000644	  0.00018669	 -0.00000751	  0.00002554	 -0.00002702	 -0.00009391	  0.00000668
 47.00000000	  0.00002538	  0.00004197	  0.00004303	 -0.00001047	  0.00003520	 -0.00012118	  0.00003708	  0.00003064
 48.00000000	  0.00003983	 -0.00005634	  0.00000548	 -0.00014739	  0.00044467	  0.00000476	  0.00006181	 -0.00004335
 49.00000000	 -0.00007973	  0.00010073	  0.00007537	  0.00004636	 -0.00014577	  0.00013673	 -0.00012337	  0.00007778
 50.00000000	  0.00006781	  0.00007546	  0.00018488	 -0.00002402	  0.00005851	  0.00023188	  0.00010009	  0.00005444
 51.00000000	 -0.00006062	  0.00005863	  0.00003268	  0.00007393	 -0.00020873	 -0.00031540	 -0.00009330	  0.00004568
 52.00000000	 -0.00001569	 -0.00021418	  0.00007948	  0.00003465	 -0.00010400	  0.00011195	 -0.00001731	 -0.00015980
 53.00000000	  0.00007442	 -0.00013952	  0.00008319	  0.00006428	 -0.00019318	  0.00000416	  0.00011659	 -0.00010660
 54.00000000	 -0.00005927	 -0.00020740	  0.00015826	  0.00005192	 -0.00015632	  0.00013937	 -0.00008335	 -0.00015339
 55.00000000	  0.00011413	  0.00011319	  0.00017754	 -0.00006924	  0.00019681	  0.00014254	  0.00016903	  0.00008127
 56.00000000	 -0.00002004	  0.00030350	  0.00008812	 -0.00011462	  0.00034032	 -0.00001796	 -0.00003934	  0.00022770
 57.00000000	 -0.00002977	  0.00017420	  0.00007997	 -0.00006799	  0.00020110	  0.00001892	 -0.00005016	  0.00013127
 58.00000000	  0.00003265	  0.00016233	  0.00003766	 -0.00005425	  0.00015174	  0.00016127	  0.00004439	  0.00012051
 59.00000000	 -0.00002286	 -0.00003776	  0.00018164	  0.00006991	 -0.00020033	 -0.00020206	 -0.00003337	 -0.00002757
 60.00000000	  0.00007522	 -0.00013807	  0.00000826	  0.00009124	 -0.00027128	 -0.00006746	  0.00011774	 -0.00010559
 61.00000000	 -0.00005630	 -0.00020546	  0.00014122	  0.00010854	 -0.00031661	 -0.00010078	 -0.00007887	 -0.00015204
 62.00000000	 -0.00010082	 -0.00019554	  0.00001492	  0.00016899	 -0.00049832	 -0.00009785	 -0.00014648	 -0.00014325
 63.00000000	  0.00008126	 -0.00005624	  0.00000389	  0.00002078	 -0.00006509	  0.00002629	  0.00012453	 -0.00004449
 64.00000000	 -0.00006638	 -0.00002951	  0.00010305	  0.00011176	 -0.00032744	 -0.00017148	 -0.00009949	 -0.00002009
 65.00000000	  0.00002624	  0.00008144	  0.00003904	 -0.00000183	 -0.00000093	  0.00008724	  0.00003726	  0.00006011
 66.00000000	  0.00001980	 -0.00004165	  0.00018303	  0.00009568	 -0.00027766	 -0.00025395	  0.00003119	 -0.00003173
 67.00000000	 -0.00004579	 -0.00008240	  0.00022706	 -0.00005226	  0.00017123	 -0.00022881	 -0.00006685	 -0.00006025
 68.00000000	  0.00008550	 -0.00031471	  0.00003258	  0.00007034	 -0.00020817	  0.00000060	  0.00013861	 -0.00023779
 69.00000000	  0.00005880	 -0.00004947	  0.00002082	  0.00015119	 -0.00045587	 -0.00004362	  0.00009046	 -0.00003870
 70.00000000	  0.00010194	 -0.00004730	  0.00011694	  0.00015927	 -0.00047695	 -0.00015994	  0.00015580	 -0.00003830
 71.00000000	 -0.00009333	 -0.00037639	  0.00013488	  0.00011737	 -0.00034478	  0.00001246	 -0.00013044	 -0.00027844
 72.00000000	 -0.00000315	  0.00000106	  0.00023294	  0.00006857	 -0.00022007	  0.00028881	 -0.00000481	  0.00000088
 73.00000000	 -0.00006739	 -0.00032737	  0.00009150	  0.00018739	 -0.00054530	 -0.00030918	 -0.00009261	 -0.00024249
 74.00000000	  0.00006764	 -0.00022153	  0.00023276	  0.00011816	 -0.00036044	  0.00011175	  0.00010906	 -0.00016727
 75.00000000	  0.00008933	 -0.00018516	  0.00042298	  0.00005283	 -0.00017044	  0.00026360	  0.00014102	 -0.00014071
 76.00000000	 -0.00006729	 -0.00003182	  0.00004402	  0.00004198	 -0.00012105	 -0.00008368	 -0.00010127	 -0.00002181
 77.00000000	 -0.00011037	 -0.00032819	  0.00016770	  0.00015106	 -0.00045175	  0.00007978	 -0.00015825	 -0.00024168
 78.00000000	 -0.00012527	 -0.00019162	  0.00036194	  0.00022395	 -0.00067628	  0.00009160	 -0.00018493	 -0.00013936
 79.00000000	  0.00010598	 -0.00026632	  0.00038549	  0.00017310	 -0.00052764	  0.00008467	  0.00016894	 -0.00020148
 80.00000000	 -0.00022485	 -0.00074084	  0.00040674	  0.00025301	 -0.00074072	 -0.00019236	 -0.00032129	 -0.00054581
 81.00000000	 -0.00006397	 -0.00020262	  0.00069968	  0.00021917	 -0.00068367	  0.00053209	 -0.00009182	 -0.00014914
 82.00000000	  0.00012091	 -0.00065225	  0.00069888	  0.00032291	 -0.00097475	 -0.00003297	  0.00020311	 -0.00048867
 83.00000000	 -0.00024059	 -0.00065782	  0.00052909	  0.00034180	 -0.00103483	  0.00024670	 -0.00034952	 -0.00048278
 84.00000000	  0.00012462	 -0.00061206	  0.00055565	  0.00031801	 -0.00095514	 -0.00026237	  0.00020769	 -0.00045812
 85.00000000	  0.00000598	 -0.00046810	  0.00077702	  0.00028454	 -0.00087144	  0.00019802	  0.00002181	 -0.00034781
 86.00000000	 -0.00008233	 -0.00054800	  0.00070316	  0.00026587	 -0.00081500	  0.00028337	 -0.00011173	 -0.00040467
 87.00000000	  0.00003579	 -0.00069379	  0.00092770	  0.00021129	 -0.00064959	  0.00026589	  0.00007347	 -0.00051561
 88.00000000	  0.00014634	 -0.00062168	  0.00081933	  0.00031412	 -0.00097684	  0.00042247	  0.00024136	 -0.00046462
 89.00000000	 -0.00017375	 -0.00066963	  0.00086591	  0.00030615	 -0.00093756	  0.00026292	 -0.00024995	 -0.00049190
 90.00000000	  0.00000365	 -0.00091522	  0.00105103	  0.00021814	 -0.00068045	  0.00052016	  0.00002952	 -0.00067787
 91.00000000	 -0.00018263	 -0.00089078	  0.00086387	  0.00033848	 -0.00104128	  0.00034923	 -0.00025881	 -0.00065483
 92.00000000	 -0.00007592	 -0.00089981	  0.00075003	  0.00035701	 -0.00108635	 -0.00013260	 -0.00009429	 -0.00066368
 93.00000000	 -0.00012396	 -0.00024267	  0.00088883	  0.00025352	 -0.00079930	  0.00059553	 -0.00018582	 -0.00017641
 94.00000000	 -0.00015790	 -0.00045394	  0.00086887	  0.00041133	 -0.00126954	  0.00013621	 -0.00023335	 -0.00033160
 95.00000000	 -0.00018399	 -0.00103249	  0.00064125	  0.00027409	 -0.00083999	  0.00009049	 -0.00026040	 -0.00075779
 96.00000000	 -0.00006669	 -0.00081811	  0.00082204	  0.00036080	 -0.00111082	 -0.00005986	 -0.00008391	 -0.00060192
 97.00000000	  0.00015049	 -0.00067569	  0.00112322	  0.00030313	 -0.00097551	  0.00096416	  0.00025023	 -0.00050140
 98.00000000	 -0.00002799	 -0.00052405	  0.00039823	  0.00016478	 -0.00051115	  0.00004486	 -0.00003123	 -0.00038542
 99.00000000	 -0.00035688	 -0.00040545	  0.00002219	  0.00029918	 -0.00092207	  0.00004579	 -0.00054734	 -0.00029030
100.00000000	  0.00012157	 -0.00090438	  0.00002780	  0.00028722	 -0.00090694	  0.00031102	  0.00021080	 -0.00066840
101.00000000	  0.00006617	 -0.00032386	  0.00024172	  0.00023217	 -0.00075254	  0.00075638	  0.00011116	 -0.00023982
102.00000000	 -0.00002160	 -0.00080784	  0.00000601	  0.00032220	 -0.00102833	  0.00064316	 -0.00001399	 -0.00059334
103.00000000	 -0.00006177	 -0.00088459	  0.00026453	  0.00010879	 -0.00032747	 -0.00028722	 -0.00007439	 -0.00064847
104.00000000	 -0.00041088	 -0.00026801	  0.00040616	  0.00044813	 -0.00138014	 -0.00033839	 -0.00063791	 -0.00018642
105.00000000	  0.00023724	 -0.00070201	  0.00018468	  0.00001850	 -0.00007282	  0.00021799	  0.00039008	 -0.00052146
106.00000000	 -0.00013489	 -0.00097624	  0.00018535	  0.00022476	 -0.00072615	  0.00061962	 -0.00018685	 -0.00071299
107.00000000	 -0.00016518	 -0.00075652	  0.00028134	  0.00029954	 -0.00096380	  0.00065897	 -0.00024004	 -0.00055040
108.00000000	 -0.00011924	 -0.00106819	  0.00022176	  0.00037235	 -0.00119029	  0.00046631	 -0.00015816	 -0.00077982
109.00000000	  0.00019507	 -0.00106267	  0.00017218	  0.00032036	 -0.00104004	  0.00050284	  0.00033786	 -0.00078418
110.00000000	 -0.00025662	 -0.00141803	  0.00011774	  0.00022663	 -0.00072652	  0.00022370	 -0.00036446	 -0.00103096
111.00000000	  0.00002439	 -0.00114204	  0.00025240	  0.00053291	 -0.00171346	  0.00050086	  0.00007197	 -0.00083638
112.00000000	 -0.00009224	 -0.00099426	  0.00045766	  0.00018589	 -0.00059088	 -0.00010498	 -0.00011712	 -0.00072424
113.00000000	 -0.00003684	 -0.00068587	  0.00033202	  0.00020706	 -0.00070396	  0.00100178	 -0.00003784	 -0.00050021
114.00000000	  0.00003818	 -0.00047124	  0.00004339	  0.00031054	 -0.00101047	  0.00045317	  0.00007530	 -0.00034550
115.00000000	 -0.00011471	 -0.00135801	  0.00044445	  0.00025478	 -0.00081200	 -0.00024533	 -0.00013972	 -0.00098797
116.00000000	 -0.00007306	 -0.00182142	  0.00026894	  0.00007629	 -0.00026186	 -0.00011342	 -0.00005887	 -0.00132728
117.00000000	 -0.00016733	 -0.00004551	  0.00038978	  0.00032620	 -0.00108350	  0.00112744	 -0.00026504	 -0.00002770
118.00000000	 -0.00044537	 -0.00137409	  0.00024079	  0.00009739	 -0.00032550	  0.00008554	 -0.00066463	 -0.00098732
119.00000000	  0.00025655	 -0.00141843	  0.00014657	  0.00018202	 -0.00061746	  0.00012170	  0.00045665	 -0.00104312
120.00000000	  0.00003790	 -0.00131178	  0.00034872	  0.00026570	 -0.00090764	  0.00073237	  0.00010520	 -0.00095753
121.00000000	 -0.00044976	 -0.00138957	  0.00056042	  0.00020628	 -0.00065973	 -0.00037332	 -0.00067134	 -0.00099678
122.00000000	 -0.00004176	 -0.00079781	  0.00024093	  0.00031195	 -0.00103837	  0.00052626	 -0.00003913	 -0.00057956
123.00000000	  0.00013323	 -0.00105627	  0.00010998	  0.00016602	 -0.00058267	  0.00048819	  0.00025064	 -0.00077367
124.00000000	  0.00030469	 -0.00177366	  0.00027102	 -0.00004749	  0.00004553	  0.00109798	  0.00055208	 -0.00130234
125.00000000	 -0.00031646	 -0.00077412	  0.00060191	  0.00027655	 -0.00087508	 -0.00046931	 -0.00047891	 -0.00055152
126.00000000	 -0.00025639	 -0.00096621	  0.00004685	  0.00010663	 -0.00036126	 -0.00002847	 -0.00037559	 -0.00069344
127.00000000	  0.00010730	 -0.00200182	  0.00028870	 -0.00005539	  0.00007009	  0.00089994	  0.00024652	 -0.00146033
128.00000000	  0.00012677	 -0.00157981	  0.00014641	 -0.00001230	 -0.00003731	  0.00045082	  0.00026369	 -0.00115426
129.00000000	  0.00001079	 -0.00145216	  0.00004028	  0.00002538	 -0.00015263	  0.00042329	  0.00007328	 -0.00105695
130.00000000	 -0.00033507	 -0.00162932	  0.00003290	 -0.00005061	  0.00010283	  0.00017688	 -0.00047375	 -0.00117226
131.00000000	  0.00038048	 -0.00149830	  0.00016423	  0.00006755	 -0.00027974	 -0.00006577	  0.00066954	 -0.00110520
132.00000000	 -0.00031165	 -0.00188785	  0.00037599	 -0.00009576	  0.00025187	 -0.00024086	 -0.00042624	 -0.00136126
133.00000000	 -0.00023988	 -0.00141994	  0.00002422	 -0.00025907	  0.00072862	  0.00092420	 -0.00032879	 -0.00102381
134.00000000	 -0.00034174	 -0.00124334	  0.00034996	 -0.00001265	  0.00000294	 -0.00016281	 -0.00049726	 -0.00089131
135.00000000	  0.00020409	 -0.00114412	  0.00061048	 -0.00021034	  0.00056920	  0.00091238	  0.00037404	 -0.00084173
136.00000000	  0.00022265	 -0.00026750	  0.00015039	  0.00010334	 -0.00031045	 -0.00070961	  0.00036766	 -0.00020391
137.00000000	 -0.00034385	 -0.00162638	  0.00021497	 -0.00035019	  0.00106382	 -0.00021553	 -0.00048456	 -0.00117093
138.00000000	  0.00028917	 -0.00222896	  0.00043963	 -0.00007349	  0.00005016	  0.00126719	  0.00055305	 -0.00163671
139.00000000	 -0.00041210	 -0.00138588	  0.00008065	 -0.00051701	  0.00158211	  0.00014933	 -0.00060013	 -0.00099336
140.00000000	 -0.00036845	 -0.00037828	  0.00071997	 -0.00024585	  0.00075691	  0.00027224	 -0.00057163	 -0.00025998
141.00000000	 -0.00003513	 -0.00030760	  0.00017297	  0.00009915	 -0.00032762	 -0.00006479	 -0.00004269	 -0.00022306
142.00000000	  0.00008055	 -0.00169335	  0.00012152	 -0.00007449	  0.00015517	 -0.00020948	  0.00020190	 -0.00123977
143.00000000	 -0.00008587	 -0.00077996	  0.00030532	 -0.00035433	  0.00110774	 -0.00037721	 -0.00010350	 -0.00056601
144.00000000	  0.00005422	 -0.00071225	  0.00020908	 -0.00021889	  0.00059934	  0.00101019	  0.00011656	 -0.00052292
145.00000000	 -0.00004134	 -0.00094895	  0.00044269	 -0.00011886	  0.00029472	  0.00052827	 -0.00002379	 -0.00069198
146.00000000	 -0.00007560	 -0.00129581	  0.00029568	 -0.00015553	  0.00043145	 -0.00022010	 -0.00006301	 -0.00094430
147.00000000	 -0.00040857	 -0.00193143	  0.00007107	 -0.00057186	  0.00170387	  0.00001631	 -0.00056256	 -0.00139554
148.00000000	  0.00009728	 -0.00082672	  0.00017240	 -0.00024321	  0.00066008	  0.00100821	  0.00019049	 -0.00060999
149.00000000	 -0.00040032	 -0.00194145	  0.00048360	 -0.00076493	  0.00234094	 -0.00070057	 -0.00054480	 -0.00140551
150.00000000	 -0.00032353	 -0.00158056	  0.00010596	 -0.00063590	  0.00192171	 -0.00030192	 -0.00043886	 -0.00114619
151.00000000	  0.00014343	 -0.00171388	  0.00038193	 -0.00090925	  0.00268805	  0.00090873	  0.00030131	 -0.00126691
152.00000000	  0.00003507	 -0.00294690	  0.00032156	 -0.00054922	  0.00146905	  0.00069125	  0.00018868	 -0.00217208
153.00000000	 -0.00032816	 -0.00109567	  0.00017938	 -0.00047785	  0.00144388	 -0.00046348	 -0.00046180	 -0.00079304
154.00000000	 -0.00008718	 -0.00130195	  0.00007817	 -0.00090080	  0.00266445	  0.00086774	 -0.00007720	 -0.00095718
155.00000000	 -0.00009411	 -0.00205135	  0.00032809	 -0.00120539	  0.00356601	  0.00038977	 -0.00005042	 -0.00151342
156.00000000	 -0.00004555	 -0.00078438	  0.00063899	 -0.00076820	  0.00234780	 -0.00060241	 -0.00003416	 -0.00057938
157.00000000	  0.00033421	 -0.00181532	  0.00031029	 -0.00087816	  0.00255349	  0.00000858	  0.00059694	 -0.00136361
158.00000000	  0.00026091	 -0.00136460	  0.00075850	 -0.00083591	  0.00238958	  0.00108993	  0.00046336	 -0.00102726
159.00000000	 -0.00030075	 -0.00132170	  0.00033703	 -0.00098278	  0.00291353	 -0.00021434	 -0.00039734	 -0.00097076
160.00000000	 -0.00006719	 -0.00201162	  0.00039591	 -0.00095719	  0.00271176	  0.00059950	 -0.00000732	 -0.00149891
161.00000000	 -0.00047553	 -0.00212886	  0.00102315	 -0.00116265	  0.00340298	 -0.00099558	 -0.00062060	 -0.00157042
162.00000000	  0.00020819	 -0.00171103	  0.00030130	 -0.00096313	  0.00271494	  0.00066801	  0.00039379	 -0.00129296
163.00000000	 -0.00030261	 -0.00076433	  0.00047802	 -0.00118521	  0.00349962	  0.00004503	 -0.00041827	 -0.00055987
164.00000000	  0.00006250	 -0.00158069	  0.00067103	 -0.00076711	  0.00219574	 -0.00085168	  0.00016785	 -0.00119330
165.00000000	 -0.00028686	 -0.00146001	  0.00071405	 -0.00142965	  0.00418452	 -0.00093042	 -0.00035937	 -0.00108849
166.00000000	 -0.00051231	 -0.00116163	  0.00066934	 -0.00120563	  0.00347090	  0.00004264	 -0.00070540	 -0.00085491
167.00000000	  0.00066522	 -0.00221012	  0.00125295	 -0.00115279	  0.00309662	  0.00153595	  0.00108418	 -0.00170759
168.00000000	 -0.00033493	 -0.00048264	  0.00152654	 -0.00135392	  0.00401131	 -0.00129746	 -0.00046861	 -0.00035097
169.00000000	 -0.00070186	 -0.00173457	  0.00026741	 -0.00139620	  0.00391444	  0.00002705	 -0.00094256	 -0.00128960
170.00000000	  0.00045178	 -0.00319031	  0.00098165	 -0.00149237	  0.00393094	  0.00133803	  0.00080640	 -0.00246145
171.00000000	 -0.00026965	 -0.00143719	  0.00008356	 -0.00156422	  0.00442386	 -0.00087596	 -0.00032010	 -0.00108988
172.00000000	  0.00002597	  0.00001831	  0.00096274	 -0.00172332	  0.00499707	 -0.00061380	  0.00003636	  0.00001287
173.00000000	 -0.00074012	 -0.00237817	  0.00072223	 -0.00161680	  0.00435384	  0.00022366	 -0.00094456	 -0.00180125
174.00000000	 -0.00041977	  0.00038940	  0.00084786	 -0.00180999	  0.00523965	 -0.00087702	 -0.00061159	  0.00032165
175.00000000	  0.00061036	 -0.00204741	  0.00033793	 -0.00142202	  0.00373487	  0.00089146	  0.00095321	 -0.00162079
176.00000000	 -0.00069962	 -0.00280997	  0.00091808	 -0.00191392	  0.00512343	 -0.00136639	 -0.00084678	 -0.00215943
177.00000000	 -0.00043275	 -0.00197233	  0.00028464	 -0.00132668	  0.00348831	 -0.00039770	 -0.00051077	 -0.00152381
178.00000000	  0.00010615	 -0.00194017	  0.00004954	 -0.00197421	  0.00516581	  0.00165864	  0.00023455	 -0.00152872
179.00000000	  0.00048297	 -0.00153794	  0.00025531	 -0.00202448	  0.00540580	 -0.00022322	  0.00073494	 -0.00123529
180.00000000	 -0.00093991	  0.00039867	  0.00183710	 -0.00193987	  0.00544470	 -0.00153875	 -0.00129710	  0.00036025
181.00000000	  0.00001311	 -0.00210132	  0.00050902	 -0.00196360	  0.00510148	 -0.00046841	  0.00011498	 -0.00167054
182.00000000	  0.00044575	 -0.00032420	  0.00011084	 -0.00204859	  0.00550294	 -0.00010206	  0.00061276	 -0.00027858
183.00000000	  0.00002386	  0.00024799	  0.00023884	 -0.00226474	  0.00607721	  0.00082922	  0.00002084	  0.00019762
184.00000000	  0.00002509	 -0.00215341	  0.00046229	 -0.00263723	  0.00672962	  0.00049678	  0.00013178	 -0.00173528
185.00000000	 -0.00006680	 -0.00220971	  0.00041254	 -0.00277591	  0.00705766	 -0.00025289	  0.00001405	 -0.00178603
186.00000000	  0.00113867	 -0.00168804	  0.00026190	 -0.00343882	  0.00865739	  0.00275080	  0.00155221	 -0.00143018
187.00000000	 -0.00192528	 -0.00183838	  0.00142881	 -0.00335019	  0.00847665	 -0.00095299	 -0.00238339	 -0.00141388
188.00000000	  0.00121910	 -0.00044912	  0.00016531	 -0.00304514	  0.00777028	 -0.00046262	  0.00156901	 -0.00042868
189.00000000	 -0.00023767	 -0.00256617	  0.00012808	 -0.00381266	  0.00932192	  0.00019427	 -0.00017949	 -0.00212216
190.00000000	 -0.00026778	 -0.00198201	  0.00018812	 -0.00322977	  0.00781705	  0.00034384	 -0.00023989	 -0.00164681
191.00000000	 -0.00079730	 -0.00152090	  0.00142052	 -0.00424600	  0.01035475	 -0.00015400	 -0.00090993	 -0.00124399
192.00000000	  0.00092453	 -0.00237291	  0.00041772	 -0.00416675	  0.00990533	 -0.00027523	  0.00123283	 -0.00206313
193.00000000	 -0.00078516	 -0.00118997	  0.00124433	 -0.00403421	  0.00967432	 -0.00129621	 -0.00088703	 -0.00098381
194.00000000	  0.00079932	 -0.00058510	  0.00009588	 -0.00386794	  0.00920224	  0.00014557	  0.00097427	 -0.00054264
195.00000000	 -0.00148577	 -0.00176877	  0.00065496	 -0.00420926	  0.00974275	 -0.00036318	 -0.00166207	 -0.00147293
196.00000000	  0.00102095	 -0.00023535	  0.00090732	 -0.00418705	  0.00985049	 -0.00104723	  0.00119357	 -0.00025348
197.00000000	 -0.00109425	 -0.00200098	  0.00067084	 -0.00450978	  0.01021228	 -0.00136288	 -0.00116585	 -0.00172629
198.00000000	  0.00277026	  0.00061476	  0.00000734	 -0.00520875	  0.01207011	  0.00027581	  0.00310672	  0.00043077
199.00000000	 -0.00130673	 -0.00216835	  0.00226716	 -0.00460863	  0.01022672	 -0.00404055	 -0.00137188	 -0.00190705
200.00000000	 -0.00004180	 -0.00220863	  0.00105954	 -0.00518051	  0.01126619	 -0.00032299	  0.00003647	 -0.00201471
201.00000000	  0.00063058	 -0.00002882	  0.00060418	 -0.00538426	  0.01188568	  0.00150751	  0.00068742	 -0.00005224
202.00000000	 -0.00103191	 -0.00047126	  0.00161424	 -0.00438381	  0.00949199	  0.00041867	 -0.00109210	 -0.00039556
203.00000000	  0.00006322	 -0.00155803	  0.00215595	 -0.00561574	  0.01192460	 -0.00087096	  0.00012712	 -0.00146964
204.00000000	 -0.00050294	 -0.00078924	  0.00121949	 -0.00476785	  0.01006586	 -0.00042641	 -0.00049771	 -0.00073029
205.00000000	 -0.00059354	 -0.00052338	  0.00157993	 -0.00557552	  0.01169120	  0.00048650	 -0.00059618	 -0.00047817
206.00000000	  0.00011857	 -0.00135162	  0.00118278	 -0.00475905	  0.00970395	  0.00040264	  0.00017467	 -0.00131846
207.00000000	  0.00041576	  0.00010000	  0.00155486	 -0.00571027	  0.01187207	 -0.00130182	  0.00041797	  0.00008101
208.00000000	 -0.00048992	 -0.00015406	  0.00079584	 -0.00584609	  0.01192806	 -0.00002358	 -0.00048516	 -0.00013317
209.00000000	  0.00070720	 -0.00204374	  0.00066524	 -0.00677734	  0.01337340	 -0.00096193	  0.00077842	 -0.00208425
210.00000000	 -0.00031355	 -0.00111701	  0.00128743	 -0.00626071	  0.01233274	 -0.00240270	 -0.00026517	 -0.00112688
211.00000000	 -0.00091649	  0.00120149	  0.00158601	 -0.00719677	  0.01440159	 -0.00023656	 -0.00092434	  0.00127604
212.00000000	  0.00056926	 -0.00268407	  0.00064609	 -0.00665808	  0.01249498	 -0.00168973	  0.00063517	 -0.00283223
213.00000000	 -0.00173928	 -0.00080359	  0.00226018	 -0.00853632	  0.01628298	 -0.00263005	 -0.00160502	 -0.00079528
214.00000000	  0.00109280	 -0.00018368	  0.00087367	 -0.00640814	  0.01210307	  0.00049401	  0.00101626	 -0.00023466
215.00000000	 -0.00153807	 -0.00186491	  0.00184469	 -0.00784264	  0.01430786	  0.00102313	 -0.00134898	 -0.00198956
216.00000000	  0.00128311	 -0.00050335	  0.00167536	 -0.00775218	  0.01426054	 -0.00000604	  0.00117161	 -0.00060448
217.00000000	 -0.00153758	 -0.00111159	  0.00215378	 -0.00726909	  0.01304343	 -0.00178974	 -0.00133509	 -0.00120558
218.00000000	 -0.00117910	 -0.00106265	  0.00272791	 -0.00835549	  0.01484309	  0.00286274	 -0.00100652	 -0.00117774
219.00000000	  0.00094291	 -0.00055093	  0.00279060	 -0.00736121	  0.01302554	  0.00099601	  0.00083409	 -0.00067695
220.00000000	  0.00031939	 -0.00131580	  0.00209409	 -0.00818289	  0.01417591	  0.00109851	  0.00031284	 -0.00157090
221.00000000	 -0.00021637	  0.00026418	  0.00182170	 -0.00702018	  0.01227663	 -0.00000324	 -0.00019134	  0.00032543
222.00000000	 -0.00078508	 -0.00111198	  0.00314452	 -0.01071587	  0.01828430	 -0.00299246	 -0.00062536	 -0.00133697
223.00000000	  0.00123935	 -0.00179292	  0.00148902	 -0.01025294	  0.01711339	 -0.00274151	  0.00106851	 -0.00227799
224.00000000	 -0.00074652	  0.00027978	  0.00173439	 -0.00968406	  0.01628250	 -0.00363610	 -0.00061332	  0.00037518
225.00000000	  0.00074762	 -0.00180156	  0.00120730	 -0.01200021	  0.01958071	  0.00107317	  0.00063509	 -0.00236837
226.00000000	 -0.00171037	 -0.00067698	  0.00244704	 -0.01053591	  0.01701499	 -0.00284149	 -0.00133840	 -0.00086596
227.00000000	 -0.00038450	 -0.00062598	  0.00241397	 -0.01142528	  0.01827284	 -0.00343332	 -0.00028985	 -0.00084716
228.00000000	 -0.00034845	 -0.00029989	  0.00181875	 -0.00988052	  0.01560569	 -0.00376460	 -0.00026437	 -0.00041329
229.00000000	  0.00123031	  0.00015250	  0.00121721	 -0.00867698	  0.01373256	  0.00089540	  0.00093548	  0.00020092
230.00000000	 -0.00003906	  0.00037279	  0.00244941	 -0.01209957	  0.01890912	 -0.00436634	 -0.00003209	  0.00054103
231.00000000	  0.00026338	 -0.00076060	  0.00127511	 -0.00910921	  0.01384221	 -0.00102863	  0.00019905	 -0.00112845
232.00000000	  0.00027834	 -0.00065946	  0.00169794	 -0.01180123	  0.01784311	 -0.00249451	  0.00020587	 -0.00099866
233.00000000	 -0.00074209	  0.00111267	  0.00176994	 -0.00958134	  0.01468907	  0.00040764	 -0.00053878	  0.00172194
234.00000000	  0.00070667	 -0.00196295	  0.00229951	 -0.01236382	  0.01801388	 -0.00307269	  0.00050200	 -0.00310161
235.00000000	 -0.00055600	  0.00115063	  0.00211428	 -0.01187019	  0.01781498	 -0.00016230	 -0.00038732	  0.00186151
236.00000000	 -0.00157016	 -0.00136575	  0.00282214	 -0.01148363	  0.01645220	 -0.00028303	 -0.00112181	 -0.00227109
237.00000000	  0.00032312	 -0.00175088	  0.00170422	 -0.01351031	  0.01917688	 -0.00152326	  0.00020485	 -0.00297400
238.00000000	  0.00016207	  0.00088614	  0.00297270	 -0.01227273	  0.01788179	  0.00146575	  0.00012679	  0.00154756
239.00000000	  0.00061244	  0.00075828	  0.00258878	 -0.01203934	  0.01738992	  0.00219192	  0.00043241	  0.00136239
240.00000000	 -0.00022416	  0.00008683	  0.00353474	 -0.01384574	  0.01960839	  0.00156927	 -0.00014968	  0.00015657
241.00000000	 -0.00120620	 -0.00225465	  0.00386679	 -0.01615189	  0.02200391	 -0.00028154	 -0.00086381	 -0.00428338
242.00000000	  0.00000819	  0.00210979	  0.00208615	 -0.01270484	  0.01838680	  0.00818946	  0.00006268	  0.00410706
243.00000000	 -0.00104410	 -0.00342375	  0.00311201	 -0.01395777	  0.01770634	 -0.01158156	 -0.00077516	 -0.00687387
244.00000000	  0.00052580	  0.00101218	  0.00153192	 -0.00495744	  0.00698033	  0.00075596	  0.00037842	  0.00207953
245.00000000	 -0.00119923	 -0.00085299	  0.00140283	 -0.00729903	  0.00936909	 -0.00398505	 -0.00080920	 -0.00180353
246.00000000	 -0.00082028	 -0.00041788	  0.00035994	 -0.00638346	  0.00829320	 -0.00224430	 -0.00054596	 -0.00090726
247.00000000	  0.00395489	 -0.00114060	  0.00003193	 -0.00635614	  0.00823854	 -0.00153287	  0.00249567	 -0.00224694
248.00000000	 -0.00344121	 -0.00052938	  0.00268048	 -0.01082194	  0.01405429	 -0.00191720	 -0.00222685	 -0.00128966
249.00000000	 -0.00388815	  0.00117457	  0.00268838	 -0.01070042	  0.01401148	 -0.00588766	 -0.00240944	  0.00239676
250.00000000	  0.00051751	 -0.00111170	  0.00263888	 -0.01652819	  0.02148394	 -0.00150144	  0.00025984	 -0.00249072
251.00000000	 -0.00134729	 -0.00104837	  0.00092507	 -0.01629483	  0.02094939	 -0.00072739	 -0.00090676	 -0.00253750
252.00000000	  0.00204680	  0.00007107	  0.00276601	 -0.00833012	  0.01138354	  0.01052421	  0.00127285	  0.00029129
253.00000000	 -0.00208330	 -0.00195320	  0.00041597	 -0.00366733	  0.00391877	 -0.00265543	 -0.00138635	 -0.00485775
254.00000000	  0.00059778	  0.00188239	  0.00092464	  0.00324513	 -0.00355310	  0.00039815	  0.00047322	  0.00460586
255.00000000	 -0.00154813	 -0.00014861	  0.00172813	  0.00154927	 -0.00221911	 -0.00274801	 -0.00096595	 -0.00044381
256.00000000	  0.00029679	  0.00000077	  0.00068311	 -0.00079324	  0.00106015	  0.00068854	  0.00018362	  0.00001920
257.00000000	 -0.00096415	  0.00042520	  0.00108673	 -0.00601616	  0.00794249	  0.00309744	 -0.00057218	  0.00098119
258.00000000	 -0.00015000	 -0.00238380	  0.00299983	 -0.00943418	  0.01148608	  0.00186362	 -0.00020039	 -0.00590051
259.00000000	 -0.00120215	 -0.00327532	  0.00135998	 -0.00961089	  0.01114224	 -0.00177143	 -0.00087596	 -0.00831223
260.00000000	  0.00065151	  0.00126275	  0.00282198	 -0.00689714	  0.00932776	  0.00445154	  0.00044436	  0.00326458
261.00000000	  0.00152305	  0.00113213	  0.00120424	 -0.00237680	  0.00345790	  0.00189402	  0.00096214	  0.00298501
262.00000000	  0.00335247	 -0.00017220	  0.00174604	 -0.00419039	  0.00542817	  0.00196525	  0.00202181	 -0.00032738
263.00000000	 -0.00108673	  0.00169640	  0.00243886	 -0.00485834	  0.00681559	  0.00666282	 -0.00061245	  0.00442167
264.00000000	  0.00028125	 -0.00000433	  0.00191472	 -0.00843671	  0.01053017	 -0.00161747	  0.00016900	 -0.00000453
265.00000000	  0.00203861	 -0.00246583	  0.00166053	 -0.00649475	  0.00757552	  0.00319162	  0.00118049	 -0.00661847
266.00000000	 -0.00267128	 -0.00143013	  0.00189964	 -0.00649376	  0.00767705	  0.00346151	 -0.00160799	 -0.00395270
267.00000000	  0.00057135	  0.00098746	  0.00069253	 -0.00080587	  0.00132866	  0.00048295	  0.00035102	  0.00272653
268.00000000	  0.00127270	 -0.00313727	  0.00181212	 -0.00291379	  0.00250586	 -0.00484927	  0.00073645	 -0.00865824
269.00000000	  0.00053142	  0.00272624	  0.00031258	  0.00104420	 -0.00034792	  0.00271280	  0.00034798	  0.00755912
270.00000000	 -0.00095065	 -0.00166607	  0.00080162	 -0.00385928	  0.00406386	 -0.00431413	 -0.00058453	 -0.00464116
271.00000000	 -0.00027646	  0.00031633	  0.00128183	 -0.00283246	  0.00366713	  0.00244218	 -0.00016064	  0.00088134
272.00000000	  0.00015944	  0.00140042	  0.00086225	  0.00128642	 -0.00092696	  0.00628487	  0.00010424	  0.00392525
273.00000000	  0.00063084	 -0.00126631	  0.00013868	 -0.00447444	  0.00506768	 -0.00247153	  0.00036809	 -0.00355630
274.00000000	 -0.00265238	 -0.00094451	  0.00000858	  0.00086709	 -0.00127547	  0.00495906	 -0.00157365	 -0.00267166
275.00000000	 -0.00000155	 -0.00091921	  0.00108023	 -0.00219914	  0.00232676	 -0.00248925	 -0.00000564	 -0.00259720
276.00000000	  0.00116431	  0.00102279	  0.00061293	 -0.00137413	  0.00207656	  0.00083430	  0.00069213	  0.00290722
277.00000000	 -0.00563129	 -0.00424839	  0.00016800	  0.00107822	 -0.00270078	  0.00585919	 -0.00333892	 -0.01205221
278.00000000	  0.00394004	  0.00150795	  0.00002868	 -0.00184566	  0.00278340	 -0.00339499	  0.00232250	  0.00429127
279.00000000	  0.00009453	  0.00021624	  0.00027924	  0.00053056	 -0.00061565	 -0.00107442	  0.00005630	  0.00061498
280.00000000	  0.00046244	  0.00093524	  0.00048143	 -0.00035395	  0.00079217	  0.00129463	  0.00027716	  0.00265869
281.00000000	 -0.00084392	  0.00059899	  0.00064524	 -0.00098184	  0.00113148	 -0.00621031	 -0.00049459	  0.00169888
282.00000000	  0.00077341	  0.00058206	  0.00105695	  0.00064889	 -0.00043822	  0.00406477	  0.00045928	  0.00166197
283.00000000	 -0.00157513	 -0.00051909	  0.00002553	  0.00098192	 -0.00127813	  0.00410126	 -0.00093088	 -0.00147661
284.00000000	 -0.00000490	 -0.00141489	  0.00019989	 -0.00193519	  0.00175405	 -0.00482964	 -0.00000472	 -0.00402538
285.00000000	 -0.00047387	  0.00046249	  0.00046055	 -0.00026940	  0.00072188	  0.00749749	 -0.00027788	  0.00131874
286.00000000	 -0.00021357	 -0.00202856	  0.00046730	 -0.00146437	  0.00096522	 -0.00471952	 -0.00012567	 -0.00579436
287.00000000	 -0.00340025	 -0.00009049	  0.00046336	  0.00033462	 -0.00047368	  0.00294331	 -0.00199980	 -0.00025981
288.00000000	  0.00409044	  0.00191386	  0.00088596	 -0.00026882	  0.00108731	 -0.00034999	  0.00240912	  0.00546731
289.00000000	 -0.00114994	 -0.00163734	  0.00016587	 -0.00092426	  0.00048571	 -0.00202744	 -0.00068049	 -0.00469070
290.00000000	 -0.00142130	 -0.00062599	  0.00037291	  0.00001545	 -0.00026135	  0.00051605	 -0.00083687	 -0.00179814
291.00000000	 -0.00333029	 -0.00201985	  0.00088858	 -0.00064241	 -0.00026532	 -0.00670157	 -0.00196367	 -0.00580755
292.00000000	  0.00712695	  0.00158266	  0.00124635	  0.00042732	  0.00043444	  0.00429255	  0.00419508	  0.00458461
293.00000000	 -0.00106190	  0.00238188	  0.00018941	  0.00026957	  0.00046324	  0.00215425	 -0.00061633	  0.00682137
294.00000000	 -0.00128487	 -0.00085880	  0.00060471	 -0.00099832	  0.00092305	  0.00076109	 -0.00075831	 -0.00246351
295.00000000	 -0.00292382	 -0.00178236	  0.00007084	 -0.00117179	  0.00061002	 -0.00339509	 -0.00172064	 -0.00513333
296.00000000	  0.00096554	 -0.00023530	  0.00071354	  0.00175704	 -0.00202765	  0.00439677	  0.00056669	 -0.00067485
297.00000000	  0.00029897	  0.00163357	  0.00042613	  0.00125716	 -0.00110466	 -0.00305603	  0.00017658	  0.00467917
298.00000000	 -0.00016506	  0.00004209	  0.00043579	 -0.00208662	  0.00257666	  0.00032252	 -0.00009691	  0.00012043
299.00000000	  0.00341786	  0.00046055	  0.00100532	  0.00309897	 -0.00342317	  0.00205668	  0.00201062	  0.00132861
300.00000000	 -0.00261324	  0.00015307	  0.00157831	 -0.00360222	  0.00419891	 -0.00466786	 -0.00153656	  0.00043334
301.00000000	 -0.00009270	  0.00037476	  0.00025497	  0.00160400	 -0.00187165	 -0.00083321	 -0.00005270	  0.00107533
302.00000000	 -0.00051863	 -0.00194657	  0.00045993	  0.00003530	 -0.00060928	  0.00246550	 -0.00031327	 -0.00558164
303.00000000	  0.00127654	  0.00145042	  0.00063672	 -0.00158567	  0.00229755	 -0.00445252	  0.00075800	  0.00417071
304.00000000	 -0.00144817	 -0.00034286	  0.00061311	 -0.00005928	 -0.00014652	 -0.00136907	 -0.00085449	 -0.00099697
305.00000000	  0.00405580	  0.00007063	  0.00139545	 -0.00097734	  0.00151740	  0.00386307	  0.00238437	  0.00023905
306.00000000	 -0.00417498	 -0.00003997	  0.00162802	  0.00273365	 -0.00383381	 -0.00874336	 -0.00245577	 -0.00015215
307.00000000	  0.00149453	  0.00023249	  0.00179975	  0.00043992	 -0.00002053	  0.01068948	  0.00088120	  0.00067721
308.00000000	  0.00270356	  0.00086762	  0.00008303	  0.00034012	  0.00005269	  0.00245262	  0.00159383	  0.00248828
309.00000000	 -0.00195701	  0.00107333	  0.00002681	 -0.00164414	  0.00218383	 -0.00257947	 -0.00114987	  0.00306894
310.00000000	 -0.00020769	 -0.00210843	  0.00039882	 -0.00307852	  0.00313622	  0.00137690	 -0.00013049	 -0.00607066
311.00000000	 -0.00480371	 -0.00194109	  0.00049281	  0.00114939	 -0.00240080	 -0.00455673	 -0.00282669	 -0.00562205
312.00000000	  0.00333042	  0.00091322	  0.00075438	  0.00136591	 -0.00110206	  0.00369025	  0.00195877	  0.00264145
313.00000000	  0.00111886	  0.00079308	  0.00022605	  0.00132178	 -0.00122668	  0.00242598	  0.00066037	  0.00227735
314.00000000	  0.00023254	  0.00093929	  0.00047165	 -0.00209493	  0.00288242	  0.00014137	  0.00013988	  0.00269788
315.00000000	 -0.00046080	  0.00123253	  0.00004712	  0.00372205	 -0.00429303	 -0.00359728	 -0.00026805	  0.00353196
316.00000000	  0.00206520	 -0.00178310	  0.00038418	 -0.00094688	  0.00064066	 -0.00080315	  0.00120868	 -0.00508608
317.00000000	 -0.00033217	  0.00060794	  0.00053552	 -0.00008225	  0.00010660	 -0.00476388	 -0.00019128	  0.00173714
318.00000000	 -0.00222780	 -0.00063295	  0.00098597	  0.00060941	 -0.00090682	  0.00360324	 -0.00131526	 -0.00182676
319.00000000	  0.00137406	  0.00275010	  0.00025611	  0.00105825	 -0.00048457	 -0.00288103	  0.00082190	  0.00786227
320.00000000	 -0.00219716	 -0.00132626	  0.00014623	  0.00038941	 -0.00079319	  0.00524334	 -0.00130295	 -0.00378820
321.00000000	  0.00285938	 -0.00157390	  0.00023982	 -0.00244539	  0.00257708	 -0.00085144	  0.00167895	 -0.00448612
322.00000000	 -0.00030019	  0.00214997	  0.00049747	  0.00155636	 -0.00101555	  0.00614354	 -0.00016477	  0.00614883
323.00000000	  0.00056971	  0.00052162	  0.00065690	  0.00126219	 -0.00159165	 -0.00656286	  0.00033542	  0.00149084
324.00000000	  0.00118693	 -0.00177788	  0.00040784	 -0.00208877	  0.00186463	 -0.00490295	  0.00068970	 -0.00506594
325.00000000	 -0.00166568	  0.00141758	  0.00027378	  0.00105872	 -0.00069421	  0.00601766	 -0.00096875	  0.00404286
326.00000000	  0.00191143	  0.00042719	  0.00005375	  0.00225491	 -0.00262757	 -0.00217770	  0.00112939	  0.00122834
327.00000000	 -0.00416234	  0.00053136	  0.00062873	  0.00291936	 -0.00348554	  0.00213505	 -0.00245378	  0.00148946
328.00000000	  0.00285437	  0.00087924	  0.00117076	  0.00268875	 -0.00286590	  0.00125835	  0.00168915	  0.00249182
329.00000000	  0.00324667	  0.00244788	  0.00058187	 -0.00047048	  0.00134511	 -0.00225122	  0.00193346	  0.00689339
330.00000000	 -0.00359417	 -0.00049043	  0.00119622	 -0.00088634	  0.00085985	  0.00138789	 -0.00213239	 -0.00139345
331.00000000	  0.00368116	  0.00006839	  0.00126918	  0.00000717	  0.00025723	  0.00297805	  0.00217905	  0.00021497
332.00000000	 -0.00009864	 -0.00031571	  0.00033900	  0.00232254	 -0.00287613	  0.00183667	 -0.00005923	 -0.00088744
333.00000000	 -0.00185339	  0.00090856	  0.00116297	  0.00365281	 -0.00442037	 -0.00399731	 -0.00109521	  0.00253325
334.00000000	  0.00024944	  0.00101522	  0.00024546	  0.00268514	 -0.00301571	 -0.00069408	  0.00015419	  0.00282014
335.00000000	  0.00218116	  0.00020517	  0.00041420	  0.00196493	 -0.00218635	  0.00246002	  0.00129881	  0.00057872
336.00000000	 -0.00068207	  0.00022967	  0.00159270	  0.00053469	 -0.00070468	 -0.00229207	 -0.00040403	  0.00062961
337.00000000	 -0.00092803	  0.00221136	  0.00026691	  0.00706931	 -0.00821851	 -0.00378777	 -0.00053321	  0.00604017
338.00000000	 -0.00068856	  0.00000920	  0.00004857	  0.00485993	 -0.00566933	  0.00890837	 -0.00041203	  0.00002130
339.00000000	  0.00102995	 -0.00098965	  0.00074104	  0.00184258	 -0.00253088	 -0.00019467	  0.00060967	 -0.00265248
340.00000000	 -0.00205449	 -0.00241728	  0.00074436	 -0.00040417	 -0.00053409	 -0.00648510	 -0.00125399	 -0.00650507
341.00000000	  0.00050080	  0.00383099	  0.00112995	  0.01028533	 -0.01176938	 -0.00508771	  0.00035983	  0.01018243
342.00000000	  0.00192012	 -0.00058052	  0.00120232	  0.00267857	 -0.00361706	 -0.00465547	  0.00114688	 -0.00148407
343.00000000	 -0.00012999	 -0.00066031	  0.00032047	  0.00624339	 -0.00778906	  0.00359694	 -0.00009482	 -0.00171846
344.00000000	  0.00244565	  0.00286368	  0.00001600	  0.00789188	 -0.00934475	 -0.00926672	  0.00154966	  0.00740441
345.00000000	  0.00003859	  0.00087913	  0.00151137	  0.00490387	 -0.00631120	 -0.00936941	  0.00005148	  0.00222532
346.00000000	 -0.00138964	 -0.00227316	  0.00053795	  0.00133592	 -0.00229639	  0.00116372	 -0.00092926	 -0.00576567
347.00000000	 -0.00383160	  0.00131991	  0.00182058	  0.00346254	 -0.00437456	 -0.00542095	 -0.00229580	  0.00316852
348.00000000	  0.00122918	 -0.00161744	  0.00066119	  0.00349329	 -0.00468182	  0.00249598	  0.00069291	 -0.00397462
349.00000000	 -0.00044059	 -0.00117917	  0.00110480	  0.00371949	 -0.00514848	 -0.00261214	 -0.00031757	 -0.00292711
350.00000000	  0.00198784	 -0.00085025	  0.00098033	  0.00441596	 -0.00564340	  0.00204071	  0.00118657	 -0.00200343
351.00000000	  0.00190103	  0.00160868	  0.00023048	  0.01296030	 -0.01628504	 -0.01090395	  0.00124646	  0.00396269
352.00000000	 -0.00483273	  0.00217732	  0.00215991	  0.01112047	 -0.01350659	  0.00358895	 -0.00289806	  0.00490303
353.00000000	  0.00397763	 -0.00096117	  0.00094412	  0.01138623	 -0.01471229	 -0.00207934	  0.00245230	 -0.00200864
354.00000000	  0.00058763	  0.00087894	  0.00297374	  0.01779715	 -0.02221585	  0.00491471	  0.00040971	  0.00198918
355.00000000	 -0.00082158	 -0.00054619	  0.00168298	  0.01766009	 -0.02258843	  0.00755239	 -0.00054573	 -0.00120640
356.00000000	  0.00284401	  0.00269984	  0.00122710	  0.02122673	 -0.02686609	 -0.00137593	  0.00192414	  0.00569246
357.00000000	 -0.00133365	 -0.00188548	  0.00233464	  0.01806642	 -0.02419348	  0.00369463	 -0.00092652	 -0.00379919
358.00000000	  0.00235700	  0.00356615	  0.00287155	  0.01963026	 -0.02516421	  0.00277385	  0.00163985	  0.00690825
359.00000000	  0.00189676	 -0.00055789	  0.00260760	  0.01863951	 -0.02509789	  0.00563045	  0.00126987	 -0.00099639
360.00000000	  0.00144904	  0.00125742	  0.00207306	  0.02114846	 -0.02852002	  0.00369886	  0.00100552	  0.00225276
361.00000000	 -0.00116288	 -0.00031271	  0.00440144	  0.02293389	 -0.03181709	  0.00637317	 -0.00081106	 -0.00054071
362.00000000	 -0.00021752	  0.00090593	  0.00251546	  0.02022328	 -0.02845328	  0.00356095	 -0.00015853	  0.00147689
363.00000000	 -0.00148732	  0.00059949	  0.00179643	  0.01851875	 -0.02674429	 -0.00014027	 -0.00108050	  0.00094686
364.00000000	  0.00264264	  0.00054851	  0.00224984	  0.01849134	 -0.02699082	  0.00351725	  0.00194002	  0.00080875
365.00000000	 -0.00140923	 -0.00077404	  0.00135238	  0.01752387	 -0.02648098	  0.00292010	 -0.00104688	 -0.00111244
366.00000000	  0.00028865	  0.00113129	  0.00169509	  0.01682717	 -0.02550361	  0.00108448	  0.00020133	  0.00159162
367.00000000	 -0.00098039	  0.00047940	  0.00097272	  0.01635795	 -0.02542413	  0.00206150	 -0.00077248	  0.00067120
368.00000000	  0.00068739	  0.00031377	  0.00045305	  0.01253035	 -0.01986757	  0.00254355	  0.00053876	  0.00040223
369.00000000	  0.00069952	  0.00134115	  0.00119484	  0.01502741	 -0.02400251	 -0.00068536	  0.00053401	  0.00171741
370.00000000	  0.00017695	  0.00158616	  0.00302268	  0.01252641	 -0.02033551	  0.00148019	  0.00010596	  0.00198814
371.00000000	 -0.00185454	 -0.00026094	  0.00105747	  0.01189421	 -0.02004557	  0.00439690	 -0.00154346	 -0.00027094
372.00000000	  0.00220580	  0.00019021	  0.00353155	  0.01219911	 -0.02072259	  0.00559465	  0.00186985	  0.00016306
373.00000000	  0.00055810	  0.00238507	  0.00344530	  0.01322126	 -0.02248320	  0.00137588	  0.00039383	  0.00276550
374.00000000	 -0.00071928	  0.00200239	  0.00275298	  0.01285199	 -0.02242660	  0.00305916	 -0.00071608	  0.00230252
375.00000000	  0.00091779	  0.00041485	  0.00231119	  0.01207317	 -0.02174708	  0.00153083	  0.00081219	  0.00042497
376.00000000	  0.00032536	  0.00131904	  0.00214820	  0.01178828	 -0.02156394	  0.00413369	  0.00024237	  0.00141496
377.00000000	  0.00135925	  0.00264861	  0.00211207	  0.01095126	 -0.02013093	  0.00001316	  0.00115409	  0.00274655
378.00000000	 -0.00103438	 -0.00054404	  0.00126356	  0.00959486	 -0.01862517	  0.00283766	 -0.00096823	 -0.00051620
379.00000000	  0.00022324	  0.00224426	  0.00234176	  0.01005409	 -0.01934441	  0.00241238	  0.00010290	  0.00227295
380.00000000	 -0.00039103	  0.00153644	  0.00197126	  0.00896250	 -0.01772420	  0.00274071	 -0.00047355	  0.00155460
381.00000000	  0.00090664	  0.00169329	  0.00254424	  0.00822984	 -0.01651375	  0.00216600	  0.00082539	  0.00161374
382.00000000	  0.00113941	  0.00172352	  0.00357764	  0.00823863	 -0.01688799	  0.00366357	  0.00107700	  0.00160051
383.00000000	 -0.00098750	  0.00111032	  0.00235172	  0.00861904	 -0.01807594	  0.00174560	 -0.00111362	  0.00111267
384.00000000	  0.00122446	  0.00132203	  0.00249453	  0.00725413	 -0.01540940	  0.00088562	  0.00123284	  0.00116228
385.00000000	  0.00025667	  0.00110404	  0.00212935	  0.00721840	 -0.01568582	  0.00159601	  0.00020953	  0.00100106
386.00000000	  0.00001822	  0.00166519	  0.00128157	  0.00658015	 -0.01437145	 -0.00039403	 -0.00008930	  0.00151140
387.00000000	  0.00064511	  0.00093756	  0.00137654	  0.00526919	 -0.01188566	  0.00215363	  0.00066944	  0.00080019
388.00000000	 -0.00055209	  0.00235825	  0.00099921	  0.00638859	 -0.01432733	  0.00045266	 -0.00079396	  0.00212824
389.00000000	  0.00139451	  0.00118782	  0.00286984	  0.00532615	 -0.01234420	  0.00189975	  0.00154763	  0.00095101
390.00000000	  0.00049469	  0.00385223	  0.00142602	  0.00462136	 -0.01047654	  0.00170532	  0.00031903	  0.00331059
391.00000000	  0.00091387	  0.00141913	  0.00181916	  0.00473437	 -0.01116268	  0.00020166	  0.00099696	  0.00115890
392.00000000	 -0.00077328	  0.00155302	  0.00125163	  0.00386907	 -0.00934262	  0.00242435	 -0.00105141	  0.00137863
393.00000000	  0.00190255	  0.00568043	  0.00143552	  0.00483648	 -0.01120751	  0.00133993	  0.00192769	  0.00466512
394.00000000	 -0.00090521	  0.00030024	  0.00046169	  0.00400102	 -0.00990244	 -0.00062840	 -0.00115442	  0.00031662
395.00000000	  0.00042034	  0.00353892	  0.00107289	  0.00394528	 -0.00953420	  0.00049292	  0.00026913	  0.00291097
396.00000000	  0.00059975	  0.00205583	  0.00067904	  0.00319673	 -0.00784173	 -0.00100327	  0.00061523	  0.00165355
397.00000000	  0.00028313	  0.00293813	  0.00147132	  0.00467103	 -0.01171874	  0.00038090	  0.00015057	  0.00238464
398.00000000	  0.00030716	 -0.00098750	  0.00153914	  0.00308817	 -0.00837742	  0.00230841	  0.00047625	 -0.00082425
399.00000000	 -0.00109436	  0.00221965	  0.00074739	  0.00354421	 -0.00893981	 -0.00240505	 -0.00162169	  0.00186710
400.00000000	 -0.00008075	 -0.00059432	  0.00186253	  0.00273343	 -0.00747145	  0.00110044	 -0.00006482	 -0.00047056
401.00000000	  0.00005773	  0.00287940	  0.00087986	  0.00377823	 -0.00978384	 -0.00123067	 -0.00013292	  0.00228781
402.00000000	  0.00005363	  0.00156143	  0.00007228	  0.00299869	 -0.00783741	 -0.00269809	 -0.00003691	  0.00123035
403.00000000	  0.00065426	  0.00166958	  0.00235463	  0.00291727	 -0.00791083	  0.00038708	  0.00079302	  0.00126927
404.00000000	 -0.00097801	  0.00011437	  0.00014090	  0.00319004	 -0.00885414	 -0.00065669	 -0.00138039	  0.00015269
405.00000000	  0.00109534	  0.00202871	  0.00302194	  0.00207477	 -0.00576759	  0.00170052	  0.00141468	  0.00150503
406.00000000	 -0.00050763	  0.00340602	  0.00031709	  0.00226087	 -0.00602608	 -0.00066287	 -0.00095086	  0.00266494
407.00000000	  0.00123135	  0.00135822	  0.00135551	  0.00254827	 -0.00720498	  0.00016389	  0.00168542	  0.00096588
408.00000000	  0.00100736	  0.00264473	  0.00218676	  0.00194912	 -0.00548758	  0.00124761	  0.00128987	  0.00196002
409.00000000	 -0.00018283	  0.00207433	  0.00113700	  0.00198683	 -0.00560300	  0.00002731	 -0.00040584	  0.00159238
410.00000000	 -0.00007630	  0.00179560	  0.00074699	  0.00202098	 -0.00566336	 -0.00165950	 -0.00023058	  0.00136720
411.00000000	  0.00065958	  0.00230780	  0.00240672	  0.00232523	 -0.00679363	  0.00135667	  0.00083602	  0.00170339
412.00000000	  0.00069177	  0.00328425	  0.00212587	  0.00157034	 -0.00442691	  0.00005670	  0.00082976	  0.00242942
413.00000000	 -0.00040191	  0.00258471	  0.00058707	  0.00148167	 -0.00419026	 -0.00068517	 -0.00076767	  0.00196150
414.00000000	 -0.00018728	  0.00317812	  0.00135409	  0.00177397	 -0.00497091	 -0.00220627	 -0.00047967	  0.00238431
415.00000000	  0.00144998	  0.00278223	  0.00300363	  0.00142727	 -0.00426989	  0.00151327	  0.00206259	  0.00199366
416.00000000	 -0.00035302	  0.00271441	  0.00131740	  0.00149753	 -0.00429007	 -0.00163038	 -0.00069915	  0.00203186
417.00000000	 -0.00025732	  0.00150013	  0.00214537	  0.00112597	 -0.00335370	 -0.00025430	 -0.00048056	  0.00112218
418.00000000	  0.00066862	  0.00304483	  0.00168545	  0.00115021	 -0.00330729	 -0.00124766	  0.00088531	  0.00221577
419.00000000	 -0.00053593	  0.00155040	  0.00173011	  0.00086568	 -0.00254823	 -0.00071889	 -0.00091491	  0.00116440
420.00000000	 -0.00004031	  0.00281944	  0.00149883	  0.00111548	 -0.00327114	 -0.00082776	 -0.00019341	  0.00207224
421.00000000	  0.00005867	  0.00128428	  0.00091218	  0.00071898	 -0.00215855	 -0.00056905	  0.00003716	  0.00093889
422.00000000	  0.00021957	  0.00259351	  0.00044803	  0.00086602	 -0.00252944	 -0.00118027	  0.00024089	  0.00188903
423.00000000	  0.00010963	  0.00269417	  0.00038613	  0.00078564	 -0.00227633	 -0.00140401	  0.00006900	  0.00196356
424.00000000	  0.00069693	  0.00226008	  0.00058229	  0.00039878	 -0.00113749	 -0.00062928	  0.00102849	  0.00162435
425.00000000	  0.00041995	  0.00244963	  0.00183387	  0.00048909	 -0.00146790	  0.00056863	  0.00058261	  0.00177092
426.00000000	 -0.00002667	  0.00116789	  0.00073268	  0.00068697	 -0.00211377	 -0.00059256	 -0.00008330	  0.00085061
427.00000000	 -0.00043580	  0.00084626	  0.00006360	  0.00047030	 -0.00139538	 -0.00150634	 -0.00072778	  0.00062809
428.00000000	 -0.00026152	  0.00263163	  0.00082543	  0.00020977	 -0.00053033	 -0.00032160	 -0.00050219	  0.00191833
429.00000000	  0.00092310	  0.00327945	  0.00126043	  0.00016979	 -0.00041515	 -0.00052630	  0.00138770	  0.00235581
430.00000000	  0.00045873	  0.00291606	  0.00174258	  0.00025396	 -0.00071431	 -0.00010127	  0.00065631	  0.00210397
431.00000000	 -0.00075452	  0.00220123	  0.00266752	  0.00028192	 -0.00076922	 -0.00124491	 -0.00127851	  0.00161004
432.00000000	  0.00027032	  0.00287324	  0.00153263	 -0.00018309	  0.00070873	 -0.00122199	  0.00037169	  0.00207737
433.00000000	  0.00057655	  0.00315469	  0.00180960	  0.00012272	 -0.00030439	 -0.00088589	  0.00086928	  0.00227774
434.00000000	  0.00006230	  0.00168332	  0.00009507	 -0.00016285	  0.00057807	 -0.00043201	  0.00007517	  0.00121867
435.00000000	  0.00002692	  0.00314370	  0.00272816	 -0.00023931	  0.00087932	 -0.00155586	  0.00000366	  0.00227817
436.00000000	 -0.00006229	  0.00209898	  0.00294921	 -0.00036312	  0.00125497	 -0.00171176	 -0.00012653	  0.00152342
437.00000000	  0.00022641	  0.00222019	  0.00187764	 -0.00059673	  0.00196788	 -0.00067626	  0.00033447	  0.00160819
438.00000000	  0.00011652	  0.00237830	  0.00196902	 -0.00054568	  0.00178937	 -0.00023564	  0.00015399	  0.00172671
439.00000000	 -0.00005006	  0.00157385	  0.00237010	 -0.00052228	  0.00173689	 -0.00164440	 -0.00010346	  0.00114623
440.00000000	  0.00002897	  0.00190738	  0.00225387	 -0.00055022	  0.00178988	 -0.00047963	  0.00001861	  0.00138909
441.00000000	 -0.00024261	  0.00156298	  0.00253387	 -0.00055762	  0.00183912	 -0.00143395	 -0.00041017	  0.00114473
442.00000000	  0.00039607	  0.00187303	  0.00157190	 -0.00052027	  0.00166857	 -0.00059064	  0.00059821	  0.00136030
443.00000000	  0.00017506	  0.00183046	  0.00155412	 -0.00036452	  0.00117171	 -0.00046739	  0.00024676	  0.00133452
444.00000000	  0.00016943	  0.00151555	  0.00171221	 -0.00055622	  0.00178904	 -0.00102759	  0.00024175	  0.00110552
445.00000000	  0.00011241	  0.00204670	  0.00187723	 -0.00076803	  0.00244045	 -0.00063966	  0.00014248	  0.00149722
446.00000000	 -0.00003061	  0.00147594	  0.00187238	 -0.00066481	  0.00212680	 -0.00116588	 -0.00007401	  0.00108356
447.00000000	  0.00030050	  0.00182983	  0.00159063	 -0.00060003	  0.00187328	 -0.00029088	  0.00043857	  0.00133813
448.00000000	  0.00008419	  0.00197564	  0.00194424	 -0.00078435	  0.00245944	 -0.00063523	  0.00009547	  0.00145179
449.00000000	 -0.00017964	  0.00155086	  0.00240584	 -0.00063421	  0.00200075	 -0.00085355	 -0.00030845	  0.00114690
450.00000000	  0.00013359	  0.00142472	  0.00190334	 -0.00071681	  0.00223321	 -0.00068032	  0.00017942	  0.00104830
451.00000000	  0.00005419	  0.00147496	  0.00174159	 -0.00067863	  0.00210730	 -0.00065174	  0.00005396	  0.00108878
452.00000000	  0.00013098	  0.00128712	  0.00143386	 -0.00058094	  0.00178702	 -0.00038319	  0.00017519	  0.00094939
453.00000000	  0.00011396	  0.00097007	  0.00112550	 -0.00066447	  0.00202655	  0.00005412	  0.00015431	  0.00071602
454.00000000	 -0.00010635	  0.00113953	  0.00131553	 -0.00052211	  0.00160595	 -0.00040709	 -0.00018906	  0.00084811
455.00000000	 -0.00009135	  0.00100373	  0.00120416	 -0.00055640	  0.00170430	 -0.00031993	 -0.00016315	  0.00074787
456.00000000	  0.00002758	  0.00085260	  0.00112137	 -0.00056156	  0.00171365	 -0.00032282	  0.00002196	  0.00063332
457.00000000	 -0.00005361	  0.00120764	  0.00116635	 -0.00062908	  0.00189955	 -0.00005700	 -0.00011075	  0.00090063
458.00000000	  0.00016104	  0.00117328	  0.00116478	 -0.00064496	  0.00193920	 -0.00017359	  0.00021562	  0.00087040
459.00000000	  0.00013429	  0.00118161	  0.00022018	 -0.00068810	  0.00204864	  0.00018708	  0.00017257	  0.00087859
460.00000000	  0.00007248	  0.00067940	  0.00021582	 -0.00046340	  0.00138078	  0.00006823	  0.00009124	  0.00050592
461.00000000	  0.00014421	  0.00084631	  0.00034671	 -0.00024815	  0.00071090	  0.00031215	  0.00019484	  0.00062919
462.00000000	  0.00009078	  0.00029162	  0.00021684	 -0.00028120	  0.00086925	 -0.00074961	  0.00012911	  0.00021586
463.00000000	 -0.00009290	  0.00049180	  0.00002283	 -0.00017215	  0.00051442	 -0.00011304	 -0.00015289	  0.00037064
464.00000000	 -0.00011701	 -0.00020200	  0.00020383	 -0.00017389	  0.00054858	 -0.00038982	 -0.00017102	 -0.00014829
465.00000000	  0.00006262	  0.00024966	  0.00005307	 -0.00018786	  0.00055954	 -0.00006921	  0.00008786	  0.00018547
466.00000000	  0.00006383	  0.00029258	  0.00006338	 -0.00010762	  0.00031299	  0.00002208	  0.00008856	  0.00021766
467.00000000	 -0.00004661	 -0.00003926	  0.00007491	 -0.00005573	  0.00016826	  0.00004520	 -0.00006909	 -0.00002824
468.00000000	 -0.00003259	  0.00017729	  0.00014745	 -0.00003074	  0.00008097	  0.00019758	 -0.00005352	  0.00013374
469.00000000	  0.00006361	 -0.00000876	  0.00010942	 -0.00003443	  0.00010150	 -0.00000203	  0.00009585	 -0.00000819
470.00000000	 -0.00000183	  0.00000007	  0.00001139	  0.00009218	 -0.00028170	  0.00012080	 -0.00000275	  0.00000010
471.00000000	  0.00002592	 -0.00022258	  0.00001565	  0.00010379	 -0.00031340	  0.00015320	  0.00004470	 -0.00016750
472.00000000	 -0.00002167	 -0.00030478	  0.00006165	  0.00009134	 -0.00027610	  0.00024020	 -0.00002473	 -0.00022783
473.00000000	 -0.00002295	  0.00004629	  0.00020335	  0.00012324	 -0.00038726	  0.00039430	 -0.00003578	  0.00003530
474.00000000	  0.00000195	 -0.00021760	  0.00006666	  0.00018518	 -0.00055596	  0.00009895	  0.00000877	 -0.00016304
475.00000000	 -0.00008572	 -0.00028665	  0.00002380	  0.00016529	 -0.00048873	  0.00002493	 -0.00012153	 -0.00021232
476.00000000	  0.00003167	 -0.00013429	  0.00008584	  0.00008684	 -0.00026441	  0.00011685	  0.00005139	 -0.00010137
477.00000000	 -0.00001629	 -0.00021652	  0.00001126	  0.00009204	 -0.00028037	  0.00020637	 -0.00001873	 -0.00016161
478.00000000	 -0.00008407	  0.00005533	  0.00000993	  0.00006350	 -0.00019378	  0.00009343	 -0.00012840	  0.00004371
479.00000000	 -0.00007853	 -0.00020497	  0.00003458	  0.00003755	 -0.00010582	  0.00000357	 -0.00011294	 -0.00015121
480.00000000	  0.00006109	 -0.00005236	  0.00003548	  0.00000108	 -0.00000679	  0.00006195	  0.00009367	 -0.00004085
481.00000000	 -0.00003676	  0.00009377	  0.00007065	  0.00006078	 -0.00018369	 -0.00001359	 -0.00005808	  0.00007117
482.00000000	  0.00005621	 -0.00009713	  0.00011766	  0.00004229	 -0.00013917	  0.00027850	  0.00008758	 -0.00007423
483.00000000	 -0.00002453	 -0.00003857	  0.00017393	  0.00012113	 -0.00035766	 -0.00014143	 -0.00003599	 -0.00002817
484.00000000	 -0.00014672	 -0.00024201	  0.00000749	  0.00000786	 -0.00001603	  0.00006932	 -0.00021499	 -0.00017690
485.00000000	 -0.00002918	 -0.00038487	  0.00009072	  0.00012337	 -0.00036380	  0.00002557	 -0.00003335	 -0.00028700
486.00000000	  0.00004546	  0.00003683	  0.00000055	  0.00002679	 -0.00008677	  0.00008012	  0.00006770	  0.00002627
487.00000000	 -0.00001507	  0.00013291	  0.00019292	  0.00002496	 -0.00008728	  0.00021759	 -0.00002653	  0.00009979
488.00000000	 -0.00006934	 -0.00008098	  0.00011043	 -0.00005429	  0.00017320	 -0.00011478	 -0.00010258	 -0.00005859
489.00000000	  0.00006859	  0.00003740	  0.00004494	  0.00003539	 -0.00010959	 -0.00001225	  0.00010267	  0.00002603
490.00000000	  0.00010137	 -0.00009893	  0.00003252	 -0.00002172	  0.00007215	 -0.00018185	  0.00015606	 -0.00007678
491.00000000	  0.00009669	 -0.00014850	  0.00011208	 -0.00005128	  0.00014921	  0.00013126	  0.00015033	 -0.00011373
492.00000000	 -0.00024366	  0.00020906	  0.00014513	  0.00002126	 -0.00005916	 -0.00003286	 -0.00037418	  0.00016317
493.00000000	  0.00004903	 -0.00022605	  0.00003707	  0.00000717	 -0.00002347	  0.00012099	  0.00008045	 -0.00017040
494.00000000	  0.00002709	  0.00008257	  0.00010591	  0.00003914	 -0.00011625	 -0.00011043	  0.00003864	  0.00006097
495.00000000	 -0.00003164	 -0.00012766	  0.00011558	 -0.00002308	  0.00006986	  0.00008891	 -0.00004425	 -0.00009456
496.00000000	  0.00000484	  0.00009022	  0.00007879	  0.00008240	 -0.00025477	  0.00008500	  0.00000478	  0.00006732
497.00000000	  0.00005319	  0.00012251	  0.00008269	 -0.00005260	  0.00015934	 -0.00011633	  0.00007700	  0.00009010
498.00000000	 -0.00004464	 -0.00003577	  0.00007597	  0.00002183	 -0.00006173	 -0.00004295	 -0.00006650	 -0.00002549
499.00000000	 -0.00002076	  0.00000389	  0.00003854	 -0.00000570	  0.00002176	 -0.00009086	 -0.00003151	  0.00000349
500.00000000	  0.00012718	  0.00001965	  0.00023296	 -0.00000475	 -0.00000574	  0.00035293	  0.00019178	  0.00001112
501.00000000	 -0.00010695	  0.00001839	  0.00003922	  0.00004128	 -0.00012354	  0.00004911	 -0.00016227	  0.00001678
502.00000000	 -0.00004689	 -0.00007763	  0.00015033	 -0.00000563	  0.00003595	 -0.00036029	 -0.00006874	 -0.00005672
503.00000000	  0.00003107	 -0.00018071	  0.00007222	  0.00002354	 -0.00006974	  0.00003682	  0.00005202	 -0.00013597
504.00000000	 -0.00011252	 -0.00007176	  0.00003577	 -0.00004331	  0.00013462	  0.00003940	 -0.00016817	 -0.00005050
505.00000000	  0.00017010	 -0.00002212	  0.00000370	  0.00007690	 -0.00023555	 -0.00005078	  0.00025791	 -0.00002129
506.00000000	 -0.00000404	 -0.00004020	  0.00007927	  0.00007678	 -0.00023593	  0.00011442	 -0.00000498	 -0.00002993
507.00000000	 -0.00020182	 -0.00014607	  0.00025858	 -0.00001415	  0.00006606	 -0.00030498	 -0.00030134	 -0.00010352
508.00000000	  0.00016322	  0.00019056	  0.00010799	 -0.00004581	  0.00011888	  0.00022630	  0.00024164	  0.00013787
509.00000000	  0.00007840	  0.00020746	  0.00010727	 -0.00000908	  0.00001450	  0.00012885	  0.00011277	  0.00015287
510.00000000	 -0.00005261	 -0.00012467	  0.00000736	  0.00000668	 -0.00001475	 -0.00001870	 -0.00007607	 -0.00009171
511.00000000	  0.00009464	  0.00011805	  0.00006688	 -0.00003261	  0.00009106	  0.00003543	  0.00013984	  0.00008558
512.00000000	 -0.00022842	 -0.00022574	  0.00022512	  0.00001620	 -0.00002485	 -0.00026018	 -0.00033923	 -0.00016233
513.00000000	  0.00013918	  0.00015445	  0.00007321	  0.00000592	 -0.00002897	  0.00006508	  0.00020623	  0.00011157
514.00000000	 -0.00003069	 -0.00012490	  0.00004012	  0.00002890	 -0.00008435	  0.00002015	 -0.00004294	 -0.00009250
515.00000000	 -0.00003664	  0.00009237	  0.00000098	 -0.00000134	  0.00000098	  0.00005264	 -0.00005802	  0.00007007
516.00000000	  0.00006726	 -0.00022760	  0.00009265	  0.00009953	 -0.00029873	  0.00001391	  0.00010819	 -0.00017198
517.00000000	 -0.00015280	 -0.00032431	  0.00001216	  0.00010182	 -0.00029695	  0.00003145	 -0.00022226	 -0.00023806
518.00000000	 -0.00015933	 -0.00006399	  0.00027730	  0.00008440	 -0.00026560	  0.00039461	 -0.00023951	 -0.00004332
519.00000000	 -0.00028086	 -0.00056152	  0.00036170	  0.00020860	 -0.00061832	  0.00018710	 -0.00040956	 -0.00041150
520.00000000	 -0.00014201	 -0.00006527	  0.00062604	  0.00009390	 -0.00029880	  0.00047138	 -0.00021347	 -0.00004474
521.00000000	 -0.00007732	 -0.00063079	  0.00090958	  0.00036910	 -0.00112208	  0.00043937	 -0.00009891	 -0.00046860
522.00000000	 -0.00004146	 -0.00071650	  0.00113971	  0.00041866	 -0.00126379	  0.00019612	 -0.00004198	 -0.00053314
523.00000000	 -0.00004329	 -0.00136628	  0.00145891	  0.00060069	 -0.00180656	  0.00014159	 -0.00002630	 -0.00101653
524.00000000	  0.00000341	 -0.00089316	  0.00212047	  0.00073924	 -0.00227582	  0.00092502	  0.00003075	 -0.00066439
525.00000000	 -0.00017902	 -0.00187736	  0.00190265	  0.00082303	 -0.00249535	  0.00028984	 -0.00022160	 -0.00138967
526.00000000	 -0.00029776	 -0.00151745	  0.00148195	  0.00083778	 -0.00254192	 -0.00002576	 -0.00041756	 -0.00111784
527.00000000	  0.00003600	 -0.00135624	  0.00173118	  0.00058978	 -0.00183205	  0.00080287	  0.00009039	 -0.00100459
528.00000000	 -0.00012722	 -0.00102386	  0.00069040	  0.00053373	 -0.00161351	 -0.00057896	 -0.00017149	 -0.00075403
529.00000000	  0.00012664	 -0.00071739	  0.00063260	  0.00025852	 -0.00080791	  0.00028646	  0.00021291	 -0.00053267
530.00000000	 -0.00007863	  0.00009715	  0.00023000	  0.00002818	 -0.00008136	 -0.00012161	 -0.00012412	  0.00007353
531.00000000	  0.00001709	 -0.00009103	  0.00003449	 -0.00006678	  0.00020795	 -0.00002052	  0.00002857	 -0.00006760
